# MagicaVoxel @ Ephtracy

# group
o 

# material
mtllib FuenteArena.mtl
usemtl palette

# normals
vn -1 0 0
vn 1 0 0
vn 0 0 1
vn 0 0 -1
vn 0 -1 0
vn 0 1 0

# texcoords
vt 0.00976563 0.5
vt 0.0136719 0.5
vt 0.400391 0.5
vt 0.974609 0.5
vt 0.982422 0.5

# verts
v -0.6 0 0.2
v -0.6 0 -0.8
v -0.6 0.1 0.2
v -0.6 0.1 -0.8
v -0.5 0.6 0.1
v -0.5 0.6 -0.7
v -0.5 0.7 0.1
v -0.5 0.7 -0.7
v -0.4 0.5 0
v -0.4 0.5 -0.6
v -0.4 0.6 0
v -0.4 0.6 -0.6
v -0.4 0.7 -0.2
v -0.4 0.7 -0.3
v -0.4 0.7 -0.4
v -0.4 0.9 -0.3
v -0.4 0.9 -0.4
v -0.4 1 -0.2
v -0.4 1 -0.4
v -0.3 0.4 -0.1
v -0.3 0.4 -0.5
v -0.3 0.5 -0.1
v -0.3 0.5 -0.5
v -0.2 0.1 -0.2
v -0.2 0.1 -0.3
v -0.2 0.1 -0.4
v -0.2 0.4 -0.2
v -0.2 0.4 -0.3
v -0.2 0.4 -0.4
v -0.2 0.7 0
v -0.2 0.7 -0.1
v -0.2 0.7 -0.2
v -0.2 0.7 -0.4
v -0.2 0.7 -0.5
v -0.2 0.7 -0.6
v -0.2 0.8 -0.2
v -0.2 0.8 -0.3
v -0.2 0.8 -0.4
v -0.2 0.9 0
v -0.2 0.9 -0.1
v -0.2 0.9 -0.2
v -0.2 0.9 -0.3
v -0.2 0.9 -0.4
v -0.2 0.9 -0.5
v -0.2 1 0
v -0.2 1 -0.1
v -0.2 1 -0.2
v -0.2 1 -0.3
v -0.2 1 -0.4
v -0.2 1 -0.5
v -0.2 1 -0.6
v -0.2 1.1 -0.2
v -0.2 1.1 -0.3
v -0.2 1.1 -0.4
v -5.96046e-08 0.1 -0.5
v -5.96046e-08 0.1 -0.8
v -5.96046e-08 0.2 -0.5
v -5.96046e-08 0.2 -0.8
v 0.1 0.7 -0.2
v 0.1 0.7 -0.3
v 0.1 0.7 -0.5
v 0.1 0.8 -0.4
v 0.1 0.8 -0.5
v 0.1 0.9 -0.2
v 0.1 0.9 -0.3
v 0.1 0.9 -0.4
v 0.2 0.1 -0.3
v 0.2 0.1 -0.4
v 0.2 0.1 -0.5
v 0.2 0.2 -0.3
v 0.2 0.2 -0.4
v 0.2 0.2 -0.5
v 0.2 0.7 -0.5
v 0.2 0.7 -0.6
v 0.2 0.7 -0.7
v 0.2 0.8 -0.5
v 0.2 0.8 -0.7
v 0.3 0.1 -0.2
v 0.3 0.1 -0.3
v 0.3 0.2 -0.2
v 0.3 0.2 -0.3
v 0.3 0.2 -0.4
v 0.3 0.2 -0.5
v 0.3 0.2 -0.6
v 0.3 0.2 -0.7
v 0.3 0.3 -0.4
v 0.3 0.3 -0.5
v 0.3 0.6 -0.4
v 0.3 0.6 -0.5
v 0.3 0.6 -0.6
v 0.3 0.6 -0.7
v -0.3 0.7 -0.2
v -0.3 0.7 -0.3
v -0.3 0.7 -0.4
v -0.3 0.9 -0.2
v -0.3 0.9 -0.3
v -0.3 0.9 -0.4
v -5.96046e-08 0.1 -0.2
v -5.96046e-08 0.1 -0.4
v -5.96046e-08 0.4 -0.2
v -5.96046e-08 0.4 -0.4
v -5.96046e-08 0.7 0
v -5.96046e-08 0.7 -0.1
v -5.96046e-08 0.7 -0.2
v -5.96046e-08 0.7 -0.4
v -5.96046e-08 0.7 -0.5
v -5.96046e-08 0.7 -0.6
v -5.96046e-08 0.8 -0.2
v -5.96046e-08 0.8 -0.4
v -5.96046e-08 0.9 -0.1
v -5.96046e-08 0.9 -0.2
v -5.96046e-08 0.9 -0.4
v -5.96046e-08 0.9 -0.5
v -5.96046e-08 1 0
v -5.96046e-08 1 -0.2
v -5.96046e-08 1 -0.4
v -5.96046e-08 1 -0.5
v -5.96046e-08 1 -0.6
v -5.96046e-08 1.1 -0.2
v -5.96046e-08 1.1 -0.4
v 0.1 0.4 -0.1
v 0.1 0.4 -0.5
v 0.1 0.5 -0.1
v 0.1 0.5 -0.5
v 0.2 0.5 0
v 0.2 0.5 -0.1
v 0.2 0.5 -0.6
v 0.2 0.6 0
v 0.2 0.6 -0.1
v 0.2 0.6 -0.6
v 0.2 0.7 -0.2
v 0.2 0.7 -0.3
v 0.2 0.7 -0.4
v 0.2 0.8 -0.4
v 0.2 0.9 -0.3
v 0.2 0.9 -0.4
v 0.2 1 -0.2
v 0.2 1 -0.4
v 0.3 0.6 0.1
v 0.3 0.6 0
v 0.3 0.6 -0.4
v 0.3 0.6 -0.5
v 0.3 0.6 -0.6
v 0.3 0.7 0.1
v 0.3 0.7 0
v 0.3 0.7 -0.4
v 0.3 0.7 -0.5
v 0.3 0.7 -0.6
v 0.4 0 0.2
v 0.4 0 0
v 0.4 0 -0.2
v 0.4 0.1 0.2
v 0.4 0.1 0
v 0.4 0.1 -0.2
v 0.4 0.1 -0.3
v 0.4 0.1 -0.4
v 0.4 0.1 -0.7
v 0.4 0.1 -0.8
v 0.4 0.2 -0.2
v 0.4 0.2 -0.3
v 0.4 0.2 -0.4
v 0.4 0.2 -0.5
v 0.4 0.2 -0.6
v 0.4 0.2 -0.7
v 0.4 0.2 -0.8
v 0.4 0.3 -0.4
v 0.4 0.3 -0.5
v 0.4 0.7 -0.5
v 0.4 0.7 -0.6
v 0.4 0.8 -0.4
v 0.4 0.8 -0.7
v 0.5 0 -0.2
v 0.5 0 -0.3
v 0.5 0 -0.7
v 0.5 0 -0.8
v 0.5 0.1 -0.2
v 0.5 0.1 -0.3
v 0.5 0.1 -0.4
v 0.5 0.1 -0.6
v 0.5 0.1 -0.7
v 0.5 0.1 -0.8
v 0.5 0.2 -0.4
v 0.5 0.2 -0.6
v 0.5 0.2 -0.7
v 0.6 0 -0.3
v 0.6 0 -0.7
v 0.6 0.1 -0.3
v 0.6 0.1 -0.7
v -0.6 0 0.2
v -0.6 0.1 0.2
v 0.3 0 0.2
v 0.3 0.1 0.2
v 0.4 0 0.2
v 0.4 0.1 0.2
v -0.5 0.6 0.1
v -0.5 0.7 0.1
v -5.96046e-08 0.6 0.1
v -5.96046e-08 0.7 0.1
v 0.3 0.6 0.1
v 0.3 0.7 0.1
v -0.4 0.5 0
v -0.4 0.6 0
v -0.2 0.7 0
v -0.2 0.9 0
v -0.2 1 0
v -0.1 0.5 0
v -0.1 0.6 0
v -0.1 0.7 0
v -0.1 0.9 0
v -5.96046e-08 0.6 0
v -5.96046e-08 0.7 0
v -5.96046e-08 1 0
v 0.2 0.5 0
v 0.2 0.6 0
v -0.3 0.4 -0.1
v -0.3 0.5 -0.1
v -0.2 0.4 -0.1
v -0.2 0.5 -0.1
v -0.1 0.4 -0.1
v -0.1 0.5 -0.1
v 0.1 0.4 -0.1
v 0.1 0.5 -0.1
v -0.4 0.7 -0.2
v -0.4 1 -0.2
v -0.3 0.7 -0.2
v -0.3 0.9 -0.2
v -0.3 1 -0.2
v -0.2 0.1 -0.2
v -0.2 0.4 -0.2
v -0.2 0.7 -0.2
v -0.2 0.8 -0.2
v -0.2 0.9 -0.2
v -0.2 1 -0.2
v -0.2 1.1 -0.2
v -0.1 0.1 -0.2
v -0.1 0.4 -0.2
v -0.1 0.9 -0.2
v -0.1 1 -0.2
v -5.96046e-08 0.1 -0.2
v -5.96046e-08 0.4 -0.2
v -5.96046e-08 0.7 -0.2
v -5.96046e-08 0.8 -0.2
v -5.96046e-08 0.9 -0.2
v -5.96046e-08 1 -0.2
v -5.96046e-08 1.1 -0.2
v 0.1 0.7 -0.2
v 0.1 0.9 -0.2
v 0.2 0.7 -0.2
v 0.2 1 -0.2
v 0.3 0.1 -0.2
v 0.3 0.2 -0.2
v 0.4 0 -0.2
v 0.4 0.1 -0.2
v 0.4 0.2 -0.2
v 0.5 0 -0.2
v 0.5 0.1 -0.2
v 0.2 0.1 -0.3
v 0.2 0.2 -0.3
v 0.3 0.1 -0.3
v 0.3 0.2 -0.3
v 0.5 0 -0.3
v 0.5 0.1 -0.3
v 0.6 0 -0.3
v 0.6 0.1 -0.3
v 0.2 0.7 -0.4
v 0.2 0.8 -0.4
v 0.3 0.2 -0.4
v 0.3 0.3 -0.4
v 0.3 0.6 -0.4
v 0.3 0.7 -0.4
v 0.4 0.1 -0.4
v 0.4 0.2 -0.4
v 0.4 0.3 -0.4
v 0.4 0.8 -0.4
v 0.5 0.1 -0.4
v 0.5 0.2 -0.4
v -0.2 0.7 -0.5
v -0.2 0.9 -0.5
v -5.96046e-08 0.1 -0.5
v -5.96046e-08 0.2 -0.5
v -5.96046e-08 0.7 -0.5
v -5.96046e-08 0.9 -0.5
v 0.1 0.1 -0.5
v 0.1 0.2 -0.5
v 0.2 0.1 -0.5
v 0.2 0.2 -0.5
v 0.3 0.2 -0.6
v 0.3 0.6 -0.6
v 0.3 0.7 -0.6
v 0.4 0.2 -0.6
v 0.4 0.7 -0.6
v -0.2 0.7 -0.1
v -0.2 0.9 -0.1
v -0.1 0.7 -0.1
v -0.1 0.9 -0.1
v -5.96046e-08 0.7 -0.1
v -5.96046e-08 0.9 -0.1
v -0.4 0.7 -0.4
v -0.4 0.9 -0.4
v -0.4 1 -0.4
v -0.3 0.7 -0.4
v -0.3 0.9 -0.4
v -0.2 0.1 -0.4
v -0.2 0.4 -0.4
v -0.2 0.7 -0.4
v -0.2 0.8 -0.4
v -0.2 0.9 -0.4
v -0.2 1 -0.4
v -0.2 1.1 -0.4
v -0.1 0.1 -0.4
v -0.1 0.4 -0.4
v -0.1 0.8 -0.4
v -0.1 0.9 -0.4
v -0.1 1 -0.4
v -0.1 1.1 -0.4
v -5.96046e-08 0.1 -0.4
v -5.96046e-08 0.4 -0.4
v -5.96046e-08 0.7 -0.4
v -5.96046e-08 0.8 -0.4
v -5.96046e-08 0.9 -0.4
v -5.96046e-08 1 -0.4
v -5.96046e-08 1.1 -0.4
v 0.1 0.8 -0.4
v 0.1 0.9 -0.4
v 0.2 0.8 -0.4
v 0.2 0.9 -0.4
v 0.2 1 -0.4
v -0.3 0.4 -0.5
v -0.3 0.5 -0.5
v 0.1 0.4 -0.5
v 0.1 0.5 -0.5
v 0.1 0.7 -0.5
v 0.1 0.8 -0.5
v 0.2 0.7 -0.5
v 0.2 0.8 -0.5
v 0.3 0.2 -0.5
v 0.3 0.3 -0.5
v 0.3 0.6 -0.5
v 0.3 0.7 -0.5
v 0.4 0.2 -0.5
v 0.4 0.3 -0.5
v 0.4 0.7 -0.5
v -0.4 0.5 -0.6
v -0.4 0.6 -0.6
v -0.2 0.7 -0.6
v -0.2 1 -0.6
v -5.96046e-08 0.7 -0.6
v -5.96046e-08 1 -0.6
v 0.2 0.5 -0.6
v 0.2 0.6 -0.6
v -0.5 0.6 -0.7
v -0.5 0.7 -0.7
v 0.2 0.7 -0.7
v 0.2 0.8 -0.7
v 0.3 0.2 -0.7
v 0.3 0.6 -0.7
v 0.3 0.7 -0.7
v 0.4 0.1 -0.7
v 0.4 0.2 -0.7
v 0.4 0.8 -0.7
v 0.5 0 -0.7
v 0.5 0.1 -0.7
v 0.5 0.2 -0.7
v 0.6 0 -0.7
v 0.6 0.1 -0.7
v -0.6 0 -0.8
v -0.6 0.1 -0.8
v -0.5 0 -0.8
v -0.5 0.1 -0.8
v -0.3 0 -0.8
v -0.3 0.1 -0.8
v -5.96046e-08 0.1 -0.8
v -5.96046e-08 0.2 -0.8
v 0.1 0 -0.8
v 0.1 0.1 -0.8
v 0.2 0.1 -0.8
v 0.2 0.2 -0.8
v 0.4 0 -0.8
v 0.4 0.1 -0.8
v 0.4 0.2 -0.8
v 0.5 0 -0.8
v 0.5 0.1 -0.8
v -0.6 0 0.2
v 0.3 0 0.2
v 0.4 0 0.2
v -5.96046e-08 0 0.1
v 0.3 0 0.1
v -5.96046e-08 0 0
v 0.4 0 0
v -0.4 0 -0.1
v -0.1 0 -0.1
v -0.5 0 -0.2
v -0.4 0 -0.2
v -0.3 0 -0.2
v -0.1 0 -0.2
v 0.4 0 -0.2
v 0.5 0 -0.2
v -0.5 0 -0.3
v -0.3 0 -0.3
v 0.3 0 -0.3
v 0.4 0 -0.3
v 0.5 0 -0.3
v 0.6 0 -0.3
v 0.2 0 -0.4
v 0.3 0 -0.4
v 0.1 0 -0.5
v 0.2 0 -0.5
v -0.4 0 -0.6
v -0.3 0 -0.6
v -5.96046e-08 0 -0.6
v 0.1 0 -0.6
v -0.5 0 -0.7
v -0.4 0 -0.7
v -5.96046e-08 0 -0.7
v 0.1 0 -0.7
v 0.5 0 -0.7
v 0.6 0 -0.7
v -0.6 0 -0.8
v -0.5 0 -0.8
v -0.3 0 -0.8
v 0.1 0 -0.8
v 0.4 0 -0.8
v 0.5 0 -0.8
v -0.3 0.4 -0.1
v -0.2 0.4 -0.1
v -0.1 0.4 -0.1
v 0.1 0.4 -0.1
v -0.2 0.4 -0.2
v -0.1 0.4 -0.2
v -5.96046e-08 0.4 -0.2
v -0.2 0.4 -0.3
v -0.2 0.4 -0.4
v -0.1 0.4 -0.4
v -5.96046e-08 0.4 -0.4
v -0.3 0.4 -0.5
v 0.1 0.4 -0.5
v -0.4 0.5 0
v -0.1 0.5 0
v 0.2 0.5 0
v -0.3 0.5 -0.1
v -0.2 0.5 -0.1
v -0.1 0.5 -0.1
v 0.1 0.5 -0.1
v 0.2 0.5 -0.1
v -0.3 0.5 -0.5
v 0.1 0.5 -0.5
v -0.4 0.5 -0.6
v 0.2 0.5 -0.6
v -0.5 0.6 0.1
v -5.96046e-08 0.6 0.1
v 0.3 0.6 0.1
v -0.4 0.6 0
v -0.1 0.6 0
v -5.96046e-08 0.6 0
v 0.2 0.6 0
v 0.3 0.6 0
v 0.2 0.6 -0.1
v 0.3 0.6 -0.4
v 0.3 0.6 -0.5
v -0.4 0.6 -0.6
v 0.2 0.6 -0.6
v 0.3 0.6 -0.6
v -0.5 0.6 -0.7
v 0.3 0.6 -0.7
v 0.3 0.7 -0.5
v 0.4 0.7 -0.5
v 0.3 0.7 -0.6
v 0.4 0.7 -0.6
v -0.2 0.9 -0.1
v -0.1 0.9 -0.1
v -5.96046e-08 0.9 -0.1
v -0.3 0.9 -0.2
v -0.2 0.9 -0.2
v -0.1 0.9 -0.2
v -5.96046e-08 0.9 -0.2
v 0.1 0.9 -0.2
v -0.3 0.9 -0.3
v -0.2 0.9 -0.3
v 0.1 0.9 -0.3
v -0.3 0.9 -0.4
v -0.2 0.9 -0.4
v -0.1 0.9 -0.4
v -5.96046e-08 0.9 -0.4
v 0.1 0.9 -0.4
v -0.2 0.9 -0.5
v -5.96046e-08 0.9 -0.5
v -0.6 0.1 0.2
v 0.3 0.1 0.2
v 0.4 0.1 0.2
v -5.96046e-08 0.1 0.1
v 0.3 0.1 0.1
v -5.96046e-08 0.1 0
v 0.4 0.1 0
v -0.4 0.1 -0.1
v -0.1 0.1 -0.1
v -0.5 0.1 -0.2
v -0.4 0.1 -0.2
v -0.3 0.1 -0.2
v -0.2 0.1 -0.2
v -0.1 0.1 -0.2
v -5.96046e-08 0.1 -0.2
v 0.3 0.1 -0.2
v 0.4 0.1 -0.2
v 0.5 0.1 -0.2
v -0.5 0.1 -0.3
v -0.3 0.1 -0.3
v -0.2 0.1 -0.3
v 0.2 0.1 -0.3
v 0.3 0.1 -0.3
v 0.4 0.1 -0.3
v 0.5 0.1 -0.3
v 0.6 0.1 -0.3
v -0.2 0.1 -0.4
v -0.1 0.1 -0.4
v -5.96046e-08 0.1 -0.4
v 0.2 0.1 -0.4
v 0.4 0.1 -0.4
v 0.5 0.1 -0.4
v -5.96046e-08 0.1 -0.5
v 0.1 0.1 -0.5
v 0.2 0.1 -0.5
v -0.4 0.1 -0.6
v -0.3 0.1 -0.6
v 0.5 0.1 -0.6
v -0.5 0.1 -0.7
v -0.4 0.1 -0.7
v 0.4 0.1 -0.7
v 0.5 0.1 -0.7
v 0.6 0.1 -0.7
v -0.6 0.1 -0.8
v -0.5 0.1 -0.8
v -0.3 0.1 -0.8
v -5.96046e-08 0.1 -0.8
v 0.4 0.1 -0.8
v 0.5 0.1 -0.8
v 0.3 0.2 -0.2
v 0.4 0.2 -0.2
v 0.2 0.2 -0.3
v 0.3 0.2 -0.3
v 0.4 0.2 -0.3
v 0.2 0.2 -0.4
v 0.3 0.2 -0.4
v 0.4 0.2 -0.4
v 0.5 0.2 -0.4
v -5.96046e-08 0.2 -0.5
v 0.1 0.2 -0.5
v 0.2 0.2 -0.5
v 0.3 0.2 -0.5
v 0.4 0.2 -0.5
v 0.1 0.2 -0.6
v 0.2 0.2 -0.6
v 0.3 0.2 -0.6
v 0.4 0.2 -0.6
v 0.5 0.2 -0.6
v 0.3 0.2 -0.7
v 0.4 0.2 -0.7
v 0.5 0.2 -0.7
v -5.96046e-08 0.2 -0.8
v 0.2 0.2 -0.8
v 0.4 0.2 -0.8
v -0.5 0.7 0.1
v -5.96046e-08 0.7 0.1
v 0.3 0.7 0.1
v -0.4 0.7 0
v -0.2 0.7 0
v -0.1 0.7 0
v -5.96046e-08 0.7 0
v 0.2 0.7 0
v 0.3 0.7 0
v -0.2 0.7 -0.1
v -0.1 0.7 -0.1
v -5.96046e-08 0.7 -0.1
v -0.4 0.7 -0.2
v -0.3 0.7 -0.2
v -0.2 0.7 -0.2
v -5.96046e-08 0.7 -0.2
v 0.1 0.7 -0.2
v 0.2 0.7 -0.2
v -0.4 0.7 -0.3
v -0.3 0.7 -0.3
v 0.1 0.7 -0.3
v 0.2 0.7 -0.3
v -0.4 0.7 -0.4
v -0.3 0.7 -0.4
v -0.2 0.7 -0.4
v -5.96046e-08 0.7 -0.4
v 0.2 0.7 -0.4
v 0.3 0.7 -0.4
v -0.2 0.7 -0.5
v -5.96046e-08 0.7 -0.5
v 0.1 0.7 -0.5
v 0.2 0.7 -0.5
v -0.4 0.7 -0.6
v -0.2 0.7 -0.6
v -5.96046e-08 0.7 -0.6
v 0.2 0.7 -0.6
v -0.5 0.7 -0.7
v 0.2 0.7 -0.7
v 0.1 0.8 -0.4
v 0.2 0.8 -0.4
v 0.4 0.8 -0.4
v 0.1 0.8 -0.5
v 0.2 0.8 -0.5
v 0.2 0.8 -0.7
v 0.4 0.8 -0.7
v -0.2 1 0
v -5.96046e-08 1 0
v -0.2 1 -0.1
v -0.1 1 -0.1
v -0.4 1 -0.2
v -0.3 1 -0.2
v -0.2 1 -0.2
v -0.1 1 -0.2
v -5.96046e-08 1 -0.2
v 0.2 1 -0.2
v -0.3 1 -0.3
v -0.2 1 -0.3
v -0.4 1 -0.4
v -0.2 1 -0.4
v -0.1 1 -0.4
v -5.96046e-08 1 -0.4
v 0.2 1 -0.4
v -0.2 1 -0.5
v -5.96046e-08 1 -0.5
v -0.2 1 -0.6
v -5.96046e-08 1 -0.6
v -0.2 1.1 -0.2
v -5.96046e-08 1.1 -0.2
v -0.2 1.1 -0.3
v -0.1 1.1 -0.3
v -0.2 1.1 -0.4
v -0.1 1.1 -0.4
v -5.96046e-08 1.1 -0.4

# faces
f 3/4/1 2/4/1 1/4/1
f 4/4/1 2/4/1 3/4/1
f 7/4/1 6/4/1 5/4/1
f 8/4/1 6/4/1 7/4/1
f 11/4/1 10/4/1 9/4/1
f 12/4/1 10/4/1 11/4/1
f 16/1/1 14/1/1 13/1/1
f 16/2/1 15/2/1 14/2/1
f 17/2/1 15/2/1 16/2/1
f 18/1/1 16/1/1 13/1/1
f 18/1/1 17/1/1 16/1/1
f 19/1/1 17/1/1 18/1/1
f 22/5/1 21/5/1 20/5/1
f 23/5/1 21/5/1 22/5/1
f 27/4/1 25/4/1 24/4/1
f 28/5/1 26/5/1 25/5/1
f 28/4/1 25/4/1 27/4/1
f 29/5/1 26/5/1 28/5/1
f 36/4/1 33/4/1 32/4/1
f 37/4/1 33/4/1 36/4/1
f 38/4/1 33/4/1 37/4/1
f 39/2/1 31/2/1 30/2/1
f 40/2/1 31/2/1 39/2/1
f 41/1/1 37/1/1 36/1/1
f 42/2/1 38/2/1 37/2/1
f 42/1/1 37/1/1 41/1/1
f 43/2/1 38/2/1 42/2/1
f 44/2/1 35/2/1 34/2/1
f 45/1/1 40/1/1 39/1/1
f 46/2/1 41/2/1 40/2/1
f 46/1/1 40/1/1 45/1/1
f 47/2/1 41/2/1 46/2/1
f 49/1/1 44/1/1 43/1/1
f 50/2/1 35/2/1 44/2/1
f 50/1/1 44/1/1 49/1/1
f 51/2/1 35/2/1 50/2/1
f 52/1/1 48/1/1 47/1/1
f 53/2/1 49/2/1 48/2/1
f 53/1/1 48/1/1 52/1/1
f 54/2/1 49/2/1 53/2/1
f 57/1/1 56/1/1 55/1/1
f 58/1/1 56/1/1 57/1/1
f 62/2/1 61/2/1 60/2/1
f 63/2/1 61/2/1 62/2/1
f 64/1/1 60/1/1 59/1/1
f 65/2/1 62/2/1 60/2/1
f 65/1/1 60/1/1 64/1/1
f 66/2/1 62/2/1 65/2/1
f 70/1/1 68/1/1 67/1/1
f 71/2/1 69/2/1 68/2/1
f 71/1/1 68/1/1 70/1/1
f 72/2/1 69/2/1 71/2/1
f 76/1/1 74/1/1 73/1/1
f 76/1/1 75/1/1 74/1/1
f 77/1/1 75/1/1 76/1/1
f 80/1/1 79/1/1 78/1/1
f 81/1/1 79/1/1 80/1/1
f 86/2/1 83/2/1 82/2/1
f 87/2/1 83/2/1 86/2/1
f 88/1/1 87/1/1 86/1/1
f 89/1/1 87/1/1 88/1/1
f 90/1/1 85/1/1 84/1/1
f 91/1/1 85/1/1 90/1/1
f 92/1/2 93/1/2 95/1/2
f 93/2/2 94/2/2 96/2/2
f 95/1/2 93/1/2 96/1/2
f 96/2/2 94/2/2 97/2/2
f 98/4/2 99/4/2 100/4/2
f 100/4/2 99/4/2 101/4/2
f 104/4/2 105/4/2 108/4/2
f 108/4/2 105/4/2 109/4/2
f 102/1/2 103/1/2 110/1/2
f 108/1/2 109/1/2 111/1/2
f 111/1/2 109/1/2 112/1/2
f 106/2/2 107/2/2 113/2/2
f 110/1/2 111/1/2 114/1/2
f 102/1/2 110/1/2 114/1/2
f 114/1/2 111/1/2 115/1/2
f 112/1/2 113/1/2 116/1/2
f 113/2/2 107/2/2 117/2/2
f 116/1/2 113/1/2 117/1/2
f 117/2/2 107/2/2 118/2/2
f 115/1/2 116/1/2 119/1/2
f 119/1/2 116/1/2 120/1/2
f 121/5/2 122/5/2 123/5/2
f 123/5/2 122/5/2 124/5/2
f 125/5/2 126/5/2 128/5/2
f 126/4/2 127/4/2 129/4/2
f 128/5/2 126/5/2 129/5/2
f 129/4/2 127/4/2 130/4/2
f 132/2/2 133/2/2 134/2/2
f 131/1/2 132/1/2 135/1/2
f 132/2/2 134/2/2 135/2/2
f 135/2/2 134/2/2 136/2/2
f 131/1/2 135/1/2 137/1/2
f 135/1/2 136/1/2 137/1/2
f 137/1/2 136/1/2 138/1/2
f 139/5/2 140/5/2 144/5/2
f 140/4/2 141/4/2 145/4/2
f 144/5/2 140/5/2 145/5/2
f 145/4/2 141/4/2 146/4/2
f 142/4/2 143/4/2 147/4/2
f 147/4/2 143/4/2 148/4/2
f 149/5/2 150/5/2 152/5/2
f 150/4/2 151/4/2 153/4/2
f 152/5/2 150/5/2 153/5/2
f 153/4/2 151/4/2 154/4/2
f 154/1/2 155/1/2 159/1/2
f 155/2/2 156/2/2 160/2/2
f 159/1/2 155/1/2 160/1/2
f 160/2/2 156/2/2 161/2/2
f 157/2/2 158/2/2 164/2/2
f 164/2/2 158/2/2 165/2/2
f 161/2/2 162/2/2 166/2/2
f 166/2/2 162/2/2 167/2/2
f 166/1/2 167/1/2 168/1/2
f 163/1/2 164/1/2 169/1/2
f 166/1/2 168/1/2 170/1/2
f 168/1/2 169/1/2 170/1/2
f 169/1/2 164/1/2 171/1/2
f 170/1/2 169/1/2 171/1/2
f 172/2/2 173/2/2 176/2/2
f 176/2/2 173/2/2 177/2/2
f 174/2/2 175/2/2 180/2/2
f 180/2/2 175/2/2 181/2/2
f 178/2/2 179/2/2 182/2/2
f 179/1/2 180/1/2 183/1/2
f 182/2/2 179/2/2 183/2/2
f 183/1/2 180/1/2 184/1/2
f 185/2/2 186/2/2 187/2/2
f 187/2/2 186/2/2 188/2/2
f 191/4/3 190/4/3 189/4/3
f 192/4/3 190/4/3 191/4/3
f 193/5/3 192/5/3 191/5/3
f 194/5/3 192/5/3 193/5/3
f 197/4/3 196/4/3 195/4/3
f 198/4/3 196/4/3 197/4/3
f 199/5/3 198/5/3 197/5/3
f 200/5/3 198/5/3 199/5/3
f 206/4/3 202/4/3 201/4/3
f 207/4/3 202/4/3 206/4/3
f 208/2/3 204/2/3 203/2/3
f 209/1/3 205/1/3 204/1/3
f 209/2/3 204/2/3 208/2/3
f 210/5/3 207/5/3 206/5/3
f 211/1/3 209/1/3 208/1/3
f 212/1/3 205/1/3 209/1/3
f 212/1/3 209/1/3 211/1/3
f 213/5/3 210/5/3 206/5/3
f 214/5/3 210/5/3 213/5/3
f 217/5/3 216/5/3 215/5/3
f 218/5/3 216/5/3 217/5/3
f 219/4/3 218/4/3 217/4/3
f 220/4/3 218/4/3 219/4/3
f 221/5/3 220/5/3 219/5/3
f 222/5/3 220/5/3 221/5/3
f 225/1/3 224/1/3 223/1/3
f 226/1/3 224/1/3 225/1/3
f 227/1/3 224/1/3 226/1/3
f 232/2/3 227/2/3 226/2/3
f 233/2/3 227/2/3 232/2/3
f 235/4/3 229/4/3 228/4/3
f 236/4/3 229/4/3 235/4/3
f 237/1/3 232/1/3 231/1/3
f 238/1/3 234/1/3 233/1/3
f 239/4/3 236/4/3 235/4/3
f 240/4/3 236/4/3 239/4/3
f 241/4/3 231/4/3 230/4/3
f 242/1/3 237/1/3 231/1/3
f 242/4/3 231/4/3 241/4/3
f 243/1/3 237/1/3 242/1/3
f 244/1/3 234/1/3 238/1/3
f 245/1/3 234/1/3 244/1/3
f 247/1/3 244/1/3 243/1/3
f 248/1/3 247/1/3 246/1/3
f 249/1/3 244/1/3 247/1/3
f 249/1/3 247/1/3 248/1/3
f 253/1/3 251/1/3 250/1/3
f 254/1/3 251/1/3 253/1/3
f 255/2/3 253/2/3 252/2/3
f 256/2/3 253/2/3 255/2/3
f 259/1/3 258/1/3 257/1/3
f 260/1/3 258/1/3 259/1/3
f 263/2/3 262/2/3 261/2/3
f 264/2/3 262/2/3 263/2/3
f 270/1/3 266/1/3 265/1/3
f 272/2/3 268/2/3 267/2/3
f 273/1/3 269/1/3 268/1/3
f 273/1/3 270/1/3 269/1/3
f 273/2/3 268/2/3 272/2/3
f 274/1/3 266/1/3 270/1/3
f 274/1/3 270/1/3 273/1/3
f 275/2/3 272/2/3 271/2/3
f 276/2/3 272/2/3 275/2/3
f 281/2/3 278/2/3 277/2/3
f 282/2/3 278/2/3 281/2/3
f 283/1/3 280/1/3 279/1/3
f 284/1/3 280/1/3 283/1/3
f 285/2/3 284/2/3 283/2/3
f 286/2/3 284/2/3 285/2/3
f 290/1/3 288/1/3 287/1/3
f 290/1/3 289/1/3 288/1/3
f 291/1/3 289/1/3 290/1/3
f 292/2/4 293/2/4 294/2/4
f 294/2/4 293/2/4 295/2/4
f 294/1/4 295/1/4 296/1/4
f 296/1/4 295/1/4 297/1/4
f 298/2/4 299/2/4 301/2/4
f 299/1/4 300/1/4 302/1/4
f 301/2/4 299/2/4 302/2/4
f 302/1/4 300/1/4 307/1/4
f 307/1/4 300/1/4 308/1/4
f 303/5/4 304/5/4 310/5/4
f 310/5/4 304/5/4 311/5/4
f 305/4/4 306/4/4 312/4/4
f 306/2/4 307/2/4 312/2/4
f 312/2/4 307/2/4 313/2/4
f 308/2/4 309/2/4 314/2/4
f 314/2/4 309/2/4 315/2/4
f 310/4/4 311/4/4 316/4/4
f 316/4/4 311/4/4 317/4/4
f 305/4/4 312/4/4 318/4/4
f 312/1/4 313/1/4 319/1/4
f 318/4/4 312/4/4 319/4/4
f 319/1/4 313/1/4 320/1/4
f 314/1/4 315/1/4 321/1/4
f 321/1/4 315/1/4 322/1/4
f 320/1/4 321/1/4 324/1/4
f 323/2/4 324/2/4 325/2/4
f 324/1/4 321/1/4 326/1/4
f 325/2/4 324/2/4 326/2/4
f 326/1/4 321/1/4 327/1/4
f 328/5/4 329/5/4 330/5/4
f 330/5/4 329/5/4 331/5/4
f 332/2/4 333/2/4 334/2/4
f 334/2/4 333/2/4 335/2/4
f 336/2/4 337/2/4 340/2/4
f 338/1/4 339/1/4 341/1/4
f 340/2/4 337/2/4 341/2/4
f 337/1/4 338/1/4 341/1/4
f 341/1/4 339/1/4 342/1/4
f 345/2/4 346/2/4 347/2/4
f 347/2/4 346/2/4 348/2/4
f 343/4/4 344/4/4 349/4/4
f 349/4/4 344/4/4 350/4/4
f 351/4/4 352/4/4 353/4/4
f 351/4/4 353/4/4 356/4/4
f 353/1/4 354/1/4 357/1/4
f 356/4/4 353/4/4 357/4/4
f 355/1/4 356/1/4 359/1/4
f 356/1/4 357/1/4 359/1/4
f 357/1/4 354/1/4 360/1/4
f 359/1/4 357/1/4 360/1/4
f 358/1/4 359/1/4 362/1/4
f 362/1/4 359/1/4 363/1/4
f 361/2/4 362/2/4 364/2/4
f 364/2/4 362/2/4 365/2/4
f 366/4/4 367/4/4 368/4/4
f 368/4/4 367/4/4 369/4/4
f 368/5/4 369/5/4 370/5/4
f 370/5/4 369/5/4 371/5/4
f 370/4/4 371/4/4 372/4/4
f 370/4/4 372/4/4 374/4/4
f 372/1/4 373/1/4 375/1/4
f 374/4/4 372/4/4 375/4/4
f 374/5/4 375/5/4 376/5/4
f 375/1/4 373/1/4 376/1/4
f 376/1/4 373/1/4 377/1/4
f 374/5/4 376/5/4 378/5/4
f 376/2/4 377/2/4 379/2/4
f 378/5/4 376/5/4 379/5/4
f 379/2/4 377/2/4 380/2/4
f 378/2/4 379/2/4 381/2/4
f 381/2/4 379/2/4 382/2/4
f 386/4/5 384/4/5 383/4/5
f 387/5/5 385/5/5 384/5/5
f 387/4/5 384/4/5 386/4/5
f 388/4/5 386/4/5 383/4/5
f 388/5/5 387/5/5 386/5/5
f 389/5/5 385/5/5 387/5/5
f 389/5/5 387/5/5 388/5/5
f 390/4/5 388/4/5 383/4/5
f 390/4/5 389/4/5 388/4/5
f 391/4/5 389/4/5 390/4/5
f 392/4/5 390/4/5 383/4/5
f 393/5/5 391/5/5 390/5/5
f 393/4/5 390/4/5 392/4/5
f 394/5/5 391/5/5 393/5/5
f 395/4/5 389/4/5 391/4/5
f 395/5/5 391/5/5 394/5/5
f 396/4/5 389/4/5 395/4/5
f 398/5/5 394/5/5 393/5/5
f 398/4/5 392/4/5 383/4/5
f 398/5/5 393/5/5 392/5/5
f 399/4/5 396/4/5 395/4/5
f 399/5/5 394/5/5 398/5/5
f 399/4/5 395/4/5 394/4/5
f 400/4/5 396/4/5 399/4/5
f 401/2/5 397/2/5 396/2/5
f 401/4/5 396/4/5 400/4/5
f 402/2/5 397/2/5 401/2/5
f 404/4/5 400/4/5 399/4/5
f 404/4/5 399/4/5 398/4/5
f 405/5/5 401/5/5 400/5/5
f 405/4/5 400/4/5 404/4/5
f 406/4/5 404/4/5 398/4/5
f 407/5/5 405/5/5 404/5/5
f 407/4/5 404/4/5 406/4/5
f 408/4/5 406/4/5 398/4/5
f 409/4/5 406/4/5 408/4/5
f 410/4/5 406/4/5 409/4/5
f 411/5/5 407/5/5 406/5/5
f 411/4/5 406/4/5 410/4/5
f 412/4/5 398/4/5 383/4/5
f 412/4/5 408/4/5 398/4/5
f 413/5/5 409/5/5 408/5/5
f 413/4/5 408/4/5 412/4/5
f 414/4/5 410/4/5 409/4/5
f 414/5/5 411/5/5 410/5/5
f 415/5/5 407/5/5 411/5/5
f 415/5/5 411/5/5 414/5/5
f 416/2/5 403/2/5 402/2/5
f 416/2/5 402/2/5 401/2/5
f 417/2/5 403/2/5 416/2/5
f 418/4/5 412/4/5 383/4/5
f 419/5/5 413/5/5 412/5/5
f 419/4/5 412/4/5 418/4/5
f 420/4/5 414/4/5 409/4/5
f 420/5/5 413/5/5 419/5/5
f 420/4/5 415/4/5 414/4/5
f 420/5/5 409/5/5 413/5/5
f 421/5/5 407/5/5 415/5/5
f 421/4/5 415/4/5 420/4/5
f 422/2/5 416/2/5 401/2/5
f 422/5/5 407/5/5 421/5/5
f 422/5/5 401/5/5 405/5/5
f 422/5/5 405/5/5 407/5/5
f 423/2/5 416/2/5 422/2/5
f 428/5/5 425/5/5 424/5/5
f 428/4/5 426/4/5 425/4/5
f 429/5/5 427/5/5 426/5/5
f 429/4/5 426/4/5 428/4/5
f 430/5/5 427/5/5 429/5/5
f 431/5/5 428/5/5 424/5/5
f 432/5/5 431/5/5 424/5/5
f 434/5/5 427/5/5 430/5/5
f 435/5/5 433/5/5 432/5/5
f 435/5/5 434/5/5 433/5/5
f 435/5/5 432/5/5 424/5/5
f 436/5/5 427/5/5 434/5/5
f 436/5/5 434/5/5 435/5/5
f 440/4/5 438/4/5 437/4/5
f 441/4/5 438/4/5 440/4/5
f 442/5/5 439/5/5 438/5/5
f 442/4/5 438/4/5 441/4/5
f 443/5/5 439/5/5 442/5/5
f 444/5/5 439/5/5 443/5/5
f 445/4/5 440/4/5 437/4/5
f 446/4/5 444/4/5 443/4/5
f 447/4/5 445/4/5 437/4/5
f 447/4/5 446/4/5 445/4/5
f 448/4/5 444/4/5 446/4/5
f 448/4/5 446/4/5 447/4/5
f 452/4/5 450/4/5 449/4/5
f 453/4/5 450/4/5 452/4/5
f 454/5/5 451/5/5 450/5/5
f 454/4/5 450/4/5 453/4/5
f 455/5/5 451/5/5 454/5/5
f 456/5/5 451/5/5 455/5/5
f 457/4/5 456/4/5 455/4/5
f 458/4/5 456/4/5 457/4/5
f 459/4/5 458/4/5 457/4/5
f 460/4/5 452/4/5 449/4/5
f 461/4/5 459/4/5 457/4/5
f 462/4/5 459/4/5 461/4/5
f 463/4/5 460/4/5 449/4/5
f 463/4/5 461/4/5 460/4/5
f 463/4/5 462/4/5 461/4/5
f 464/4/5 462/4/5 463/4/5
f 467/1/5 466/1/5 465/1/5
f 468/1/5 466/1/5 467/1/5
f 473/2/5 470/2/5 469/2/5
f 474/1/5 471/1/5 470/1/5
f 474/2/5 470/2/5 473/2/5
f 475/1/5 471/1/5 474/1/5
f 477/2/5 473/2/5 472/2/5
f 478/2/5 473/2/5 477/2/5
f 479/1/5 476/1/5 475/1/5
f 480/1/5 478/1/5 477/1/5
f 481/1/5 478/1/5 480/1/5
f 483/1/5 479/1/5 475/1/5
f 484/1/5 479/1/5 483/1/5
f 485/1/5 482/1/5 481/1/5
f 485/1/5 483/1/5 482/1/5
f 486/1/5 483/1/5 485/1/5
f 487/4/6 488/4/6 490/4/6
f 488/5/6 489/5/6 491/5/6
f 490/4/6 488/4/6 491/4/6
f 487/4/6 490/4/6 492/4/6
f 490/5/6 491/5/6 492/5/6
f 491/5/6 489/5/6 493/5/6
f 492/5/6 491/5/6 493/5/6
f 487/4/6 492/4/6 494/4/6
f 492/4/6 493/4/6 494/4/6
f 494/4/6 493/4/6 495/4/6
f 487/4/6 494/4/6 496/4/6
f 494/5/6 495/5/6 497/5/6
f 496/4/6 494/4/6 497/4/6
f 497/5/6 495/5/6 498/5/6
f 498/5/6 495/5/6 499/5/6
f 495/4/6 493/4/6 500/4/6
f 499/5/6 495/5/6 500/5/6
f 500/4/6 493/4/6 501/4/6
f 501/4/6 493/4/6 502/4/6
f 502/4/6 493/4/6 503/4/6
f 487/4/6 496/4/6 505/4/6
f 496/5/6 497/5/6 505/5/6
f 497/5/6 498/5/6 505/5/6
f 498/4/6 499/4/6 506/4/6
f 505/5/6 498/5/6 506/5/6
f 506/4/6 499/4/6 507/4/6
f 501/4/6 502/4/6 508/4/6
f 508/4/6 502/4/6 509/4/6
f 503/2/6 504/2/6 510/2/6
f 510/2/6 504/2/6 511/2/6
f 506/4/6 507/4/6 513/4/6
f 505/4/6 506/4/6 513/4/6
f 501/4/6 508/4/6 515/4/6
f 515/4/6 508/4/6 516/4/6
f 511/2/6 512/2/6 517/2/6
f 510/2/6 511/2/6 517/2/6
f 517/2/6 512/2/6 518/2/6
f 515/4/6 516/4/6 519/4/6
f 514/4/6 515/4/6 519/4/6
f 513/4/6 514/4/6 519/4/6
f 519/4/6 516/4/6 520/4/6
f 520/4/6 516/4/6 521/4/6
f 505/4/6 513/4/6 522/4/6
f 513/4/6 519/4/6 522/4/6
f 522/4/6 519/4/6 523/4/6
f 518/2/6 512/2/6 524/2/6
f 487/4/6 505/4/6 525/4/6
f 505/4/6 522/4/6 525/4/6
f 522/5/6 523/5/6 526/5/6
f 525/4/6 522/4/6 526/4/6
f 524/2/6 512/2/6 528/2/6
f 528/2/6 512/2/6 529/2/6
f 487/4/6 525/4/6 530/4/6
f 525/5/6 526/5/6 531/5/6
f 530/4/6 525/4/6 531/4/6
f 523/4/6 519/4/6 532/4/6
f 531/5/6 526/5/6 532/5/6
f 526/5/6 523/5/6 532/5/6
f 532/4/6 519/4/6 533/4/6
f 527/2/6 528/2/6 534/2/6
f 534/2/6 528/2/6 535/2/6
f 536/1/6 537/1/6 539/1/6
f 539/1/6 537/1/6 540/1/6
f 538/1/6 539/1/6 541/1/6
f 539/2/6 540/2/6 542/2/6
f 541/1/6 539/1/6 542/1/6
f 542/2/6 540/2/6 543/2/6
f 541/2/6 542/2/6 547/2/6
f 547/2/6 542/2/6 548/2/6
f 543/2/6 544/2/6 549/2/6
f 547/2/6 548/2/6 550/2/6
f 548/2/6 549/2/6 550/2/6
f 545/1/6 546/1/6 550/1/6
f 546/2/6 547/2/6 550/2/6
f 550/2/6 549/2/6 551/2/6
f 551/2/6 549/2/6 552/2/6
f 549/2/6 544/2/6 553/2/6
f 552/2/6 549/2/6 553/2/6
f 553/2/6 544/2/6 554/2/6
f 551/2/6 552/2/6 555/2/6
f 553/1/6 554/1/6 556/1/6
f 556/1/6 554/1/6 557/1/6
f 545/1/6 550/1/6 558/1/6
f 550/1/6 551/1/6 558/1/6
f 555/2/6 556/2/6 559/2/6
f 558/1/6 551/1/6 559/1/6
f 551/2/6 555/2/6 559/2/6
f 559/2/6 556/2/6 560/2/6
f 561/4/6 562/4/6 564/4/6
f 564/4/6 562/4/6 565/4/6
f 565/4/6 562/4/6 566/4/6
f 562/5/6 563/5/6 567/5/6
f 566/4/6 562/4/6 567/4/6
f 567/5/6 563/5/6 568/5/6
f 568/5/6 563/5/6 569/5/6
f 564/2/6 565/2/6 570/2/6
f 567/2/6 568/2/6 572/2/6
f 561/4/6 564/4/6 573/4/6
f 571/2/6 572/2/6 573/2/6
f 570/2/6 571/2/6 573/2/6
f 564/2/6 570/2/6 573/2/6
f 573/2/6 572/2/6 574/2/6
f 574/2/6 572/2/6 575/2/6
f 572/2/6 568/2/6 576/2/6
f 575/2/6 572/2/6 576/2/6
f 576/2/6 568/2/6 577/2/6
f 568/4/6 569/4/6 578/4/6
f 577/2/6 568/2/6 578/2/6
f 561/4/6 573/4/6 579/4/6
f 574/2/6 575/2/6 580/2/6
f 576/2/6 577/2/6 581/2/6
f 578/4/6 569/4/6 582/4/6
f 561/4/6 579/4/6 583/4/6
f 580/2/6 575/2/6 584/2/6
f 584/2/6 575/2/6 585/2/6
f 576/2/6 581/2/6 586/2/6
f 582/4/6 569/4/6 587/4/6
f 587/4/6 569/4/6 588/4/6
f 585/2/6 586/2/6 589/2/6
f 584/2/6 585/2/6 589/2/6
f 583/2/6 584/2/6 589/2/6
f 586/2/6 581/2/6 590/2/6
f 589/2/6 586/2/6 590/2/6
f 590/2/6 581/2/6 591/2/6
f 561/4/6 583/4/6 593/4/6
f 583/2/6 589/2/6 593/2/6
f 593/2/6 589/2/6 594/2/6
f 591/2/6 592/2/6 595/2/6
f 590/2/6 591/2/6 595/2/6
f 595/2/6 592/2/6 596/2/6
f 593/4/6 594/4/6 597/4/6
f 561/4/6 593/4/6 597/4/6
f 595/4/6 596/4/6 597/4/6
f 594/4/6 595/4/6 597/4/6
f 597/4/6 596/4/6 598/4/6
f 599/2/6 600/2/6 602/2/6
f 600/1/6 601/1/6 603/1/6
f 602/2/6 600/2/6 603/2/6
f 603/1/6 601/1/6 604/1/6
f 604/1/6 601/1/6 605/1/6
f 606/1/6 607/1/6 608/1/6
f 608/1/6 607/1/6 609/1/6
f 608/2/6 609/2/6 612/2/6
f 609/1/6 607/1/6 613/1/6
f 612/2/6 609/2/6 613/2/6
f 613/1/6 607/1/6 614/1/6
f 610/1/6 611/1/6 616/1/6
f 611/2/6 612/2/6 616/2/6
f 616/2/6 612/2/6 617/2/6
f 610/1/6 616/1/6 618/1/6
f 616/1/6 617/1/6 618/1/6
f 618/1/6 617/1/6 619/1/6
f 614/1/6 615/1/6 621/1/6
f 621/1/6 615/1/6 622/1/6
f 619/1/6 620/1/6 623/1/6
f 620/1/6 621/1/6 623/1/6
f 623/1/6 621/1/6 624/1/6
f 623/2/6 624/2/6 625/2/6
f 625/2/6 624/2/6 626/2/6
f 627/1/6 628/1/6 629/1/6
f 629/1/6 628/1/6 630/1/6
f 629/2/6 630/2/6 631/2/6
f 630/1/6 628/1/6 632/1/6
f 631/2/6 630/2/6 632/2/6
f 632/1/6 628/1/6 633/1/6
