# MagicaVoxel @ Ephtracy

# group
o 

# material
mtllib Gemas-3.mtl
usemtl palette

# normals
vn -1 0 0
vn 1 0 0
vn 0 0 1
vn 0 0 -1
vn 0 -1 0
vn 0 1 0

# texcoords
vt 0.974609 0.5
vt 0.986328 0.5
vt 0.994141 0.5

# verts
v -0.6 0 0.1
v -0.6 0 -0.1
v -0.6 0.1 0.1
v -0.6 0.1 -0.1
v -0.5 0.1 0.1
v -0.5 0.1 -0.1
v -0.5 0.2 0.1
v -0.5 0.2 -0.1
v -0.4 0.2 0.1
v -0.4 0.2 -0.1
v -0.4 0.3 0.1
v -0.4 0.3 -0.1
v -0.4 1 0.3
v -0.4 1 -0.3
v -0.4 1.1 0.3
v -0.4 1.1 -0.3
v -0.3 0.3 0.1
v -0.3 0.3 -0.1
v -0.3 0.5 0.1
v -0.3 0.5 -0.1
v -0.3 0.9 0.2
v -0.3 0.9 -0.2
v -0.3 1 0.2
v -0.3 1 -0.2
v -0.2 0 0.5
v -0.2 0 0.1
v -0.2 0 -0.1
v -0.2 0 -0.5
v -0.2 0.1 0.5
v -0.2 0.1 0.4
v -0.2 0.1 -0.4
v -0.2 0.1 -0.5
v -0.2 0.2 0.4
v -0.2 0.2 0.3
v -0.2 0.2 -0.3
v -0.2 0.2 -0.4
v -0.2 0.3 0.3
v -0.2 0.3 0.2
v -0.2 0.3 -0.2
v -0.2 0.3 -0.3
v -0.2 0.5 0.2
v -0.2 0.5 0.1
v -0.2 0.5 -0.1
v -0.2 0.5 -0.2
v -0.2 0.6 0.1
v -0.2 0.6 -0.1
v -0.2 0.7 0.1
v -0.2 0.7 -0.1
v -0.2 0.8 0.1
v -0.2 0.8 -0.1
v -0.2 0.9 0.1
v -0.2 0.9 -0.1
v -5.96046e-08 0.9 0.1
v -5.96046e-08 0.9 -0.1
v -5.96046e-08 1 0.1
v -5.96046e-08 1 -0.1
v 0.1 1 0.2
v 0.1 1 -0.2
v 0.1 1.1 0.2
v 0.1 1.1 -0.2
v -0.3 1 0.2
v -0.3 1 -0.2
v -0.3 1.1 0.2
v -0.3 1.1 -0.2
v -0.2 0.9 0.1
v -0.2 0.9 -0.1
v -0.2 1 0.1
v -0.2 1 -0.1
v -5.96046e-08 0 0.5
v -5.96046e-08 0 0.1
v -5.96046e-08 0 -0.1
v -5.96046e-08 0 -0.5
v -5.96046e-08 0.1 0.5
v -5.96046e-08 0.1 0.4
v -5.96046e-08 0.1 -0.4
v -5.96046e-08 0.1 -0.5
v -5.96046e-08 0.2 0.4
v -5.96046e-08 0.2 0.3
v -5.96046e-08 0.2 -0.3
v -5.96046e-08 0.2 -0.4
v -5.96046e-08 0.3 0.3
v -5.96046e-08 0.3 0.2
v -5.96046e-08 0.3 -0.2
v -5.96046e-08 0.3 -0.3
v -5.96046e-08 0.5 0.2
v -5.96046e-08 0.5 0.1
v -5.96046e-08 0.5 -0.1
v -5.96046e-08 0.5 -0.2
v -5.96046e-08 0.6 0.1
v -5.96046e-08 0.6 -0.1
v -5.96046e-08 0.7 0.1
v -5.96046e-08 0.7 -0.1
v -5.96046e-08 0.8 0.1
v -5.96046e-08 0.8 -0.1
v -5.96046e-08 0.9 0.1
v -5.96046e-08 0.9 -0.1
v 0.1 0.3 0.1
v 0.1 0.3 -0.1
v 0.1 0.5 0.1
v 0.1 0.5 -0.1
v 0.1 0.9 0.2
v 0.1 0.9 -0.2
v 0.1 1 0.2
v 0.1 1 -0.2
v 0.2 0.2 0.1
v 0.2 0.2 -0.1
v 0.2 0.3 0.1
v 0.2 0.3 -0.1
v 0.2 1 0.3
v 0.2 1 -0.3
v 0.2 1.1 0.3
v 0.2 1.1 -0.3
v 0.3 0.1 0.1
v 0.3 0.1 -0.1
v 0.3 0.2 0.1
v 0.3 0.2 -0.1
v 0.4 0 0.1
v 0.4 0 -0.1
v 0.4 0.1 0.1
v 0.4 0.1 -0.1
v -0.2 0 0.5
v -0.2 0.1 0.5
v -5.96046e-08 0 0.5
v -5.96046e-08 0.1 0.5
v -0.2 0.1 0.4
v -0.2 0.2 0.4
v -5.96046e-08 0.1 0.4
v -5.96046e-08 0.2 0.4
v -0.4 1 0.3
v -0.4 1.1 0.3
v -0.2 0.2 0.3
v -0.2 0.3 0.3
v -5.96046e-08 0.2 0.3
v -5.96046e-08 0.3 0.3
v 0.2 1 0.3
v 0.2 1.1 0.3
v -0.3 0.9 0.2
v -0.3 1 0.2
v -0.2 0.3 0.2
v -0.2 0.5 0.2
v -5.96046e-08 0.3 0.2
v -5.96046e-08 0.5 0.2
v 0.1 0.9 0.2
v 0.1 1 0.2
v -0.6 0 0.1
v -0.6 0.1 0.1
v -0.5 0.1 0.1
v -0.5 0.2 0.1
v -0.4 0.2 0.1
v -0.4 0.3 0.1
v -0.3 0.3 0.1
v -0.3 0.5 0.1
v -0.2 0 0.1
v -0.2 0.5 0.1
v -0.2 0.6 0.1
v -0.2 0.7 0.1
v -0.2 0.8 0.1
v -0.2 0.9 0.1
v -5.96046e-08 0 0.1
v -5.96046e-08 0.5 0.1
v -5.96046e-08 0.6 0.1
v -5.96046e-08 0.7 0.1
v -5.96046e-08 0.8 0.1
v -5.96046e-08 0.9 0.1
v 0.1 0.3 0.1
v 0.1 0.5 0.1
v 0.2 0.2 0.1
v 0.2 0.3 0.1
v 0.3 0.1 0.1
v 0.3 0.2 0.1
v 0.4 0 0.1
v 0.4 0.1 0.1
v -0.2 0.9 -0.1
v -0.2 1 -0.1
v -5.96046e-08 0.9 -0.1
v -5.96046e-08 1 -0.1
v -0.3 1 -0.2
v -0.3 1.1 -0.2
v 0.1 1 -0.2
v 0.1 1.1 -0.2
v -0.3 1 0.2
v -0.3 1.1 0.2
v 0.1 1 0.2
v 0.1 1.1 0.2
v -0.2 0.9 0.1
v -0.2 1 0.1
v -5.96046e-08 0.9 0.1
v -5.96046e-08 1 0.1
v -0.6 0 -0.1
v -0.6 0.1 -0.1
v -0.5 0.1 -0.1
v -0.5 0.2 -0.1
v -0.4 0.2 -0.1
v -0.4 0.3 -0.1
v -0.3 0.3 -0.1
v -0.3 0.5 -0.1
v -0.2 0 -0.1
v -0.2 0.5 -0.1
v -0.2 0.6 -0.1
v -0.2 0.7 -0.1
v -0.2 0.8 -0.1
v -0.2 0.9 -0.1
v -5.96046e-08 0 -0.1
v -5.96046e-08 0.5 -0.1
v -5.96046e-08 0.6 -0.1
v -5.96046e-08 0.7 -0.1
v -5.96046e-08 0.8 -0.1
v -5.96046e-08 0.9 -0.1
v 0.1 0.3 -0.1
v 0.1 0.5 -0.1
v 0.2 0.2 -0.1
v 0.2 0.3 -0.1
v 0.3 0.1 -0.1
v 0.3 0.2 -0.1
v 0.4 0 -0.1
v 0.4 0.1 -0.1
v -0.3 0.9 -0.2
v -0.3 1 -0.2
v -0.2 0.3 -0.2
v -0.2 0.5 -0.2
v -5.96046e-08 0.3 -0.2
v -5.96046e-08 0.5 -0.2
v 0.1 0.9 -0.2
v 0.1 1 -0.2
v -0.4 1 -0.3
v -0.4 1.1 -0.3
v -0.2 0.2 -0.3
v -0.2 0.3 -0.3
v -5.96046e-08 0.2 -0.3
v -5.96046e-08 0.3 -0.3
v 0.2 1 -0.3
v 0.2 1.1 -0.3
v -0.2 0.1 -0.4
v -0.2 0.2 -0.4
v -5.96046e-08 0.1 -0.4
v -5.96046e-08 0.2 -0.4
v -0.2 0 -0.5
v -0.2 0.1 -0.5
v -5.96046e-08 0 -0.5
v -5.96046e-08 0.1 -0.5
v -0.2 0 0.5
v -5.96046e-08 0 0.5
v -0.6 0 0.1
v -0.2 0 0.1
v -5.96046e-08 0 0.1
v 0.4 0 0.1
v -0.6 0 -0.1
v -0.2 0 -0.1
v -5.96046e-08 0 -0.1
v 0.4 0 -0.1
v -0.2 0 -0.5
v -5.96046e-08 0 -0.5
v -0.3 0.9 0.2
v 0.1 0.9 0.2
v -0.2 0.9 0.1
v -5.96046e-08 0.9 0.1
v -0.2 0.9 -0.1
v -5.96046e-08 0.9 -0.1
v -0.3 0.9 -0.2
v 0.1 0.9 -0.2
v -0.4 1 0.3
v 0.2 1 0.3
v -0.3 1 0.2
v 0.1 1 0.2
v -0.3 1 -0.2
v 0.1 1 -0.2
v -0.4 1 -0.3
v 0.2 1 -0.3
v -0.2 0.1 0.5
v -5.96046e-08 0.1 0.5
v -0.2 0.1 0.4
v -5.96046e-08 0.1 0.4
v -0.6 0.1 0.1
v -0.5 0.1 0.1
v 0.3 0.1 0.1
v 0.4 0.1 0.1
v -0.6 0.1 -0.1
v -0.5 0.1 -0.1
v 0.3 0.1 -0.1
v 0.4 0.1 -0.1
v -0.2 0.1 -0.4
v -5.96046e-08 0.1 -0.4
v -0.2 0.1 -0.5
v -5.96046e-08 0.1 -0.5
v -0.2 0.2 0.4
v -5.96046e-08 0.2 0.4
v -0.2 0.2 0.3
v -5.96046e-08 0.2 0.3
v -0.5 0.2 0.1
v -0.4 0.2 0.1
v 0.2 0.2 0.1
v 0.3 0.2 0.1
v -0.5 0.2 -0.1
v -0.4 0.2 -0.1
v 0.2 0.2 -0.1
v 0.3 0.2 -0.1
v -0.2 0.2 -0.3
v -5.96046e-08 0.2 -0.3
v -0.2 0.2 -0.4
v -5.96046e-08 0.2 -0.4
v -0.2 0.3 0.3
v -5.96046e-08 0.3 0.3
v -0.2 0.3 0.2
v -5.96046e-08 0.3 0.2
v -0.4 0.3 0.1
v -0.3 0.3 0.1
v 0.1 0.3 0.1
v 0.2 0.3 0.1
v -0.4 0.3 -0.1
v -0.3 0.3 -0.1
v 0.1 0.3 -0.1
v 0.2 0.3 -0.1
v -0.2 0.3 -0.2
v -5.96046e-08 0.3 -0.2
v -0.2 0.3 -0.3
v -5.96046e-08 0.3 -0.3
v -0.2 0.5 0.2
v -5.96046e-08 0.5 0.2
v -0.3 0.5 0.1
v -0.2 0.5 0.1
v -5.96046e-08 0.5 0.1
v 0.1 0.5 0.1
v -0.3 0.5 -0.1
v -0.2 0.5 -0.1
v -5.96046e-08 0.5 -0.1
v 0.1 0.5 -0.1
v -0.2 0.5 -0.2
v -5.96046e-08 0.5 -0.2
v -0.2 0.9 0.1
v -5.96046e-08 0.9 0.1
v -0.2 0.9 -0.1
v -5.96046e-08 0.9 -0.1
v -0.3 1 0.2
v 0.1 1 0.2
v -0.2 1 0.1
v -5.96046e-08 1 0.1
v -0.2 1 -0.1
v -5.96046e-08 1 -0.1
v -0.3 1 -0.2
v 0.1 1 -0.2
v -0.4 1.1 0.3
v 0.2 1.1 0.3
v -0.3 1.1 0.2
v 0.1 1.1 0.2
v -0.3 1.1 -0.2
v 0.1 1.1 -0.2
v -0.4 1.1 -0.3
v 0.2 1.1 -0.3

# faces
f 3/1/1 2/1/1 1/1/1
f 4/1/1 2/1/1 3/1/1
f 7/1/1 6/1/1 5/1/1
f 8/1/1 6/1/1 7/1/1
f 11/1/1 10/1/1 9/1/1
f 12/1/1 10/1/1 11/1/1
f 15/1/1 14/1/1 13/1/1
f 16/1/1 14/1/1 15/1/1
f 19/1/1 18/1/1 17/1/1
f 20/1/1 18/1/1 19/1/1
f 23/1/1 22/1/1 21/1/1
f 24/1/1 22/1/1 23/1/1
f 29/1/1 26/1/1 25/1/1
f 30/1/1 26/1/1 29/1/1
f 31/1/1 28/1/1 27/1/1
f 32/1/1 28/1/1 31/1/1
f 33/1/1 26/1/1 30/1/1
f 34/1/1 26/1/1 33/1/1
f 35/1/1 31/1/1 27/1/1
f 36/1/1 31/1/1 35/1/1
f 37/1/1 26/1/1 34/1/1
f 38/1/1 26/1/1 37/1/1
f 39/1/1 35/1/1 27/1/1
f 40/1/1 35/1/1 39/1/1
f 41/1/1 26/1/1 38/1/1
f 42/1/1 26/1/1 41/1/1
f 43/1/1 39/1/1 27/1/1
f 44/1/1 39/1/1 43/1/1
f 45/1/1 43/1/1 42/1/1
f 46/1/1 43/1/1 45/1/1
f 47/3/1 46/3/1 45/3/1
f 48/3/1 46/3/1 47/3/1
f 49/2/1 48/2/1 47/2/1
f 50/2/1 48/2/1 49/2/1
f 51/1/1 50/1/1 49/1/1
f 52/1/1 50/1/1 51/1/1
f 55/1/1 54/1/1 53/1/1
f 56/1/1 54/1/1 55/1/1
f 59/1/1 58/1/1 57/1/1
f 60/1/1 58/1/1 59/1/1
f 61/1/2 62/1/2 63/1/2
f 63/1/2 62/1/2 64/1/2
f 65/1/2 66/1/2 67/1/2
f 67/1/2 66/1/2 68/1/2
f 69/1/2 70/1/2 73/1/2
f 73/1/2 70/1/2 74/1/2
f 71/1/2 72/1/2 75/1/2
f 75/1/2 72/1/2 76/1/2
f 74/1/2 70/1/2 77/1/2
f 77/1/2 70/1/2 78/1/2
f 71/1/2 75/1/2 79/1/2
f 79/1/2 75/1/2 80/1/2
f 78/1/2 70/1/2 81/1/2
f 81/1/2 70/1/2 82/1/2
f 71/1/2 79/1/2 83/1/2
f 83/1/2 79/1/2 84/1/2
f 82/1/2 70/1/2 85/1/2
f 85/1/2 70/1/2 86/1/2
f 71/1/2 83/1/2 87/1/2
f 87/1/2 83/1/2 88/1/2
f 86/1/2 87/1/2 89/1/2
f 89/1/2 87/1/2 90/1/2
f 89/3/2 90/3/2 91/3/2
f 91/3/2 90/3/2 92/3/2
f 91/2/2 92/2/2 93/2/2
f 93/2/2 92/2/2 94/2/2
f 93/1/2 94/1/2 95/1/2
f 95/1/2 94/1/2 96/1/2
f 97/1/2 98/1/2 99/1/2
f 99/1/2 98/1/2 100/1/2
f 101/1/2 102/1/2 103/1/2
f 103/1/2 102/1/2 104/1/2
f 105/1/2 106/1/2 107/1/2
f 107/1/2 106/1/2 108/1/2
f 109/1/2 110/1/2 111/1/2
f 111/1/2 110/1/2 112/1/2
f 113/1/2 114/1/2 115/1/2
f 115/1/2 114/1/2 116/1/2
f 117/1/2 118/1/2 119/1/2
f 119/1/2 118/1/2 120/1/2
f 123/1/3 122/1/3 121/1/3
f 124/1/3 122/1/3 123/1/3
f 127/1/3 126/1/3 125/1/3
f 128/1/3 126/1/3 127/1/3
f 133/1/3 132/1/3 131/1/3
f 134/1/3 132/1/3 133/1/3
f 135/1/3 130/1/3 129/1/3
f 136/1/3 130/1/3 135/1/3
f 141/1/3 140/1/3 139/1/3
f 142/1/3 140/1/3 141/1/3
f 143/1/3 138/1/3 137/1/3
f 144/1/3 138/1/3 143/1/3
f 147/1/3 146/1/3 145/1/3
f 149/1/3 148/1/3 147/1/3
f 151/1/3 150/1/3 149/1/3
f 153/1/3 147/1/3 145/1/3
f 153/1/3 152/1/3 151/1/3
f 153/1/3 151/1/3 149/1/3
f 153/1/3 149/1/3 147/1/3
f 154/1/3 152/1/3 153/1/3
f 160/1/3 155/1/3 154/1/3
f 161/3/3 156/3/3 155/3/3
f 161/1/3 155/1/3 160/1/3
f 162/2/3 157/2/3 156/2/3
f 162/3/3 156/3/3 161/3/3
f 163/1/3 158/1/3 157/1/3
f 163/2/3 157/2/3 162/2/3
f 164/1/3 158/1/3 163/1/3
f 165/1/3 160/1/3 159/1/3
f 166/1/3 160/1/3 165/1/3
f 167/1/3 165/1/3 159/1/3
f 168/1/3 165/1/3 167/1/3
f 169/1/3 167/1/3 159/1/3
f 170/1/3 167/1/3 169/1/3
f 171/1/3 169/1/3 159/1/3
f 172/1/3 169/1/3 171/1/3
f 175/1/3 174/1/3 173/1/3
f 176/1/3 174/1/3 175/1/3
f 179/1/3 178/1/3 177/1/3
f 180/1/3 178/1/3 179/1/3
f 181/1/4 182/1/4 183/1/4
f 183/1/4 182/1/4 184/1/4
f 185/1/4 186/1/4 187/1/4
f 187/1/4 186/1/4 188/1/4
f 189/1/4 190/1/4 191/1/4
f 191/1/4 192/1/4 193/1/4
f 193/1/4 194/1/4 195/1/4
f 189/1/4 191/1/4 197/1/4
f 195/1/4 196/1/4 197/1/4
f 193/1/4 195/1/4 197/1/4
f 191/1/4 193/1/4 197/1/4
f 197/1/4 196/1/4 198/1/4
f 198/1/4 199/1/4 204/1/4
f 199/3/4 200/3/4 205/3/4
f 204/1/4 199/1/4 205/1/4
f 200/2/4 201/2/4 206/2/4
f 205/3/4 200/3/4 206/3/4
f 201/1/4 202/1/4 207/1/4
f 206/2/4 201/2/4 207/2/4
f 207/1/4 202/1/4 208/1/4
f 203/1/4 204/1/4 209/1/4
f 209/1/4 204/1/4 210/1/4
f 203/1/4 209/1/4 211/1/4
f 211/1/4 209/1/4 212/1/4
f 203/1/4 211/1/4 213/1/4
f 213/1/4 211/1/4 214/1/4
f 203/1/4 213/1/4 215/1/4
f 215/1/4 213/1/4 216/1/4
f 219/1/4 220/1/4 221/1/4
f 221/1/4 220/1/4 222/1/4
f 217/1/4 218/1/4 223/1/4
f 223/1/4 218/1/4 224/1/4
f 227/1/4 228/1/4 229/1/4
f 229/1/4 228/1/4 230/1/4
f 225/1/4 226/1/4 231/1/4
f 231/1/4 226/1/4 232/1/4
f 233/1/4 234/1/4 235/1/4
f 235/1/4 234/1/4 236/1/4
f 237/1/4 238/1/4 239/1/4
f 239/1/4 238/1/4 240/1/4
f 244/1/5 242/1/5 241/1/5
f 245/1/5 242/1/5 244/1/5
f 247/1/5 244/1/5 243/1/5
f 247/1/5 246/1/5 245/1/5
f 247/1/5 245/1/5 244/1/5
f 248/1/5 246/1/5 247/1/5
f 249/1/5 246/1/5 248/1/5
f 250/1/5 246/1/5 249/1/5
f 251/1/5 249/1/5 248/1/5
f 252/1/5 249/1/5 251/1/5
f 255/1/5 254/1/5 253/1/5
f 256/1/5 254/1/5 255/1/5
f 257/1/5 255/1/5 253/1/5
f 258/1/5 254/1/5 256/1/5
f 259/1/5 257/1/5 253/1/5
f 259/1/5 258/1/5 257/1/5
f 260/1/5 254/1/5 258/1/5
f 260/1/5 258/1/5 259/1/5
f 263/1/5 262/1/5 261/1/5
f 264/1/5 262/1/5 263/1/5
f 265/1/5 263/1/5 261/1/5
f 266/1/5 262/1/5 264/1/5
f 267/1/5 265/1/5 261/1/5
f 267/1/5 266/1/5 265/1/5
f 268/1/5 262/1/5 266/1/5
f 268/1/5 266/1/5 267/1/5
f 269/1/6 270/1/6 271/1/6
f 271/1/6 270/1/6 272/1/6
f 273/1/6 274/1/6 277/1/6
f 277/1/6 274/1/6 278/1/6
f 275/1/6 276/1/6 279/1/6
f 279/1/6 276/1/6 280/1/6
f 281/1/6 282/1/6 283/1/6
f 283/1/6 282/1/6 284/1/6
f 285/1/6 286/1/6 287/1/6
f 287/1/6 286/1/6 288/1/6
f 289/1/6 290/1/6 293/1/6
f 293/1/6 290/1/6 294/1/6
f 291/1/6 292/1/6 295/1/6
f 295/1/6 292/1/6 296/1/6
f 297/1/6 298/1/6 299/1/6
f 299/1/6 298/1/6 300/1/6
f 301/1/6 302/1/6 303/1/6
f 303/1/6 302/1/6 304/1/6
f 305/1/6 306/1/6 309/1/6
f 309/1/6 306/1/6 310/1/6
f 307/1/6 308/1/6 311/1/6
f 311/1/6 308/1/6 312/1/6
f 313/1/6 314/1/6 315/1/6
f 315/1/6 314/1/6 316/1/6
f 317/1/6 318/1/6 320/1/6
f 320/1/6 318/1/6 321/1/6
f 319/1/6 320/1/6 323/1/6
f 323/1/6 320/1/6 324/1/6
f 321/1/6 322/1/6 325/1/6
f 325/1/6 322/1/6 326/1/6
f 324/1/6 325/1/6 327/1/6
f 327/1/6 325/1/6 328/1/6
f 329/1/6 330/1/6 331/1/6
f 331/1/6 330/1/6 332/1/6
f 333/1/6 334/1/6 335/1/6
f 335/1/6 334/1/6 336/1/6
f 333/1/6 335/1/6 337/1/6
f 336/1/6 334/1/6 338/1/6
f 333/1/6 337/1/6 339/1/6
f 337/1/6 338/1/6 339/1/6
f 338/1/6 334/1/6 340/1/6
f 339/1/6 338/1/6 340/1/6
f 341/1/6 342/1/6 343/1/6
f 343/1/6 342/1/6 344/1/6
f 341/1/6 343/1/6 345/1/6
f 344/1/6 342/1/6 346/1/6
f 341/1/6 345/1/6 347/1/6
f 345/1/6 346/1/6 347/1/6
f 346/1/6 342/1/6 348/1/6
f 347/1/6 346/1/6 348/1/6
