# MagicaVoxel @ Ephtracy

# group
o 

# material
mtllib Ventana2.mtl
usemtl palette

# normals
vn -1 0 0
vn 1 0 0
vn 0 0 1
vn 0 0 -1
vn 0 -1 0
vn 0 1 0

# texcoords
vt 0.0449219 0.5
vt 0.0644531 0.5
vt 0.0917969 0.5
vt 0.369141 0.5

# verts
v -2 0 -1.9
v -2 0 -2
v -2 4 -1.9
v -2 4 -2
v -1.9 1.6 -1.8
v -1.9 1.6 -1.9
v -1.9 1.7 -1.8
v -1.9 1.7 -1.9
v -1.8 1.7 -1.8
v -1.8 1.7 -1.9
v -1.8 1.8 -1.8
v -1.8 1.8 -1.9
v -1.5 3.4 -1.8
v -1.5 3.4 -1.9
v -1.5 3.5 -1.8
v -1.5 3.5 -1.9
v -1.4 3.5 -1.8
v -1.4 3.5 -1.9
v -1.4 3.6 -1.8
v -1.4 3.6 -1.9
v -0.9 1 -1.8
v -0.9 1 -1.9
v -0.9 3.2 -1.8
v -0.9 3.2 -1.9
v -0.5 0.5 -1.8
v -0.5 0.5 -1.9
v -0.5 0.6 -1.8
v -0.5 0.6 -1.9
v -0.4 0.4 -1.8
v -0.4 0.4 -1.9
v -0.4 0.5 -1.8
v -0.4 0.5 -1.9
v -0.0999999 1.2 -1.9
v -0.0999999 1.2 -2
v -0.0999999 2 -1.9
v -0.0999999 2 -2
v -0.0999999 2.1 -1.9
v -0.0999999 2.1 -2
v -0.0999999 3 -1.9
v -0.0999999 3 -2
v 0.8 1.2 -1.8
v 0.8 1.2 -2
v 0.8 2 -1.9
v 0.8 2 -2
v 0.8 2.1 -1.9
v 0.8 2.1 -2
v 0.8 3 -1.8
v 0.8 3 -2
v 1.2 1.6 -1.8
v 1.2 1.6 -1.9
v 1.2 1.7 -1.8
v 1.2 1.7 -1.9
v 1.3 1.5 -1.8
v 1.3 1.5 -1.9
v 1.3 1.6 -1.8
v 1.3 1.6 -1.9
v 1.3 3.2 -1.8
v 1.3 3.2 -1.9
v 1.3 3.3 -1.8
v 1.3 3.3 -1.9
v 1.4 3.3 -1.8
v 1.4 3.3 -1.9
v 1.4 3.4 -1.8
v 1.4 3.4 -1.9
v -1.6 1.7 -1.8
v -1.6 1.7 -1.9
v -1.6 1.8 -1.8
v -1.6 1.8 -1.9
v -1.5 1.6 -1.8
v -1.5 1.6 -1.9
v -1.5 1.7 -1.8
v -1.5 1.7 -1.9
v -1.2 3.4 -1.8
v -1.2 3.4 -1.9
v -1.2 3.5 -1.8
v -1.2 3.5 -1.9
v -1.1 3.5 -1.8
v -1.1 3.5 -1.9
v -1.1 3.6 -1.8
v -1.1 3.6 -1.9
v -0.8 1.2 -1.8
v -0.8 1.2 -2
v -0.8 2 -1.9
v -0.8 2 -2
v -0.8 2.1 -1.9
v -0.8 2.1 -2
v -0.8 3 -1.8
v -0.8 3 -2
v -0.3 0.5 -1.8
v -0.3 0.5 -1.9
v -0.3 0.6 -1.8
v -0.3 0.6 -1.9
v -0.2 0.4 -1.8
v -0.2 0.4 -1.9
v -0.2 0.5 -1.8
v -0.2 0.5 -1.9
v 0.1 1.2 -1.9
v 0.1 1.2 -2
v 0.1 2 -1.9
v 0.1 2 -2
v 0.1 2.1 -1.9
v 0.1 2.1 -2
v 0.1 3 -1.9
v 0.1 3 -2
v 0.9 1 -1.8
v 0.9 1 -1.9
v 0.9 3.2 -1.8
v 0.9 3.2 -1.9
v 1.5 1.5 -1.8
v 1.5 1.5 -1.9
v 1.5 1.6 -1.8
v 1.5 1.6 -1.9
v 1.6 1.6 -1.8
v 1.6 1.6 -1.9
v 1.6 1.7 -1.8
v 1.6 1.7 -1.9
v 1.6 3.2 -1.8
v 1.6 3.2 -1.9
v 1.6 3.3 -1.8
v 1.6 3.3 -1.9
v 1.7 3.3 -1.8
v 1.7 3.3 -1.9
v 1.7 3.4 -1.8
v 1.7 3.4 -1.9
v 2 0 -1.9
v 2 0 -2
v 2 4 -1.9
v 2 4 -2
v -1.9 1.6 -1.8
v -1.9 1.7 -1.8
v -1.8 1.7 -1.8
v -1.8 1.8 -1.8
v -1.6 1.7 -1.8
v -1.6 1.8 -1.8
v -1.5 1.6 -1.8
v -1.5 1.7 -1.8
v -1.5 3.4 -1.8
v -1.5 3.5 -1.8
v -1.4 3.5 -1.8
v -1.4 3.6 -1.8
v -1.2 3.4 -1.8
v -1.2 3.5 -1.8
v -1.1 3.5 -1.8
v -1.1 3.6 -1.8
v -0.9 1 -1.8
v -0.9 3.2 -1.8
v -0.8 1.2 -1.8
v -0.8 3 -1.8
v -0.5 0.5 -1.8
v -0.5 0.6 -1.8
v -0.4 0.4 -1.8
v -0.4 0.5 -1.8
v -0.3 0.5 -1.8
v -0.3 0.6 -1.8
v -0.2 0.4 -1.8
v -0.2 0.5 -1.8
v 0.8 1.2 -1.8
v 0.8 3 -1.8
v 0.9 1 -1.8
v 0.9 3.2 -1.8
v 1.2 1.6 -1.8
v 1.2 1.7 -1.8
v 1.3 1.5 -1.8
v 1.3 1.6 -1.8
v 1.3 3.2 -1.8
v 1.3 3.3 -1.8
v 1.4 3.3 -1.8
v 1.4 3.4 -1.8
v 1.5 1.5 -1.8
v 1.5 1.6 -1.8
v 1.6 1.6 -1.8
v 1.6 1.7 -1.8
v 1.6 3.2 -1.8
v 1.6 3.3 -1.8
v 1.7 3.3 -1.8
v 1.7 3.4 -1.8
v -2 0 -1.9
v -2 4 -1.9
v -1.9 1.6 -1.9
v -1.9 1.7 -1.9
v -1.8 1.7 -1.9
v -1.8 1.8 -1.9
v -1.6 1.7 -1.9
v -1.6 1.8 -1.9
v -1.5 1.6 -1.9
v -1.5 1.7 -1.9
v -1.5 3.4 -1.9
v -1.5 3.5 -1.9
v -1.4 3.5 -1.9
v -1.4 3.6 -1.9
v -1.2 3.4 -1.9
v -1.2 3.5 -1.9
v -1.1 3.5 -1.9
v -1.1 3.6 -1.9
v -0.9 1 -1.9
v -0.9 3.2 -1.9
v -0.8 2 -1.9
v -0.8 2.1 -1.9
v -0.5 0.5 -1.9
v -0.5 0.6 -1.9
v -0.4 0.4 -1.9
v -0.4 0.5 -1.9
v -0.3 0.5 -1.9
v -0.3 0.6 -1.9
v -0.2 0.4 -1.9
v -0.2 0.5 -1.9
v -0.0999999 1.2 -1.9
v -0.0999999 2 -1.9
v -0.0999999 2.1 -1.9
v -0.0999999 3 -1.9
v 0.1 1.2 -1.9
v 0.1 2 -1.9
v 0.1 2.1 -1.9
v 0.1 3 -1.9
v 0.8 2 -1.9
v 0.8 2.1 -1.9
v 0.9 1 -1.9
v 0.9 3.2 -1.9
v 1.2 1.6 -1.9
v 1.2 1.7 -1.9
v 1.3 1.5 -1.9
v 1.3 1.6 -1.9
v 1.3 3.2 -1.9
v 1.3 3.3 -1.9
v 1.4 3.3 -1.9
v 1.4 3.4 -1.9
v 1.5 1.5 -1.9
v 1.5 1.6 -1.9
v 1.6 1.6 -1.9
v 1.6 1.7 -1.9
v 1.6 3.2 -1.9
v 1.6 3.3 -1.9
v 1.7 3.3 -1.9
v 1.7 3.4 -1.9
v 2 0 -1.9
v 2 4 -1.9
v -2 0 -2
v -2 4 -2
v -0.9 1 -2
v -0.9 3.1 -2
v -0.8 1.2 -2
v -0.8 2 -2
v -0.8 2.1 -2
v -0.8 3 -2
v -0.0999999 1.2 -2
v -0.0999999 2 -2
v -0.0999999 2.1 -2
v -0.0999999 3 -2
v 0.1 1.2 -2
v 0.1 2 -2
v 0.1 2.1 -2
v 0.1 3 -2
v 0.8 1.2 -2
v 0.8 2 -2
v 0.8 2.1 -2
v 0.8 3 -2
v 0.9 1 -2
v 0.9 3.1 -2
v 2 0 -2
v 2 4 -2
v -2 0 -1.9
v 2 0 -1.9
v -2 0 -2
v 2 0 -2
v -0.4 0.4 -1.8
v -0.2 0.4 -1.8
v -0.4 0.4 -1.9
v -0.2 0.4 -1.9
v -0.5 0.5 -1.8
v -0.4 0.5 -1.8
v -0.5 0.5 -1.9
v -0.4 0.5 -1.9
v -0.9 1 -1.8
v 0.9 1 -1.8
v -0.9 1 -1.9
v 0.9 1 -1.9
v 1.3 1.5 -1.8
v 1.5 1.5 -1.8
v 1.3 1.5 -1.9
v 1.5 1.5 -1.9
v -1.9 1.6 -1.8
v -1.5 1.6 -1.8
v 1.2 1.6 -1.8
v 1.3 1.6 -1.8
v 1.5 1.6 -1.8
v 1.6 1.6 -1.8
v -1.9 1.6 -1.9
v -1.5 1.6 -1.9
v 1.2 1.6 -1.9
v 1.3 1.6 -1.9
v 1.5 1.6 -1.9
v 1.6 1.6 -1.9
v -0.8 2 -1.9
v -0.0999999 2 -1.9
v 0.1 2 -1.9
v 0.8 2 -1.9
v -0.8 2 -2
v -0.0999999 2 -2
v 0.1 2 -2
v 0.8 2 -2
v -0.8 3 -1.8
v 0.8 3 -1.8
v -0.0999999 3 -1.9
v 0.1 3 -1.9
v -0.8 3 -2
v -0.0999999 3 -2
v 0.1 3 -2
v 0.8 3 -2
v 1.3 3.2 -1.8
v 1.6 3.2 -1.8
v 1.3 3.2 -1.9
v 1.6 3.2 -1.9
v 1.6 3.3 -1.8
v 1.7 3.3 -1.8
v 1.6 3.3 -1.9
v 1.7 3.3 -1.9
v -1.5 3.4 -1.8
v -1.2 3.4 -1.8
v -1.5 3.4 -1.9
v -1.2 3.4 -1.9
v -1.2 3.5 -1.8
v -1.1 3.5 -1.8
v -1.2 3.5 -1.9
v -1.1 3.5 -1.9
v -0.3 0.5 -1.8
v -0.2 0.5 -1.8
v -0.3 0.5 -1.9
v -0.2 0.5 -1.9
v -0.5 0.6 -1.8
v -0.3 0.6 -1.8
v -0.5 0.6 -1.9
v -0.3 0.6 -1.9
v -0.8 1.2 -1.8
v 0.8 1.2 -1.8
v -0.0999999 1.2 -1.9
v 0.1 1.2 -1.9
v -0.8 1.2 -2
v -0.0999999 1.2 -2
v 0.1 1.2 -2
v 0.8 1.2 -2
v -1.9 1.7 -1.8
v -1.8 1.7 -1.8
v -1.6 1.7 -1.8
v -1.5 1.7 -1.8
v 1.2 1.7 -1.8
v 1.6 1.7 -1.8
v -1.9 1.7 -1.9
v -1.8 1.7 -1.9
v -1.6 1.7 -1.9
v -1.5 1.7 -1.9
v 1.2 1.7 -1.9
v 1.6 1.7 -1.9
v -1.8 1.8 -1.8
v -1.6 1.8 -1.8
v -1.8 1.8 -1.9
v -1.6 1.8 -1.9
v -0.8 2.1 -1.9
v -0.0999999 2.1 -1.9
v 0.1 2.1 -1.9
v 0.8 2.1 -1.9
v -0.8 2.1 -2
v -0.0999999 2.1 -2
v 0.1 2.1 -2
v 0.8 2.1 -2
v -0.9 3.2 -1.8
v 0.9 3.2 -1.8
v -0.9 3.2 -1.9
v 0.9 3.2 -1.9
v 1.3 3.3 -1.8
v 1.4 3.3 -1.8
v 1.3 3.3 -1.9
v 1.4 3.3 -1.9
v 1.4 3.4 -1.8
v 1.7 3.4 -1.8
v 1.4 3.4 -1.9
v 1.7 3.4 -1.9
v -1.5 3.5 -1.8
v -1.4 3.5 -1.8
v -1.5 3.5 -1.9
v -1.4 3.5 -1.9
v -1.4 3.6 -1.8
v -1.1 3.6 -1.8
v -1.4 3.6 -1.9
v -1.1 3.6 -1.9
v -2 4 -1.9
v 2 4 -1.9
v -2 4 -2
v 2 4 -2

# faces
f 3/2/1 2/2/1 1/2/1
f 4/2/1 2/2/1 3/2/1
f 7/3/1 6/3/1 5/3/1
f 8/3/1 6/3/1 7/3/1
f 11/3/1 10/3/1 9/3/1
f 12/3/1 10/3/1 11/3/1
f 15/3/1 14/3/1 13/3/1
f 16/3/1 14/3/1 15/3/1
f 19/3/1 18/3/1 17/3/1
f 20/3/1 18/3/1 19/3/1
f 23/4/1 22/4/1 21/4/1
f 24/4/1 22/4/1 23/4/1
f 27/3/1 26/3/1 25/3/1
f 28/3/1 26/3/1 27/3/1
f 31/3/1 30/3/1 29/3/1
f 32/3/1 30/3/1 31/3/1
f 35/1/1 34/1/1 33/1/1
f 36/1/1 34/1/1 35/1/1
f 39/1/1 38/1/1 37/1/1
f 40/1/1 38/1/1 39/1/1
f 43/4/1 42/4/1 41/4/1
f 44/4/1 42/4/1 43/4/1
f 45/4/1 43/4/1 41/4/1
f 47/4/1 45/4/1 41/4/1
f 47/4/1 46/4/1 45/4/1
f 48/4/1 46/4/1 47/4/1
f 51/3/1 50/3/1 49/3/1
f 52/3/1 50/3/1 51/3/1
f 55/3/1 54/3/1 53/3/1
f 56/3/1 54/3/1 55/3/1
f 59/3/1 58/3/1 57/3/1
f 60/3/1 58/3/1 59/3/1
f 63/3/1 62/3/1 61/3/1
f 64/3/1 62/3/1 63/3/1
f 65/3/2 66/3/2 67/3/2
f 67/3/2 66/3/2 68/3/2
f 69/3/2 70/3/2 71/3/2
f 71/3/2 70/3/2 72/3/2
f 73/3/2 74/3/2 75/3/2
f 75/3/2 74/3/2 76/3/2
f 77/3/2 78/3/2 79/3/2
f 79/3/2 78/3/2 80/3/2
f 81/4/2 82/4/2 83/4/2
f 83/4/2 82/4/2 84/4/2
f 81/4/2 83/4/2 85/4/2
f 81/4/2 85/4/2 87/4/2
f 85/4/2 86/4/2 87/4/2
f 87/4/2 86/4/2 88/4/2
f 89/3/2 90/3/2 91/3/2
f 91/3/2 90/3/2 92/3/2
f 93/3/2 94/3/2 95/3/2
f 95/3/2 94/3/2 96/3/2
f 97/1/2 98/1/2 99/1/2
f 99/1/2 98/1/2 100/1/2
f 101/1/2 102/1/2 103/1/2
f 103/1/2 102/1/2 104/1/2
f 105/4/2 106/4/2 107/4/2
f 107/4/2 106/4/2 108/4/2
f 109/3/2 110/3/2 111/3/2
f 111/3/2 110/3/2 112/3/2
f 113/3/2 114/3/2 115/3/2
f 115/3/2 114/3/2 116/3/2
f 117/3/2 118/3/2 119/3/2
f 119/3/2 118/3/2 120/3/2
f 121/3/2 122/3/2 123/3/2
f 123/3/2 122/3/2 124/3/2
f 125/2/2 126/2/2 127/2/2
f 127/2/2 126/2/2 128/2/2
f 131/3/3 130/3/3 129/3/3
f 133/3/3 131/3/3 129/3/3
f 133/3/3 132/3/3 131/3/3
f 134/3/3 132/3/3 133/3/3
f 135/3/3 133/3/3 129/3/3
f 136/3/3 133/3/3 135/3/3
f 139/3/3 138/3/3 137/3/3
f 141/3/3 139/3/3 137/3/3
f 141/3/3 140/3/3 139/3/3
f 142/3/3 140/3/3 141/3/3
f 143/3/3 140/3/3 142/3/3
f 144/3/3 140/3/3 143/3/3
f 147/4/3 146/4/3 145/4/3
f 148/4/3 146/4/3 147/4/3
f 152/3/3 150/3/3 149/3/3
f 153/3/3 150/3/3 152/3/3
f 153/3/3 152/3/3 151/3/3
f 154/3/3 150/3/3 153/3/3
f 155/3/3 153/3/3 151/3/3
f 156/3/3 153/3/3 155/3/3
f 157/4/3 147/4/3 145/4/3
f 158/4/3 146/4/3 148/4/3
f 159/4/3 157/4/3 145/4/3
f 159/4/3 158/4/3 157/4/3
f 160/4/3 146/4/3 158/4/3
f 160/4/3 158/4/3 159/4/3
f 164/3/3 162/3/3 161/3/3
f 167/3/3 166/3/3 165/3/3
f 169/3/3 164/3/3 163/3/3
f 170/3/3 162/3/3 164/3/3
f 170/3/3 164/3/3 169/3/3
f 171/3/3 162/3/3 170/3/3
f 172/3/3 162/3/3 171/3/3
f 173/3/3 168/3/3 167/3/3
f 173/3/3 167/3/3 165/3/3
f 174/3/3 168/3/3 173/3/3
f 175/3/3 168/3/3 174/3/3
f 176/3/3 168/3/3 175/3/3
f 179/2/3 178/2/3 177/2/3
f 180/2/3 178/2/3 179/2/3
f 181/2/3 178/2/3 180/2/3
f 182/2/3 178/2/3 181/2/3
f 184/2/3 178/2/3 182/2/3
f 185/2/3 179/2/3 177/2/3
f 186/2/3 184/2/3 183/2/3
f 187/2/3 178/2/3 184/2/3
f 187/2/3 184/2/3 186/2/3
f 188/2/3 178/2/3 187/2/3
f 189/2/3 178/2/3 188/2/3
f 190/2/3 178/2/3 189/2/3
f 191/2/3 186/2/3 185/2/3
f 191/2/3 187/2/3 186/2/3
f 193/2/3 192/2/3 191/2/3
f 194/2/3 178/2/3 190/2/3
f 195/2/3 185/2/3 177/2/3
f 195/2/3 194/2/3 193/2/3
f 195/2/3 193/2/3 191/2/3
f 195/2/3 191/2/3 185/2/3
f 196/2/3 194/2/3 195/2/3
f 199/2/3 195/2/3 177/2/3
f 200/2/3 195/2/3 199/2/3
f 201/2/3 199/2/3 177/2/3
f 202/2/3 199/2/3 201/2/3
f 204/2/3 195/2/3 200/2/3
f 205/2/3 201/2/3 177/2/3
f 206/2/3 204/2/3 203/2/3
f 208/1/3 198/1/3 197/1/3
f 209/1/3 198/1/3 208/1/3
f 211/1/3 208/1/3 207/1/3
f 211/1/3 210/1/3 209/1/3
f 211/1/3 209/1/3 208/1/3
f 212/1/3 210/1/3 211/1/3
f 213/1/3 210/1/3 212/1/3
f 214/1/3 210/1/3 213/1/3
f 215/1/3 213/1/3 212/1/3
f 216/1/3 213/1/3 215/1/3
f 217/2/3 206/2/3 205/2/3
f 217/2/3 195/2/3 204/2/3
f 217/2/3 204/2/3 206/2/3
f 218/2/3 194/2/3 196/2/3
f 219/2/3 218/2/3 217/2/3
f 220/2/3 218/2/3 219/2/3
f 221/2/3 219/2/3 217/2/3
f 222/2/3 219/2/3 221/2/3
f 223/2/3 194/2/3 218/2/3
f 223/2/3 218/2/3 220/2/3
f 224/2/3 194/2/3 223/2/3
f 225/2/3 194/2/3 224/2/3
f 226/2/3 194/2/3 225/2/3
f 227/2/3 221/2/3 217/2/3
f 229/2/3 228/2/3 227/2/3
f 230/2/3 223/2/3 220/2/3
f 231/2/3 223/2/3 230/2/3
f 233/2/3 230/2/3 229/2/3
f 233/2/3 232/2/3 231/2/3
f 233/2/3 231/2/3 230/2/3
f 234/2/3 194/2/3 226/2/3
f 235/2/3 217/2/3 205/2/3
f 235/2/3 234/2/3 233/2/3
f 235/2/3 205/2/3 177/2/3
f 235/2/3 229/2/3 227/2/3
f 235/2/3 233/2/3 229/2/3
f 235/2/3 227/2/3 217/2/3
f 236/2/3 178/2/3 194/2/3
f 236/2/3 234/2/3 235/2/3
f 236/2/3 194/2/3 234/2/3
f 237/2/4 238/2/4 239/2/4
f 239/2/4 238/2/4 240/2/4
f 239/4/4 240/4/4 241/4/4
f 241/4/4 240/4/4 242/4/4
f 242/4/4 240/4/4 243/4/4
f 243/4/4 240/4/4 244/4/4
f 239/4/4 241/4/4 245/4/4
f 242/1/4 243/1/4 246/1/4
f 246/1/4 243/1/4 247/1/4
f 244/4/4 240/4/4 248/4/4
f 246/1/4 247/1/4 249/1/4
f 247/1/4 248/1/4 249/1/4
f 239/4/4 245/4/4 249/4/4
f 245/1/4 246/1/4 249/1/4
f 249/1/4 248/1/4 250/1/4
f 250/1/4 248/1/4 251/1/4
f 248/4/4 240/4/4 252/4/4
f 251/1/4 248/1/4 252/1/4
f 239/4/4 249/4/4 253/4/4
f 250/1/4 251/1/4 254/1/4
f 254/1/4 251/1/4 255/1/4
f 252/4/4 240/4/4 256/4/4
f 237/2/4 239/2/4 257/2/4
f 255/4/4 256/4/4 257/4/4
f 239/4/4 253/4/4 257/4/4
f 254/4/4 255/4/4 257/4/4
f 253/4/4 254/4/4 257/4/4
f 256/4/4 240/4/4 258/4/4
f 257/4/4 256/4/4 258/4/4
f 240/2/4 238/2/4 258/2/4
f 237/2/4 257/2/4 259/2/4
f 257/2/4 258/2/4 259/2/4
f 258/2/4 238/2/4 260/2/4
f 259/2/4 258/2/4 260/2/4
f 263/2/5 262/2/5 261/2/5
f 264/2/5 262/2/5 263/2/5
f 267/3/5 266/3/5 265/3/5
f 268/3/5 266/3/5 267/3/5
f 271/3/5 270/3/5 269/3/5
f 272/3/5 270/3/5 271/3/5
f 275/4/5 274/4/5 273/4/5
f 276/4/5 274/4/5 275/4/5
f 279/3/5 278/3/5 277/3/5
f 280/3/5 278/3/5 279/3/5
f 287/3/5 282/3/5 281/3/5
f 288/3/5 282/3/5 287/3/5
f 289/3/5 284/3/5 283/3/5
f 290/3/5 284/3/5 289/3/5
f 291/3/5 286/3/5 285/3/5
f 292/3/5 286/3/5 291/3/5
f 297/1/5 294/1/5 293/1/5
f 298/1/5 294/1/5 297/1/5
f 299/1/5 296/1/5 295/1/5
f 300/1/5 296/1/5 299/1/5
f 303/4/5 302/4/5 301/4/5
f 304/4/5 302/4/5 303/4/5
f 305/4/5 303/4/5 301/4/5
f 306/4/5 303/4/5 305/4/5
f 307/4/5 302/4/5 304/4/5
f 308/4/5 302/4/5 307/4/5
f 311/3/5 310/3/5 309/3/5
f 312/3/5 310/3/5 311/3/5
f 315/3/5 314/3/5 313/3/5
f 316/3/5 314/3/5 315/3/5
f 319/3/5 318/3/5 317/3/5
f 320/3/5 318/3/5 319/3/5
f 323/3/5 322/3/5 321/3/5
f 324/3/5 322/3/5 323/3/5
f 325/3/6 326/3/6 327/3/6
f 327/3/6 326/3/6 328/3/6
f 329/3/6 330/3/6 331/3/6
f 331/3/6 330/3/6 332/3/6
f 333/4/6 334/4/6 335/4/6
f 335/4/6 334/4/6 336/4/6
f 333/4/6 335/4/6 337/4/6
f 337/4/6 335/4/6 338/4/6
f 336/4/6 334/4/6 339/4/6
f 339/4/6 334/4/6 340/4/6
f 341/3/6 342/3/6 347/3/6
f 347/3/6 342/3/6 348/3/6
f 343/3/6 344/3/6 349/3/6
f 349/3/6 344/3/6 350/3/6
f 345/3/6 346/3/6 351/3/6
f 351/3/6 346/3/6 352/3/6
f 353/3/6 354/3/6 355/3/6
f 355/3/6 354/3/6 356/3/6
f 357/1/6 358/1/6 361/1/6
f 361/1/6 358/1/6 362/1/6
f 359/1/6 360/1/6 363/1/6
f 363/1/6 360/1/6 364/1/6
f 365/4/6 366/4/6 367/4/6
f 367/4/6 366/4/6 368/4/6
f 369/3/6 370/3/6 371/3/6
f 371/3/6 370/3/6 372/3/6
f 373/3/6 374/3/6 375/3/6
f 375/3/6 374/3/6 376/3/6
f 377/3/6 378/3/6 379/3/6
f 379/3/6 378/3/6 380/3/6
f 381/3/6 382/3/6 383/3/6
f 383/3/6 382/3/6 384/3/6
f 385/2/6 386/2/6 387/2/6
f 387/2/6 386/2/6 388/2/6
