Library\Bee\artifacts\mvdfrm\UnityEngine.UI.ref.dll_6C1073D56147DE5F.mvfrm
Library\Bee\artifacts\mvdfrm\UnityEngine.AccessibilityModule.dll_2411058A7EA36476.mvfrm
Library\Bee\artifacts\mvdfrm\UnityEngine.AIModule.dll_1EDD9939D05A0224.mvfrm
Library\Bee\artifacts\mvdfrm\UnityEngine.AndroidJNIModule.dll_71DE02DC20B5D9E2.mvfrm
Library\Bee\artifacts\mvdfrm\UnityEngine.AnimationModule.dll_EB17BAFEDC41359C.mvfrm
Library\Bee\artifacts\mvdfrm\UnityEngine.AssetBundleModule.dll_4006663CC5BE584A.mvfrm
Library\Bee\artifacts\mvdfrm\UnityEngine.AudioModule.dll_A32449B8D179CF8E.mvfrm
Library\Bee\artifacts\mvdfrm\UnityEngine.ClothModule.dll_0A0CA6B3AB96AE72.mvfrm
Library\Bee\artifacts\mvdfrm\UnityEngine.CoreModule.dll_ECAC72F5CE9538FB.mvfrm
Library\Bee\artifacts\mvdfrm\UnityEngine.CrashReportingModule.dll_8783F4ABD1D9B773.mvfrm
Library\Bee\artifacts\mvdfrm\UnityEngine.DirectorModule.dll_C17CB71208426DD8.mvfrm
Library\Bee\artifacts\mvdfrm\UnityEngine.dll_247F5990E490FFAA.mvfrm
Library\Bee\artifacts\mvdfrm\UnityEngine.DSPGraphModule.dll_C6CE187B7AA33EF9.mvfrm
Library\Bee\artifacts\mvdfrm\UnityEngine.GameCenterModule.dll_9C2B4CF6E6F6CAD3.mvfrm
Library\Bee\artifacts\mvdfrm\UnityEngine.GIModule.dll_B719E2476C08EA3E.mvfrm
Library\Bee\artifacts\mvdfrm\UnityEngine.GridModule.dll_CA1D8EE3E6E9CEF2.mvfrm
Library\Bee\artifacts\mvdfrm\UnityEngine.HotReloadModule.dll_6C607904B774511E.mvfrm
Library\Bee\artifacts\mvdfrm\UnityEngine.ImageConversionModule.dll_B87D3EA224255E69.mvfrm
Library\Bee\artifacts\mvdfrm\UnityEngine.IMGUIModule.dll_DB83E91F97AB636F.mvfrm
Library\Bee\artifacts\mvdfrm\UnityEngine.InputLegacyModule.dll_D14B815B5DB00E3B.mvfrm
Library\Bee\artifacts\mvdfrm\UnityEngine.InputModule.dll_099A116947B1F432.mvfrm
Library\Bee\artifacts\mvdfrm\UnityEngine.JSONSerializeModule.dll_84288EC67DDEC500.mvfrm
Library\Bee\artifacts\mvdfrm\UnityEngine.LocalizationModule.dll_2F970182576F2A45.mvfrm
Library\Bee\artifacts\mvdfrm\UnityEngine.ParticleSystemModule.dll_DA963DF83FEB4301.mvfrm
Library\Bee\artifacts\mvdfrm\UnityEngine.PerformanceReportingModule.dll_7D64866C45DE88BA.mvfrm
Library\Bee\artifacts\mvdfrm\UnityEngine.Physics2DModule.dll_37BDAAEF7D3E2D31.mvfrm
Library\Bee\artifacts\mvdfrm\UnityEngine.PhysicsModule.dll_9F7C4366D3C3181F.mvfrm
Library\Bee\artifacts\mvdfrm\UnityEngine.ProfilerModule.dll_F3C2F048A19BF4E5.mvfrm
Library\Bee\artifacts\mvdfrm\UnityEngine.RuntimeInitializeOnLoadManagerInitializerModule.dll_EACA6CCDF4137FFA.mvfrm
Library\Bee\artifacts\mvdfrm\UnityEngine.ScreenCaptureModule.dll_9E103C4B924AF162.mvfrm
Library\Bee\artifacts\mvdfrm\UnityEngine.SharedInternalsModule.dll_3C8E7D779B5359B9.mvfrm
Library\Bee\artifacts\mvdfrm\UnityEngine.SpriteMaskModule.dll_8557BF870866604D.mvfrm
Library\Bee\artifacts\mvdfrm\UnityEngine.SpriteShapeModule.dll_596793977B609054.mvfrm
Library\Bee\artifacts\mvdfrm\UnityEngine.StreamingModule.dll_9FACA84F2BC8ECDA.mvfrm
Library\Bee\artifacts\mvdfrm\UnityEngine.SubstanceModule.dll_7C57BC98771BEAE8.mvfrm
Library\Bee\artifacts\mvdfrm\UnityEngine.SubsystemsModule.dll_F00525E8D6AE4860.mvfrm
Library\Bee\artifacts\mvdfrm\UnityEngine.TerrainModule.dll_B9C2BED5A981610D.mvfrm
Library\Bee\artifacts\mvdfrm\UnityEngine.TerrainPhysicsModule.dll_DB10E6CB592E3D8E.mvfrm
Library\Bee\artifacts\mvdfrm\UnityEngine.TextCoreFontEngineModule.dll_FCC12D3A26E01419.mvfrm
Library\Bee\artifacts\mvdfrm\UnityEngine.TextCoreTextEngineModule.dll_44A963ABB663CD37.mvfrm
Library\Bee\artifacts\mvdfrm\UnityEngine.TextRenderingModule.dll_C74FAE5649827157.mvfrm
Library\Bee\artifacts\mvdfrm\UnityEngine.TilemapModule.dll_58BF2656C13E4216.mvfrm
Library\Bee\artifacts\mvdfrm\UnityEngine.TLSModule.dll_62FE36AA9207C933.mvfrm
Library\Bee\artifacts\mvdfrm\UnityEngine.UIElementsModule.dll_F4438750D9DA8457.mvfrm
Library\Bee\artifacts\mvdfrm\UnityEngine.UIElementsNativeModule.dll_2999C706C3FB474E.mvfrm
Library\Bee\artifacts\mvdfrm\UnityEngine.UIModule.dll_1A5137672CA107D0.mvfrm
Library\Bee\artifacts\mvdfrm\UnityEngine.UmbraModule.dll_1DF8F5D15EA07B01.mvfrm
Library\Bee\artifacts\mvdfrm\UnityEngine.UNETModule.dll_7F52BADF1BA42E74.mvfrm
Library\Bee\artifacts\mvdfrm\UnityEngine.UnityAnalyticsModule.dll_FA35AEC1EC1294FD.mvfrm
Library\Bee\artifacts\mvdfrm\UnityEngine.UnityConnectModule.dll_5F0D462908F36531.mvfrm
Library\Bee\artifacts\mvdfrm\UnityEngine.UnityCurlModule.dll_1E345C304C552789.mvfrm
Library\Bee\artifacts\mvdfrm\UnityEngine.UnityTestProtocolModule.dll_DB812F2CABAC0077.mvfrm
Library\Bee\artifacts\mvdfrm\UnityEngine.UnityWebRequestAssetBundleModule.dll_B2BFFBC625DAAD8E.mvfrm
Library\Bee\artifacts\mvdfrm\UnityEngine.UnityWebRequestAudioModule.dll_F560DA4ACC495352.mvfrm
Library\Bee\artifacts\mvdfrm\UnityEngine.UnityWebRequestModule.dll_CA1C464C2F19F8E8.mvfrm
Library\Bee\artifacts\mvdfrm\UnityEngine.UnityWebRequestTextureModule.dll_845024E6AA0D6767.mvfrm
Library\Bee\artifacts\mvdfrm\UnityEngine.UnityWebRequestWWWModule.dll_0F6BA907A62389A3.mvfrm
Library\Bee\artifacts\mvdfrm\UnityEngine.VehiclesModule.dll_393FB091826C3D73.mvfrm
Library\Bee\artifacts\mvdfrm\UnityEngine.VFXModule.dll_E3DCCF19687532A0.mvfrm
Library\Bee\artifacts\mvdfrm\UnityEngine.VideoModule.dll_C82DCE23940BEB33.mvfrm
Library\Bee\artifacts\mvdfrm\UnityEngine.VRModule.dll_6D235DECCE5B8D48.mvfrm
Library\Bee\artifacts\mvdfrm\UnityEngine.WebGLModule.dll_4290BEC7C34FE151.mvfrm
Library\Bee\artifacts\mvdfrm\UnityEngine.WindModule.dll_62FB4E1E5FCBB764.mvfrm
Library\Bee\artifacts\mvdfrm\UnityEngine.XRModule.dll_9FE220F15795DAA6.mvfrm
Library\Bee\artifacts\mvdfrm\Unity.VisualScripting.Antlr3.Runtime.dll_DC601671A4EBE811.mvfrm