# MagicaVoxel @ Ephtracy

# group
o 

# material
mtllib Arena.mtl
usemtl palette

# normals
vn -1 0 0
vn 1 0 0
vn 0 0 1
vn 0 0 -1
vn 0 -1 0
vn 0 1 0

# texcoords
vt 0.00976563 0.5
vt 0.0136719 0.5

# verts
v -2 0 2
v -2 0 -2
v -2 0.1 2
v -2 0.1 0.5
v -2 0.1 -2
v -2 0.2 2
v -2 0.2 0.5
v -1.5 0.1 -1.3
v -1.5 0.1 -1.8
v -1.5 0.2 -1.3
v -1.5 0.2 -1.8
v -1.3 0.1 -0.5
v -1.3 0.1 -0.9
v -1.3 0.2 -0.5
v -1.3 0.2 -0.9
v 0.1 0.1 1
v 0.1 0.1 0.4
v 0.1 0.2 1
v 0.1 0.2 0.4
v 0.2 0.1 -1.5
v 0.2 0.1 -1.7
v 0.2 0.2 -1.5
v 0.2 0.2 -1.7
v 0.3 0.1 -0.4
v 0.3 0.1 -1
v 0.3 0.1 -1.1
v 0.3 0.2 -0.4
v 0.3 0.2 -1.1
v 1.5 0.1 2
v 1.5 0.1 0.6
v 1.5 0.2 2
v 1.5 0.2 0.6
v -0.8 0.1 -1.3
v -0.8 0.1 -1.8
v -0.8 0.2 -1.3
v -0.8 0.2 -1.8
v -0.7 0.1 -0.5
v -0.7 0.1 -0.9
v -0.7 0.2 -0.5
v -0.7 0.2 -0.9
v -0.4 0.1 2
v -0.4 0.1 0.5
v -0.4 0.2 2
v -0.4 0.2 0.5
v 0.6 0.1 1
v 0.6 0.1 0.5
v 0.6 0.1 0.4
v 0.6 0.2 1
v 0.6 0.2 0.4
v 0.7 0.1 -1.5
v 0.7 0.1 -1.7
v 0.7 0.2 -1.5
v 0.7 0.2 -1.7
v 1.1 0.1 -0.4
v 1.1 0.1 -1.1
v 1.1 0.2 -0.4
v 1.1 0.2 -1.1
v 2 0 2
v 2 0 -2
v 2 0.1 2
v 2 0.1 0.6
v 2 0.1 -2
v 2 0.2 2
v 2 0.2 0.6
v -2 0 2
v -2 0.1 2
v -2 0.2 2
v -0.4 0.1 2
v -0.4 0.2 2
v -0.0999999 0 2
v -0.0999999 0.1 2
v 1.5 0.1 2
v 1.5 0.2 2
v 1.8 0 2
v 1.8 0.1 2
v 2 0 2
v 2 0.1 2
v 2 0.2 2
v 0.1 0.1 1
v 0.1 0.2 1
v 0.6 0.1 1
v 0.6 0.2 1
v 0.3 0.1 -0.4
v 0.3 0.2 -0.4
v 0.6 0.1 -0.4
v 1.1 0.1 -0.4
v 1.1 0.2 -0.4
v -1.3 0.1 -0.5
v -1.3 0.2 -0.5
v -0.9 0.1 -0.5
v -0.7 0.1 -0.5
v -0.7 0.2 -0.5
v -1.5 0.1 -1.3
v -1.5 0.2 -1.3
v -1.3 0.1 -1.3
v -0.8 0.1 -1.3
v -0.8 0.2 -1.3
v 0.2 0.1 -1.5
v 0.2 0.2 -1.5
v 0.7 0.1 -1.5
v 0.7 0.2 -1.5
v 1.5 0.1 0.6
v 1.5 0.2 0.6
v 1.8 0.1 0.6
v 2 0.1 0.6
v 2 0.2 0.6
v -2 0.1 0.5
v -2 0.2 0.5
v -0.9 0.1 0.5
v -0.4 0.1 0.5
v -0.4 0.2 0.5
v 0.1 0.1 0.4
v 0.1 0.2 0.4
v 0.6 0.1 0.4
v 0.6 0.2 0.4
v -1.3 0.1 -0.9
v -1.3 0.2 -0.9
v -0.7 0.1 -0.9
v -0.7 0.2 -0.9
v 0.3 0.1 -1.1
v 0.3 0.2 -1.1
v 1.1 0.1 -1.1
v 1.1 0.2 -1.1
v 0.2 0.1 -1.7
v 0.2 0.2 -1.7
v 0.7 0.1 -1.7
v 0.7 0.2 -1.7
v -1.5 0.1 -1.8
v -1.5 0.2 -1.8
v -1.3 0.1 -1.8
v -0.8 0.1 -1.8
v -0.8 0.2 -1.8
v -2 0 -2
v -2 0.1 -2
v -1.3 0 -2
v -1.3 0.1 -2
v -0.2 0 -2
v -0.2 0.1 -2
v 2 0 -2
v 2 0.1 -2
v -2 0 2
v -0.0999999 0 2
v 1.8 0 2
v 2 0 2
v -0.9 0 0.5
v -0.0999999 0 0.5
v 0.6 0 0.5
v 1.8 0 0.5
v 1.4 0 -0.3
v 1.9 0 -0.3
v 1.4 0 -0.8
v 1.9 0 -0.8
v -1.3 0 -0.9
v -0.9 0 -0.9
v -0.2 0 -1
v 0.6 0 -1
v -2 0 -2
v -1.3 0 -2
v -0.2 0 -2
v 2 0 -2
v -0.4 0.1 2
v -0.0999999 0.1 2
v 1.5 0.1 2
v 0.1 0.1 1
v 0.6 0.1 1
v 1.5 0.1 0.6
v 1.8 0.1 0.6
v 2 0.1 0.6
v -2 0.1 0.5
v -0.9 0.1 0.5
v -0.4 0.1 0.5
v -0.0999999 0.1 0.5
v 0.6 0.1 0.5
v 1.8 0.1 0.5
v 0.1 0.1 0.4
v 0.6 0.1 0.4
v 1.4 0.1 -0.3
v 1.9 0.1 -0.3
v 0.3 0.1 -0.4
v 0.6 0.1 -0.4
v 1.1 0.1 -0.4
v -1.3 0.1 -0.5
v -0.9 0.1 -0.5
v -0.7 0.1 -0.5
v 1.4 0.1 -0.8
v 1.9 0.1 -0.8
v -1.3 0.1 -0.9
v -0.7 0.1 -0.9
v -0.2 0.1 -1
v 0.3 0.1 -1
v 0.3 0.1 -1.1
v 1.1 0.1 -1.1
v -1.5 0.1 -1.3
v -1.3 0.1 -1.3
v -0.8 0.1 -1.3
v 0.2 0.1 -1.5
v 0.7 0.1 -1.5
v 0.2 0.1 -1.7
v 0.7 0.1 -1.7
v -1.5 0.1 -1.8
v -1.3 0.1 -1.8
v -0.8 0.1 -1.8
v -2 0.1 -2
v -1.3 0.1 -2
v -0.2 0.1 -2
v 2 0.1 -2
v -2 0.2 2
v -0.4 0.2 2
v 1.5 0.2 2
v 2 0.2 2
v 0.1 0.2 1
v 0.6 0.2 1
v 1.5 0.2 0.6
v 2 0.2 0.6
v -2 0.2 0.5
v -0.4 0.2 0.5
v 0.1 0.2 0.4
v 0.6 0.2 0.4
v 0.3 0.2 -0.4
v 1.1 0.2 -0.4
v -1.3 0.2 -0.5
v -0.7 0.2 -0.5
v -1.3 0.2 -0.9
v -0.7 0.2 -0.9
v 0.3 0.2 -1.1
v 1.1 0.2 -1.1
v -1.5 0.2 -1.3
v -0.8 0.2 -1.3
v 0.2 0.2 -1.5
v 0.7 0.2 -1.5
v 0.2 0.2 -1.7
v 0.7 0.2 -1.7
v -1.5 0.2 -1.8
v -0.8 0.2 -1.8

# faces
f 3/1/1 2/1/1 1/1/1
f 4/1/1 2/1/1 3/1/1
f 5/1/1 2/1/1 4/1/1
f 6/2/1 4/2/1 3/2/1
f 7/2/1 4/2/1 6/2/1
f 10/2/1 9/2/1 8/2/1
f 11/2/1 9/2/1 10/2/1
f 14/2/1 13/2/1 12/2/1
f 15/2/1 13/2/1 14/2/1
f 18/2/1 17/2/1 16/2/1
f 19/2/1 17/2/1 18/2/1
f 22/2/1 21/2/1 20/2/1
f 23/2/1 21/2/1 22/2/1
f 27/2/1 25/2/1 24/2/1
f 27/2/1 26/2/1 25/2/1
f 28/2/1 26/2/1 27/2/1
f 31/2/1 30/2/1 29/2/1
f 32/2/1 30/2/1 31/2/1
f 33/2/2 34/2/2 35/2/2
f 35/2/2 34/2/2 36/2/2
f 37/2/2 38/2/2 39/2/2
f 39/2/2 38/2/2 40/2/2
f 41/2/2 42/2/2 43/2/2
f 43/2/2 42/2/2 44/2/2
f 45/2/2 46/2/2 48/2/2
f 46/2/2 47/2/2 48/2/2
f 48/2/2 47/2/2 49/2/2
f 50/2/2 51/2/2 52/2/2
f 52/2/2 51/2/2 53/2/2
f 54/2/2 55/2/2 56/2/2
f 56/2/2 55/2/2 57/2/2
f 58/1/2 59/1/2 60/1/2
f 60/1/2 59/1/2 61/1/2
f 61/1/2 59/1/2 62/1/2
f 60/2/2 61/2/2 63/2/2
f 63/2/2 61/2/2 64/2/2
f 68/1/3 66/1/3 65/1/3
f 68/2/3 67/2/3 66/2/3
f 69/2/3 67/2/3 68/2/3
f 70/1/3 68/1/3 65/1/3
f 71/1/3 68/1/3 70/1/3
f 72/2/3 71/2/3 70/2/3
f 74/2/3 72/2/3 70/2/3
f 74/2/3 73/2/3 72/2/3
f 75/2/3 73/2/3 74/2/3
f 76/1/3 75/1/3 74/1/3
f 77/2/3 73/2/3 75/2/3
f 77/1/3 75/1/3 76/1/3
f 78/2/3 73/2/3 77/2/3
f 81/2/3 80/2/3 79/2/3
f 82/2/3 80/2/3 81/2/3
f 85/2/3 84/2/3 83/2/3
f 86/2/3 84/2/3 85/2/3
f 87/2/3 84/2/3 86/2/3
f 90/2/3 89/2/3 88/2/3
f 91/2/3 89/2/3 90/2/3
f 92/2/3 89/2/3 91/2/3
f 95/2/3 94/2/3 93/2/3
f 96/2/3 94/2/3 95/2/3
f 97/2/3 94/2/3 96/2/3
f 100/2/3 99/2/3 98/2/3
f 101/2/3 99/2/3 100/2/3
f 102/2/4 103/2/4 104/2/4
f 104/2/4 103/2/4 105/2/4
f 105/2/4 103/2/4 106/2/4
f 107/2/4 108/2/4 109/2/4
f 109/2/4 108/2/4 110/2/4
f 110/2/4 108/2/4 111/2/4
f 112/2/4 113/2/4 114/2/4
f 114/2/4 113/2/4 115/2/4
f 116/2/4 117/2/4 118/2/4
f 118/2/4 117/2/4 119/2/4
f 120/2/4 121/2/4 122/2/4
f 122/2/4 121/2/4 123/2/4
f 124/2/4 125/2/4 126/2/4
f 126/2/4 125/2/4 127/2/4
f 128/2/4 129/2/4 130/2/4
f 130/2/4 129/2/4 131/2/4
f 131/2/4 129/2/4 132/2/4
f 133/1/4 134/1/4 135/1/4
f 135/1/4 134/1/4 136/1/4
f 135/2/4 136/2/4 137/2/4
f 137/2/4 136/2/4 138/2/4
f 137/1/4 138/1/4 139/1/4
f 139/1/4 138/1/4 140/1/4
f 145/1/5 142/1/5 141/1/5
f 146/2/5 143/2/5 142/2/5
f 146/1/5 142/1/5 145/1/5
f 147/2/5 143/2/5 146/2/5
f 148/1/5 144/1/5 143/1/5
f 148/2/5 143/2/5 147/2/5
f 149/1/5 148/1/5 147/1/5
f 150/1/5 144/1/5 148/1/5
f 150/1/5 148/1/5 149/1/5
f 151/1/5 149/1/5 147/1/5
f 151/2/5 150/2/5 149/2/5
f 152/1/5 144/1/5 150/1/5
f 152/2/5 150/2/5 151/2/5
f 153/1/5 145/1/5 141/1/5
f 154/2/5 147/2/5 146/2/5
f 154/1/5 145/1/5 153/1/5
f 154/2/5 146/2/5 145/2/5
f 155/2/5 154/2/5 153/2/5
f 155/2/5 147/2/5 154/2/5
f 156/1/5 152/1/5 151/1/5
f 156/2/5 147/2/5 155/2/5
f 156/1/5 151/1/5 147/1/5
f 157/1/5 153/1/5 141/1/5
f 158/2/5 155/2/5 153/2/5
f 158/1/5 153/1/5 157/1/5
f 159/1/5 156/1/5 155/1/5
f 159/2/5 155/2/5 158/2/5
f 160/1/5 152/1/5 156/1/5
f 160/1/5 156/1/5 159/1/5
f 160/1/5 144/1/5 152/1/5
f 162/2/6 163/2/6 164/2/6
f 164/2/6 163/2/6 165/2/6
f 165/2/6 163/2/6 166/2/6
f 161/1/6 162/1/6 171/1/6
f 162/2/6 164/2/6 172/2/6
f 171/1/6 162/1/6 172/1/6
f 165/2/6 166/2/6 173/2/6
f 166/2/6 167/2/6 173/2/6
f 167/1/6 168/1/6 174/1/6
f 173/2/6 167/2/6 174/2/6
f 170/2/6 171/2/6 175/2/6
f 172/2/6 164/2/6 175/2/6
f 171/2/6 172/2/6 175/2/6
f 173/1/6 174/1/6 176/1/6
f 176/1/6 174/1/6 177/1/6
f 174/1/6 168/1/6 178/1/6
f 177/1/6 174/1/6 178/1/6
f 175/2/6 176/2/6 179/2/6
f 176/1/6 177/1/6 180/1/6
f 179/2/6 176/2/6 180/2/6
f 180/1/6 177/1/6 181/1/6
f 169/1/6 170/1/6 182/1/6
f 175/2/6 179/2/6 183/2/6
f 182/1/6 170/1/6 183/1/6
f 170/2/6 175/2/6 183/2/6
f 183/2/6 179/2/6 184/2/6
f 181/1/6 177/1/6 185/1/6
f 177/2/6 178/2/6 185/2/6
f 178/1/6 168/1/6 186/1/6
f 185/2/6 178/2/6 186/2/6
f 169/1/6 182/1/6 187/1/6
f 184/2/6 179/2/6 188/2/6
f 188/2/6 179/2/6 189/2/6
f 187/2/6 188/2/6 189/2/6
f 189/2/6 179/2/6 190/2/6
f 189/1/6 190/1/6 191/1/6
f 181/1/6 185/1/6 192/1/6
f 185/1/6 186/1/6 192/1/6
f 169/1/6 187/1/6 193/1/6
f 187/2/6 189/2/6 194/2/6
f 193/1/6 187/1/6 194/1/6
f 194/2/6 189/2/6 195/2/6
f 191/1/6 192/1/6 196/1/6
f 189/1/6 191/1/6 196/1/6
f 196/1/6 192/1/6 197/1/6
f 189/1/6 196/1/6 198/1/6
f 197/1/6 192/1/6 199/1/6
f 169/1/6 193/1/6 200/1/6
f 195/2/6 189/2/6 202/2/6
f 200/1/6 201/1/6 203/1/6
f 169/1/6 200/1/6 203/1/6
f 201/2/6 202/2/6 204/2/6
f 203/1/6 201/1/6 204/1/6
f 198/1/6 199/1/6 205/1/6
f 204/2/6 202/2/6 205/2/6
f 189/1/6 198/1/6 205/1/6
f 202/2/6 189/2/6 205/2/6
f 186/1/6 168/1/6 206/1/6
f 205/1/6 199/1/6 206/1/6
f 192/1/6 186/1/6 206/1/6
f 199/1/6 192/1/6 206/1/6
f 209/2/6 210/2/6 213/2/6
f 213/2/6 210/2/6 214/2/6
f 207/2/6 208/2/6 215/2/6
f 215/2/6 208/2/6 216/2/6
f 211/2/6 212/2/6 217/2/6
f 217/2/6 212/2/6 218/2/6
f 221/2/6 222/2/6 223/2/6
f 223/2/6 222/2/6 224/2/6
f 219/2/6 220/2/6 225/2/6
f 225/2/6 220/2/6 226/2/6
f 229/2/6 230/2/6 231/2/6
f 231/2/6 230/2/6 232/2/6
f 227/2/6 228/2/6 233/2/6
f 233/2/6 228/2/6 234/2/6
