# MagicaVoxel @ Ephtracy

# group
o 

# material
mtllib Estandarte2.mtl
usemtl palette

# normals
vn -1 0 0
vn 1 0 0
vn 0 0 1
vn 0 0 -1
vn 0 -1 0
vn 0 1 0

# texcoords
vt 0.00976563 0.5
vt 0.0644531 0.5
vt 0.0917969 0.5
vt 0.142578 0.5
vt 0.353516 0.5
vt 0.548828 0.5

# verts
v -2 0 -1.9
v -2 0 -2
v -2 4 -1.9
v -2 4 -2
v -1.8 1.2 -1.8
v -1.8 1.2 -1.9
v -1.8 1.3 -1.8
v -1.8 1.3 -1.9
v -1.7 0.4 -1.8
v -1.7 0.4 -1.9
v -1.7 0.5 -1.8
v -1.7 0.5 -1.9
v -1.7 1.3 -1.8
v -1.7 1.3 -1.9
v -1.7 1.4 -1.8
v -1.7 1.4 -1.9
v -1.7 3.3 -1.8
v -1.7 3.3 -1.9
v -1.7 3.4 -1.8
v -1.7 3.4 -1.9
v -1.6 0.5 -1.8
v -1.6 0.5 -1.9
v -1.6 0.6 -1.8
v -1.6 0.6 -1.9
v -1.6 3.2 -1.8
v -1.6 3.2 -1.9
v -1.6 3.3 -1.8
v -1.6 3.3 -1.9
v -1 0 -1.8
v -1 0 -1.9
v -1 3.9 -1.8
v -1 3.9 -1.9
v 1.2 3 -1.8
v 1.2 3 -1.9
v 1.2 3.1 -1.8
v 1.2 3.1 -1.9
v 1.3 2.9 -1.8
v 1.3 2.9 -1.9
v 1.3 3 -1.8
v 1.3 3 -1.9
v 1.4 1.5 -1.8
v 1.4 1.5 -1.9
v 1.4 1.6 -1.8
v 1.4 1.6 -1.9
v 1.5 1.6 -1.8
v 1.5 1.6 -1.9
v 1.5 1.7 -1.8
v 1.5 1.7 -1.9
v -1.5 1.2 -1.8
v -1.5 1.2 -1.9
v -1.5 1.3 -1.8
v -1.5 1.3 -1.9
v -1.5 3.3 -1.8
v -1.5 3.3 -1.9
v -1.5 3.4 -1.8
v -1.5 3.4 -1.9
v -1.4 0.5 -1.8
v -1.4 0.5 -1.9
v -1.4 0.6 -1.8
v -1.4 0.6 -1.9
v -1.4 1.3 -1.8
v -1.4 1.3 -1.9
v -1.4 1.4 -1.8
v -1.4 1.4 -1.9
v -1.4 3.2 -1.8
v -1.4 3.2 -1.9
v -1.4 3.3 -1.8
v -1.4 3.3 -1.9
v -1.3 0.4 -1.8
v -1.3 0.4 -1.9
v -1.3 0.5 -1.8
v -1.3 0.5 -1.9
v 1.1 0 -1.8
v 1.1 0 -1.9
v 1.1 3.9 -1.8
v 1.1 3.9 -1.9
v 1.5 2.9 -1.8
v 1.5 2.9 -1.9
v 1.5 3 -1.8
v 1.5 3 -1.9
v 1.6 3 -1.8
v 1.6 3 -1.9
v 1.6 3.1 -1.8
v 1.6 3.1 -1.9
v 1.7 1.5 -1.8
v 1.7 1.5 -1.9
v 1.7 1.6 -1.8
v 1.7 1.6 -1.9
v 1.8 1.6 -1.8
v 1.8 1.6 -1.9
v 1.8 1.7 -1.8
v 1.8 1.7 -1.9
v 2 0 -1.9
v 2 0 -2
v 2 4 -1.9
v 2 4 -2
v -1.8 1.2 -1.8
v -1.8 1.3 -1.8
v -1.7 0.4 -1.8
v -1.7 0.5 -1.8
v -1.7 1.3 -1.8
v -1.7 1.4 -1.8
v -1.7 3.3 -1.8
v -1.7 3.4 -1.8
v -1.6 0.5 -1.8
v -1.6 0.6 -1.8
v -1.6 3.2 -1.8
v -1.6 3.3 -1.8
v -1.5 1.2 -1.8
v -1.5 1.3 -1.8
v -1.5 3.3 -1.8
v -1.5 3.4 -1.8
v -1.4 0.5 -1.8
v -1.4 0.6 -1.8
v -1.4 1.3 -1.8
v -1.4 1.4 -1.8
v -1.4 3.2 -1.8
v -1.4 3.3 -1.8
v -1.3 0.4 -1.8
v -1.3 0.5 -1.8
v -1 0 -1.8
v -1 3.9 -1.8
v -0.9 0 -1.8
v -0.9 3.8 -1.8
v -0.8 0 -1.8
v -0.8 3.5 -1.8
v -0.8 3.6 -1.8
v -0.8 3.7 -1.8
v -0.7 0 -1.8
v -0.7 3.4 -1.8
v -0.7 3.6 -1.8
v -0.7 3.7 -1.8
v -0.6 0 -1.8
v -0.6 0.1 -1.8
v -0.6 0.2 -1.8
v -0.6 1.6 -1.8
v -0.6 1.8 -1.8
v -0.6 2.4 -1.8
v -0.6 2.6 -1.8
v -0.6 3 -1.8
v -0.6 3.2 -1.8
v -0.6 3.3 -1.8
v -0.6 3.5 -1.8
v -0.6 3.7 -1.8
v -0.5 0 -1.8
v -0.5 0.1 -1.8
v -0.5 0.2 -1.8
v -0.5 0.3 -1.8
v -0.5 0.4 -1.8
v -0.5 0.5 -1.8
v -0.5 0.6 -1.8
v -0.5 0.8 -1.8
v -0.5 0.9 -1.8
v -0.5 1.6 -1.8
v -0.5 1.8 -1.8
v -0.5 2 -1.8
v -0.5 2.2 -1.8
v -0.5 2.4 -1.8
v -0.5 2.6 -1.8
v -0.5 2.9 -1.8
v -0.5 3.4 -1.8
v -0.5 3.6 -1.8
v -0.4 0 -1.8
v -0.4 0.1 -1.8
v -0.4 0.2 -1.8
v -0.4 0.3 -1.8
v -0.4 0.4 -1.8
v -0.4 0.5 -1.8
v -0.4 0.6 -1.8
v -0.4 0.7 -1.8
v -0.4 0.8 -1.8
v -0.4 0.9 -1.8
v -0.4 1.4 -1.8
v -0.4 2 -1.8
v -0.4 2.2 -1.8
v -0.4 2.6 -1.8
v -0.4 2.7 -1.8
v -0.4 2.8 -1.8
v -0.4 3.3 -1.8
v -0.4 3.5 -1.8
v -0.3 0 -1.8
v -0.3 0.1 -1.8
v -0.3 0.2 -1.8
v -0.3 0.3 -1.8
v -0.3 0.4 -1.8
v -0.3 0.5 -1.8
v -0.3 0.6 -1.8
v -0.3 0.7 -1.8
v -0.3 0.8 -1.8
v -0.3 0.9 -1.8
v -0.3 1 -1.8
v -0.3 1.2 -1.8
v -0.3 1.4 -1.8
v -0.3 1.5 -1.8
v -0.3 1.8 -1.8
v -0.3 2 -1.8
v -0.3 2.6 -1.8
v -0.2 0 -1.8
v -0.2 0.1 -1.8
v -0.2 0.2 -1.8
v -0.2 0.3 -1.8
v -0.2 0.4 -1.8
v -0.2 0.5 -1.8
v -0.2 0.6 -1.8
v -0.2 0.8 -1.8
v -0.2 0.9 -1.8
v -0.2 1 -1.8
v -0.2 1.1 -1.8
v -0.2 1.4 -1.8
v -0.2 1.5 -1.8
v -0.2 1.6 -1.8
v -0.2 1.9 -1.8
v -0.2 2 -1.8
v -0.2 2.3 -1.8
v -0.2 2.4 -1.8
v -0.0999999 0.1 -1.8
v -0.0999999 0.2 -1.8
v -0.0999999 0.4 -1.8
v -0.0999999 0.5 -1.8
v -0.0999999 0.6 -1.8
v -0.0999999 0.7 -1.8
v -0.0999999 0.8 -1.8
v -0.0999999 0.9 -1.8
v -0.0999999 1 -1.8
v -0.0999999 1.1 -1.8
v -0.0999999 1.6 -1.8
v -0.0999999 1.8 -1.8
v -0.0999999 2.2 -1.8
v -0.0999999 2.3 -1.8
v -0.0999999 2.4 -1.8
v 2.38419e-07 0 -1.8
v 2.38419e-07 0.1 -1.8
v 2.38419e-07 0.3 -1.8
v 2.38419e-07 0.4 -1.8
v 2.38419e-07 0.5 -1.8
v 2.38419e-07 0.6 -1.8
v 2.38419e-07 0.7 -1.8
v 2.38419e-07 0.8 -1.8
v 2.38419e-07 1 -1.8
v 2.38419e-07 1.1 -1.8
v 2.38419e-07 1.2 -1.8
v 2.38419e-07 1.3 -1.8
v 2.38419e-07 1.4 -1.8
v 2.38419e-07 1.5 -1.8
v 2.38419e-07 1.9 -1.8
v 2.38419e-07 2 -1.8
v 2.38419e-07 2.1 -1.8
v 2.38419e-07 2.2 -1.8
v 2.38419e-07 2.3 -1.8
v 2.38419e-07 2.4 -1.8
v 0.1 0 -1.8
v 0.1 0.1 -1.8
v 0.1 0.3 -1.8
v 0.1 0.4 -1.8
v 0.1 0.5 -1.8
v 0.1 0.6 -1.8
v 0.1 0.8 -1.8
v 0.1 0.9 -1.8
v 0.1 1 -1.8
v 0.1 1.1 -1.8
v 0.1 1.2 -1.8
v 0.1 1.3 -1.8
v 0.1 1.4 -1.8
v 0.1 1.5 -1.8
v 0.1 1.9 -1.8
v 0.1 2 -1.8
v 0.1 2.1 -1.8
v 0.1 2.2 -1.8
v 0.1 2.3 -1.8
v 0.1 2.4 -1.8
v 0.1 3 -1.8
v 0.1 3.2 -1.8
v 0.2 0.1 -1.8
v 0.2 0.2 -1.8
v 0.2 0.4 -1.8
v 0.2 0.5 -1.8
v 0.2 0.6 -1.8
v 0.2 0.7 -1.8
v 0.2 0.8 -1.8
v 0.2 0.9 -1.8
v 0.2 1 -1.8
v 0.2 1.1 -1.8
v 0.2 1.6 -1.8
v 0.2 1.8 -1.8
v 0.2 2.2 -1.8
v 0.2 2.3 -1.8
v 0.2 2.4 -1.8
v 0.3 0.1 -1.8
v 0.3 0.2 -1.8
v 0.3 0.3 -1.8
v 0.3 0.4 -1.8
v 0.3 0.5 -1.8
v 0.3 0.6 -1.8
v 0.3 0.7 -1.8
v 0.3 0.8 -1.8
v 0.3 0.9 -1.8
v 0.3 1 -1.8
v 0.3 1.1 -1.8
v 0.3 1.2 -1.8
v 0.3 1.4 -1.8
v 0.3 1.5 -1.8
v 0.3 1.6 -1.8
v 0.3 1.9 -1.8
v 0.3 2 -1.8
v 0.3 2.3 -1.8
v 0.3 2.4 -1.8
v 0.3 3.4 -1.8
v 0.3 3.5 -1.8
v 0.4 0.1 -1.8
v 0.4 0.2 -1.8
v 0.4 0.3 -1.8
v 0.4 0.4 -1.8
v 0.4 0.5 -1.8
v 0.4 0.6 -1.8
v 0.4 0.7 -1.8
v 0.4 0.8 -1.8
v 0.4 1.1 -1.8
v 0.4 1.4 -1.8
v 0.4 1.5 -1.8
v 0.4 1.8 -1.8
v 0.4 2 -1.8
v 0.4 2.6 -1.8
v 0.5 0.1 -1.8
v 0.5 0.2 -1.8
v 0.5 0.3 -1.8
v 0.5 0.4 -1.8
v 0.5 0.5 -1.8
v 0.5 0.7 -1.8
v 0.5 0.8 -1.8
v 0.5 0.9 -1.8
v 0.5 1.1 -1.8
v 0.5 1.4 -1.8
v 0.5 1.9 -1.8
v 0.5 2 -1.8
v 0.5 2.1 -1.8
v 0.5 2.6 -1.8
v 0.5 2.7 -1.8
v 0.5 2.8 -1.8
v 0.5 3.3 -1.8
v 0.5 3.4 -1.8
v 0.5 3.5 -1.8
v 0.6 0 -1.8
v 0.6 0.1 -1.8
v 0.6 0.2 -1.8
v 0.6 0.3 -1.8
v 0.6 0.4 -1.8
v 0.6 0.5 -1.8
v 0.6 0.8 -1.8
v 0.6 0.9 -1.8
v 0.6 1.1 -1.8
v 0.6 1.4 -1.8
v 0.6 1.9 -1.8
v 0.6 2.1 -1.8
v 0.6 2.6 -1.8
v 0.6 2.9 -1.8
v 0.6 3.4 -1.8
v 0.6 3.6 -1.8
v 0.7 0 -1.8
v 0.7 0.1 -1.8
v 0.7 0.4 -1.8
v 0.7 0.5 -1.8
v 0.7 3.3 -1.8
v 0.7 3.5 -1.8
v 0.7 3.7 -1.8
v 0.8 0 -1.8
v 0.8 3.4 -1.8
v 0.8 3.6 -1.8
v 0.8 3.7 -1.8
v 0.9 0 -1.8
v 0.9 3.5 -1.8
v 0.9 3.6 -1.8
v 0.9 3.7 -1.8
v 1 0 -1.8
v 1 3.8 -1.8
v 1.1 0 -1.8
v 1.1 3.9 -1.8
v 1.2 3 -1.8
v 1.2 3.1 -1.8
v 1.3 2.9 -1.8
v 1.3 3 -1.8
v 1.4 1.5 -1.8
v 1.4 1.6 -1.8
v 1.5 1.6 -1.8
v 1.5 1.7 -1.8
v 1.5 2.9 -1.8
v 1.5 3 -1.8
v 1.6 3 -1.8
v 1.6 3.1 -1.8
v 1.7 1.5 -1.8
v 1.7 1.6 -1.8
v 1.8 1.6 -1.8
v 1.8 1.7 -1.8
v -2 0 -1.9
v -2 4 -1.9
v -1.8 1.2 -1.9
v -1.8 1.3 -1.9
v -1.7 0.4 -1.9
v -1.7 0.5 -1.9
v -1.7 1.3 -1.9
v -1.7 1.4 -1.9
v -1.7 3.3 -1.9
v -1.7 3.4 -1.9
v -1.6 0.5 -1.9
v -1.6 0.6 -1.9
v -1.6 3.2 -1.9
v -1.6 3.3 -1.9
v -1.5 1.2 -1.9
v -1.5 1.3 -1.9
v -1.5 3.3 -1.9
v -1.5 3.4 -1.9
v -1.4 0.5 -1.9
v -1.4 0.6 -1.9
v -1.4 1.3 -1.9
v -1.4 1.4 -1.9
v -1.4 3.2 -1.9
v -1.4 3.3 -1.9
v -1.3 0.4 -1.9
v -1.3 0.5 -1.9
v -1 0 -1.9
v -1 3.9 -1.9
v 1.1 0 -1.9
v 1.1 3.9 -1.9
v 1.2 3 -1.9
v 1.2 3.1 -1.9
v 1.3 2.9 -1.9
v 1.3 3 -1.9
v 1.4 1.5 -1.9
v 1.4 1.6 -1.9
v 1.5 1.6 -1.9
v 1.5 1.7 -1.9
v 1.5 2.9 -1.9
v 1.5 3 -1.9
v 1.6 3 -1.9
v 1.6 3.1 -1.9
v 1.7 1.5 -1.9
v 1.7 1.6 -1.9
v 1.8 1.6 -1.9
v 1.8 1.7 -1.9
v 2 0 -1.9
v 2 4 -1.9
v -2 0 -2
v -2 4 -2
v -1.8 1.2 -2
v -1.8 1.3 -2
v -1.7 0.4 -2
v -1.7 0.5 -2
v -1.7 1.3 -2
v -1.7 1.4 -2
v -1.6 0.5 -2
v -1.6 0.6 -2
v -1.5 1.2 -2
v -1.5 1.3 -2
v -1.4 0.5 -2
v -1.4 0.6 -2
v -1.4 1.3 -2
v -1.4 1.4 -2
v -1.3 0.4 -2
v -1.3 0.5 -2
v 1.2 3 -2
v 1.2 3.1 -2
v 1.3 2.9 -2
v 1.3 3 -2
v 1.4 1.5 -2
v 1.4 1.6 -2
v 1.5 1.6 -2
v 1.5 1.7 -2
v 1.5 2.9 -2
v 1.5 3 -2
v 1.6 3 -2
v 1.6 3.1 -2
v 1.7 1.5 -2
v 1.7 1.6 -2
v 1.8 1.6 -2
v 1.8 1.7 -2
v 2 0 -2
v 2 4 -2
v -1 0 -1.8
v -0.9 0 -1.8
v -0.8 0 -1.8
v -0.7 0 -1.8
v -0.6 0 -1.8
v -0.5 0 -1.8
v -0.4 0 -1.8
v -0.3 0 -1.8
v -0.2 0 -1.8
v 2.38419e-07 0 -1.8
v 0.1 0 -1.8
v 0.6 0 -1.8
v 0.7 0 -1.8
v 0.8 0 -1.8
v 0.9 0 -1.8
v 1 0 -1.8
v 1.1 0 -1.8
v -2 0 -1.9
v -1 0 -1.9
v -0.9 0 -1.9
v -0.8 0 -1.9
v -0.7 0 -1.9
v -0.6 0 -1.9
v -0.5 0 -1.9
v -0.4 0 -1.9
v -0.3 0 -1.9
v -0.2 0 -1.9
v 2.38419e-07 0 -1.9
v 0.1 0 -1.9
v 0.6 0 -1.9
v 0.7 0 -1.9
v 0.8 0 -1.9
v 0.9 0 -1.9
v 1 0 -1.9
v 1.1 0 -1.9
v 2 0 -1.9
v -2 0 -2
v 2 0 -2
v -1.7 0.4 -1.8
v -1.3 0.4 -1.8
v -1.7 0.4 -1.9
v -1.3 0.4 -1.9
v -1.8 1.2 -1.8
v -1.5 1.2 -1.8
v -1.8 1.2 -1.9
v -1.5 1.2 -1.9
v -1.5 1.3 -1.8
v -1.4 1.3 -1.8
v -1.5 1.3 -1.9
v -1.4 1.3 -1.9
v 1.4 1.5 -1.8
v 1.7 1.5 -1.8
v 1.4 1.5 -1.9
v 1.7 1.5 -1.9
v 1.7 1.6 -1.8
v 1.8 1.6 -1.8
v 1.7 1.6 -1.9
v 1.8 1.6 -1.9
v 1.3 2.9 -1.8
v 1.5 2.9 -1.8
v 1.3 2.9 -1.9
v 1.5 2.9 -1.9
v 1.2 3 -1.8
v 1.3 3 -1.8
v 1.5 3 -1.8
v 1.6 3 -1.8
v 1.2 3 -1.9
v 1.3 3 -1.9
v 1.5 3 -1.9
v 1.6 3 -1.9
v -1.6 3.2 -1.8
v -1.4 3.2 -1.8
v -1.6 3.2 -1.9
v -1.4 3.2 -1.9
v -1.7 3.3 -1.8
v -1.6 3.3 -1.8
v -1.7 3.3 -1.9
v -1.6 3.3 -1.9
v -1.7 0.5 -1.8
v -1.6 0.5 -1.8
v -1.4 0.5 -1.8
v -1.3 0.5 -1.8
v -1.7 0.5 -1.9
v -1.6 0.5 -1.9
v -1.4 0.5 -1.9
v -1.3 0.5 -1.9
v -1.6 0.6 -1.8
v -1.4 0.6 -1.8
v -1.6 0.6 -1.9
v -1.4 0.6 -1.9
v -1.8 1.3 -1.8
v -1.7 1.3 -1.8
v -1.8 1.3 -1.9
v -1.7 1.3 -1.9
v -1.7 1.4 -1.8
v -1.4 1.4 -1.8
v -1.7 1.4 -1.9
v -1.4 1.4 -1.9
v 1.4 1.6 -1.8
v 1.5 1.6 -1.8
v 1.4 1.6 -1.9
v 1.5 1.6 -1.9
v 1.5 1.7 -1.8
v 1.8 1.7 -1.8
v 1.5 1.7 -1.9
v 1.8 1.7 -1.9
v 1.2 3.1 -1.8
v 1.6 3.1 -1.8
v 1.2 3.1 -1.9
v 1.6 3.1 -1.9
v -1.5 3.3 -1.8
v -1.4 3.3 -1.8
v -1.5 3.3 -1.9
v -1.4 3.3 -1.9
v -1.7 3.4 -1.8
v -1.5 3.4 -1.8
v -1.7 3.4 -1.9
v -1.5 3.4 -1.9
v -1 3.9 -1.8
v 1.1 3.9 -1.8
v -1 3.9 -1.9
v 1.1 3.9 -1.9
v -2 4 -1.9
v 2 4 -1.9
v -2 4 -2
v 2 4 -2

# faces
f 3/2/1 2/2/1 1/2/1
f 4/2/1 2/2/1 3/2/1
f 7/3/1 6/3/1 5/3/1
f 8/3/1 6/3/1 7/3/1
f 11/3/1 10/3/1 9/3/1
f 12/3/1 10/3/1 11/3/1
f 15/3/1 14/3/1 13/3/1
f 16/3/1 14/3/1 15/3/1
f 19/3/1 18/3/1 17/3/1
f 20/3/1 18/3/1 19/3/1
f 23/3/1 22/3/1 21/3/1
f 24/3/1 22/3/1 23/3/1
f 27/3/1 26/3/1 25/3/1
f 28/3/1 26/3/1 27/3/1
f 31/1/1 30/1/1 29/1/1
f 32/1/1 30/1/1 31/1/1
f 35/3/1 34/3/1 33/3/1
f 36/3/1 34/3/1 35/3/1
f 39/3/1 38/3/1 37/3/1
f 40/3/1 38/3/1 39/3/1
f 43/3/1 42/3/1 41/3/1
f 44/3/1 42/3/1 43/3/1
f 47/3/1 46/3/1 45/3/1
f 48/3/1 46/3/1 47/3/1
f 49/3/2 50/3/2 51/3/2
f 51/3/2 50/3/2 52/3/2
f 53/3/2 54/3/2 55/3/2
f 55/3/2 54/3/2 56/3/2
f 57/3/2 58/3/2 59/3/2
f 59/3/2 58/3/2 60/3/2
f 61/3/2 62/3/2 63/3/2
f 63/3/2 62/3/2 64/3/2
f 65/3/2 66/3/2 67/3/2
f 67/3/2 66/3/2 68/3/2
f 69/3/2 70/3/2 71/3/2
f 71/3/2 70/3/2 72/3/2
f 73/1/2 74/1/2 75/1/2
f 75/1/2 74/1/2 76/1/2
f 77/3/2 78/3/2 79/3/2
f 79/3/2 78/3/2 80/3/2
f 81/3/2 82/3/2 83/3/2
f 83/3/2 82/3/2 84/3/2
f 85/3/2 86/3/2 87/3/2
f 87/3/2 86/3/2 88/3/2
f 89/3/2 90/3/2 91/3/2
f 91/3/2 90/3/2 92/3/2
f 93/2/2 94/2/2 95/2/2
f 95/2/2 94/2/2 96/2/2
f 101/3/3 98/3/3 97/3/3
f 105/3/3 100/3/3 99/3/3
f 108/3/3 104/3/3 103/3/3
f 109/3/3 101/3/3 97/3/3
f 109/3/3 102/3/3 101/3/3
f 110/3/3 102/3/3 109/3/3
f 111/3/3 108/3/3 107/3/3
f 111/3/3 104/3/3 108/3/3
f 112/3/3 104/3/3 111/3/3
f 113/3/3 106/3/3 105/3/3
f 113/3/3 105/3/3 99/3/3
f 114/3/3 106/3/3 113/3/3
f 115/3/3 102/3/3 110/3/3
f 116/3/3 102/3/3 115/3/3
f 117/3/3 111/3/3 107/3/3
f 118/3/3 111/3/3 117/3/3
f 119/3/3 113/3/3 99/3/3
f 120/3/3 113/3/3 119/3/3
f 123/1/3 122/1/3 121/1/3
f 124/1/3 122/1/3 123/1/3
f 125/4/3 124/4/3 123/4/3
f 126/4/3 124/4/3 125/4/3
f 127/4/3 124/4/3 126/4/3
f 128/4/3 124/4/3 127/4/3
f 129/6/3 126/6/3 125/6/3
f 130/6/3 126/6/3 129/6/3
f 131/4/3 127/4/3 126/4/3
f 131/1/3 128/1/3 127/1/3
f 132/4/3 124/4/3 128/4/3
f 132/1/3 128/1/3 131/1/3
f 133/4/3 130/4/3 129/4/3
f 134/4/3 130/4/3 133/4/3
f 135/4/3 130/4/3 134/4/3
f 136/4/3 130/4/3 135/4/3
f 137/4/3 130/4/3 136/4/3
f 138/4/3 130/4/3 137/4/3
f 139/4/3 130/4/3 138/4/3
f 140/4/3 130/4/3 139/4/3
f 141/4/3 130/4/3 140/4/3
f 142/4/3 130/4/3 141/4/3
f 143/4/3 131/4/3 126/4/3
f 143/6/3 126/6/3 130/6/3
f 143/4/3 132/4/3 131/4/3
f 144/4/3 124/4/3 132/4/3
f 144/4/3 132/4/3 143/4/3
f 145/6/3 134/6/3 133/6/3
f 146/5/3 135/5/3 134/5/3
f 146/6/3 134/6/3 145/6/3
f 147/6/3 136/6/3 135/6/3
f 147/5/3 135/5/3 146/5/3
f 148/6/3 136/6/3 147/6/3
f 149/6/3 136/6/3 148/6/3
f 150/6/3 136/6/3 149/6/3
f 151/6/3 136/6/3 150/6/3
f 152/6/3 136/6/3 151/6/3
f 153/6/3 136/6/3 152/6/3
f 154/5/3 137/5/3 136/5/3
f 154/6/3 136/6/3 153/6/3
f 155/6/3 138/6/3 137/6/3
f 155/5/3 137/5/3 154/5/3
f 156/6/3 138/6/3 155/6/3
f 157/6/3 138/6/3 156/6/3
f 158/5/3 139/5/3 138/5/3
f 158/6/3 138/6/3 157/6/3
f 159/6/3 140/6/3 139/6/3
f 159/5/3 139/5/3 158/5/3
f 160/6/3 140/6/3 159/6/3
f 161/4/3 130/4/3 142/4/3
f 161/6/3 143/6/3 130/6/3
f 161/6/3 144/6/3 143/6/3
f 162/6/3 144/6/3 161/6/3
f 163/1/3 146/1/3 145/1/3
f 164/6/3 147/6/3 146/6/3
f 164/1/3 146/1/3 163/1/3
f 164/6/3 148/6/3 147/6/3
f 165/6/3 148/6/3 164/6/3
f 166/5/3 149/5/3 148/5/3
f 166/6/3 148/6/3 165/6/3
f 167/6/3 150/6/3 149/6/3
f 167/5/3 149/5/3 166/5/3
f 168/1/3 151/1/3 150/1/3
f 168/6/3 150/6/3 167/6/3
f 169/6/3 152/6/3 151/6/3
f 169/1/3 151/1/3 168/1/3
f 170/6/3 152/6/3 169/6/3
f 171/1/3 153/1/3 152/1/3
f 171/6/3 152/6/3 170/6/3
f 172/6/3 154/6/3 153/6/3
f 172/1/3 153/1/3 171/1/3
f 172/6/3 155/6/3 154/6/3
f 172/6/3 156/6/3 155/6/3
f 173/6/3 156/6/3 172/6/3
f 174/5/3 157/5/3 156/5/3
f 174/6/3 156/6/3 173/6/3
f 175/6/3 158/6/3 157/6/3
f 175/5/3 157/5/3 174/5/3
f 175/6/3 159/6/3 158/6/3
f 176/1/3 160/1/3 159/1/3
f 176/6/3 159/6/3 175/6/3
f 177/1/3 160/1/3 176/1/3
f 178/1/3 160/1/3 177/1/3
f 179/6/3 142/6/3 141/6/3
f 179/4/3 162/4/3 161/4/3
f 179/4/3 161/4/3 142/4/3
f 180/4/3 162/4/3 179/4/3
f 181/6/3 165/6/3 164/6/3
f 181/6/3 164/6/3 163/6/3
f 182/6/3 165/6/3 181/6/3
f 183/5/3 166/5/3 165/5/3
f 183/6/3 165/6/3 182/6/3
f 184/6/3 170/6/3 169/6/3
f 184/5/3 166/5/3 183/5/3
f 184/6/3 167/6/3 166/6/3
f 184/6/3 168/6/3 167/6/3
f 184/6/3 169/6/3 168/6/3
f 185/6/3 170/6/3 184/6/3
f 186/6/3 170/6/3 185/6/3
f 187/6/3 170/6/3 186/6/3
f 188/5/3 171/5/3 170/5/3
f 188/6/3 170/6/3 187/6/3
f 189/1/3 173/1/3 172/1/3
f 189/5/3 171/5/3 188/5/3
f 189/1/3 172/1/3 171/1/3
f 190/1/3 173/1/3 189/1/3
f 191/1/3 173/1/3 190/1/3
f 192/1/3 173/1/3 191/1/3
f 193/6/3 174/6/3 173/6/3
f 193/1/3 173/1/3 192/1/3
f 194/6/3 174/6/3 193/6/3
f 195/6/3 174/6/3 194/6/3
f 196/1/3 175/1/3 174/1/3
f 196/6/3 174/6/3 195/6/3
f 196/1/3 176/1/3 175/1/3
f 196/1/3 177/1/3 176/1/3
f 197/1/3 177/1/3 196/1/3
f 198/5/3 182/5/3 181/5/3
f 199/6/3 183/6/3 182/6/3
f 199/5/3 182/5/3 198/5/3
f 199/6/3 184/6/3 183/6/3
f 200/6/3 184/6/3 199/6/3
f 201/1/3 185/1/3 184/1/3
f 201/6/3 184/6/3 200/6/3
f 202/6/3 186/6/3 185/6/3
f 202/1/3 185/1/3 201/1/3
f 203/5/3 187/5/3 186/5/3
f 203/6/3 186/6/3 202/6/3
f 204/6/3 188/6/3 187/6/3
f 204/5/3 187/5/3 203/5/3
f 204/6/3 189/6/3 188/6/3
f 204/6/3 190/6/3 189/6/3
f 205/6/3 190/6/3 204/6/3
f 206/5/3 191/5/3 190/5/3
f 206/6/3 190/6/3 205/6/3
f 207/6/3 192/6/3 191/6/3
f 207/5/3 191/5/3 206/5/3
f 208/6/3 192/6/3 207/6/3
f 209/1/3 194/1/3 193/1/3
f 209/5/3 193/5/3 192/5/3
f 210/6/3 195/6/3 194/6/3
f 210/1/3 194/1/3 209/1/3
f 211/6/3 195/6/3 210/6/3
f 212/1/3 196/1/3 195/1/3
f 213/5/3 197/5/3 196/5/3
f 213/1/3 196/1/3 212/1/3
f 214/5/3 197/5/3 213/5/3
f 215/5/3 197/5/3 214/5/3
f 216/1/3 200/1/3 199/1/3
f 216/6/3 199/6/3 198/6/3
f 217/6/3 202/6/3 201/6/3
f 217/1/3 200/1/3 216/1/3
f 217/6/3 201/6/3 200/6/3
f 218/5/3 203/5/3 202/5/3
f 218/6/3 202/6/3 217/6/3
f 219/1/3 204/1/3 203/1/3
f 219/5/3 203/5/3 218/5/3
f 220/6/3 205/6/3 204/6/3
f 220/1/3 204/1/3 219/1/3
f 221/6/3 205/6/3 220/6/3
f 222/1/3 206/1/3 205/1/3
f 222/6/3 205/6/3 221/6/3
f 223/6/3 207/6/3 206/6/3
f 223/1/3 206/1/3 222/1/3
f 224/1/3 208/1/3 207/1/3
f 224/6/3 207/6/3 223/6/3
f 225/6/3 192/6/3 208/6/3
f 225/1/3 208/1/3 224/1/3
f 226/6/3 195/6/3 211/6/3
f 226/1/3 211/1/3 210/1/3
f 227/1/3 212/1/3 195/1/3
f 227/6/3 195/6/3 226/6/3
f 228/5/3 214/5/3 213/5/3
f 228/5/3 213/5/3 212/5/3
f 229/1/3 215/1/3 214/1/3
f 229/5/3 214/5/3 228/5/3
f 230/5/3 197/5/3 215/5/3
f 230/1/3 215/1/3 229/1/3
f 231/6/3 216/6/3 198/6/3
f 231/6/3 217/6/3 216/6/3
f 231/6/3 221/6/3 220/6/3
f 231/6/3 220/6/3 219/6/3
f 231/6/3 219/6/3 218/6/3
f 231/6/3 218/6/3 217/6/3
f 232/6/3 221/6/3 231/6/3
f 233/6/3 221/6/3 232/6/3
f 234/6/3 221/6/3 233/6/3
f 235/6/3 221/6/3 234/6/3
f 236/6/3 221/6/3 235/6/3
f 237/5/3 222/5/3 221/5/3
f 237/6/3 221/6/3 236/6/3
f 238/6/3 224/6/3 223/6/3
f 238/5/3 222/5/3 237/5/3
f 238/6/3 223/6/3 222/6/3
f 239/5/3 225/5/3 224/5/3
f 239/6/3 224/6/3 238/6/3
f 240/6/3 192/6/3 225/6/3
f 240/5/3 225/5/3 239/5/3
f 241/5/3 209/5/3 192/5/3
f 241/6/3 192/6/3 240/6/3
f 241/5/3 210/5/3 209/5/3
f 242/5/3 210/5/3 241/5/3
f 243/5/3 210/5/3 242/5/3
f 244/1/3 227/1/3 226/1/3
f 244/5/3 210/5/3 243/5/3
f 244/1/3 226/1/3 210/1/3
f 245/1/3 212/1/3 227/1/3
f 245/1/3 227/1/3 244/1/3
f 245/5/3 228/5/3 212/5/3
f 246/5/3 228/5/3 245/5/3
f 247/5/3 228/5/3 246/5/3
f 248/1/3 229/1/3 228/1/3
f 248/5/3 228/5/3 247/5/3
f 249/5/3 230/5/3 229/5/3
f 249/1/3 229/1/3 248/1/3
f 250/5/3 197/5/3 230/5/3
f 250/5/3 230/5/3 249/5/3
f 251/1/3 232/1/3 231/1/3
f 252/6/3 233/6/3 232/6/3
f 252/1/3 232/1/3 251/1/3
f 253/5/3 234/5/3 233/5/3
f 253/6/3 233/6/3 252/6/3
f 254/6/3 235/6/3 234/6/3
f 254/5/3 234/5/3 253/5/3
f 255/1/3 236/1/3 235/1/3
f 255/6/3 235/6/3 254/6/3
f 256/6/3 240/6/3 239/6/3
f 256/1/3 236/1/3 255/1/3
f 256/6/3 237/6/3 236/6/3
f 256/6/3 239/6/3 238/6/3
f 256/6/3 238/6/3 237/6/3
f 257/6/3 240/6/3 256/6/3
f 258/6/3 240/6/3 257/6/3
f 259/6/3 240/6/3 258/6/3
f 260/1/3 241/1/3 240/1/3
f 260/6/3 240/6/3 259/6/3
f 261/5/3 242/5/3 241/5/3
f 261/1/3 241/1/3 260/1/3
f 262/1/3 243/1/3 242/1/3
f 262/5/3 242/5/3 261/5/3
f 263/5/3 244/5/3 243/5/3
f 263/1/3 243/1/3 262/1/3
f 264/6/3 245/6/3 244/6/3
f 264/5/3 244/5/3 263/5/3
f 265/1/3 246/1/3 245/1/3
f 265/6/3 245/6/3 264/6/3
f 266/5/3 247/5/3 246/5/3
f 266/1/3 246/1/3 265/1/3
f 267/1/3 248/1/3 247/1/3
f 267/5/3 247/5/3 266/5/3
f 268/5/3 249/5/3 248/5/3
f 268/1/3 248/1/3 267/1/3
f 269/1/3 250/1/3 249/1/3
f 269/5/3 249/5/3 268/5/3
f 270/5/3 197/5/3 250/5/3
f 270/1/3 250/1/3 269/1/3
f 271/6/3 140/6/3 160/6/3
f 271/5/3 141/5/3 140/5/3
f 272/6/3 179/6/3 141/6/3
f 272/5/3 141/5/3 271/5/3
f 272/6/3 180/6/3 179/6/3
f 273/6/3 253/6/3 252/6/3
f 273/6/3 252/6/3 251/6/3
f 273/6/3 254/6/3 253/6/3
f 274/6/3 254/6/3 273/6/3
f 275/5/3 255/5/3 254/5/3
f 275/6/3 254/6/3 274/6/3
f 276/6/3 257/6/3 256/6/3
f 276/5/3 255/5/3 275/5/3
f 276/6/3 256/6/3 255/6/3
f 277/6/3 257/6/3 276/6/3
f 278/6/3 257/6/3 277/6/3
f 279/1/3 258/1/3 257/1/3
f 279/6/3 257/6/3 278/6/3
f 280/6/3 259/6/3 258/6/3
f 280/1/3 258/1/3 279/1/3
f 281/5/3 260/5/3 259/5/3
f 281/6/3 259/6/3 280/6/3
f 282/6/3 261/6/3 260/6/3
f 282/5/3 260/5/3 281/5/3
f 283/1/3 265/1/3 264/1/3
f 284/1/3 265/1/3 283/1/3
f 285/5/3 267/5/3 266/5/3
f 285/5/3 266/5/3 265/5/3
f 285/5/3 268/5/3 267/5/3
f 285/1/3 269/1/3 268/1/3
f 286/5/3 270/5/3 269/5/3
f 286/1/3 269/1/3 285/1/3
f 287/5/3 197/5/3 270/5/3
f 287/5/3 270/5/3 286/5/3
f 288/1/3 274/1/3 273/1/3
f 288/6/3 273/6/3 251/6/3
f 289/6/3 275/6/3 274/6/3
f 289/1/3 274/1/3 288/1/3
f 289/6/3 276/6/3 275/6/3
f 289/6/3 277/6/3 276/6/3
f 290/6/3 277/6/3 289/6/3
f 291/6/3 277/6/3 290/6/3
f 292/6/3 277/6/3 291/6/3
f 293/1/3 278/1/3 277/1/3
f 293/6/3 277/6/3 292/6/3
f 294/5/3 279/5/3 278/5/3
f 294/1/3 278/1/3 293/1/3
f 295/6/3 280/6/3 279/6/3
f 295/5/3 279/5/3 294/5/3
f 296/5/3 281/5/3 280/5/3
f 296/6/3 280/6/3 295/6/3
f 297/6/3 282/6/3 281/6/3
f 297/5/3 281/5/3 296/5/3
f 298/6/3 261/6/3 282/6/3
f 298/6/3 282/6/3 297/6/3
f 299/5/3 262/5/3 261/5/3
f 299/6/3 261/6/3 298/6/3
f 299/5/3 264/5/3 263/5/3
f 299/5/3 263/5/3 262/5/3
f 300/5/3 264/5/3 299/5/3
f 301/1/3 283/1/3 264/1/3
f 301/5/3 264/5/3 300/5/3
f 302/6/3 284/6/3 283/6/3
f 302/1/3 283/1/3 301/1/3
f 303/5/3 286/5/3 285/5/3
f 303/5/3 285/5/3 265/5/3
f 303/1/3 265/1/3 284/1/3
f 304/5/3 286/5/3 303/5/3
f 305/1/3 287/1/3 286/1/3
f 305/5/3 286/5/3 304/5/3
f 306/5/3 197/5/3 287/5/3
f 306/1/3 287/1/3 305/1/3
f 307/6/3 180/6/3 272/6/3
f 307/6/3 272/6/3 271/6/3
f 308/4/3 162/4/3 180/4/3
f 308/6/3 180/6/3 307/6/3
f 309/6/3 288/6/3 251/6/3
f 309/5/3 289/5/3 288/5/3
f 310/6/3 290/6/3 289/6/3
f 310/5/3 289/5/3 309/5/3
f 311/1/3 291/1/3 290/1/3
f 311/6/3 290/6/3 310/6/3
f 312/6/3 292/6/3 291/6/3
f 312/1/3 291/1/3 311/1/3
f 313/5/3 293/5/3 292/5/3
f 313/6/3 292/6/3 312/6/3
f 314/6/3 295/6/3 294/6/3
f 314/5/3 293/5/3 313/5/3
f 314/6/3 298/6/3 297/6/3
f 314/6/3 294/6/3 293/6/3
f 314/6/3 297/6/3 296/6/3
f 314/6/3 296/6/3 295/6/3
f 315/6/3 298/6/3 314/6/3
f 316/6/3 298/6/3 315/6/3
f 317/5/3 299/5/3 298/5/3
f 317/6/3 298/6/3 316/6/3
f 317/5/3 300/5/3 299/5/3
f 318/1/3 301/1/3 300/1/3
f 318/5/3 300/5/3 317/5/3
f 319/6/3 302/6/3 301/6/3
f 319/1/3 301/1/3 318/1/3
f 320/6/3 284/6/3 302/6/3
f 320/6/3 302/6/3 319/6/3
f 320/1/3 303/1/3 284/1/3
f 320/1/3 304/1/3 303/1/3
f 321/5/3 305/5/3 304/5/3
f 321/1/3 304/1/3 320/1/3
f 321/5/3 306/5/3 305/5/3
f 322/1/3 177/1/3 197/1/3
f 322/5/3 306/5/3 321/5/3
f 322/5/3 197/5/3 306/5/3
f 323/6/3 311/6/3 310/6/3
f 323/6/3 310/6/3 309/6/3
f 323/6/3 309/6/3 251/6/3
f 324/6/3 311/6/3 323/6/3
f 325/5/3 312/5/3 311/5/3
f 325/6/3 311/6/3 324/6/3
f 326/1/3 313/1/3 312/1/3
f 326/5/3 312/5/3 325/5/3
f 327/6/3 314/6/3 313/6/3
f 327/1/3 313/1/3 326/1/3
f 327/6/3 315/6/3 314/6/3
f 328/5/3 316/5/3 315/5/3
f 328/6/3 315/6/3 327/6/3
f 329/1/3 318/1/3 317/1/3
f 329/5/3 316/5/3 328/5/3
f 329/1/3 317/1/3 316/1/3
f 330/1/3 318/1/3 329/1/3
f 331/1/3 318/1/3 330/1/3
f 332/6/3 319/6/3 318/6/3
f 332/1/3 318/1/3 331/1/3
f 332/6/3 320/6/3 319/6/3
f 332/6/3 321/6/3 320/6/3
f 333/6/3 321/6/3 332/6/3
f 334/1/3 322/1/3 321/1/3
f 334/6/3 321/6/3 333/6/3
f 335/1/3 322/1/3 334/1/3
f 336/1/3 177/1/3 322/1/3
f 336/1/3 322/1/3 335/1/3
f 337/5/3 178/5/3 177/5/3
f 337/1/3 177/1/3 336/1/3
f 338/1/3 160/1/3 178/1/3
f 338/5/3 178/5/3 337/5/3
f 339/6/3 307/6/3 271/6/3
f 340/5/3 308/5/3 307/5/3
f 340/6/3 307/6/3 339/6/3
f 341/4/3 162/4/3 308/4/3
f 341/5/3 308/5/3 340/5/3
f 342/6/3 323/6/3 251/6/3
f 343/1/3 324/1/3 323/1/3
f 343/6/3 323/6/3 342/6/3
f 344/5/3 325/5/3 324/5/3
f 344/1/3 324/1/3 343/1/3
f 345/6/3 328/6/3 327/6/3
f 345/5/3 325/5/3 344/5/3
f 345/6/3 327/6/3 326/6/3
f 345/6/3 326/6/3 325/6/3
f 345/6/3 329/6/3 328/6/3
f 346/6/3 329/6/3 345/6/3
f 347/6/3 329/6/3 346/6/3
f 348/1/3 330/1/3 329/1/3
f 348/6/3 329/6/3 347/6/3
f 349/6/3 331/6/3 330/6/3
f 349/1/3 330/1/3 348/1/3
f 350/5/3 332/5/3 331/5/3
f 350/6/3 331/6/3 349/6/3
f 351/6/3 333/6/3 332/6/3
f 351/5/3 332/5/3 350/5/3
f 352/5/3 334/5/3 333/5/3
f 352/6/3 333/6/3 351/6/3
f 352/5/3 335/5/3 334/5/3
f 353/6/3 336/6/3 335/6/3
f 353/5/3 335/5/3 352/5/3
f 354/1/3 337/1/3 336/1/3
f 354/6/3 336/6/3 353/6/3
f 354/1/3 338/1/3 337/1/3
f 355/1/3 160/1/3 338/1/3
f 355/1/3 338/1/3 354/1/3
f 355/6/3 271/6/3 160/6/3
f 355/6/3 339/6/3 271/6/3
f 356/4/3 341/4/3 340/4/3
f 356/4/3 340/4/3 339/4/3
f 357/6/3 144/6/3 162/6/3
f 357/4/3 341/4/3 356/4/3
f 357/4/3 162/4/3 341/4/3
f 358/1/3 343/1/3 342/1/3
f 359/6/3 344/6/3 343/6/3
f 359/1/3 343/1/3 358/1/3
f 359/6/3 345/6/3 344/6/3
f 359/6/3 346/6/3 345/6/3
f 360/5/3 347/5/3 346/5/3
f 360/6/3 346/6/3 359/6/3
f 361/6/3 348/6/3 347/6/3
f 361/5/3 347/5/3 360/5/3
f 361/6/3 353/6/3 352/6/3
f 361/6/3 350/6/3 349/6/3
f 361/6/3 355/6/3 354/6/3
f 361/6/3 352/6/3 351/6/3
f 361/6/3 354/6/3 353/6/3
f 361/6/3 349/6/3 348/6/3
f 361/6/3 351/6/3 350/6/3
f 362/4/3 356/4/3 339/4/3
f 362/6/3 355/6/3 361/6/3
f 362/6/3 339/6/3 355/6/3
f 363/6/3 357/6/3 356/6/3
f 364/4/3 124/4/3 144/4/3
f 364/6/3 357/6/3 363/6/3
f 364/6/3 144/6/3 357/6/3
f 365/4/3 360/4/3 359/4/3
f 365/4/3 359/4/3 358/4/3
f 365/4/3 361/4/3 360/4/3
f 365/4/3 362/4/3 361/4/3
f 366/6/3 363/6/3 356/6/3
f 366/4/3 362/4/3 365/4/3
f 366/4/3 356/4/3 362/4/3
f 367/4/3 364/4/3 363/4/3
f 368/4/3 124/4/3 364/4/3
f 368/4/3 364/4/3 367/4/3
f 369/6/3 366/6/3 365/6/3
f 370/4/3 367/4/3 363/4/3
f 370/6/3 366/6/3 369/6/3
f 370/6/3 363/6/3 366/6/3
f 371/1/3 368/1/3 367/1/3
f 371/4/3 367/4/3 370/4/3
f 372/4/3 124/4/3 368/4/3
f 372/1/3 368/1/3 371/1/3
f 373/4/3 370/4/3 369/4/3
f 373/4/3 371/4/3 370/4/3
f 373/4/3 372/4/3 371/4/3
f 374/1/3 122/1/3 124/1/3
f 374/4/3 372/4/3 373/4/3
f 374/4/3 124/4/3 372/4/3
f 375/1/3 374/1/3 373/1/3
f 376/1/3 122/1/3 374/1/3
f 376/1/3 374/1/3 375/1/3
f 380/3/3 378/3/3 377/3/3
f 383/3/3 382/3/3 381/3/3
f 385/3/3 380/3/3 379/3/3
f 386/3/3 378/3/3 380/3/3
f 386/3/3 380/3/3 385/3/3
f 387/3/3 378/3/3 386/3/3
f 388/3/3 378/3/3 387/3/3
f 389/3/3 384/3/3 383/3/3
f 389/3/3 383/3/3 381/3/3
f 390/3/3 384/3/3 389/3/3
f 391/3/3 384/3/3 390/3/3
f 392/3/3 384/3/3 391/3/3
f 395/2/3 394/2/3 393/2/3
f 396/2/3 394/2/3 395/2/3
f 397/2/3 395/2/3 393/2/3
f 398/2/3 395/2/3 397/2/3
f 399/2/3 394/2/3 396/2/3
f 400/2/3 394/2/3 399/2/3
f 401/2/3 394/2/3 400/2/3
f 402/2/3 394/2/3 401/2/3
f 403/2/3 395/2/3 398/2/3
f 404/2/3 395/2/3 403/2/3
f 405/2/3 401/2/3 400/2/3
f 406/2/3 401/2/3 405/2/3
f 407/2/3 395/2/3 404/2/3
f 410/2/3 394/2/3 402/2/3
f 412/2/3 408/2/3 407/2/3
f 412/2/3 407/2/3 404/2/3
f 413/2/3 408/2/3 412/2/3
f 414/2/3 405/2/3 400/2/3
f 415/2/3 405/2/3 414/2/3
f 416/2/3 410/2/3 409/2/3
f 417/2/3 397/2/3 393/2/3
f 418/2/3 415/2/3 414/2/3
f 418/2/3 416/2/3 415/2/3
f 418/2/3 413/2/3 412/2/3
f 418/2/3 412/2/3 411/2/3
f 418/2/3 414/2/3 413/2/3
f 419/2/3 417/2/3 393/2/3
f 419/2/3 418/2/3 417/2/3
f 420/2/3 416/2/3 418/2/3
f 420/2/3 418/2/3 419/2/3
f 420/2/3 410/2/3 416/2/3
f 420/2/3 394/2/3 410/2/3
f 422/2/3 394/2/3 420/2/3
f 423/2/3 422/2/3 421/2/3
f 424/2/3 422/2/3 423/2/3
f 425/2/3 423/2/3 421/2/3
f 426/2/3 423/2/3 425/2/3
f 427/2/3 425/2/3 421/2/3
f 428/2/3 425/2/3 427/2/3
f 429/2/3 425/2/3 428/2/3
f 430/2/3 425/2/3 429/2/3
f 431/2/3 425/2/3 430/2/3
f 433/2/3 432/2/3 431/2/3
f 433/2/3 431/2/3 430/2/3
f 434/2/3 422/2/3 424/2/3
f 435/2/3 427/2/3 421/2/3
f 437/2/3 436/2/3 435/2/3
f 438/2/3 433/2/3 430/2/3
f 438/2/3 434/2/3 433/2/3
f 439/2/3 437/2/3 435/2/3
f 439/2/3 438/2/3 437/2/3
f 439/2/3 435/2/3 421/2/3
f 440/2/3 394/2/3 422/2/3
f 440/2/3 438/2/3 439/2/3
f 440/2/3 434/2/3 438/2/3
f 440/2/3 422/2/3 434/2/3
f 441/2/4 442/2/4 443/2/4
f 443/2/4 442/2/4 444/2/4
f 441/2/4 443/2/4 445/2/4
f 445/2/4 443/2/4 446/2/4
f 444/2/4 442/2/4 447/2/4
f 443/3/4 444/3/4 447/3/4
f 447/2/4 442/2/4 448/2/4
f 446/2/4 443/2/4 449/2/4
f 445/3/4 446/3/4 449/3/4
f 449/2/4 443/2/4 450/2/4
f 447/3/4 448/3/4 451/3/4
f 450/2/4 443/2/4 451/2/4
f 443/3/4 447/3/4 451/3/4
f 451/3/4 448/3/4 452/3/4
f 449/3/4 450/3/4 453/3/4
f 445/3/4 449/3/4 453/3/4
f 451/2/4 452/2/4 454/2/4
f 453/3/4 450/3/4 454/3/4
f 450/2/4 451/2/4 454/2/4
f 452/3/4 448/3/4 455/3/4
f 454/2/4 452/2/4 455/2/4
f 448/2/4 442/2/4 456/2/4
f 455/3/4 448/3/4 456/3/4
f 441/2/4 445/2/4 457/2/4
f 445/3/4 453/3/4 457/3/4
f 454/2/4 455/2/4 458/2/4
f 457/3/4 453/3/4 458/3/4
f 453/2/4 454/2/4 458/2/4
f 455/2/4 456/2/4 458/2/4
f 456/2/4 442/2/4 459/2/4
f 458/2/4 456/2/4 459/2/4
f 457/2/4 458/2/4 459/2/4
f 459/2/4 442/2/4 460/2/4
f 457/2/4 459/2/4 461/2/4
f 459/3/4 460/3/4 462/3/4
f 461/2/4 459/2/4 462/2/4
f 457/2/4 461/2/4 463/2/4
f 463/2/4 461/2/4 464/2/4
f 463/3/4 464/3/4 465/3/4
f 464/2/4 461/2/4 465/2/4
f 465/2/4 461/2/4 466/2/4
f 461/3/4 462/3/4 467/3/4
f 466/2/4 461/2/4 467/2/4
f 462/3/4 460/3/4 468/3/4
f 467/3/4 462/3/4 468/3/4
f 466/2/4 467/2/4 469/2/4
f 468/3/4 460/3/4 469/3/4
f 467/2/4 468/2/4 469/2/4
f 460/2/4 442/2/4 470/2/4
f 469/3/4 460/3/4 470/3/4
f 463/3/4 465/3/4 471/3/4
f 465/3/4 466/3/4 471/3/4
f 457/2/4 463/2/4 471/2/4
f 471/3/4 466/3/4 472/3/4
f 471/2/4 472/2/4 473/2/4
f 472/3/4 466/3/4 473/3/4
f 466/2/4 469/2/4 474/2/4
f 473/3/4 466/3/4 474/3/4
f 469/2/4 470/2/4 474/2/4
f 441/2/4 457/2/4 475/2/4
f 471/2/4 473/2/4 475/2/4
f 473/2/4 474/2/4 475/2/4
f 457/2/4 471/2/4 475/2/4
f 474/2/4 470/2/4 476/2/4
f 475/2/4 474/2/4 476/2/4
f 470/2/4 442/2/4 476/2/4
f 495/1/5 478/1/5 477/1/5
f 496/4/5 479/4/5 478/4/5
f 496/1/5 478/1/5 495/1/5
f 497/6/5 480/6/5 479/6/5
f 497/4/5 479/4/5 496/4/5
f 498/4/5 481/4/5 480/4/5
f 498/6/5 480/6/5 497/6/5
f 499/6/5 482/6/5 481/6/5
f 499/4/5 481/4/5 498/4/5
f 500/1/5 483/1/5 482/1/5
f 500/6/5 482/6/5 499/6/5
f 501/6/5 484/6/5 483/6/5
f 501/1/5 483/1/5 500/1/5
f 502/5/5 485/5/5 484/5/5
f 502/6/5 484/6/5 501/6/5
f 503/6/5 486/6/5 485/6/5
f 503/5/5 485/5/5 502/5/5
f 504/1/5 487/1/5 486/1/5
f 504/6/5 486/6/5 503/6/5
f 505/6/5 488/6/5 487/6/5
f 505/1/5 487/1/5 504/1/5
f 506/1/5 489/1/5 488/1/5
f 506/6/5 488/6/5 505/6/5
f 507/4/5 490/4/5 489/4/5
f 507/1/5 489/1/5 506/1/5
f 508/6/5 491/6/5 490/6/5
f 508/4/5 490/4/5 507/4/5
f 509/4/5 492/4/5 491/4/5
f 509/6/5 491/6/5 508/6/5
f 510/1/5 493/1/5 492/1/5
f 510/4/5 492/4/5 509/4/5
f 511/1/5 493/1/5 510/1/5
f 513/2/5 509/2/5 508/2/5
f 513/2/5 512/2/5 511/2/5
f 513/2/5 511/2/5 510/2/5
f 513/2/5 510/2/5 509/2/5
f 513/2/5 495/2/5 494/2/5
f 513/2/5 508/2/5 507/2/5
f 513/2/5 507/2/5 506/2/5
f 513/2/5 506/2/5 505/2/5
f 513/2/5 505/2/5 504/2/5
f 513/2/5 504/2/5 503/2/5
f 513/2/5 503/2/5 502/2/5
f 513/2/5 502/2/5 501/2/5
f 513/2/5 501/2/5 500/2/5
f 513/2/5 500/2/5 499/2/5
f 513/2/5 499/2/5 498/2/5
f 513/2/5 498/2/5 497/2/5
f 513/2/5 497/2/5 496/2/5
f 513/2/5 496/2/5 495/2/5
f 514/2/5 512/2/5 513/2/5
f 517/3/5 516/3/5 515/3/5
f 518/3/5 516/3/5 517/3/5
f 521/3/5 520/3/5 519/3/5
f 522/3/5 520/3/5 521/3/5
f 525/3/5 524/3/5 523/3/5
f 526/3/5 524/3/5 525/3/5
f 529/3/5 528/3/5 527/3/5
f 530/3/5 528/3/5 529/3/5
f 533/3/5 532/3/5 531/3/5
f 534/3/5 532/3/5 533/3/5
f 537/3/5 536/3/5 535/3/5
f 538/3/5 536/3/5 537/3/5
f 543/3/5 540/3/5 539/3/5
f 544/3/5 540/3/5 543/3/5
f 545/3/5 542/3/5 541/3/5
f 546/3/5 542/3/5 545/3/5
f 549/3/5 548/3/5 547/3/5
f 550/3/5 548/3/5 549/3/5
f 553/3/5 552/3/5 551/3/5
f 554/3/5 552/3/5 553/3/5
f 555/3/6 556/3/6 559/3/6
f 559/3/6 556/3/6 560/3/6
f 557/3/6 558/3/6 561/3/6
f 561/3/6 558/3/6 562/3/6
f 563/3/6 564/3/6 565/3/6
f 565/3/6 564/3/6 566/3/6
f 567/3/6 568/3/6 569/3/6
f 569/3/6 568/3/6 570/3/6
f 571/3/6 572/3/6 573/3/6
f 573/3/6 572/3/6 574/3/6
f 575/3/6 576/3/6 577/3/6
f 577/3/6 576/3/6 578/3/6
f 579/3/6 580/3/6 581/3/6
f 581/3/6 580/3/6 582/3/6
f 583/3/6 584/3/6 585/3/6
f 585/3/6 584/3/6 586/3/6
f 587/3/6 588/3/6 589/3/6
f 589/3/6 588/3/6 590/3/6
f 591/3/6 592/3/6 593/3/6
f 593/3/6 592/3/6 594/3/6
f 595/1/6 596/1/6 597/1/6
f 597/1/6 596/1/6 598/1/6
f 599/2/6 600/2/6 601/2/6
f 601/2/6 600/2/6 602/2/6
