# MagicaVoxel @ Ephtracy

# group
o 

# material
mtllib Lampara.mtl
usemtl palette

# normals
vn -1 0 0
vn 1 0 0
vn 0 0 1
vn 0 0 -1
vn 0 -1 0
vn 0 1 0

# texcoords
vt 0.00976563 0.5
vt 0.0410156 0.5
vt 0.0683594 0.5
vt 0.400391 0.5
vt 0.537109 0.5
vt 0.548828 0.5
vt 0.994141 0.5

# verts
v -0.2 2.3 -3.8
v -0.2 2.3 -4
v -0.2 3.6 -3.8
v -0.2 3.6 -4
v -0.0999999 1.9 -3.1
v -0.0999999 1.9 -3.2
v -0.0999999 2 -3.1
v -0.0999999 2 -3.2
v -0.0999999 2.2 -3.1
v -0.0999999 2.2 -3.2
v 5.96046e-08 1.8 -3.1
v 5.96046e-08 1.8 -3.2
v 5.96046e-08 1.9 -3.1
v 5.96046e-08 1.9 -3.2
v 5.96046e-08 2.2 -3.1
v 5.96046e-08 2.2 -3.2
v 5.96046e-08 2.3 -3.1
v 5.96046e-08 2.3 -3.2
v 5.96046e-08 2.4 -3.7
v 5.96046e-08 2.4 -3.8
v 5.96046e-08 2.5 -3.6
v 5.96046e-08 2.5 -3.7
v 5.96046e-08 2.8 -3.5
v 5.96046e-08 2.8 -3.6
v 5.96046e-08 2.9 -3.4
v 5.96046e-08 2.9 -3.5
v 5.96046e-08 3 -3
v 5.96046e-08 3 -3.4
v 5.96046e-08 3.1 -3
v 5.96046e-08 3.1 -3.1
v 5.96046e-08 3.1 -3.3
v 5.96046e-08 3.2 -3.1
v 5.96046e-08 3.2 -3.2
v 5.96046e-08 3.3 -3.2
v 5.96046e-08 3.3 -3.3
v 5.96046e-08 3.3 -3.6
v 5.96046e-08 3.3 -3.7
v 5.96046e-08 3.4 -3.3
v 5.96046e-08 3.4 -3.4
v 5.96046e-08 3.4 -3.5
v 5.96046e-08 3.4 -3.6
v 5.96046e-08 3.4 -3.7
v 5.96046e-08 3.5 -3.4
v 5.96046e-08 3.5 -3.5
v 5.96046e-08 3.5 -3.6
v 5.96046e-08 3.6 -3.5
v 5.96046e-08 3.6 -3.8
v 0.1 1.8 -3
v 0.1 1.8 -3.1
v 0.1 1.8 -3.2
v 0.1 1.8 -3.3
v 0.1 1.9 -2.9
v 0.1 1.9 -3
v 0.1 1.9 -3.1
v 0.1 1.9 -3.2
v 0.1 1.9 -3.3
v 0.1 1.9 -3.4
v 0.1 2 -3.1
v 0.1 2 -3.2
v 0.1 2.1 -2.9
v 0.1 2.1 -3
v 0.1 2.1 -3.1
v 0.1 2.1 -3.2
v 0.1 2.1 -3.3
v 0.1 2.1 -3.4
v 0.1 2.2 -2.9
v 0.1 2.2 -3
v 0.1 2.2 -3.1
v 0.1 2.2 -3.2
v 0.1 2.2 -3.3
v 0.1 2.2 -3.4
v 0.1 2.3 -3
v 0.1 2.3 -3.1
v 0.1 2.3 -3.2
v 0.1 2.3 -3.3
v 0.1 3 -3.1
v 0.1 3 -3.2
v 0.2 1.8 -3.1
v 0.2 1.8 -3.2
v 0.2 1.9 -3.1
v 0.2 1.9 -3.2
v 0.2 2.2 -3.1
v 0.2 2.2 -3.2
v 0.2 2.3 -3.1
v 0.2 2.3 -3.2
v 0.3 1.9 -3.1
v 0.3 1.9 -3.2
v 0.3 2.1 -3.1
v 0.3 2.1 -3.2
v 0.3 2.2 -3.1
v 0.3 2.2 -3.2
v 5.96046e-08 1.9 -3.1
v 5.96046e-08 1.9 -3.2
v 5.96046e-08 2 -3.1
v 5.96046e-08 2 -3.2
v 5.96046e-08 2.2 -3.1
v 5.96046e-08 2.2 -3.2
v 0.1 1.8 -3.1
v 0.1 1.8 -3.2
v 0.1 1.9 -3.1
v 0.1 1.9 -3.2
v 0.1 2.2 -3.1
v 0.1 2.2 -3.2
v 0.1 2.3 -3.1
v 0.1 2.3 -3.2
v 0.2 1.8 -3
v 0.2 1.8 -3.1
v 0.2 1.8 -3.2
v 0.2 1.8 -3.3
v 0.2 1.9 -2.9
v 0.2 1.9 -3
v 0.2 1.9 -3.1
v 0.2 1.9 -3.2
v 0.2 1.9 -3.3
v 0.2 1.9 -3.4
v 0.2 2 -3.1
v 0.2 2 -3.2
v 0.2 2.1 -2.9
v 0.2 2.1 -3
v 0.2 2.1 -3.1
v 0.2 2.1 -3.2
v 0.2 2.1 -3.3
v 0.2 2.1 -3.4
v 0.2 2.2 -2.9
v 0.2 2.2 -3
v 0.2 2.2 -3.1
v 0.2 2.2 -3.2
v 0.2 2.2 -3.3
v 0.2 2.2 -3.4
v 0.2 2.3 -3
v 0.2 2.3 -3.1
v 0.2 2.3 -3.2
v 0.2 2.3 -3.3
v 0.2 2.4 -3.7
v 0.2 2.4 -3.8
v 0.2 2.5 -3.6
v 0.2 2.5 -3.7
v 0.2 2.7 -3.6
v 0.2 2.7 -3.7
v 0.2 2.8 -3.5
v 0.2 2.8 -3.6
v 0.2 2.9 -3.4
v 0.2 2.9 -3.5
v 0.2 2.9 -3.6
v 0.2 2.9 -3.7
v 0.2 3 -3
v 0.2 3 -3.1
v 0.2 3 -3.2
v 0.2 3 -3.4
v 0.2 3.1 -3
v 0.2 3.1 -3.1
v 0.2 3.2 -3.1
v 0.2 3.2 -3.2
v 0.2 3.2 -3.4
v 0.2 3.2 -3.5
v 0.2 3.3 -3.2
v 0.2 3.3 -3.3
v 0.2 3.3 -3.4
v 0.2 3.3 -3.5
v 0.2 3.3 -3.6
v 0.2 3.4 -3.3
v 0.2 3.4 -3.4
v 0.2 3.4 -3.5
v 0.2 3.4 -3.6
v 0.2 3.4 -3.7
v 0.2 3.4 -3.8
v 0.2 3.5 -3.4
v 0.2 3.5 -3.5
v 0.2 3.6 -3.5
v 0.2 3.6 -3.7
v 0.2 3.6 -3.8
v 0.3 1.8 -3.1
v 0.3 1.8 -3.2
v 0.3 1.9 -3.1
v 0.3 1.9 -3.2
v 0.3 2.2 -3.1
v 0.3 2.2 -3.2
v 0.3 2.3 -3.1
v 0.3 2.3 -3.2
v 0.4 1.9 -3.1
v 0.4 1.9 -3.2
v 0.4 2.1 -3.1
v 0.4 2.1 -3.2
v 0.4 2.2 -3.1
v 0.4 2.2 -3.2
v 0.4 2.3 -3.8
v 0.4 2.3 -4
v 0.4 3.6 -3.8
v 0.4 3.6 -4
v 0.1 1.9 -2.9
v 0.1 2.1 -2.9
v 0.1 2.2 -2.9
v 0.2 1.9 -2.9
v 0.2 2.1 -2.9
v 0.2 2.2 -2.9
v 5.96046e-08 3 -3
v 5.96046e-08 3.1 -3
v 0.1 1.8 -3
v 0.1 1.9 -3
v 0.1 2.2 -3
v 0.1 2.3 -3
v 0.2 1.8 -3
v 0.2 1.9 -3
v 0.2 2.2 -3
v 0.2 2.3 -3
v 0.2 3 -3
v 0.2 3.1 -3
v -0.0999999 1.9 -3.1
v -0.0999999 2 -3.1
v -0.0999999 2.2 -3.1
v 5.96046e-08 1.8 -3.1
v 5.96046e-08 1.9 -3.1
v 5.96046e-08 2 -3.1
v 5.96046e-08 2.2 -3.1
v 5.96046e-08 2.3 -3.1
v 5.96046e-08 3.1 -3.1
v 5.96046e-08 3.2 -3.1
v 0.1 1.8 -3.1
v 0.1 1.9 -3.1
v 0.1 2 -3.1
v 0.1 2.1 -3.1
v 0.1 2.2 -3.1
v 0.1 2.3 -3.1
v 0.1 3 -3.1
v 0.1 3.1 -3.1
v 0.1 3.2 -3.1
v 0.2 1.8 -3.1
v 0.2 1.9 -3.1
v 0.2 2 -3.1
v 0.2 2.1 -3.1
v 0.2 2.2 -3.1
v 0.2 2.3 -3.1
v 0.2 3 -3.1
v 0.2 3.1 -3.1
v 0.2 3.2 -3.1
v 0.3 1.8 -3.1
v 0.3 1.9 -3.1
v 0.3 2.1 -3.1
v 0.3 2.2 -3.1
v 0.3 2.3 -3.1
v 0.4 1.9 -3.1
v 0.4 2.1 -3.1
v 0.4 2.2 -3.1
v 5.96046e-08 3.2 -3.2
v 5.96046e-08 3.3 -3.2
v 0.1 1.8 -3.2
v 0.1 1.9 -3.2
v 0.1 2.2 -3.2
v 0.1 2.3 -3.2
v 0.1 3.2 -3.2
v 0.1 3.3 -3.2
v 0.2 1.8 -3.2
v 0.2 1.9 -3.2
v 0.2 2.2 -3.2
v 0.2 2.3 -3.2
v 0.2 3.2 -3.2
v 0.2 3.3 -3.2
v 5.96046e-08 3.3 -3.3
v 5.96046e-08 3.4 -3.3
v 0.1 1.9 -3.3
v 0.1 2.1 -3.3
v 0.1 2.2 -3.3
v 0.1 3.3 -3.3
v 0.2 1.9 -3.3
v 0.2 2.1 -3.3
v 0.2 2.2 -3.3
v 0.2 3.3 -3.3
v 0.2 3.4 -3.3
v 5.96046e-08 2.9 -3.4
v 5.96046e-08 3 -3.4
v 5.96046e-08 3.4 -3.4
v 5.96046e-08 3.5 -3.4
v 0.2 2.9 -3.4
v 0.2 3 -3.4
v 0.2 3.4 -3.4
v 0.2 3.5 -3.4
v 5.96046e-08 2.8 -3.5
v 5.96046e-08 2.9 -3.5
v 5.96046e-08 3.5 -3.5
v 5.96046e-08 3.6 -3.5
v 0.2 2.8 -3.5
v 0.2 2.9 -3.5
v 0.2 3.5 -3.5
v 0.2 3.6 -3.5
v 5.96046e-08 2.5 -3.6
v 5.96046e-08 2.8 -3.6
v 0.1 2.7 -3.6
v 0.1 2.8 -3.6
v 0.2 2.5 -3.6
v 0.2 2.7 -3.6
v 0.2 2.8 -3.6
v 5.96046e-08 2.4 -3.7
v 5.96046e-08 2.5 -3.7
v 0.2 2.4 -3.7
v 0.2 2.5 -3.7
v -0.2 2.3 -3.8
v -0.2 3.6 -3.8
v 5.96046e-08 2.4 -3.8
v 5.96046e-08 3.6 -3.8
v 0.2 2.4 -3.8
v 0.2 3.4 -3.8
v 0.2 3.6 -3.8
v 0.4 2.3 -3.8
v 0.4 3.6 -3.8
v 0.1 1.9 -3
v 0.1 2.1 -3
v 0.1 2.2 -3
v 0.2 1.9 -3
v 0.2 2.1 -3
v 0.2 2.2 -3
v 0.1 1.8 -3.1
v 0.1 1.9 -3.1
v 0.1 2.2 -3.1
v 0.1 2.3 -3.1
v 0.2 1.8 -3.1
v 0.2 1.9 -3.1
v 0.2 2.2 -3.1
v 0.2 2.3 -3.1
v -0.0999999 1.9 -3.2
v -0.0999999 2 -3.2
v -0.0999999 2.2 -3.2
v 5.96046e-08 1.8 -3.2
v 5.96046e-08 1.9 -3.2
v 5.96046e-08 2 -3.2
v 5.96046e-08 2.2 -3.2
v 5.96046e-08 2.3 -3.2
v 0.1 1.8 -3.2
v 0.1 1.9 -3.2
v 0.1 2 -3.2
v 0.1 2.1 -3.2
v 0.1 2.2 -3.2
v 0.1 2.3 -3.2
v 0.1 3 -3.2
v 0.2 1.8 -3.2
v 0.2 1.9 -3.2
v 0.2 2 -3.2
v 0.2 2.1 -3.2
v 0.2 2.2 -3.2
v 0.2 2.3 -3.2
v 0.2 3 -3.2
v 0.3 1.8 -3.2
v 0.3 1.9 -3.2
v 0.3 2.1 -3.2
v 0.3 2.2 -3.2
v 0.3 2.3 -3.2
v 0.4 1.9 -3.2
v 0.4 2.1 -3.2
v 0.4 2.2 -3.2
v 0.1 1.8 -3.3
v 0.1 1.9 -3.3
v 0.1 2.2 -3.3
v 0.1 2.3 -3.3
v 0.2 1.8 -3.3
v 0.2 1.9 -3.3
v 0.2 2.2 -3.3
v 0.2 2.3 -3.3
v 0.1 1.9 -3.4
v 0.1 2.1 -3.4
v 0.1 2.2 -3.4
v 0.2 1.9 -3.4
v 0.2 2.1 -3.4
v 0.2 2.2 -3.4
v -0.2 2.3 -4
v -0.2 3.6 -4
v 0.4 2.3 -4
v 0.4 3.6 -4
v 0.1 1.8 -3
v 0.2 1.8 -3
v 5.96046e-08 1.8 -3.1
v 0.1 1.8 -3.1
v 0.2 1.8 -3.1
v 0.3 1.8 -3.1
v 5.96046e-08 1.8 -3.2
v 0.1 1.8 -3.2
v 0.2 1.8 -3.2
v 0.3 1.8 -3.2
v 0.1 1.8 -3.3
v 0.2 1.8 -3.3
v 0.1 1.9 -2.9
v 0.2 1.9 -2.9
v 0.1 1.9 -3
v 0.2 1.9 -3
v -0.0999999 1.9 -3.1
v 5.96046e-08 1.9 -3.1
v 0.3 1.9 -3.1
v 0.4 1.9 -3.1
v -0.0999999 1.9 -3.2
v 5.96046e-08 1.9 -3.2
v 0.3 1.9 -3.2
v 0.4 1.9 -3.2
v 0.1 1.9 -3.3
v 0.2 1.9 -3.3
v 0.1 1.9 -3.4
v 0.2 1.9 -3.4
v 0.1 2 -3.1
v 0.2 2 -3.1
v 0.1 2 -3.2
v 0.2 2 -3.2
v 0.1 2.2 -3
v 0.2 2.2 -3
v 5.96046e-08 2.2 -3.1
v 0.1 2.2 -3.1
v 0.2 2.2 -3.1
v 0.3 2.2 -3.1
v 5.96046e-08 2.2 -3.2
v 0.1 2.2 -3.2
v 0.2 2.2 -3.2
v 0.3 2.2 -3.2
v 0.1 2.2 -3.3
v 0.2 2.2 -3.3
v 0.1 2.3 -3.1
v 0.2 2.3 -3.1
v 0.1 2.3 -3.2
v 0.2 2.3 -3.2
v -0.2 2.3 -3.8
v 0.4 2.3 -3.8
v -0.2 2.3 -4
v 0.4 2.3 -4
v 5.96046e-08 2.4 -3.7
v 0.2 2.4 -3.7
v 5.96046e-08 2.4 -3.8
v 0.2 2.4 -3.8
v 5.96046e-08 2.5 -3.6
v 0.2 2.5 -3.6
v 5.96046e-08 2.5 -3.7
v 0.2 2.5 -3.7
v 5.96046e-08 2.8 -3.5
v 0.2 2.8 -3.5
v 5.96046e-08 2.8 -3.6
v 0.1 2.8 -3.6
v 0.2 2.8 -3.6
v 5.96046e-08 2.9 -3.4
v 0.2 2.9 -3.4
v 5.96046e-08 2.9 -3.5
v 0.2 2.9 -3.5
v 5.96046e-08 3 -3
v 0.2 3 -3
v 0.1 3 -3.1
v 0.2 3 -3.1
v 0.1 3 -3.2
v 0.2 3 -3.2
v 5.96046e-08 3 -3.4
v 0.2 3 -3.4
v 0.1 1.9 -3
v 0.2 1.9 -3
v 5.96046e-08 1.9 -3.1
v 0.1 1.9 -3.1
v 0.2 1.9 -3.1
v 0.3 1.9 -3.1
v 5.96046e-08 1.9 -3.2
v 0.1 1.9 -3.2
v 0.2 1.9 -3.2
v 0.3 1.9 -3.2
v 0.1 1.9 -3.3
v 0.2 1.9 -3.3
v 0.1 2.1 -3.1
v 0.2 2.1 -3.1
v 0.1 2.1 -3.2
v 0.2 2.1 -3.2
v 0.1 2.2 -2.9
v 0.2 2.2 -2.9
v 0.1 2.2 -3
v 0.2 2.2 -3
v -0.0999999 2.2 -3.1
v 5.96046e-08 2.2 -3.1
v 0.3 2.2 -3.1
v 0.4 2.2 -3.1
v -0.0999999 2.2 -3.2
v 5.96046e-08 2.2 -3.2
v 0.3 2.2 -3.2
v 0.4 2.2 -3.2
v 0.1 2.2 -3.3
v 0.2 2.2 -3.3
v 0.1 2.2 -3.4
v 0.2 2.2 -3.4
v 0.1 2.3 -3
v 0.2 2.3 -3
v 5.96046e-08 2.3 -3.1
v 0.1 2.3 -3.1
v 0.2 2.3 -3.1
v 0.3 2.3 -3.1
v 5.96046e-08 2.3 -3.2
v 0.1 2.3 -3.2
v 0.2 2.3 -3.2
v 0.3 2.3 -3.2
v 0.1 2.3 -3.3
v 0.2 2.3 -3.3
v 5.96046e-08 3.1 -3
v 0.2 3.1 -3
v 5.96046e-08 3.1 -3.1
v 0.1 3.1 -3.1
v 0.2 3.1 -3.1
v 5.96046e-08 3.2 -3.1
v 0.1 3.2 -3.1
v 0.2 3.2 -3.1
v 5.96046e-08 3.2 -3.2
v 0.1 3.2 -3.2
v 0.2 3.2 -3.2
v 5.96046e-08 3.3 -3.2
v 0.1 3.3 -3.2
v 0.2 3.3 -3.2
v 5.96046e-08 3.3 -3.3
v 0.1 3.3 -3.3
v 0.2 3.3 -3.3
v 5.96046e-08 3.4 -3.3
v 0.2 3.4 -3.3
v 5.96046e-08 3.4 -3.4
v 0.2 3.4 -3.4
v 5.96046e-08 3.5 -3.4
v 0.2 3.5 -3.4
v 5.96046e-08 3.5 -3.5
v 0.2 3.5 -3.5
v 5.96046e-08 3.6 -3.5
v 0.2 3.6 -3.5
v 0.1 3.6 -3.7
v 0.2 3.6 -3.7
v -0.2 3.6 -3.8
v 5.96046e-08 3.6 -3.8
v 0.1 3.6 -3.8
v 0.2 3.6 -3.8
v 0.4 3.6 -3.8
v -0.2 3.6 -4
v 0.4 3.6 -4

# faces
f 3/5/1 2/5/1 1/5/1
f 4/5/1 2/5/1 3/5/1
f 7/4/1 6/4/1 5/4/1
f 8/4/1 6/4/1 7/4/1
f 9/6/1 8/6/1 7/6/1
f 10/6/1 8/6/1 9/6/1
f 13/6/1 12/6/1 11/6/1
f 14/6/1 12/6/1 13/6/1
f 17/6/1 16/6/1 15/6/1
f 18/6/1 16/6/1 17/6/1
f 22/2/1 20/2/1 19/2/1
f 24/2/1 22/2/1 21/2/1
f 26/2/1 24/2/1 23/2/1
f 28/2/1 26/2/1 25/2/1
f 29/2/1 28/2/1 27/2/1
f 30/2/1 28/2/1 29/2/1
f 31/2/1 28/2/1 30/2/1
f 32/3/1 31/3/1 30/3/1
f 33/3/1 31/3/1 32/3/1
f 34/3/1 31/3/1 33/3/1
f 35/2/1 28/2/1 31/2/1
f 35/3/1 31/3/1 34/3/1
f 36/2/1 22/2/1 24/2/1
f 36/2/1 28/2/1 35/2/1
f 36/2/1 24/2/1 26/2/1
f 36/2/1 26/2/1 28/2/1
f 37/2/1 20/2/1 22/2/1
f 37/2/1 22/2/1 36/2/1
f 38/2/1 36/2/1 35/2/1
f 39/2/1 36/2/1 38/2/1
f 40/2/1 36/2/1 39/2/1
f 41/3/1 37/3/1 36/3/1
f 41/2/1 36/2/1 40/2/1
f 42/2/1 20/2/1 37/2/1
f 42/3/1 37/3/1 41/3/1
f 43/2/1 40/2/1 39/2/1
f 44/3/1 41/3/1 40/3/1
f 44/2/1 40/2/1 43/2/1
f 45/2/1 42/2/1 41/2/1
f 45/3/1 41/3/1 44/3/1
f 46/2/1 45/2/1 44/2/1
f 47/2/1 20/2/1 42/2/1
f 47/2/1 45/2/1 46/2/1
f 47/2/1 42/2/1 45/2/1
f 53/4/1 49/4/1 48/4/1
f 54/4/1 49/4/1 53/4/1
f 55/4/1 51/4/1 50/4/1
f 56/4/1 51/4/1 55/4/1
f 60/6/1 53/6/1 52/6/1
f 61/6/1 53/6/1 60/6/1
f 62/1/1 59/1/1 58/1/1
f 63/1/1 59/1/1 62/1/1
f 64/6/1 57/6/1 56/6/1
f 65/6/1 57/6/1 64/6/1
f 66/4/1 61/4/1 60/4/1
f 67/4/1 61/4/1 66/4/1
f 70/4/1 65/4/1 64/4/1
f 71/4/1 65/4/1 70/4/1
f 72/6/1 68/6/1 67/6/1
f 73/6/1 68/6/1 72/6/1
f 74/4/1 70/4/1 69/4/1
f 75/4/1 70/4/1 74/4/1
f 76/2/1 74/2/1 73/2/1
f 77/2/1 74/2/1 76/2/1
f 80/6/1 79/6/1 78/6/1
f 81/6/1 79/6/1 80/6/1
f 84/6/1 83/6/1 82/6/1
f 85/6/1 83/6/1 84/6/1
f 88/6/1 87/6/1 86/6/1
f 89/6/1 87/6/1 88/6/1
f 90/4/1 89/4/1 88/4/1
f 91/4/1 89/4/1 90/4/1
f 92/4/2 93/4/2 94/4/2
f 94/4/2 93/4/2 95/4/2
f 94/6/2 95/6/2 96/6/2
f 96/6/2 95/6/2 97/6/2
f 98/6/2 99/6/2 100/6/2
f 100/6/2 99/6/2 101/6/2
f 102/6/2 103/6/2 104/6/2
f 104/6/2 103/6/2 105/6/2
f 106/4/2 107/4/2 111/4/2
f 111/4/2 107/4/2 112/4/2
f 108/4/2 109/4/2 113/4/2
f 113/4/2 109/4/2 114/4/2
f 110/6/2 111/6/2 118/6/2
f 118/6/2 111/6/2 119/6/2
f 116/1/2 117/1/2 120/1/2
f 120/1/2 117/1/2 121/1/2
f 114/6/2 115/6/2 122/6/2
f 122/6/2 115/6/2 123/6/2
f 118/4/2 119/4/2 124/4/2
f 124/4/2 119/4/2 125/4/2
f 122/4/2 123/4/2 128/4/2
f 128/4/2 123/4/2 129/4/2
f 125/6/2 126/6/2 130/6/2
f 130/6/2 126/6/2 131/6/2
f 127/4/2 128/4/2 132/4/2
f 132/4/2 128/4/2 133/4/2
f 134/2/2 135/2/2 137/2/2
f 136/2/2 137/2/2 138/2/2
f 137/2/2 135/2/2 139/2/2
f 138/2/2 137/2/2 139/2/2
f 138/3/2 139/3/2 141/3/2
f 140/2/2 141/2/2 143/2/2
f 141/3/2 139/3/2 144/3/2
f 143/2/2 141/2/2 144/2/2
f 139/2/2 135/2/2 145/2/2
f 144/3/2 139/3/2 145/3/2
f 131/2/2 132/2/2 147/2/2
f 147/2/2 132/2/2 148/2/2
f 143/2/2 144/2/2 149/2/2
f 142/2/2 143/2/2 149/2/2
f 144/2/2 145/2/2 149/2/2
f 147/2/2 148/2/2 150/2/2
f 148/2/2 149/2/2 150/2/2
f 146/2/2 147/2/2 150/2/2
f 150/2/2 149/2/2 151/2/2
f 151/2/2 149/2/2 152/2/2
f 152/2/2 149/2/2 153/2/2
f 149/2/2 145/2/2 154/2/2
f 153/2/2 149/2/2 154/2/2
f 154/2/2 145/2/2 155/2/2
f 153/2/2 154/2/2 156/2/2
f 156/2/2 154/2/2 157/2/2
f 154/3/2 155/3/2 158/3/2
f 157/2/2 154/2/2 158/2/2
f 155/2/2 145/2/2 159/2/2
f 158/3/2 155/3/2 159/3/2
f 159/2/2 145/2/2 160/2/2
f 157/2/2 158/2/2 161/2/2
f 158/2/2 159/2/2 161/2/2
f 161/2/2 159/2/2 162/2/2
f 159/3/2 160/3/2 163/3/2
f 162/2/2 159/2/2 163/2/2
f 160/2/2 145/2/2 164/2/2
f 163/3/2 160/3/2 164/3/2
f 145/2/2 135/2/2 165/2/2
f 164/2/2 145/2/2 165/2/2
f 165/2/2 135/2/2 166/2/2
f 163/2/2 164/2/2 167/2/2
f 162/2/2 163/2/2 167/2/2
f 164/2/2 165/2/2 167/2/2
f 167/2/2 165/2/2 168/2/2
f 168/2/2 165/2/2 169/2/2
f 165/3/2 166/3/2 170/3/2
f 169/2/2 165/2/2 170/2/2
f 170/3/2 166/3/2 171/3/2
f 172/6/2 173/6/2 174/6/2
f 174/6/2 173/6/2 175/6/2
f 176/6/2 177/6/2 178/6/2
f 178/6/2 177/6/2 179/6/2
f 180/6/2 181/6/2 182/6/2
f 182/6/2 181/6/2 183/6/2
f 182/4/2 183/4/2 184/4/2
f 184/4/2 183/4/2 185/4/2
f 186/5/2 187/5/2 188/5/2
f 188/5/2 187/5/2 189/5/2
f 193/6/3 191/6/3 190/6/3
f 194/4/3 192/4/3 191/4/3
f 194/6/3 191/6/3 193/6/3
f 195/4/3 192/4/3 194/4/3
f 202/4/3 199/4/3 198/4/3
f 203/4/3 199/4/3 202/4/3
f 204/6/3 201/6/3 200/6/3
f 205/6/3 201/6/3 204/6/3
f 206/2/3 197/2/3 196/2/3
f 207/2/3 197/2/3 206/2/3
f 212/4/3 209/4/3 208/4/3
f 213/6/3 210/6/3 209/6/3
f 213/4/3 209/4/3 212/4/3
f 214/6/3 210/6/3 213/6/3
f 218/6/3 212/6/3 211/6/3
f 219/6/3 212/6/3 218/6/3
f 222/6/3 215/6/3 214/6/3
f 223/6/3 215/6/3 222/6/3
f 225/3/3 217/3/3 216/3/3
f 226/3/3 217/3/3 225/3/3
f 229/1/3 221/1/3 220/1/3
f 230/1/3 221/1/3 229/1/3
f 232/2/3 224/2/3 223/2/3
f 233/2/3 224/2/3 232/2/3
f 234/2/3 226/2/3 225/2/3
f 235/2/3 226/2/3 234/2/3
f 236/6/3 228/6/3 227/6/3
f 237/6/3 228/6/3 236/6/3
f 239/6/3 232/6/3 231/6/3
f 240/6/3 232/6/3 239/6/3
f 241/6/3 238/6/3 237/6/3
f 242/4/3 239/4/3 238/4/3
f 242/6/3 238/6/3 241/6/3
f 243/4/3 239/4/3 242/4/3
f 250/3/3 245/3/3 244/3/3
f 251/3/3 245/3/3 250/3/3
f 252/4/3 247/4/3 246/4/3
f 253/4/3 247/4/3 252/4/3
f 254/4/3 249/4/3 248/4/3
f 255/4/3 249/4/3 254/4/3
f 256/2/3 251/2/3 250/2/3
f 257/2/3 251/2/3 256/2/3
f 263/2/3 259/2/3 258/2/3
f 264/6/3 261/6/3 260/6/3
f 265/4/3 262/4/3 261/4/3
f 265/6/3 261/6/3 264/6/3
f 266/4/3 262/4/3 265/4/3
f 267/2/3 259/2/3 263/2/3
f 268/2/3 259/2/3 267/2/3
f 273/2/3 270/2/3 269/2/3
f 274/2/3 270/2/3 273/2/3
f 275/2/3 272/2/3 271/2/3
f 276/2/3 272/2/3 275/2/3
f 281/2/3 278/2/3 277/2/3
f 282/2/3 278/2/3 281/2/3
f 283/2/3 280/2/3 279/2/3
f 284/2/3 280/2/3 283/2/3
f 287/2/3 286/2/3 285/2/3
f 288/2/3 286/2/3 287/2/3
f 289/2/3 287/2/3 285/2/3
f 290/3/3 288/3/3 287/3/3
f 290/2/3 287/2/3 289/2/3
f 291/3/3 288/3/3 290/3/3
f 294/2/3 293/2/3 292/2/3
f 295/2/3 293/2/3 294/2/3
f 298/5/3 297/5/3 296/5/3
f 299/5/3 297/5/3 298/5/3
f 300/5/3 298/5/3 296/5/3
f 303/5/3 300/5/3 296/5/3
f 303/5/3 302/5/3 301/5/3
f 303/5/3 301/5/3 300/5/3
f 304/5/3 302/5/3 303/5/3
f 305/6/4 306/6/4 308/6/4
f 306/4/4 307/4/4 309/4/4
f 308/6/4 306/6/4 309/6/4
f 309/4/4 307/4/4 310/4/4
f 311/4/4 312/4/4 315/4/4
f 315/4/4 312/4/4 316/4/4
f 313/6/4 314/6/4 317/6/4
f 317/6/4 314/6/4 318/6/4
f 319/4/4 320/4/4 323/4/4
f 320/6/4 321/6/4 324/6/4
f 323/4/4 320/4/4 324/4/4
f 324/6/4 321/6/4 325/6/4
f 322/6/4 323/6/4 327/6/4
f 327/6/4 323/6/4 328/6/4
f 325/6/4 326/6/4 331/6/4
f 331/6/4 326/6/4 332/6/4
f 329/1/4 330/1/4 336/1/4
f 336/1/4 330/1/4 337/1/4
f 332/2/4 333/2/4 339/2/4
f 339/2/4 333/2/4 340/2/4
f 334/6/4 335/6/4 341/6/4
f 341/6/4 335/6/4 342/6/4
f 338/6/4 339/6/4 344/6/4
f 344/6/4 339/6/4 345/6/4
f 342/6/4 343/6/4 346/6/4
f 343/4/4 344/4/4 347/4/4
f 346/6/4 343/6/4 347/6/4
f 347/4/4 344/4/4 348/4/4
f 349/4/4 350/4/4 353/4/4
f 353/4/4 350/4/4 354/4/4
f 351/4/4 352/4/4 355/4/4
f 355/4/4 352/4/4 356/4/4
f 357/6/4 358/6/4 360/6/4
f 358/4/4 359/4/4 361/4/4
f 360/6/4 358/6/4 361/6/4
f 361/4/4 359/4/4 362/4/4
f 363/5/4 364/5/4 365/5/4
f 365/5/4 364/5/4 366/5/4
f 370/4/5 368/4/5 367/4/5
f 371/4/5 368/4/5 370/4/5
f 373/6/5 370/6/5 369/6/5
f 374/6/5 370/6/5 373/6/5
f 375/6/5 372/6/5 371/6/5
f 376/6/5 372/6/5 375/6/5
f 377/4/5 375/4/5 374/4/5
f 378/4/5 375/4/5 377/4/5
f 381/6/5 380/6/5 379/6/5
f 382/6/5 380/6/5 381/6/5
f 387/4/5 384/4/5 383/4/5
f 388/4/5 384/4/5 387/4/5
f 389/6/5 386/6/5 385/6/5
f 390/6/5 386/6/5 389/6/5
f 393/6/5 392/6/5 391/6/5
f 394/6/5 392/6/5 393/6/5
f 397/1/5 396/1/5 395/1/5
f 398/1/5 396/1/5 397/1/5
f 402/6/5 400/6/5 399/6/5
f 403/6/5 400/6/5 402/6/5
f 405/6/5 402/6/5 401/6/5
f 406/6/5 402/6/5 405/6/5
f 407/6/5 404/6/5 403/6/5
f 408/6/5 404/6/5 407/6/5
f 409/4/5 407/4/5 406/4/5
f 410/4/5 407/4/5 409/4/5
f 413/2/5 412/2/5 411/2/5
f 414/2/5 412/2/5 413/2/5
f 417/5/5 416/5/5 415/5/5
f 418/5/5 416/5/5 417/5/5
f 421/2/5 420/2/5 419/2/5
f 422/2/5 420/2/5 421/2/5
f 425/2/5 424/2/5 423/2/5
f 426/2/5 424/2/5 425/2/5
f 429/2/5 428/2/5 427/2/5
f 430/2/5 428/2/5 429/2/5
f 431/2/5 428/2/5 430/2/5
f 434/2/5 433/2/5 432/2/5
f 435/2/5 433/2/5 434/2/5
f 438/2/5 437/2/5 436/2/5
f 439/2/5 437/2/5 438/2/5
f 440/2/5 438/2/5 436/2/5
f 442/2/5 440/2/5 436/2/5
f 442/2/5 441/2/5 440/2/5
f 443/2/5 441/2/5 442/2/5
f 444/4/6 445/4/6 447/4/6
f 447/4/6 445/4/6 448/4/6
f 446/6/6 447/6/6 450/6/6
f 450/6/6 447/6/6 451/6/6
f 448/6/6 449/6/6 452/6/6
f 452/6/6 449/6/6 453/6/6
f 451/4/6 452/4/6 454/4/6
f 454/4/6 452/4/6 455/4/6
f 456/1/6 457/1/6 458/1/6
f 458/1/6 457/1/6 459/1/6
f 460/4/6 461/4/6 462/4/6
f 462/4/6 461/4/6 463/4/6
f 464/6/6 465/6/6 468/6/6
f 468/6/6 465/6/6 469/6/6
f 466/4/6 467/4/6 470/4/6
f 470/4/6 467/4/6 471/4/6
f 472/4/6 473/4/6 474/4/6
f 474/4/6 473/4/6 475/4/6
f 476/6/6 477/6/6 479/6/6
f 479/6/6 477/6/6 480/6/6
f 478/6/6 479/6/6 482/6/6
f 482/6/6 479/6/6 483/6/6
f 480/6/6 481/6/6 484/6/6
f 484/6/6 481/6/6 485/6/6
f 483/4/6 484/4/6 486/4/6
f 486/4/6 484/4/6 487/4/6
f 488/2/6 489/2/6 490/2/6
f 490/2/6 489/2/6 491/2/6
f 491/2/6 489/2/6 492/2/6
f 493/3/6 494/3/6 496/3/6
f 494/2/6 495/2/6 497/2/6
f 496/3/6 494/3/6 497/3/6
f 497/2/6 495/2/6 498/2/6
f 499/3/6 500/3/6 502/3/6
f 500/2/6 501/2/6 503/2/6
f 502/3/6 500/3/6 503/3/6
f 503/2/6 501/2/6 504/2/6
f 505/2/6 506/2/6 507/2/6
f 507/2/6 506/2/6 508/2/6
f 509/2/6 510/2/6 511/2/6
f 511/2/6 510/2/6 512/2/6
f 513/2/6 514/2/6 515/2/6
f 515/2/6 514/2/6 516/2/6
f 513/2/6 515/2/6 518/2/6
f 515/3/6 516/3/6 519/3/6
f 518/2/6 515/2/6 519/2/6
f 519/3/6 516/3/6 520/3/6
f 519/5/6 520/5/6 522/5/6
f 520/5/6 521/5/6 522/5/6
f 518/5/6 519/5/6 522/5/6
f 517/5/6 518/5/6 522/5/6
f 522/5/6 521/5/6 523/5/6
