# MagicaVoxel @ Ephtracy

# group
o 

# material
mtllib Pared2.mtl
usemtl palette

# normals
vn -1 0 0
vn 1 0 0
vn 0 0 1
vn 0 0 -1
vn 0 -1 0
vn 0 1 0

# texcoords
vt 0.0644531 0.5
vt 0.0917969 0.5

# verts
v -2 0 -1.8
v -2 0 -2
v -2 4 -1.8
v -2 4 -2
v -1.6 2.1 -1.7
v -1.6 2.1 -1.8
v -1.6 2.2 -1.7
v -1.6 2.2 -1.8
v -1.5 1.6 -1.7
v -1.5 1.6 -1.8
v -1.5 1.7 -1.7
v -1.5 1.7 -1.8
v -1.5 2.2 -1.7
v -1.5 2.2 -1.8
v -1.5 2.3 -1.7
v -1.5 2.3 -1.8
v -1.4 3 -1.7
v -1.4 3 -1.8
v -1.4 3.1 -1.7
v -1.4 3.1 -1.8
v -1.3 0.3 -1.7
v -1.3 0.3 -1.8
v -1.3 0.4 -1.7
v -1.3 0.4 -1.8
v -1.3 1.2 -1.7
v -1.3 1.2 -1.8
v -1.3 1.3 -1.7
v -1.3 1.3 -1.8
v -1.3 1.7 -1.7
v -1.3 1.7 -1.8
v -1.3 1.8 -1.7
v -1.3 1.8 -1.8
v -1.1 0.4 -1.7
v -1.1 0.4 -1.8
v -1.1 0.5 -1.7
v -1.1 0.5 -1.8
v -1.1 1.1 -1.7
v -1.1 1.1 -1.8
v -1.1 1.2 -1.7
v -1.1 1.2 -1.8
v -1.1 2.7 -1.7
v -1.1 2.7 -1.8
v -1.1 2.8 -1.7
v -1.1 2.8 -1.8
v -1.1 3.5 -1.7
v -1.1 3.5 -1.8
v -1.1 3.6 -1.7
v -1.1 3.6 -1.8
v -0.9 3.6 -1.7
v -0.9 3.6 -1.8
v -0.9 3.7 -1.7
v -0.9 3.7 -1.8
v -0.5 2.9 -1.7
v -0.5 2.9 -1.8
v -0.5 3 -1.7
v -0.5 3 -1.8
v -0.4 1.8 -1.7
v -0.4 1.8 -1.8
v -0.4 1.9 -1.7
v -0.4 1.9 -1.8
v -0.3 2.8 -1.7
v -0.3 2.8 -1.8
v -0.3 2.9 -1.7
v -0.3 2.9 -1.8
v -0.2 0.4 -1.7
v -0.2 0.4 -1.8
v -0.2 0.5 -1.7
v -0.2 0.5 -1.8
v -0.2 1.9 -1.7
v -0.2 1.9 -1.8
v -0.2 2 -1.7
v -0.2 2 -1.8
v -0.0999999 0.3 -1.7
v -0.0999999 0.3 -1.8
v -0.0999999 0.4 -1.7
v -0.0999999 0.4 -1.8
v -0.0999999 1.3 -1.7
v -0.0999999 1.3 -1.8
v -0.0999999 1.4 -1.7
v -0.0999999 1.4 -1.8
v -0.0999999 2.3 -1.7
v -0.0999999 2.3 -1.8
v -0.0999999 2.4 -1.7
v -0.0999999 2.4 -1.8
v 2.38419e-07 2.2 -1.7
v 2.38419e-07 2.2 -1.8
v 2.38419e-07 2.3 -1.7
v 2.38419e-07 2.3 -1.8
v 0.1 0.2 -1.7
v 0.1 0.2 -1.8
v 0.1 0.3 -1.7
v 0.1 0.3 -1.8
v 0.1 0.9 -1.7
v 0.1 0.9 -1.8
v 0.1 1 -1.7
v 0.1 1 -1.8
v 0.1 1.4 -1.7
v 0.1 1.4 -1.8
v 0.1 1.5 -1.7
v 0.1 1.5 -1.8
v 0.1 3.1 -1.7
v 0.1 3.1 -1.8
v 0.1 3.2 -1.7
v 0.1 3.2 -1.8
v 0.3 0.8 -1.7
v 0.3 0.8 -1.8
v 0.3 0.9 -1.7
v 0.3 0.9 -1.8
v 0.3 3 -1.7
v 0.3 3 -1.8
v 0.3 3.1 -1.7
v 0.3 3.1 -1.8
v 0.8 2.6 -1.7
v 0.8 2.6 -1.8
v 0.8 2.7 -1.7
v 0.8 2.7 -1.8
v 0.9 3.4 -1.7
v 0.9 3.4 -1.8
v 0.9 3.5 -1.7
v 0.9 3.5 -1.8
v 1 1.6 -1.7
v 1 1.6 -1.8
v 1 1.7 -1.7
v 1 1.7 -1.8
v 1 2.5 -1.7
v 1 2.5 -1.8
v 1 2.6 -1.7
v 1 2.6 -1.8
v 1 3.5 -1.7
v 1 3.5 -1.8
v 1 3.6 -1.7
v 1 3.6 -1.8
v 1.1 0.6 -1.7
v 1.1 0.6 -1.8
v 1.1 0.7 -1.7
v 1.1 0.7 -1.8
v 1.1 2.4 -1.7
v 1.1 2.4 -1.8
v 1.1 2.5 -1.7
v 1.1 2.5 -1.8
v 1.2 0.5 -1.7
v 1.2 0.5 -1.8
v 1.2 0.6 -1.7
v 1.2 0.6 -1.8
v 1.3 1.7 -1.7
v 1.3 1.7 -1.8
v 1.3 1.8 -1.7
v 1.3 1.8 -1.8
v 1.4 0.4 -1.7
v 1.4 0.4 -1.8
v 1.4 0.5 -1.7
v 1.4 0.5 -1.8
v -1.5 2.1 -1.7
v -1.5 2.1 -1.8
v -1.5 2.2 -1.7
v -1.5 2.2 -1.8
v -1.3 1.6 -1.7
v -1.3 1.6 -1.8
v -1.3 1.7 -1.7
v -1.3 1.7 -1.8
v -1.3 2.2 -1.7
v -1.3 2.2 -1.8
v -1.3 2.3 -1.7
v -1.3 2.3 -1.8
v -1.2 3 -1.7
v -1.2 3 -1.8
v -1.2 3.1 -1.7
v -1.2 3.1 -1.8
v -1.1 0.3 -1.7
v -1.1 0.3 -1.8
v -1.1 0.4 -1.7
v -1.1 0.4 -1.8
v -1.1 1.2 -1.7
v -1.1 1.2 -1.8
v -1.1 1.3 -1.7
v -1.1 1.3 -1.8
v -1.1 1.7 -1.7
v -1.1 1.7 -1.8
v -1.1 1.8 -1.7
v -1.1 1.8 -1.8
v -0.9 0.4 -1.7
v -0.9 0.4 -1.8
v -0.9 0.5 -1.7
v -0.9 0.5 -1.8
v -0.9 1.1 -1.7
v -0.9 1.1 -1.8
v -0.9 1.2 -1.7
v -0.9 1.2 -1.8
v -0.9 2.7 -1.7
v -0.9 2.7 -1.8
v -0.9 2.8 -1.7
v -0.9 2.8 -1.8
v -0.8 3.5 -1.7
v -0.8 3.5 -1.8
v -0.8 3.6 -1.7
v -0.8 3.6 -1.8
v -0.7 3.6 -1.7
v -0.7 3.6 -1.8
v -0.7 3.7 -1.7
v -0.7 3.7 -1.8
v -0.3 2.9 -1.7
v -0.3 2.9 -1.8
v -0.3 3 -1.7
v -0.3 3 -1.8
v -0.2 1.8 -1.7
v -0.2 1.8 -1.8
v -0.2 1.9 -1.7
v -0.2 1.9 -1.8
v -0.2 2.8 -1.7
v -0.2 2.8 -1.8
v -0.2 2.9 -1.7
v -0.2 2.9 -1.8
v -0.0999999 0.4 -1.7
v -0.0999999 0.4 -1.8
v -0.0999999 0.5 -1.7
v -0.0999999 0.5 -1.8
v 2.38419e-07 1.9 -1.7
v 2.38419e-07 1.9 -1.8
v 2.38419e-07 2 -1.7
v 2.38419e-07 2 -1.8
v 0.1 0.3 -1.7
v 0.1 0.3 -1.8
v 0.1 0.4 -1.7
v 0.1 0.4 -1.8
v 0.1 1.3 -1.7
v 0.1 1.3 -1.8
v 0.1 1.4 -1.7
v 0.1 1.4 -1.8
v 0.1 2.3 -1.7
v 0.1 2.3 -1.8
v 0.1 2.4 -1.7
v 0.1 2.4 -1.8
v 0.2 0.2 -1.7
v 0.2 0.2 -1.8
v 0.2 0.3 -1.7
v 0.2 0.3 -1.8
v 0.2 2.2 -1.7
v 0.2 2.2 -1.8
v 0.2 2.3 -1.7
v 0.2 2.3 -1.8
v 0.3 0.9 -1.7
v 0.3 0.9 -1.8
v 0.3 1 -1.7
v 0.3 1 -1.8
v 0.3 1.4 -1.7
v 0.3 1.4 -1.8
v 0.3 1.5 -1.7
v 0.3 1.5 -1.8
v 0.3 3.1 -1.7
v 0.3 3.1 -1.8
v 0.3 3.2 -1.7
v 0.3 3.2 -1.8
v 0.4 3 -1.7
v 0.4 3 -1.8
v 0.4 3.1 -1.7
v 0.4 3.1 -1.8
v 0.5 0.8 -1.7
v 0.5 0.8 -1.8
v 0.5 0.9 -1.7
v 0.5 0.9 -1.8
v 1 2.6 -1.7
v 1 2.6 -1.8
v 1 2.7 -1.7
v 1 2.7 -1.8
v 1.1 3.4 -1.7
v 1.1 3.4 -1.8
v 1.1 3.5 -1.7
v 1.1 3.5 -1.8
v 1.2 0.6 -1.7
v 1.2 0.6 -1.8
v 1.2 0.7 -1.7
v 1.2 0.7 -1.8
v 1.2 2.5 -1.7
v 1.2 2.5 -1.8
v 1.2 2.6 -1.7
v 1.2 2.6 -1.8
v 1.3 1.6 -1.7
v 1.3 1.6 -1.8
v 1.3 1.7 -1.7
v 1.3 1.7 -1.8
v 1.3 2.4 -1.7
v 1.3 2.4 -1.8
v 1.3 2.5 -1.7
v 1.3 2.5 -1.8
v 1.3 3.5 -1.7
v 1.3 3.5 -1.8
v 1.3 3.6 -1.7
v 1.3 3.6 -1.8
v 1.4 0.5 -1.7
v 1.4 0.5 -1.8
v 1.4 0.6 -1.7
v 1.4 0.6 -1.8
v 1.5 0.4 -1.7
v 1.5 0.4 -1.8
v 1.5 0.5 -1.7
v 1.5 0.5 -1.8
v 1.6 1.7 -1.7
v 1.6 1.7 -1.8
v 1.6 1.8 -1.7
v 1.6 1.8 -1.8
v 2 0 -1.8
v 2 0 -2
v 2 4 -1.8
v 2 4 -2
v -1.6 2.1 -1.7
v -1.6 2.2 -1.7
v -1.5 1.6 -1.7
v -1.5 1.7 -1.7
v -1.5 2.1 -1.7
v -1.5 2.2 -1.7
v -1.5 2.3 -1.7
v -1.4 3 -1.7
v -1.4 3.1 -1.7
v -1.3 0.3 -1.7
v -1.3 0.4 -1.7
v -1.3 1.2 -1.7
v -1.3 1.3 -1.7
v -1.3 1.6 -1.7
v -1.3 1.7 -1.7
v -1.3 1.8 -1.7
v -1.3 2.2 -1.7
v -1.3 2.3 -1.7
v -1.2 3 -1.7
v -1.2 3.1 -1.7
v -1.1 0.3 -1.7
v -1.1 0.4 -1.7
v -1.1 0.5 -1.7
v -1.1 1.1 -1.7
v -1.1 1.2 -1.7
v -1.1 1.3 -1.7
v -1.1 1.7 -1.7
v -1.1 1.8 -1.7
v -1.1 2.7 -1.7
v -1.1 2.8 -1.7
v -1.1 3.5 -1.7
v -1.1 3.6 -1.7
v -0.9 0.4 -1.7
v -0.9 0.5 -1.7
v -0.9 1.1 -1.7
v -0.9 1.2 -1.7
v -0.9 2.7 -1.7
v -0.9 2.8 -1.7
v -0.9 3.6 -1.7
v -0.9 3.7 -1.7
v -0.8 3.5 -1.7
v -0.8 3.6 -1.7
v -0.7 3.6 -1.7
v -0.7 3.7 -1.7
v -0.5 2.9 -1.7
v -0.5 3 -1.7
v -0.4 1.8 -1.7
v -0.4 1.9 -1.7
v -0.3 2.8 -1.7
v -0.3 2.9 -1.7
v -0.3 3 -1.7
v -0.2 0.4 -1.7
v -0.2 0.5 -1.7
v -0.2 1.8 -1.7
v -0.2 1.9 -1.7
v -0.2 2 -1.7
v -0.2 2.8 -1.7
v -0.2 2.9 -1.7
v -0.0999999 0.3 -1.7
v -0.0999999 0.4 -1.7
v -0.0999999 0.5 -1.7
v -0.0999999 1.3 -1.7
v -0.0999999 1.4 -1.7
v -0.0999999 2.3 -1.7
v -0.0999999 2.4 -1.7
v 2.38419e-07 1.9 -1.7
v 2.38419e-07 2 -1.7
v 2.38419e-07 2.2 -1.7
v 2.38419e-07 2.3 -1.7
v 0.1 0.2 -1.7
v 0.1 0.3 -1.7
v 0.1 0.4 -1.7
v 0.1 0.9 -1.7
v 0.1 1 -1.7
v 0.1 1.3 -1.7
v 0.1 1.4 -1.7
v 0.1 1.5 -1.7
v 0.1 2.3 -1.7
v 0.1 2.4 -1.7
v 0.1 3.1 -1.7
v 0.1 3.2 -1.7
v 0.2 0.2 -1.7
v 0.2 0.3 -1.7
v 0.2 2.2 -1.7
v 0.2 2.3 -1.7
v 0.3 0.8 -1.7
v 0.3 0.9 -1.7
v 0.3 1 -1.7
v 0.3 1.4 -1.7
v 0.3 1.5 -1.7
v 0.3 3 -1.7
v 0.3 3.1 -1.7
v 0.3 3.2 -1.7
v 0.4 3 -1.7
v 0.4 3.1 -1.7
v 0.5 0.8 -1.7
v 0.5 0.9 -1.7
v 0.8 2.6 -1.7
v 0.8 2.7 -1.7
v 0.9 3.4 -1.7
v 0.9 3.5 -1.7
v 1 1.6 -1.7
v 1 1.7 -1.7
v 1 2.5 -1.7
v 1 2.6 -1.7
v 1 2.7 -1.7
v 1 3.5 -1.7
v 1 3.6 -1.7
v 1.1 0.6 -1.7
v 1.1 0.7 -1.7
v 1.1 2.4 -1.7
v 1.1 2.5 -1.7
v 1.1 3.4 -1.7
v 1.1 3.5 -1.7
v 1.2 0.5 -1.7
v 1.2 0.6 -1.7
v 1.2 0.7 -1.7
v 1.2 2.5 -1.7
v 1.2 2.6 -1.7
v 1.3 1.6 -1.7
v 1.3 1.7 -1.7
v 1.3 1.8 -1.7
v 1.3 2.4 -1.7
v 1.3 2.5 -1.7
v 1.3 3.5 -1.7
v 1.3 3.6 -1.7
v 1.4 0.4 -1.7
v 1.4 0.5 -1.7
v 1.4 0.6 -1.7
v 1.5 0.4 -1.7
v 1.5 0.5 -1.7
v 1.6 1.7 -1.7
v 1.6 1.8 -1.7
v -2 0 -1.8
v -2 4 -1.8
v -1.6 2.1 -1.8
v -1.6 2.2 -1.8
v -1.5 1.6 -1.8
v -1.5 1.7 -1.8
v -1.5 2.1 -1.8
v -1.5 2.2 -1.8
v -1.5 2.3 -1.8
v -1.4 3 -1.8
v -1.4 3.1 -1.8
v -1.3 0.3 -1.8
v -1.3 0.4 -1.8
v -1.3 1.2 -1.8
v -1.3 1.3 -1.8
v -1.3 1.6 -1.8
v -1.3 1.7 -1.8
v -1.3 1.8 -1.8
v -1.3 2.2 -1.8
v -1.3 2.3 -1.8
v -1.2 3 -1.8
v -1.2 3.1 -1.8
v -1.1 0.3 -1.8
v -1.1 0.4 -1.8
v -1.1 0.5 -1.8
v -1.1 1.1 -1.8
v -1.1 1.2 -1.8
v -1.1 1.3 -1.8
v -1.1 1.7 -1.8
v -1.1 1.8 -1.8
v -1.1 2.7 -1.8
v -1.1 2.8 -1.8
v -1.1 3.5 -1.8
v -1.1 3.6 -1.8
v -0.9 0.4 -1.8
v -0.9 0.5 -1.8
v -0.9 1.1 -1.8
v -0.9 1.2 -1.8
v -0.9 2.7 -1.8
v -0.9 2.8 -1.8
v -0.9 3.6 -1.8
v -0.9 3.7 -1.8
v -0.8 3.5 -1.8
v -0.8 3.6 -1.8
v -0.7 3.6 -1.8
v -0.7 3.7 -1.8
v -0.5 2.9 -1.8
v -0.5 3 -1.8
v -0.4 1.8 -1.8
v -0.4 1.9 -1.8
v -0.3 2.8 -1.8
v -0.3 2.9 -1.8
v -0.3 3 -1.8
v -0.2 0.4 -1.8
v -0.2 0.5 -1.8
v -0.2 1.8 -1.8
v -0.2 1.9 -1.8
v -0.2 2 -1.8
v -0.2 2.8 -1.8
v -0.2 2.9 -1.8
v -0.0999999 0.3 -1.8
v -0.0999999 0.4 -1.8
v -0.0999999 0.5 -1.8
v -0.0999999 1.3 -1.8
v -0.0999999 1.4 -1.8
v -0.0999999 2.3 -1.8
v -0.0999999 2.4 -1.8
v 2.38419e-07 1.9 -1.8
v 2.38419e-07 2 -1.8
v 2.38419e-07 2.2 -1.8
v 2.38419e-07 2.3 -1.8
v 0.1 0.2 -1.8
v 0.1 0.3 -1.8
v 0.1 0.4 -1.8
v 0.1 0.9 -1.8
v 0.1 1 -1.8
v 0.1 1.3 -1.8
v 0.1 1.4 -1.8
v 0.1 1.5 -1.8
v 0.1 2.3 -1.8
v 0.1 2.4 -1.8
v 0.1 3.1 -1.8
v 0.1 3.2 -1.8
v 0.2 0.2 -1.8
v 0.2 0.3 -1.8
v 0.2 2.2 -1.8
v 0.2 2.3 -1.8
v 0.3 0.8 -1.8
v 0.3 0.9 -1.8
v 0.3 1 -1.8
v 0.3 1.4 -1.8
v 0.3 1.5 -1.8
v 0.3 3 -1.8
v 0.3 3.1 -1.8
v 0.3 3.2 -1.8
v 0.4 3 -1.8
v 0.4 3.1 -1.8
v 0.5 0.8 -1.8
v 0.5 0.9 -1.8
v 0.8 2.6 -1.8
v 0.8 2.7 -1.8
v 0.9 3.4 -1.8
v 0.9 3.5 -1.8
v 1 1.6 -1.8
v 1 1.7 -1.8
v 1 2.5 -1.8
v 1 2.6 -1.8
v 1 2.7 -1.8
v 1 3.5 -1.8
v 1 3.6 -1.8
v 1.1 0.6 -1.8
v 1.1 0.7 -1.8
v 1.1 2.4 -1.8
v 1.1 2.5 -1.8
v 1.1 3.4 -1.8
v 1.1 3.5 -1.8
v 1.2 0.5 -1.8
v 1.2 0.6 -1.8
v 1.2 0.7 -1.8
v 1.2 2.5 -1.8
v 1.2 2.6 -1.8
v 1.3 1.6 -1.8
v 1.3 1.7 -1.8
v 1.3 1.8 -1.8
v 1.3 2.4 -1.8
v 1.3 2.5 -1.8
v 1.3 3.5 -1.8
v 1.3 3.6 -1.8
v 1.4 0.4 -1.8
v 1.4 0.5 -1.8
v 1.4 0.6 -1.8
v 1.5 0.4 -1.8
v 1.5 0.5 -1.8
v 1.6 1.7 -1.8
v 1.6 1.8 -1.8
v 2 0 -1.8
v 2 4 -1.8
v -2 0 -2
v -2 4 -2
v -1.6 2.1 -2
v -1.6 2.2 -2
v -1.5 1.6 -2
v -1.5 1.7 -2
v -1.5 2.1 -2
v -1.5 2.2 -2
v -1.5 2.3 -2
v -1.4 3 -2
v -1.4 3.1 -2
v -1.3 0.3 -2
v -1.3 0.4 -2
v -1.3 1.2 -2
v -1.3 1.3 -2
v -1.3 1.6 -2
v -1.3 1.7 -2
v -1.3 1.8 -2
v -1.3 2.2 -2
v -1.3 2.3 -2
v -1.3 3 -2
v -1.3 3.1 -2
v -1.1 0.3 -2
v -1.1 0.4 -2
v -1.1 0.5 -2
v -1.1 1.1 -2
v -1.1 1.2 -2
v -1.1 1.3 -2
v -1.1 1.7 -2
v -1.1 1.8 -2
v -1.1 3.5 -2
v -1.1 3.6 -2
v -1 2.7 -2
v -1 2.8 -2
v -0.9 0.4 -2
v -0.9 0.5 -2
v -0.9 1.1 -2
v -0.9 1.2 -2
v -0.9 2.7 -2
v -0.9 2.8 -2
v -0.9 3.5 -2
v -0.9 3.6 -2
v -0.9 3.7 -2
v -0.7 3.6 -2
v -0.7 3.7 -2
v -0.5 2.9 -2
v -0.5 3 -2
v -0.4 1.8 -2
v -0.4 1.9 -2
v -0.3 2.8 -2
v -0.3 2.9 -2
v -0.3 3 -2
v -0.2 0.4 -2
v -0.2 0.5 -2
v -0.2 1.8 -2
v -0.2 1.9 -2
v -0.2 2 -2
v -0.2 2.8 -2
v -0.2 2.9 -2
v -0.0999999 0.3 -2
v -0.0999999 0.4 -2
v -0.0999999 0.5 -2
v -0.0999999 1.3 -2
v -0.0999999 1.4 -2
v 2.38419e-07 1.9 -2
v 2.38419e-07 2 -2
v 0.1 0.2 -2
v 0.1 0.3 -2
v 0.1 0.4 -2
v 0.1 0.9 -2
v 0.1 1 -2
v 0.1 1.3 -2
v 0.1 1.4 -2
v 0.1 1.5 -2
v 0.1 3.2 -2
v 0.1 3.3 -2
v 0.2 0.2 -2
v 0.2 0.3 -2
v 0.2 3.1 -2
v 0.2 3.2 -2
v 0.2 3.3 -2
v 0.3 0.8 -2
v 0.3 0.9 -2
v 0.3 1 -2
v 0.3 1.4 -2
v 0.3 1.5 -2
v 0.3 3 -2
v 0.3 3.1 -2
v 0.3 3.2 -2
v 0.4 3 -2
v 0.4 3.1 -2
v 0.5 0.8 -2
v 0.5 0.9 -2
v 0.8 3.4 -2
v 0.8 3.5 -2
v 0.9 2.6 -2
v 0.9 2.7 -2
v 1 1.6 -2
v 1 1.7 -2
v 1 2.5 -2
v 1 2.6 -2
v 1 2.7 -2
v 1 3.4 -2
v 1 3.5 -2
v 1 3.6 -2
v 1.1 0.6 -2
v 1.1 0.7 -2
v 1.2 0.5 -2
v 1.2 0.6 -2
v 1.2 0.7 -2
v 1.2 2.4 -2
v 1.2 2.5 -2
v 1.2 2.6 -2
v 1.3 1.6 -2
v 1.3 1.7 -2
v 1.3 1.8 -2
v 1.3 2.4 -2
v 1.3 2.5 -2
v 1.3 3.5 -2
v 1.3 3.6 -2
v 1.4 0.4 -2
v 1.4 0.5 -2
v 1.4 0.6 -2
v 1.5 0.4 -2
v 1.5 0.5 -2
v 1.6 1.7 -2
v 1.6 1.8 -2
v 2 0 -2
v 2 4 -2
v -2 0 -1.8
v 2 0 -1.8
v -2 0 -2
v 2 0 -2
v 0.1 0.2 -1.7
v 0.2 0.2 -1.7
v 0.1 0.2 -1.8
v 0.2 0.2 -1.8
v -1.3 0.3 -1.7
v -1.1 0.3 -1.7
v -0.0999999 0.3 -1.7
v 0.1 0.3 -1.7
v -1.3 0.3 -1.8
v -1.1 0.3 -1.8
v -0.0999999 0.3 -1.8
v 0.1 0.3 -1.8
v -1.1 0.4 -1.7
v -0.9 0.4 -1.7
v -0.2 0.4 -1.7
v -0.0999999 0.4 -1.7
v 1.4 0.4 -1.7
v 1.5 0.4 -1.7
v -1.1 0.4 -1.8
v -0.9 0.4 -1.8
v -0.2 0.4 -1.8
v -0.0999999 0.4 -1.8
v 1.4 0.4 -1.8
v 1.5 0.4 -1.8
v 1.2 0.5 -1.7
v 1.4 0.5 -1.7
v 1.2 0.5 -1.8
v 1.4 0.5 -1.8
v 1.1 0.6 -1.7
v 1.2 0.6 -1.7
v 1.1 0.6 -1.8
v 1.2 0.6 -1.8
v 0.3 0.8 -1.7
v 0.5 0.8 -1.7
v 0.3 0.8 -1.8
v 0.5 0.8 -1.8
v 0.1 0.9 -1.7
v 0.3 0.9 -1.7
v 0.1 0.9 -1.8
v 0.3 0.9 -1.8
v -1.1 1.1 -1.7
v -0.9 1.1 -1.7
v -1.1 1.1 -1.8
v -0.9 1.1 -1.8
v -1.3 1.2 -1.7
v -1.1 1.2 -1.7
v -1.3 1.2 -1.8
v -1.1 1.2 -1.8
v -0.0999999 1.3 -1.7
v 0.1 1.3 -1.7
v -0.0999999 1.3 -1.8
v 0.1 1.3 -1.8
v 0.1 1.4 -1.7
v 0.3 1.4 -1.7
v 0.1 1.4 -1.8
v 0.3 1.4 -1.8
v -1.5 1.6 -1.7
v -1.3 1.6 -1.7
v 1 1.6 -1.7
v 1.3 1.6 -1.7
v -1.5 1.6 -1.8
v -1.3 1.6 -1.8
v 1 1.6 -1.8
v 1.3 1.6 -1.8
v -1.3 1.7 -1.7
v -1.1 1.7 -1.7
v 1.3 1.7 -1.7
v 1.6 1.7 -1.7
v -1.3 1.7 -1.8
v -1.1 1.7 -1.8
v 1.3 1.7 -1.8
v 1.6 1.7 -1.8
v -0.4 1.8 -1.7
v -0.2 1.8 -1.7
v -0.4 1.8 -1.8
v -0.2 1.8 -1.8
v -0.2 1.9 -1.7
v 2.38419e-07 1.9 -1.7
v -0.2 1.9 -1.8
v 2.38419e-07 1.9 -1.8
v -1.6 2.1 -1.7
v -1.5 2.1 -1.7
v -1.6 2.1 -1.8
v -1.5 2.1 -1.8
v -1.5 2.2 -1.7
v -1.3 2.2 -1.7
v 2.38419e-07 2.2 -1.7
v 0.2 2.2 -1.7
v -1.5 2.2 -1.8
v -1.3 2.2 -1.8
v 2.38419e-07 2.2 -1.8
v 0.2 2.2 -1.8
v -0.0999999 2.3 -1.7
v 2.38419e-07 2.3 -1.7
v -0.0999999 2.3 -1.8
v 2.38419e-07 2.3 -1.8
v 1.1 2.4 -1.7
v 1.3 2.4 -1.7
v 1.1 2.4 -1.8
v 1.3 2.4 -1.8
v 1 2.5 -1.7
v 1.1 2.5 -1.7
v 1 2.5 -1.8
v 1.1 2.5 -1.8
v 0.8 2.6 -1.7
v 1 2.6 -1.7
v 0.8 2.6 -1.8
v 1 2.6 -1.8
v -1.1 2.7 -1.7
v -0.9 2.7 -1.7
v -1.1 2.7 -1.8
v -0.9 2.7 -1.8
v -0.3 2.8 -1.7
v -0.2 2.8 -1.7
v -0.3 2.8 -1.8
v -0.2 2.8 -1.8
v -0.5 2.9 -1.7
v -0.3 2.9 -1.7
v -0.5 2.9 -1.8
v -0.3 2.9 -1.8
v -1.4 3 -1.7
v -1.2 3 -1.7
v 0.3 3 -1.7
v 0.4 3 -1.7
v -1.4 3 -1.8
v -1.2 3 -1.8
v 0.3 3 -1.8
v 0.4 3 -1.8
v 0.1 3.1 -1.7
v 0.3 3.1 -1.7
v 0.1 3.1 -1.8
v 0.3 3.1 -1.8
v 0.9 3.4 -1.7
v 1.1 3.4 -1.7
v 0.9 3.4 -1.8
v 1.1 3.4 -1.8
v -1.1 3.5 -1.7
v -0.8 3.5 -1.7
v 1.1 3.5 -1.7
v 1.3 3.5 -1.7
v -1.1 3.5 -1.8
v -0.8 3.5 -1.8
v 1.1 3.5 -1.8
v 1.3 3.5 -1.8
v -0.8 3.6 -1.7
v -0.7 3.6 -1.7
v -0.8 3.6 -1.8
v -0.7 3.6 -1.8
v 0.1 0.3 -1.7
v 0.2 0.3 -1.7
v 0.1 0.3 -1.8
v 0.2 0.3 -1.8
v -1.3 0.4 -1.7
v -1.1 0.4 -1.7
v -0.0999999 0.4 -1.7
v 0.1 0.4 -1.7
v -1.3 0.4 -1.8
v -1.1 0.4 -1.8
v -0.0999999 0.4 -1.8
v 0.1 0.4 -1.8
v -1.1 0.5 -1.7
v -0.9 0.5 -1.7
v -0.2 0.5 -1.7
v -0.0999999 0.5 -1.7
v 1.4 0.5 -1.7
v 1.5 0.5 -1.7
v -1.1 0.5 -1.8
v -0.9 0.5 -1.8
v -0.2 0.5 -1.8
v -0.0999999 0.5 -1.8
v 1.4 0.5 -1.8
v 1.5 0.5 -1.8
v 1.2 0.6 -1.7
v 1.4 0.6 -1.7
v 1.2 0.6 -1.8
v 1.4 0.6 -1.8
v 1.1 0.7 -1.7
v 1.2 0.7 -1.7
v 1.1 0.7 -1.8
v 1.2 0.7 -1.8
v 0.3 0.9 -1.7
v 0.5 0.9 -1.7
v 0.3 0.9 -1.8
v 0.5 0.9 -1.8
v 0.1 1 -1.7
v 0.3 1 -1.7
v 0.1 1 -1.8
v 0.3 1 -1.8
v -1.1 1.2 -1.7
v -0.9 1.2 -1.7
v -1.1 1.2 -1.8
v -0.9 1.2 -1.8
v -1.3 1.3 -1.7
v -1.1 1.3 -1.7
v -1.3 1.3 -1.8
v -1.1 1.3 -1.8
v -0.0999999 1.4 -1.7
v 0.1 1.4 -1.7
v -0.0999999 1.4 -1.8
v 0.1 1.4 -1.8
v 0.1 1.5 -1.7
v 0.3 1.5 -1.7
v 0.1 1.5 -1.8
v 0.3 1.5 -1.8
v -1.5 1.7 -1.7
v -1.3 1.7 -1.7
v 1 1.7 -1.7
v 1.3 1.7 -1.7
v -1.5 1.7 -1.8
v -1.3 1.7 -1.8
v 1 1.7 -1.8
v 1.3 1.7 -1.8
v -1.3 1.8 -1.7
v -1.1 1.8 -1.7
v 1.3 1.8 -1.7
v 1.6 1.8 -1.7
v -1.3 1.8 -1.8
v -1.1 1.8 -1.8
v 1.3 1.8 -1.8
v 1.6 1.8 -1.8
v -0.4 1.9 -1.7
v -0.2 1.9 -1.7
v -0.4 1.9 -1.8
v -0.2 1.9 -1.8
v -0.2 2 -1.7
v 2.38419e-07 2 -1.7
v -0.2 2 -1.8
v 2.38419e-07 2 -1.8
v -1.6 2.2 -1.7
v -1.5 2.2 -1.7
v -1.6 2.2 -1.8
v -1.5 2.2 -1.8
v -1.5 2.3 -1.7
v -1.3 2.3 -1.7
v 0.1 2.3 -1.7
v 0.2 2.3 -1.7
v -1.5 2.3 -1.8
v -1.3 2.3 -1.8
v 0.1 2.3 -1.8
v 0.2 2.3 -1.8
v -0.0999999 2.4 -1.7
v 0.1 2.4 -1.7
v -0.0999999 2.4 -1.8
v 0.1 2.4 -1.8
v 1.2 2.5 -1.7
v 1.3 2.5 -1.7
v 1.2 2.5 -1.8
v 1.3 2.5 -1.8
v 1 2.6 -1.7
v 1.2 2.6 -1.7
v 1 2.6 -1.8
v 1.2 2.6 -1.8
v 0.8 2.7 -1.7
v 1 2.7 -1.7
v 0.8 2.7 -1.8
v 1 2.7 -1.8
v -1.1 2.8 -1.7
v -0.9 2.8 -1.7
v -1.1 2.8 -1.8
v -0.9 2.8 -1.8
v -0.3 2.9 -1.7
v -0.2 2.9 -1.7
v -0.3 2.9 -1.8
v -0.2 2.9 -1.8
v -0.5 3 -1.7
v -0.3 3 -1.7
v -0.5 3 -1.8
v -0.3 3 -1.8
v -1.4 3.1 -1.7
v -1.2 3.1 -1.7
v 0.3 3.1 -1.7
v 0.4 3.1 -1.7
v -1.4 3.1 -1.8
v -1.2 3.1 -1.8
v 0.3 3.1 -1.8
v 0.4 3.1 -1.8
v 0.1 3.2 -1.7
v 0.3 3.2 -1.7
v 0.1 3.2 -1.8
v 0.3 3.2 -1.8
v 0.9 3.5 -1.7
v 1 3.5 -1.7
v 0.9 3.5 -1.8
v 1 3.5 -1.8
v -1.1 3.6 -1.7
v -0.9 3.6 -1.7
v 1 3.6 -1.7
v 1.3 3.6 -1.7
v -1.1 3.6 -1.8
v -0.9 3.6 -1.8
v 1 3.6 -1.8
v 1.3 3.6 -1.8
v -0.9 3.7 -1.7
v -0.7 3.7 -1.7
v -0.9 3.7 -1.8
v -0.7 3.7 -1.8
v -2 4 -1.8
v 2 4 -1.8
v -2 4 -2
v 2 4 -2

# faces
f 3/1/1 2/1/1 1/1/1
f 4/1/1 2/1/1 3/1/1
f 7/2/1 6/2/1 5/2/1
f 8/2/1 6/2/1 7/2/1
f 11/2/1 10/2/1 9/2/1
f 12/2/1 10/2/1 11/2/1
f 15/2/1 14/2/1 13/2/1
f 16/2/1 14/2/1 15/2/1
f 19/2/1 18/2/1 17/2/1
f 20/2/1 18/2/1 19/2/1
f 23/2/1 22/2/1 21/2/1
f 24/2/1 22/2/1 23/2/1
f 27/2/1 26/2/1 25/2/1
f 28/2/1 26/2/1 27/2/1
f 31/2/1 30/2/1 29/2/1
f 32/2/1 30/2/1 31/2/1
f 35/2/1 34/2/1 33/2/1
f 36/2/1 34/2/1 35/2/1
f 39/2/1 38/2/1 37/2/1
f 40/2/1 38/2/1 39/2/1
f 43/2/1 42/2/1 41/2/1
f 44/2/1 42/2/1 43/2/1
f 47/2/1 46/2/1 45/2/1
f 48/2/1 46/2/1 47/2/1
f 51/2/1 50/2/1 49/2/1
f 52/2/1 50/2/1 51/2/1
f 55/2/1 54/2/1 53/2/1
f 56/2/1 54/2/1 55/2/1
f 59/2/1 58/2/1 57/2/1
f 60/2/1 58/2/1 59/2/1
f 63/2/1 62/2/1 61/2/1
f 64/2/1 62/2/1 63/2/1
f 67/2/1 66/2/1 65/2/1
f 68/2/1 66/2/1 67/2/1
f 71/2/1 70/2/1 69/2/1
f 72/2/1 70/2/1 71/2/1
f 75/2/1 74/2/1 73/2/1
f 76/2/1 74/2/1 75/2/1
f 79/2/1 78/2/1 77/2/1
f 80/2/1 78/2/1 79/2/1
f 83/2/1 82/2/1 81/2/1
f 84/2/1 82/2/1 83/2/1
f 87/2/1 86/2/1 85/2/1
f 88/2/1 86/2/1 87/2/1
f 91/2/1 90/2/1 89/2/1
f 92/2/1 90/2/1 91/2/1
f 95/2/1 94/2/1 93/2/1
f 96/2/1 94/2/1 95/2/1
f 99/2/1 98/2/1 97/2/1
f 100/2/1 98/2/1 99/2/1
f 103/2/1 102/2/1 101/2/1
f 104/2/1 102/2/1 103/2/1
f 107/2/1 106/2/1 105/2/1
f 108/2/1 106/2/1 107/2/1
f 111/2/1 110/2/1 109/2/1
f 112/2/1 110/2/1 111/2/1
f 115/2/1 114/2/1 113/2/1
f 116/2/1 114/2/1 115/2/1
f 119/2/1 118/2/1 117/2/1
f 120/2/1 118/2/1 119/2/1
f 123/2/1 122/2/1 121/2/1
f 124/2/1 122/2/1 123/2/1
f 127/2/1 126/2/1 125/2/1
f 128/2/1 126/2/1 127/2/1
f 131/2/1 130/2/1 129/2/1
f 132/2/1 130/2/1 131/2/1
f 135/2/1 134/2/1 133/2/1
f 136/2/1 134/2/1 135/2/1
f 139/2/1 138/2/1 137/2/1
f 140/2/1 138/2/1 139/2/1
f 143/2/1 142/2/1 141/2/1
f 144/2/1 142/2/1 143/2/1
f 147/2/1 146/2/1 145/2/1
f 148/2/1 146/2/1 147/2/1
f 151/2/1 150/2/1 149/2/1
f 152/2/1 150/2/1 151/2/1
f 153/2/2 154/2/2 155/2/2
f 155/2/2 154/2/2 156/2/2
f 157/2/2 158/2/2 159/2/2
f 159/2/2 158/2/2 160/2/2
f 161/2/2 162/2/2 163/2/2
f 163/2/2 162/2/2 164/2/2
f 165/2/2 166/2/2 167/2/2
f 167/2/2 166/2/2 168/2/2
f 169/2/2 170/2/2 171/2/2
f 171/2/2 170/2/2 172/2/2
f 173/2/2 174/2/2 175/2/2
f 175/2/2 174/2/2 176/2/2
f 177/2/2 178/2/2 179/2/2
f 179/2/2 178/2/2 180/2/2
f 181/2/2 182/2/2 183/2/2
f 183/2/2 182/2/2 184/2/2
f 185/2/2 186/2/2 187/2/2
f 187/2/2 186/2/2 188/2/2
f 189/2/2 190/2/2 191/2/2
f 191/2/2 190/2/2 192/2/2
f 193/2/2 194/2/2 195/2/2
f 195/2/2 194/2/2 196/2/2
f 197/2/2 198/2/2 199/2/2
f 199/2/2 198/2/2 200/2/2
f 201/2/2 202/2/2 203/2/2
f 203/2/2 202/2/2 204/2/2
f 205/2/2 206/2/2 207/2/2
f 207/2/2 206/2/2 208/2/2
f 209/2/2 210/2/2 211/2/2
f 211/2/2 210/2/2 212/2/2
f 213/2/2 214/2/2 215/2/2
f 215/2/2 214/2/2 216/2/2
f 217/2/2 218/2/2 219/2/2
f 219/2/2 218/2/2 220/2/2
f 221/2/2 222/2/2 223/2/2
f 223/2/2 222/2/2 224/2/2
f 225/2/2 226/2/2 227/2/2
f 227/2/2 226/2/2 228/2/2
f 229/2/2 230/2/2 231/2/2
f 231/2/2 230/2/2 232/2/2
f 233/2/2 234/2/2 235/2/2
f 235/2/2 234/2/2 236/2/2
f 237/2/2 238/2/2 239/2/2
f 239/2/2 238/2/2 240/2/2
f 241/2/2 242/2/2 243/2/2
f 243/2/2 242/2/2 244/2/2
f 245/2/2 246/2/2 247/2/2
f 247/2/2 246/2/2 248/2/2
f 249/2/2 250/2/2 251/2/2
f 251/2/2 250/2/2 252/2/2
f 253/2/2 254/2/2 255/2/2
f 255/2/2 254/2/2 256/2/2
f 257/2/2 258/2/2 259/2/2
f 259/2/2 258/2/2 260/2/2
f 261/2/2 262/2/2 263/2/2
f 263/2/2 262/2/2 264/2/2
f 265/2/2 266/2/2 267/2/2
f 267/2/2 266/2/2 268/2/2
f 269/2/2 270/2/2 271/2/2
f 271/2/2 270/2/2 272/2/2
f 273/2/2 274/2/2 275/2/2
f 275/2/2 274/2/2 276/2/2
f 277/2/2 278/2/2 279/2/2
f 279/2/2 278/2/2 280/2/2
f 281/2/2 282/2/2 283/2/2
f 283/2/2 282/2/2 284/2/2
f 285/2/2 286/2/2 287/2/2
f 287/2/2 286/2/2 288/2/2
f 289/2/2 290/2/2 291/2/2
f 291/2/2 290/2/2 292/2/2
f 293/2/2 294/2/2 295/2/2
f 295/2/2 294/2/2 296/2/2
f 297/2/2 298/2/2 299/2/2
f 299/2/2 298/2/2 300/2/2
f 301/1/2 302/1/2 303/1/2
f 303/1/2 302/1/2 304/1/2
f 309/2/3 306/2/3 305/2/3
f 310/2/3 306/2/3 309/2/3
f 318/2/3 308/2/3 307/2/3
f 319/2/3 308/2/3 318/2/3
f 321/2/3 311/2/3 310/2/3
f 322/2/3 311/2/3 321/2/3
f 323/2/3 313/2/3 312/2/3
f 324/2/3 313/2/3 323/2/3
f 325/2/3 315/2/3 314/2/3
f 326/2/3 315/2/3 325/2/3
f 329/2/3 317/2/3 316/2/3
f 330/2/3 317/2/3 329/2/3
f 331/2/3 320/2/3 319/2/3
f 332/2/3 320/2/3 331/2/3
f 337/2/3 327/2/3 326/2/3
f 338/2/3 327/2/3 337/2/3
f 339/2/3 329/2/3 328/2/3
f 340/2/3 329/2/3 339/2/3
f 341/2/3 334/2/3 333/2/3
f 342/2/3 334/2/3 341/2/3
f 343/2/3 336/2/3 335/2/3
f 345/2/3 344/2/3 343/2/3
f 345/2/3 343/2/3 335/2/3
f 346/2/3 344/2/3 345/2/3
f 347/2/3 344/2/3 346/2/3
f 348/2/3 344/2/3 347/2/3
f 354/2/3 350/2/3 349/2/3
f 355/2/3 350/2/3 354/2/3
f 358/2/3 352/2/3 351/2/3
f 359/2/3 352/2/3 358/2/3
f 361/2/3 354/2/3 353/2/3
f 362/2/3 354/2/3 361/2/3
f 364/2/3 357/2/3 356/2/3
f 365/2/3 357/2/3 364/2/3
f 370/2/3 360/2/3 359/2/3
f 371/2/3 360/2/3 370/2/3
f 373/2/3 369/2/3 368/2/3
f 375/2/3 364/2/3 363/2/3
f 376/2/3 364/2/3 375/2/3
f 379/2/3 367/2/3 366/2/3
f 380/2/3 367/2/3 379/2/3
f 382/2/3 373/2/3 372/2/3
f 382/2/3 369/2/3 373/2/3
f 383/2/3 369/2/3 382/2/3
f 386/2/3 375/2/3 374/2/3
f 387/2/3 375/2/3 386/2/3
f 388/2/3 382/2/3 372/2/3
f 389/2/3 382/2/3 388/2/3
f 391/2/3 378/2/3 377/2/3
f 392/2/3 378/2/3 391/2/3
f 393/2/3 381/2/3 380/2/3
f 394/2/3 381/2/3 393/2/3
f 396/2/3 385/2/3 384/2/3
f 397/2/3 385/2/3 396/2/3
f 398/2/3 396/2/3 395/2/3
f 399/2/3 396/2/3 398/2/3
f 400/2/3 391/2/3 390/2/3
f 401/2/3 391/2/3 400/2/3
f 409/2/3 403/2/3 402/2/3
f 410/2/3 403/2/3 409/2/3
f 411/2/3 405/2/3 404/2/3
f 416/2/3 409/2/3 408/2/3
f 417/2/3 412/2/3 411/2/3
f 417/2/3 411/2/3 404/2/3
f 418/2/3 412/2/3 417/2/3
f 420/2/3 414/2/3 413/2/3
f 421/2/3 414/2/3 420/2/3
f 422/2/3 416/2/3 415/2/3
f 422/2/3 409/2/3 416/2/3
f 423/2/3 409/2/3 422/2/3
f 424/2/3 407/2/3 406/2/3
f 425/2/3 407/2/3 424/2/3
f 427/2/3 422/2/3 415/2/3
f 428/2/3 422/2/3 427/2/3
f 429/2/3 412/2/3 418/2/3
f 430/2/3 412/2/3 429/2/3
f 432/2/3 420/2/3 419/2/3
f 433/2/3 420/2/3 432/2/3
f 434/2/3 432/2/3 431/2/3
f 435/2/3 432/2/3 434/2/3
f 436/2/3 426/2/3 425/2/3
f 437/2/3 426/2/3 436/2/3
f 440/1/3 439/1/3 438/1/3
f 441/1/3 439/1/3 440/1/3
f 442/1/3 440/1/3 438/1/3
f 443/1/3 440/1/3 442/1/3
f 444/1/3 440/1/3 443/1/3
f 445/1/3 439/1/3 441/1/3
f 446/1/3 439/1/3 445/1/3
f 447/1/3 439/1/3 446/1/3
f 448/1/3 439/1/3 447/1/3
f 449/1/3 442/1/3 438/1/3
f 450/1/3 442/1/3 449/1/3
f 451/1/3 442/1/3 450/1/3
f 452/1/3 442/1/3 451/1/3
f 453/1/3 442/1/3 452/1/3
f 454/1/3 444/1/3 443/1/3
f 454/1/3 445/1/3 444/1/3
f 455/1/3 445/1/3 454/1/3
f 456/1/3 445/1/3 455/1/3
f 457/1/3 447/1/3 446/1/3
f 458/1/3 457/1/3 456/1/3
f 458/1/3 447/1/3 457/1/3
f 458/1/3 456/1/3 455/1/3
f 459/1/3 439/1/3 448/1/3
f 460/1/3 449/1/3 438/1/3
f 461/1/3 451/1/3 450/1/3
f 462/1/3 451/1/3 461/1/3
f 463/1/3 451/1/3 462/1/3
f 464/1/3 451/1/3 463/1/3
f 465/1/3 453/1/3 452/1/3
f 465/1/3 454/1/3 453/1/3
f 466/1/3 454/1/3 465/1/3
f 467/1/3 458/1/3 455/1/3
f 467/1/3 459/1/3 458/1/3
f 468/1/3 459/1/3 467/1/3
f 469/1/3 459/1/3 468/1/3
f 470/1/3 439/1/3 459/1/3
f 470/1/3 459/1/3 469/1/3
f 471/1/3 439/1/3 470/1/3
f 472/1/3 461/1/3 460/1/3
f 473/1/3 463/1/3 462/1/3
f 474/1/3 463/1/3 473/1/3
f 475/1/3 466/1/3 465/1/3
f 475/1/3 465/1/3 464/1/3
f 475/1/3 468/1/3 467/1/3
f 475/1/3 467/1/3 466/1/3
f 476/1/3 468/1/3 475/1/3
f 477/1/3 470/1/3 469/1/3
f 478/1/3 439/1/3 471/1/3
f 479/1/3 439/1/3 478/1/3
f 480/1/3 477/1/3 476/1/3
f 480/1/3 474/1/3 473/1/3
f 480/1/3 473/1/3 472/1/3
f 480/1/3 470/1/3 477/1/3
f 480/1/3 476/1/3 475/1/3
f 480/1/3 475/1/3 474/1/3
f 482/1/3 481/1/3 480/1/3
f 483/1/3 439/1/3 479/1/3
f 484/1/3 482/1/3 480/1/3
f 484/1/3 483/1/3 482/1/3
f 484/1/3 480/1/3 472/1/3
f 485/1/3 483/1/3 484/1/3
f 486/1/3 484/1/3 472/1/3
f 487/1/3 484/1/3 486/1/3
f 488/1/3 484/1/3 487/1/3
f 489/1/3 484/1/3 488/1/3
f 490/1/3 483/1/3 485/1/3
f 491/1/3 472/1/3 460/1/3
f 491/1/3 486/1/3 472/1/3
f 492/1/3 486/1/3 491/1/3
f 493/1/3 486/1/3 492/1/3
f 494/1/3 488/1/3 487/1/3
f 495/1/3 488/1/3 494/1/3
f 496/1/3 488/1/3 495/1/3
f 497/1/3 490/1/3 489/1/3
f 498/1/3 460/1/3 438/1/3
f 498/1/3 491/1/3 460/1/3
f 499/1/3 491/1/3 498/1/3
f 500/1/3 493/1/3 492/1/3
f 500/1/3 494/1/3 493/1/3
f 501/1/3 494/1/3 500/1/3
f 502/1/3 494/1/3 501/1/3
f 503/1/3 496/1/3 495/1/3
f 503/1/3 497/1/3 496/1/3
f 504/1/3 497/1/3 503/1/3
f 505/1/3 494/1/3 502/1/3
f 506/1/3 503/1/3 495/1/3
f 507/1/3 503/1/3 506/1/3
f 508/1/3 503/1/3 507/1/3
f 509/1/3 498/1/3 438/1/3
f 510/1/3 498/1/3 509/1/3
f 511/1/3 501/1/3 500/1/3
f 511/1/3 500/1/3 499/1/3
f 512/1/3 501/1/3 511/1/3
f 513/1/3 501/1/3 512/1/3
f 514/1/3 501/1/3 513/1/3
f 515/1/3 505/1/3 502/1/3
f 515/1/3 506/1/3 505/1/3
f 515/1/3 507/1/3 506/1/3
f 516/1/3 507/1/3 515/1/3
f 518/1/3 497/1/3 504/1/3
f 519/1/3 483/1/3 490/1/3
f 519/1/3 490/1/3 497/1/3
f 519/1/3 497/1/3 518/1/3
f 520/1/3 483/1/3 519/1/3
f 521/1/3 509/1/3 438/1/3
f 522/1/3 512/1/3 511/1/3
f 522/1/3 511/1/3 510/1/3
f 523/1/3 507/1/3 516/1/3
f 524/1/3 518/1/3 517/1/3
f 524/1/3 519/1/3 518/1/3
f 525/1/3 522/1/3 521/1/3
f 525/1/3 512/1/3 522/1/3
f 526/1/3 512/1/3 525/1/3
f 527/1/3 514/1/3 513/1/3
f 527/1/3 515/1/3 514/1/3
f 528/1/3 515/1/3 527/1/3
f 529/1/3 524/1/3 523/1/3
f 529/1/3 523/1/3 516/1/3
f 530/1/3 519/1/3 524/1/3
f 530/1/3 524/1/3 529/1/3
f 531/1/3 519/1/3 530/1/3
f 532/1/3 483/1/3 520/1/3
f 533/1/3 528/1/3 527/1/3
f 533/1/3 527/1/3 526/1/3
f 533/1/3 530/1/3 529/1/3
f 533/1/3 529/1/3 528/1/3
f 534/1/3 532/1/3 531/1/3
f 535/1/3 525/1/3 521/1/3
f 536/1/3 533/1/3 526/1/3
f 536/1/3 534/1/3 533/1/3
f 537/1/3 534/1/3 536/1/3
f 537/1/3 536/1/3 535/1/3
f 538/1/3 534/1/3 537/1/3
f 539/1/3 483/1/3 532/1/3
f 539/1/3 534/1/3 538/1/3
f 539/1/3 532/1/3 534/1/3
f 540/1/3 483/1/3 539/1/3
f 541/1/3 537/1/3 535/1/3
f 542/1/3 537/1/3 541/1/3
f 543/1/3 537/1/3 542/1/3
f 544/1/3 537/1/3 543/1/3
f 545/1/3 539/1/3 538/1/3
f 546/1/3 483/1/3 540/1/3
f 547/1/3 483/1/3 546/1/3
f 548/1/3 535/1/3 521/1/3
f 548/1/3 541/1/3 535/1/3
f 549/1/3 541/1/3 548/1/3
f 550/1/3 543/1/3 542/1/3
f 551/1/3 543/1/3 550/1/3
f 552/1/3 545/1/3 544/1/3
f 552/1/3 539/1/3 545/1/3
f 554/1/3 548/1/3 521/1/3
f 555/1/3 548/1/3 554/1/3
f 556/1/3 541/1/3 549/1/3
f 558/1/3 553/1/3 552/1/3
f 558/1/3 552/1/3 544/1/3
f 559/1/3 556/1/3 555/1/3
f 559/1/3 541/1/3 556/1/3
f 560/1/3 550/1/3 542/1/3
f 561/1/3 550/1/3 560/1/3
f 562/1/3 550/1/3 561/1/3
f 563/1/3 558/1/3 557/1/3
f 564/1/3 553/1/3 558/1/3
f 564/1/3 558/1/3 563/1/3
f 565/1/3 483/1/3 547/1/3
f 566/1/3 554/1/3 521/1/3
f 567/1/3 554/1/3 566/1/3
f 568/1/3 559/1/3 555/1/3
f 568/1/3 560/1/3 559/1/3
f 569/1/3 566/1/3 521/1/3
f 570/1/3 568/1/3 567/1/3
f 571/1/3 560/1/3 568/1/3
f 571/1/3 570/1/3 569/1/3
f 571/1/3 568/1/3 570/1/3
f 572/1/3 564/1/3 563/1/3
f 572/1/3 562/1/3 561/1/3
f 572/1/3 563/1/3 562/1/3
f 572/1/3 565/1/3 564/1/3
f 573/1/3 571/1/3 569/1/3
f 573/1/3 572/1/3 571/1/3
f 573/1/3 521/1/3 438/1/3
f 573/1/3 569/1/3 521/1/3
f 574/1/3 439/1/3 483/1/3
f 574/1/3 572/1/3 573/1/3
f 574/1/3 565/1/3 572/1/3
f 574/1/3 483/1/3 565/1/3
f 575/1/4 576/1/4 577/1/4
f 577/1/4 576/1/4 578/1/4
f 575/1/4 577/1/4 579/1/4
f 579/1/4 577/1/4 580/1/4
f 577/2/4 578/2/4 581/2/4
f 580/1/4 577/1/4 581/1/4
f 578/1/4 576/1/4 582/1/4
f 581/2/4 578/2/4 582/2/4
f 582/1/4 576/1/4 583/1/4
f 583/1/4 576/1/4 584/1/4
f 584/1/4 576/1/4 585/1/4
f 575/1/4 579/1/4 586/1/4
f 586/1/4 579/1/4 587/1/4
f 587/1/4 579/1/4 588/1/4
f 588/1/4 579/1/4 589/1/4
f 579/2/4 580/2/4 590/2/4
f 589/1/4 579/1/4 590/1/4
f 580/1/4 581/1/4 591/1/4
f 590/2/4 580/2/4 591/2/4
f 581/1/4 582/1/4 591/1/4
f 591/1/4 582/1/4 592/1/4
f 582/2/4 583/2/4 593/2/4
f 592/1/4 582/1/4 593/1/4
f 583/1/4 584/1/4 594/1/4
f 593/2/4 583/2/4 594/2/4
f 584/2/4 585/2/4 595/2/4
f 594/1/4 584/1/4 595/1/4
f 585/1/4 576/1/4 596/1/4
f 595/2/4 585/2/4 596/2/4
f 575/1/4 586/1/4 597/1/4
f 586/2/4 587/2/4 597/2/4
f 587/1/4 588/1/4 598/1/4
f 597/2/4 587/2/4 598/2/4
f 598/1/4 588/1/4 599/1/4
f 599/1/4 588/1/4 600/1/4
f 588/2/4 589/2/4 601/2/4
f 600/1/4 588/1/4 601/1/4
f 589/1/4 590/1/4 602/1/4
f 601/2/4 589/2/4 602/2/4
f 590/1/4 591/1/4 602/1/4
f 591/2/4 592/2/4 603/2/4
f 602/1/4 591/1/4 603/1/4
f 594/1/4 595/1/4 604/1/4
f 603/2/4 592/2/4 604/2/4
f 592/1/4 593/1/4 604/1/4
f 593/1/4 594/1/4 604/1/4
f 595/1/4 596/1/4 604/1/4
f 596/1/4 576/1/4 605/1/4
f 604/1/4 596/1/4 605/1/4
f 605/1/4 576/1/4 606/1/4
f 602/1/4 603/1/4 607/1/4
f 601/1/4 602/1/4 607/1/4
f 603/1/4 604/1/4 607/1/4
f 604/1/4 605/1/4 607/1/4
f 607/1/4 605/1/4 608/1/4
f 597/1/4 598/1/4 609/1/4
f 598/2/4 599/2/4 609/2/4
f 599/1/4 600/1/4 610/1/4
f 609/2/4 599/2/4 610/2/4
f 600/2/4 601/2/4 611/2/4
f 610/1/4 600/1/4 611/1/4
f 601/1/4 607/1/4 612/1/4
f 611/2/4 601/2/4 612/2/4
f 607/2/4 608/2/4 613/2/4
f 612/1/4 607/1/4 613/1/4
f 608/1/4 605/1/4 614/1/4
f 613/2/4 608/2/4 614/2/4
f 605/2/4 606/2/4 615/2/4
f 614/1/4 605/1/4 615/1/4
f 606/1/4 576/1/4 616/1/4
f 615/2/4 606/2/4 616/2/4
f 616/1/4 576/1/4 617/1/4
f 609/1/4 610/1/4 618/1/4
f 614/1/4 615/1/4 618/1/4
f 616/2/4 617/2/4 618/2/4
f 615/1/4 616/1/4 618/1/4
f 610/1/4 611/1/4 618/1/4
f 611/1/4 612/1/4 618/1/4
f 612/1/4 613/1/4 618/1/4
f 613/1/4 614/1/4 618/1/4
f 617/1/4 576/1/4 619/1/4
f 618/2/4 617/2/4 619/2/4
f 609/1/4 618/1/4 620/1/4
f 618/1/4 619/1/4 620/1/4
f 620/1/4 619/1/4 621/1/4
f 609/1/4 620/1/4 622/1/4
f 622/1/4 620/1/4 623/1/4
f 623/1/4 620/1/4 624/1/4
f 620/2/4 621/2/4 625/2/4
f 624/1/4 620/1/4 625/1/4
f 621/1/4 619/1/4 626/1/4
f 625/2/4 621/2/4 626/2/4
f 597/1/4 609/1/4 627/1/4
f 609/1/4 622/1/4 627/1/4
f 627/1/4 622/1/4 628/1/4
f 622/2/4 623/2/4 629/2/4
f 628/1/4 622/1/4 629/1/4
f 623/1/4 624/1/4 630/1/4
f 629/2/4 623/2/4 630/2/4
f 630/1/4 624/1/4 631/1/4
f 624/2/4 625/2/4 632/2/4
f 631/1/4 624/1/4 632/1/4
f 625/1/4 626/1/4 633/1/4
f 632/2/4 625/2/4 633/2/4
f 575/1/4 597/1/4 634/1/4
f 597/1/4 627/1/4 634/1/4
f 627/2/4 628/2/4 635/2/4
f 634/1/4 627/1/4 635/1/4
f 628/1/4 629/1/4 636/1/4
f 635/2/4 628/2/4 636/2/4
f 629/1/4 630/1/4 636/1/4
f 636/1/4 630/1/4 637/1/4
f 637/1/4 630/1/4 638/1/4
f 630/2/4 631/2/4 639/2/4
f 638/1/4 630/1/4 639/1/4
f 631/1/4 632/1/4 640/1/4
f 639/2/4 631/2/4 640/2/4
f 632/1/4 633/1/4 640/1/4
f 575/1/4 634/1/4 641/1/4
f 634/2/4 635/2/4 642/2/4
f 641/1/4 634/1/4 642/1/4
f 636/1/4 637/1/4 643/1/4
f 642/2/4 635/2/4 643/2/4
f 635/1/4 636/1/4 643/1/4
f 643/1/4 637/1/4 644/1/4
f 644/1/4 637/1/4 645/1/4
f 637/2/4 638/2/4 646/2/4
f 645/1/4 637/1/4 646/1/4
f 638/1/4 639/1/4 647/1/4
f 646/2/4 638/2/4 647/2/4
f 639/1/4 640/1/4 647/1/4
f 647/1/4 640/1/4 648/1/4
f 626/1/4 619/1/4 649/1/4
f 648/1/4 640/1/4 649/1/4
f 633/1/4 626/1/4 649/1/4
f 640/1/4 633/1/4 649/1/4
f 649/1/4 619/1/4 650/1/4
f 575/1/4 641/1/4 651/1/4
f 641/2/4 642/2/4 651/2/4
f 642/1/4 643/1/4 652/1/4
f 651/2/4 642/2/4 652/2/4
f 643/1/4 644/1/4 652/1/4
f 648/1/4 649/1/4 653/1/4
f 649/2/4 650/2/4 654/2/4
f 653/1/4 649/1/4 654/1/4
f 650/1/4 619/1/4 655/1/4
f 654/2/4 650/2/4 655/2/4
f 652/1/4 644/1/4 656/1/4
f 651/1/4 652/1/4 656/1/4
f 644/2/4 645/2/4 657/2/4
f 656/1/4 644/1/4 657/1/4
f 646/1/4 647/1/4 658/1/4
f 657/2/4 645/2/4 658/2/4
f 645/1/4 646/1/4 658/1/4
f 647/2/4 648/2/4 659/2/4
f 658/1/4 647/1/4 659/1/4
f 648/1/4 653/1/4 660/1/4
f 659/2/4 648/2/4 660/2/4
f 660/1/4 653/1/4 661/1/4
f 653/2/4 654/2/4 662/2/4
f 661/1/4 653/1/4 662/1/4
f 654/1/4 655/1/4 663/1/4
f 662/2/4 654/2/4 663/2/4
f 657/1/4 658/1/4 664/1/4
f 660/1/4 661/1/4 664/1/4
f 661/2/4 662/2/4 664/2/4
f 659/1/4 660/1/4 664/1/4
f 658/1/4 659/1/4 664/1/4
f 662/1/4 663/1/4 665/1/4
f 664/2/4 662/2/4 665/2/4
f 656/2/4 657/2/4 666/2/4
f 651/1/4 656/1/4 666/1/4
f 664/1/4 665/1/4 667/1/4
f 666/2/4 657/2/4 667/2/4
f 657/1/4 664/1/4 667/1/4
f 663/1/4 655/1/4 668/1/4
f 667/1/4 665/1/4 668/1/4
f 666/1/4 667/1/4 668/1/4
f 655/1/4 619/1/4 668/1/4
f 665/1/4 663/1/4 668/1/4
f 668/1/4 619/1/4 669/1/4
f 666/1/4 668/1/4 670/1/4
f 670/1/4 668/1/4 671/1/4
f 666/1/4 670/1/4 672/1/4
f 672/1/4 670/1/4 673/1/4
f 673/1/4 670/1/4 674/1/4
f 670/2/4 671/2/4 675/2/4
f 674/1/4 670/1/4 675/1/4
f 671/1/4 668/1/4 676/1/4
f 675/2/4 671/2/4 676/2/4
f 668/2/4 669/2/4 677/2/4
f 676/1/4 668/1/4 677/1/4
f 669/1/4 619/1/4 678/1/4
f 677/2/4 669/2/4 678/2/4
f 678/1/4 619/1/4 679/1/4
f 651/1/4 666/1/4 680/1/4
f 666/1/4 672/1/4 680/1/4
f 680/1/4 672/1/4 681/1/4
f 651/1/4 680/1/4 682/1/4
f 680/2/4 681/2/4 683/2/4
f 682/1/4 680/1/4 683/1/4
f 681/1/4 672/1/4 684/1/4
f 683/2/4 681/2/4 684/2/4
f 673/1/4 674/1/4 685/1/4
f 674/2/4 675/2/4 686/2/4
f 685/1/4 674/1/4 686/1/4
f 676/1/4 677/1/4 687/1/4
f 686/2/4 675/2/4 687/2/4
f 675/1/4 676/1/4 687/1/4
f 677/1/4 678/1/4 687/1/4
f 683/1/4 684/1/4 688/1/4
f 684/1/4 672/1/4 688/1/4
f 672/2/4 673/2/4 688/2/4
f 673/1/4 685/1/4 689/1/4
f 688/2/4 673/2/4 689/2/4
f 689/1/4 685/1/4 690/1/4
f 685/2/4 686/2/4 691/2/4
f 690/1/4 685/1/4 691/1/4
f 686/1/4 687/1/4 692/1/4
f 691/2/4 686/2/4 692/2/4
f 687/1/4 678/1/4 693/1/4
f 692/1/4 687/1/4 693/1/4
f 678/2/4 679/2/4 693/2/4
f 679/1/4 619/1/4 694/1/4
f 693/2/4 679/2/4 694/2/4
f 651/1/4 682/1/4 695/1/4
f 682/2/4 683/2/4 696/2/4
f 695/1/4 682/1/4 696/1/4
f 683/1/4 688/1/4 697/1/4
f 696/2/4 683/2/4 697/2/4
f 688/1/4 689/1/4 697/1/4
f 695/2/4 696/2/4 698/2/4
f 651/1/4 695/1/4 698/1/4
f 696/1/4 697/1/4 699/1/4
f 698/2/4 696/2/4 699/2/4
f 689/2/4 690/2/4 700/2/4
f 699/1/4 697/1/4 700/1/4
f 698/1/4 699/1/4 700/1/4
f 697/1/4 689/1/4 700/1/4
f 692/1/4 693/1/4 701/1/4
f 700/2/4 690/2/4 701/2/4
f 691/1/4 692/1/4 701/1/4
f 693/1/4 694/1/4 701/1/4
f 690/1/4 691/1/4 701/1/4
f 575/1/4 651/1/4 702/1/4
f 698/1/4 700/1/4 702/1/4
f 700/1/4 701/1/4 702/1/4
f 651/1/4 698/1/4 702/1/4
f 619/1/4 576/1/4 703/1/4
f 702/1/4 701/1/4 703/1/4
f 701/1/4 694/1/4 703/1/4
f 694/1/4 619/1/4 703/1/4
f 706/1/5 705/1/5 704/1/5
f 707/1/5 705/1/5 706/1/5
f 710/2/5 709/2/5 708/2/5
f 711/2/5 709/2/5 710/2/5
f 716/2/5 713/2/5 712/2/5
f 717/2/5 713/2/5 716/2/5
f 718/2/5 715/2/5 714/2/5
f 719/2/5 715/2/5 718/2/5
f 726/2/5 721/2/5 720/2/5
f 727/2/5 721/2/5 726/2/5
f 728/2/5 723/2/5 722/2/5
f 729/2/5 723/2/5 728/2/5
f 730/2/5 725/2/5 724/2/5
f 731/2/5 725/2/5 730/2/5
f 734/2/5 733/2/5 732/2/5
f 735/2/5 733/2/5 734/2/5
f 738/2/5 737/2/5 736/2/5
f 739/2/5 737/2/5 738/2/5
f 742/2/5 741/2/5 740/2/5
f 743/2/5 741/2/5 742/2/5
f 746/2/5 745/2/5 744/2/5
f 747/2/5 745/2/5 746/2/5
f 750/2/5 749/2/5 748/2/5
f 751/2/5 749/2/5 750/2/5
f 754/2/5 753/2/5 752/2/5
f 755/2/5 753/2/5 754/2/5
f 758/2/5 757/2/5 756/2/5
f 759/2/5 757/2/5 758/2/5
f 762/2/5 761/2/5 760/2/5
f 763/2/5 761/2/5 762/2/5
f 768/2/5 765/2/5 764/2/5
f 769/2/5 765/2/5 768/2/5
f 770/2/5 767/2/5 766/2/5
f 771/2/5 767/2/5 770/2/5
f 776/2/5 773/2/5 772/2/5
f 777/2/5 773/2/5 776/2/5
f 778/2/5 775/2/5 774/2/5
f 779/2/5 775/2/5 778/2/5
f 782/2/5 781/2/5 780/2/5
f 783/2/5 781/2/5 782/2/5
f 786/2/5 785/2/5 784/2/5
f 787/2/5 785/2/5 786/2/5
f 790/2/5 789/2/5 788/2/5
f 791/2/5 789/2/5 790/2/5
f 796/2/5 793/2/5 792/2/5
f 797/2/5 793/2/5 796/2/5
f 798/2/5 795/2/5 794/2/5
f 799/2/5 795/2/5 798/2/5
f 802/2/5 801/2/5 800/2/5
f 803/2/5 801/2/5 802/2/5
f 806/2/5 805/2/5 804/2/5
f 807/2/5 805/2/5 806/2/5
f 810/2/5 809/2/5 808/2/5
f 811/2/5 809/2/5 810/2/5
f 814/2/5 813/2/5 812/2/5
f 815/2/5 813/2/5 814/2/5
f 818/2/5 817/2/5 816/2/5
f 819/2/5 817/2/5 818/2/5
f 822/2/5 821/2/5 820/2/5
f 823/2/5 821/2/5 822/2/5
f 826/2/5 825/2/5 824/2/5
f 827/2/5 825/2/5 826/2/5
f 832/2/5 829/2/5 828/2/5
f 833/2/5 829/2/5 832/2/5
f 834/2/5 831/2/5 830/2/5
f 835/2/5 831/2/5 834/2/5
f 838/2/5 837/2/5 836/2/5
f 839/2/5 837/2/5 838/2/5
f 842/2/5 841/2/5 840/2/5
f 843/2/5 841/2/5 842/2/5
f 848/2/5 845/2/5 844/2/5
f 849/2/5 845/2/5 848/2/5
f 850/2/5 847/2/5 846/2/5
f 851/2/5 847/2/5 850/2/5
f 854/2/5 853/2/5 852/2/5
f 855/2/5 853/2/5 854/2/5
f 856/2/6 857/2/6 858/2/6
f 858/2/6 857/2/6 859/2/6
f 860/2/6 861/2/6 864/2/6
f 864/2/6 861/2/6 865/2/6
f 862/2/6 863/2/6 866/2/6
f 866/2/6 863/2/6 867/2/6
f 868/2/6 869/2/6 874/2/6
f 874/2/6 869/2/6 875/2/6
f 870/2/6 871/2/6 876/2/6
f 876/2/6 871/2/6 877/2/6
f 872/2/6 873/2/6 878/2/6
f 878/2/6 873/2/6 879/2/6
f 880/2/6 881/2/6 882/2/6
f 882/2/6 881/2/6 883/2/6
f 884/2/6 885/2/6 886/2/6
f 886/2/6 885/2/6 887/2/6
f 888/2/6 889/2/6 890/2/6
f 890/2/6 889/2/6 891/2/6
f 892/2/6 893/2/6 894/2/6
f 894/2/6 893/2/6 895/2/6
f 896/2/6 897/2/6 898/2/6
f 898/2/6 897/2/6 899/2/6
f 900/2/6 901/2/6 902/2/6
f 902/2/6 901/2/6 903/2/6
f 904/2/6 905/2/6 906/2/6
f 906/2/6 905/2/6 907/2/6
f 908/2/6 909/2/6 910/2/6
f 910/2/6 909/2/6 911/2/6
f 912/2/6 913/2/6 916/2/6
f 916/2/6 913/2/6 917/2/6
f 914/2/6 915/2/6 918/2/6
f 918/2/6 915/2/6 919/2/6
f 920/2/6 921/2/6 924/2/6
f 924/2/6 921/2/6 925/2/6
f 922/2/6 923/2/6 926/2/6
f 926/2/6 923/2/6 927/2/6
f 928/2/6 929/2/6 930/2/6
f 930/2/6 929/2/6 931/2/6
f 932/2/6 933/2/6 934/2/6
f 934/2/6 933/2/6 935/2/6
f 936/2/6 937/2/6 938/2/6
f 938/2/6 937/2/6 939/2/6
f 940/2/6 941/2/6 944/2/6
f 944/2/6 941/2/6 945/2/6
f 942/2/6 943/2/6 946/2/6
f 946/2/6 943/2/6 947/2/6
f 948/2/6 949/2/6 950/2/6
f 950/2/6 949/2/6 951/2/6
f 952/2/6 953/2/6 954/2/6
f 954/2/6 953/2/6 955/2/6
f 956/2/6 957/2/6 958/2/6
f 958/2/6 957/2/6 959/2/6
f 960/2/6 961/2/6 962/2/6
f 962/2/6 961/2/6 963/2/6
f 964/2/6 965/2/6 966/2/6
f 966/2/6 965/2/6 967/2/6
f 968/2/6 969/2/6 970/2/6
f 970/2/6 969/2/6 971/2/6
f 972/2/6 973/2/6 974/2/6
f 974/2/6 973/2/6 975/2/6
f 976/2/6 977/2/6 980/2/6
f 980/2/6 977/2/6 981/2/6
f 978/2/6 979/2/6 982/2/6
f 982/2/6 979/2/6 983/2/6
f 984/2/6 985/2/6 986/2/6
f 986/2/6 985/2/6 987/2/6
f 988/2/6 989/2/6 990/2/6
f 990/2/6 989/2/6 991/2/6
f 992/2/6 993/2/6 996/2/6
f 996/2/6 993/2/6 997/2/6
f 994/2/6 995/2/6 998/2/6
f 998/2/6 995/2/6 999/2/6
f 1000/2/6 1001/2/6 1002/2/6
f 1002/2/6 1001/2/6 1003/2/6
f 1004/1/6 1005/1/6 1006/1/6
f 1006/1/6 1005/1/6 1007/1/6
