# MagicaVoxel @ Ephtracy

# group
o 

# material
mtllib Espada-2.mtl
usemtl palette

# normals
vn -1 0 0
vn 1 0 0
vn 0 0 1
vn 0 0 -1
vn 0 -1 0
vn 0 1 0

# texcoords
vt 0.0449219 0.5
vt 0.259766 0.5
vt 0.982422 0.5
vt 0.994141 0.5

# verts
v 4 0.6 0.4
v 4 0.6 0.3
v 4 0.6 0
v 4 0.6 -0.1
v 4 0.7 0.4
v 4 0.7 0.3
v 4 0.7 0
v 4 0.7 -0.1
v 4.1 0.7 0.3
v 4.1 0.7 0
v 4.1 0.8 0.3
v 4.1 0.8 0
v 4.2 0 0.2
v 4.2 0 0.1
v 4.2 0.1 0.2
v 4.2 0.1 0.1
v 4.2 0.7 0.2
v 4.2 0.7 0.1
v 4.4 0.6 0.3
v 4.4 0.6 0
v 4.4 0.7 0.3
v 4.4 0.7 0
v 4.1 0.6 0.3
v 4.1 0.6 0
v 4.1 0.7 0.3
v 4.1 0.7 0
v 4.3 0 0.2
v 4.3 0 0.1
v 4.3 0.1 0.2
v 4.3 0.1 0.1
v 4.3 0.7 0.2
v 4.3 0.7 0.1
v 4.4 0.7 0.3
v 4.4 0.7 0
v 4.4 0.8 0.3
v 4.4 0.8 0
v 4.5 0.6 0.4
v 4.5 0.6 0.3
v 4.5 0.6 0
v 4.5 0.6 -0.1
v 4.5 0.7 0.4
v 4.5 0.7 0.3
v 4.5 0.7 0
v 4.5 0.7 -0.1
v 4 0.6 0.4
v 4 0.7 0.4
v 4.1 0.6 0.4
v 4.1 0.7 0.4
v 4.4 0.6 0.4
v 4.4 0.7 0.4
v 4.5 0.6 0.4
v 4.5 0.7 0.4
v 4.1 0.7 0.3
v 4.1 0.8 0.3
v 4.4 0.7 0.3
v 4.4 0.8 0.3
v 4.2 0 0.2
v 4.2 0.1 0.2
v 4.2 0.7 0.2
v 4.3 0 0.2
v 4.3 0.1 0.2
v 4.3 0.7 0.2
v 4.1 0.6 0
v 4.1 0.7 0
v 4.4 0.6 0
v 4.4 0.7 0
v 4.1 0.6 0.3
v 4.1 0.7 0.3
v 4.4 0.6 0.3
v 4.4 0.7 0.3
v 4.2 0 0.1
v 4.2 0.1 0.1
v 4.2 0.7 0.1
v 4.3 0 0.1
v 4.3 0.1 0.1
v 4.3 0.7 0.1
v 4.1 0.7 0
v 4.1 0.8 0
v 4.4 0.7 0
v 4.4 0.8 0
v 4 0.6 -0.1
v 4 0.7 -0.1
v 4.1 0.6 -0.1
v 4.1 0.7 -0.1
v 4.4 0.6 -0.1
v 4.4 0.7 -0.1
v 4.5 0.6 -0.1
v 4.5 0.7 -0.1
v 4.2 0 0.2
v 4.3 0 0.2
v 4.2 0 0.1
v 4.3 0 0.1
v 4 0.6 0.4
v 4.1 0.6 0.4
v 4.4 0.6 0.4
v 4.5 0.6 0.4
v 4 0.6 0.3
v 4.1 0.6 0.3
v 4.4 0.6 0.3
v 4.5 0.6 0.3
v 4 0.6 0
v 4.1 0.6 0
v 4.4 0.6 0
v 4.5 0.6 0
v 4 0.6 -0.1
v 4.1 0.6 -0.1
v 4.4 0.6 -0.1
v 4.5 0.6 -0.1
v 4.1 0.7 0.3
v 4.4 0.7 0.3
v 4.2 0.7 0.2
v 4.3 0.7 0.2
v 4.2 0.7 0.1
v 4.3 0.7 0.1
v 4.1 0.7 0
v 4.4 0.7 0
v 4 0.7 0.4
v 4.1 0.7 0.4
v 4.4 0.7 0.4
v 4.5 0.7 0.4
v 4 0.7 0.3
v 4.1 0.7 0.3
v 4.4 0.7 0.3
v 4.5 0.7 0.3
v 4 0.7 0
v 4.1 0.7 0
v 4.4 0.7 0
v 4.5 0.7 0
v 4 0.7 -0.1
v 4.1 0.7 -0.1
v 4.4 0.7 -0.1
v 4.5 0.7 -0.1
v 4.1 0.8 0.3
v 4.4 0.8 0.3
v 4.2 0.8 0.2
v 4.3 0.8 0.2
v 4.2 0.8 0.1
v 4.3 0.8 0.1
v 4.1 0.8 0
v 4.4 0.8 0

# faces
f 5/1/1 2/1/1 1/1/1
f 6/4/1 3/4/1 2/4/1
f 6/1/1 2/1/1 5/1/1
f 7/1/1 4/1/1 3/1/1
f 7/4/1 3/4/1 6/4/1
f 8/1/1 4/1/1 7/1/1
f 11/1/1 10/1/1 9/1/1
f 12/1/1 10/1/1 11/1/1
f 15/3/1 14/3/1 13/3/1
f 16/3/1 14/3/1 15/3/1
f 17/4/1 16/4/1 15/4/1
f 18/4/1 16/4/1 17/4/1
f 21/4/1 20/4/1 19/4/1
f 22/4/1 20/4/1 21/4/1
f 23/4/2 24/4/2 25/4/2
f 25/4/2 24/4/2 26/4/2
f 27/3/2 28/3/2 29/3/2
f 29/3/2 28/3/2 30/3/2
f 29/4/2 30/4/2 31/4/2
f 31/4/2 30/4/2 32/4/2
f 33/1/2 34/1/2 35/1/2
f 35/1/2 34/1/2 36/1/2
f 37/1/2 38/1/2 41/1/2
f 38/4/2 39/4/2 42/4/2
f 41/1/2 38/1/2 42/1/2
f 39/1/2 40/1/2 43/1/2
f 42/4/2 39/4/2 43/4/2
f 43/1/2 40/1/2 44/1/2
f 47/1/3 46/1/3 45/1/3
f 48/1/3 46/1/3 47/1/3
f 49/4/3 48/4/3 47/4/3
f 50/4/3 48/4/3 49/4/3
f 51/1/3 50/1/3 49/1/3
f 52/1/3 50/1/3 51/1/3
f 55/1/3 54/1/3 53/1/3
f 56/1/3 54/1/3 55/1/3
f 60/3/3 58/3/3 57/3/3
f 61/4/3 59/4/3 58/4/3
f 61/3/3 58/3/3 60/3/3
f 62/4/3 59/4/3 61/4/3
f 65/4/3 64/4/3 63/4/3
f 66/4/3 64/4/3 65/4/3
f 67/4/4 68/4/4 69/4/4
f 69/4/4 68/4/4 70/4/4
f 71/3/4 72/3/4 74/3/4
f 72/4/4 73/4/4 75/4/4
f 74/3/4 72/3/4 75/3/4
f 75/4/4 73/4/4 76/4/4
f 77/1/4 78/1/4 79/1/4
f 79/1/4 78/1/4 80/1/4
f 81/1/4 82/1/4 83/1/4
f 83/1/4 82/1/4 84/1/4
f 83/4/4 84/4/4 85/4/4
f 85/4/4 84/4/4 86/4/4
f 85/1/4 86/1/4 87/1/4
f 87/1/4 86/1/4 88/1/4
f 91/3/5 90/3/5 89/3/5
f 92/3/5 90/3/5 91/3/5
f 97/1/5 94/1/5 93/1/5
f 98/4/5 95/4/5 94/4/5
f 98/1/5 94/1/5 97/1/5
f 99/1/5 96/1/5 95/1/5
f 99/4/5 95/4/5 98/4/5
f 100/1/5 96/1/5 99/1/5
f 101/4/5 98/4/5 97/4/5
f 102/4/5 98/4/5 101/4/5
f 103/4/5 100/4/5 99/4/5
f 104/4/5 100/4/5 103/4/5
f 105/1/5 102/1/5 101/1/5
f 106/4/5 103/4/5 102/4/5
f 106/1/5 102/1/5 105/1/5
f 107/1/5 104/1/5 103/1/5
f 107/4/5 103/4/5 106/4/5
f 108/1/5 104/1/5 107/1/5
f 111/1/5 110/1/5 109/1/5
f 112/1/5 110/1/5 111/1/5
f 113/1/5 111/1/5 109/1/5
f 114/1/5 110/1/5 112/1/5
f 115/1/5 113/1/5 109/1/5
f 115/1/5 114/1/5 113/1/5
f 116/1/5 110/1/5 114/1/5
f 116/1/5 114/1/5 115/1/5
f 117/1/6 118/1/6 121/1/6
f 118/4/6 119/4/6 122/4/6
f 121/1/6 118/1/6 122/1/6
f 119/1/6 120/1/6 123/1/6
f 122/4/6 119/4/6 123/4/6
f 123/1/6 120/1/6 124/1/6
f 121/4/6 122/4/6 125/4/6
f 125/4/6 122/4/6 126/4/6
f 123/4/6 124/4/6 127/4/6
f 127/4/6 124/4/6 128/4/6
f 125/1/6 126/1/6 129/1/6
f 126/4/6 127/4/6 130/4/6
f 129/1/6 126/1/6 130/1/6
f 127/1/6 128/1/6 131/1/6
f 130/4/6 127/4/6 131/4/6
f 131/1/6 128/1/6 132/1/6
f 133/1/6 134/1/6 135/1/6
f 135/1/6 134/1/6 136/1/6
f 133/1/6 135/1/6 137/1/6
f 135/2/6 136/2/6 137/2/6
f 136/1/6 134/1/6 138/1/6
f 137/2/6 136/2/6 138/2/6
f 133/1/6 137/1/6 139/1/6
f 137/1/6 138/1/6 139/1/6
f 138/1/6 134/1/6 140/1/6
f 139/1/6 138/1/6 140/1/6
