# MagicaVoxel @ Ephtracy

# group
o 

# material
mtllib Objetos-8.mtl
usemtl palette

# normals
vn -1 0 0
vn 1 0 0
vn 0 0 1
vn 0 0 -1
vn 0 -1 0
vn 0 1 0

# texcoords
vt 0.0136719 0.5
vt 0.634766 0.5
vt 0.958984 0.5
vt 0.982422 0.5

# verts
v 4.2 0 0.4
v 4.2 0 -0.6
v 4.2 0.1 0.4
v 4.2 0.1 -0.6
v 4.3 0 0.7
v 4.3 0 0.4
v 4.3 0.1 0.7
v 4.3 0.1 0.4
v 4.4 0 0.8
v 4.4 0 0.7
v 4.4 0.1 0.8
v 4.4 0.1 0.7
v 4.4 0.1 0.3
v 4.4 0.1 -0.3
v 4.4 0.2 0.3
v 4.4 0.2 -0.3
v 4.5 0 1
v 4.5 0 0.8
v 4.5 0.1 1
v 4.5 0.1 0.8
v 4.5 0.1 0.5
v 4.5 0.1 0.3
v 4.5 0.2 0.5
v 4.5 0.2 0.3
v 4.6 0 1.1
v 4.6 0 1
v 4.6 0.1 1.1
v 4.6 0.1 1
v 4.6 0.1 0.6
v 4.6 0.1 0.5
v 4.6 0.2 0.6
v 4.6 0.2 0.5
v 4.7 0 1.2
v 4.7 0 1.1
v 4.7 0.1 1.2
v 4.7 0.1 1.1
v 4.7 0.1 0.8
v 4.7 0.1 0.6
v 4.7 0.2 0.8
v 4.7 0.2 0.6
v 4.8 0 1.3
v 4.8 0 1.2
v 4.8 0 -0.4
v 4.8 0 -0.5
v 4.8 0.1 1.3
v 4.8 0.1 1.2
v 4.8 0.1 0.9
v 4.8 0.1 0.8
v 4.8 0.1 -0.4
v 4.8 0.1 -0.5
v 4.8 0.2 0.9
v 4.8 0.2 0.8
v 4.9 0 1.4
v 4.9 0 1.3
v 4.9 0 -0.5
v 4.9 0 -0.6
v 4.9 0.1 1.4
v 4.9 0.1 1.3
v 4.9 0.1 1
v 4.9 0.1 0.9
v 4.9 0.1 -0.1
v 4.9 0.1 -0.2
v 4.9 0.1 -0.5
v 4.9 0.1 -0.6
v 4.9 0.2 1
v 4.9 0.2 0.9
v 4.9 0.2 -0.1
v 4.9 0.2 -0.2
v 5 0 1.5
v 5 0 1.4
v 5 0 -0.6
v 5 0 -0.7
v 5 0.1 1.5
v 5 0.1 1.4
v 5 0.1 1.1
v 5 0.1 1
v 5 0.1 -0.2
v 5 0.1 -0.3
v 5 0.1 -0.6
v 5 0.1 -0.7
v 5 0.2 1.1
v 5 0.2 1
v 5 0.2 -0.2
v 5 0.2 -0.3
v 5.5 0.1 -0.1
v 5.5 0.1 -0.2
v 5.5 0.2 -0.1
v 5.5 0.2 -0.2
v 5.6 0.1 -0.2
v 5.6 0.1 -0.3
v 5.6 0.2 -0.2
v 5.6 0.2 -0.3
v 5.7 0 -0.4
v 5.7 0 -0.5
v 5.7 0.1 -0.4
v 5.7 0.1 -0.5
v 5.8 0 -0.5
v 5.8 0 -0.6
v 5.8 0.1 -0.5
v 5.8 0.1 -0.6
v 4.3 0 -0.5
v 4.3 0 -0.6
v 4.3 0.1 -0.5
v 4.3 0.1 -0.6
v 4.4 0 -0.4
v 4.4 0 -0.5
v 4.4 0.1 -0.4
v 4.4 0.1 -0.5
v 4.5 0.1 -0.2
v 4.5 0.1 -0.3
v 4.5 0.2 -0.2
v 4.5 0.2 -0.3
v 4.6 0.1 -0.1
v 4.6 0.1 -0.2
v 4.6 0.2 -0.1
v 4.6 0.2 -0.2
v 5.1 0 1.5
v 5.1 0 1.4
v 5.1 0 -0.6
v 5.1 0 -0.7
v 5.1 0.1 1.5
v 5.1 0.1 1.4
v 5.1 0.1 1.1
v 5.1 0.1 1
v 5.1 0.1 -0.2
v 5.1 0.1 -0.3
v 5.1 0.1 -0.6
v 5.1 0.1 -0.7
v 5.1 0.2 1.1
v 5.1 0.2 1
v 5.1 0.2 -0.2
v 5.1 0.2 -0.3
v 5.2 0 1.4
v 5.2 0 1.3
v 5.2 0 -0.5
v 5.2 0 -0.6
v 5.2 0.1 1.4
v 5.2 0.1 1.3
v 5.2 0.1 1
v 5.2 0.1 0.9
v 5.2 0.1 -0.1
v 5.2 0.1 -0.2
v 5.2 0.1 -0.5
v 5.2 0.1 -0.6
v 5.2 0.2 1
v 5.2 0.2 0.9
v 5.2 0.2 -0.1
v 5.2 0.2 -0.2
v 5.3 0 1.3
v 5.3 0 1.2
v 5.3 0 -0.4
v 5.3 0 -0.5
v 5.3 0.1 1.3
v 5.3 0.1 1.2
v 5.3 0.1 0.9
v 5.3 0.1 0.8
v 5.3 0.1 -0.4
v 5.3 0.1 -0.5
v 5.3 0.2 0.9
v 5.3 0.2 0.8
v 5.4 0 1.2
v 5.4 0 1.1
v 5.4 0.1 1.2
v 5.4 0.1 1.1
v 5.4 0.1 0.8
v 5.4 0.1 0.6
v 5.4 0.2 0.8
v 5.4 0.2 0.6
v 5.5 0 1.1
v 5.5 0 1
v 5.5 0.1 1.1
v 5.5 0.1 1
v 5.5 0.1 0.6
v 5.5 0.1 0.5
v 5.5 0.2 0.6
v 5.5 0.2 0.5
v 5.6 0 1
v 5.6 0 0.8
v 5.6 0.1 1
v 5.6 0.1 0.8
v 5.6 0.1 0.5
v 5.6 0.1 0.3
v 5.6 0.2 0.5
v 5.6 0.2 0.3
v 5.7 0 0.8
v 5.7 0 0.7
v 5.7 0.1 0.8
v 5.7 0.1 0.7
v 5.7 0.1 0.3
v 5.7 0.1 -0.3
v 5.7 0.2 0.3
v 5.7 0.2 -0.3
v 5.8 0 0.7
v 5.8 0 0.4
v 5.8 0.1 0.7
v 5.8 0.1 0.4
v 5.9 0 0.4
v 5.9 0 -0.6
v 5.9 0.1 0.4
v 5.9 0.1 -0.6
v 5 0 1.5
v 5 0.1 1.5
v 5.1 0 1.5
v 5.1 0.1 1.5
v 4.9 0 1.4
v 4.9 0.1 1.4
v 5 0 1.4
v 5 0.1 1.4
v 5.1 0 1.4
v 5.1 0.1 1.4
v 5.2 0 1.4
v 5.2 0.1 1.4
v 4.8 0 1.3
v 4.8 0.1 1.3
v 4.9 0 1.3
v 4.9 0.1 1.3
v 5.2 0 1.3
v 5.2 0.1 1.3
v 5.3 0 1.3
v 5.3 0.1 1.3
v 4.7 0 1.2
v 4.7 0.1 1.2
v 4.8 0 1.2
v 4.8 0.1 1.2
v 5.3 0 1.2
v 5.3 0.1 1.2
v 5.4 0 1.2
v 5.4 0.1 1.2
v 4.6 0 1.1
v 4.6 0.1 1.1
v 4.7 0 1.1
v 4.7 0.1 1.1
v 5 0.1 1.1
v 5 0.2 1.1
v 5.1 0.1 1.1
v 5.1 0.2 1.1
v 5.4 0 1.1
v 5.4 0.1 1.1
v 5.5 0 1.1
v 5.5 0.1 1.1
v 4.5 0 1
v 4.5 0.1 1
v 4.6 0 1
v 4.6 0.1 1
v 4.9 0.1 1
v 4.9 0.2 1
v 5 0.1 1
v 5 0.2 1
v 5.1 0.1 1
v 5.1 0.2 1
v 5.2 0.1 1
v 5.2 0.2 1
v 5.5 0 1
v 5.5 0.1 1
v 5.6 0 1
v 5.6 0.1 1
v 4.8 0.1 0.9
v 4.8 0.2 0.9
v 4.9 0.1 0.9
v 4.9 0.2 0.9
v 5.2 0.1 0.9
v 5.2 0.2 0.9
v 5.3 0.1 0.9
v 5.3 0.2 0.9
v 4.4 0 0.8
v 4.4 0.1 0.8
v 4.5 0 0.8
v 4.5 0.1 0.8
v 4.7 0.1 0.8
v 4.7 0.2 0.8
v 4.8 0.1 0.8
v 4.8 0.2 0.8
v 5.3 0.1 0.8
v 5.3 0.2 0.8
v 5.4 0.1 0.8
v 5.4 0.2 0.8
v 5.6 0 0.8
v 5.6 0.1 0.8
v 5.7 0 0.8
v 5.7 0.1 0.8
v 4.3 0 0.7
v 4.3 0.1 0.7
v 4.4 0 0.7
v 4.4 0.1 0.7
v 5.7 0 0.7
v 5.7 0.1 0.7
v 5.8 0 0.7
v 5.8 0.1 0.7
v 4.6 0.1 0.6
v 4.6 0.2 0.6
v 4.7 0.1 0.6
v 4.7 0.2 0.6
v 5.4 0.1 0.6
v 5.4 0.2 0.6
v 5.5 0.1 0.6
v 5.5 0.2 0.6
v 4.5 0.1 0.5
v 4.5 0.2 0.5
v 4.6 0.1 0.5
v 4.6 0.2 0.5
v 5.5 0.1 0.5
v 5.5 0.2 0.5
v 5.6 0.1 0.5
v 5.6 0.2 0.5
v 4.2 0 0.4
v 4.2 0.1 0.4
v 4.3 0 0.4
v 4.3 0.1 0.4
v 5.8 0 0.4
v 5.8 0.1 0.4
v 5.9 0 0.4
v 5.9 0.1 0.4
v 4.4 0.1 0.3
v 4.4 0.2 0.3
v 4.5 0.1 0.3
v 4.5 0.2 0.3
v 5.6 0.1 0.3
v 5.6 0.2 0.3
v 5.7 0.1 0.3
v 5.7 0.2 0.3
v 4.6 0.1 -0.1
v 4.6 0.2 -0.1
v 4.9 0.1 -0.1
v 4.9 0.2 -0.1
v 5.2 0.1 -0.1
v 5.2 0.2 -0.1
v 5.5 0.1 -0.1
v 5.5 0.2 -0.1
v 4.5 0.1 -0.2
v 4.5 0.2 -0.2
v 4.6 0.1 -0.2
v 4.6 0.2 -0.2
v 4.9 0.1 -0.2
v 4.9 0.2 -0.2
v 5 0.1 -0.2
v 5 0.2 -0.2
v 5.1 0.1 -0.2
v 5.1 0.2 -0.2
v 5.2 0.1 -0.2
v 5.2 0.2 -0.2
v 5.5 0.1 -0.2
v 5.5 0.2 -0.2
v 5.6 0.1 -0.2
v 5.6 0.2 -0.2
v 4.4 0.1 -0.3
v 4.4 0.2 -0.3
v 4.5 0.1 -0.3
v 4.5 0.2 -0.3
v 5 0.1 -0.3
v 5 0.2 -0.3
v 5.1 0.1 -0.3
v 5.1 0.2 -0.3
v 5.6 0.1 -0.3
v 5.6 0.2 -0.3
v 5.7 0.1 -0.3
v 5.7 0.2 -0.3
v 4.4 0 -0.4
v 4.4 0.1 -0.4
v 4.8 0 -0.4
v 4.8 0.1 -0.4
v 5.3 0 -0.4
v 5.3 0.1 -0.4
v 5.7 0 -0.4
v 5.7 0.1 -0.4
v 4.3 0 -0.5
v 4.3 0.1 -0.5
v 4.4 0 -0.5
v 4.4 0.1 -0.5
v 4.8 0 -0.5
v 4.8 0.1 -0.5
v 4.9 0 -0.5
v 4.9 0.1 -0.5
v 5.2 0 -0.5
v 5.2 0.1 -0.5
v 5.3 0 -0.5
v 5.3 0.1 -0.5
v 5.7 0 -0.5
v 5.7 0.1 -0.5
v 5.8 0 -0.5
v 5.8 0.1 -0.5
v 4.2 0 -0.6
v 4.2 0.1 -0.6
v 4.3 0 -0.6
v 4.3 0.1 -0.6
v 4.9 0 -0.6
v 4.9 0.1 -0.6
v 5 0 -0.6
v 5 0.1 -0.6
v 5.1 0 -0.6
v 5.1 0.1 -0.6
v 5.2 0 -0.6
v 5.2 0.1 -0.6
v 5.8 0 -0.6
v 5.8 0.1 -0.6
v 5.9 0 -0.6
v 5.9 0.1 -0.6
v 5 0 -0.7
v 5 0.1 -0.7
v 5.1 0 -0.7
v 5.1 0.1 -0.7
v 5 0 1.5
v 5.1 0 1.5
v 4.9 0 1.4
v 5 0 1.4
v 5.1 0 1.4
v 5.2 0 1.4
v 4.8 0 1.3
v 4.9 0 1.3
v 5.2 0 1.3
v 5.3 0 1.3
v 4.7 0 1.2
v 4.8 0 1.2
v 5.3 0 1.2
v 5.4 0 1.2
v 4.6 0 1.1
v 4.7 0 1.1
v 5 0 1.1
v 5.1 0 1.1
v 5.4 0 1.1
v 5.5 0 1.1
v 4.5 0 1
v 4.6 0 1
v 4.9 0 1
v 5 0 1
v 5.1 0 1
v 5.2 0 1
v 5.5 0 1
v 5.6 0 1
v 4.8 0 0.9
v 4.9 0 0.9
v 5.2 0 0.9
v 5.3 0 0.9
v 4.4 0 0.8
v 4.5 0 0.8
v 4.7 0 0.8
v 4.8 0 0.8
v 5.3 0 0.8
v 5.4 0 0.8
v 5.6 0 0.8
v 5.7 0 0.8
v 4.3 0 0.7
v 4.4 0 0.7
v 5.7 0 0.7
v 5.8 0 0.7
v 4.6 0 0.6
v 4.7 0 0.6
v 5.4 0 0.6
v 5.5 0 0.6
v 4.5 0 0.5
v 4.6 0 0.5
v 5.5 0 0.5
v 5.6 0 0.5
v 4.2 0 0.4
v 4.3 0 0.4
v 5.8 0 0.4
v 5.9 0 0.4
v 4.4 0 0.3
v 4.5 0 0.3
v 5.6 0 0.3
v 5.7 0 0.3
v 4.6 0 -0.1
v 4.9 0 -0.1
v 5.2 0 -0.1
v 5.5 0 -0.1
v 4.5 0 -0.2
v 4.6 0 -0.2
v 4.9 0 -0.2
v 5 0 -0.2
v 5.1 0 -0.2
v 5.2 0 -0.2
v 5.5 0 -0.2
v 5.6 0 -0.2
v 4.4 0 -0.3
v 4.5 0 -0.3
v 5 0 -0.3
v 5.1 0 -0.3
v 5.6 0 -0.3
v 5.7 0 -0.3
v 4.4 0 -0.4
v 4.8 0 -0.4
v 5.3 0 -0.4
v 5.7 0 -0.4
v 4.3 0 -0.5
v 4.4 0 -0.5
v 4.8 0 -0.5
v 4.9 0 -0.5
v 5.2 0 -0.5
v 5.3 0 -0.5
v 5.7 0 -0.5
v 5.8 0 -0.5
v 4.2 0 -0.6
v 4.3 0 -0.6
v 4.9 0 -0.6
v 5 0 -0.6
v 5.1 0 -0.6
v 5.2 0 -0.6
v 5.8 0 -0.6
v 5.9 0 -0.6
v 5 0 -0.7
v 5.1 0 -0.7
v 5 0.1 1.5
v 5.1 0.1 1.5
v 4.9 0.1 1.4
v 5 0.1 1.4
v 5.1 0.1 1.4
v 5.2 0.1 1.4
v 4.8 0.1 1.3
v 4.9 0.1 1.3
v 5.2 0.1 1.3
v 5.3 0.1 1.3
v 4.7 0.1 1.2
v 4.8 0.1 1.2
v 5.3 0.1 1.2
v 5.4 0.1 1.2
v 4.6 0.1 1.1
v 4.7 0.1 1.1
v 5 0.1 1.1
v 5.1 0.1 1.1
v 5.4 0.1 1.1
v 5.5 0.1 1.1
v 4.5 0.1 1
v 4.6 0.1 1
v 4.9 0.1 1
v 5 0.1 1
v 5.1 0.1 1
v 5.2 0.1 1
v 5.5 0.1 1
v 5.6 0.1 1
v 4.8 0.1 0.9
v 4.9 0.1 0.9
v 5.2 0.1 0.9
v 5.3 0.1 0.9
v 4.4 0.1 0.8
v 4.5 0.1 0.8
v 4.7 0.1 0.8
v 4.8 0.1 0.8
v 5.3 0.1 0.8
v 5.4 0.1 0.8
v 5.6 0.1 0.8
v 5.7 0.1 0.8
v 4.3 0.1 0.7
v 4.4 0.1 0.7
v 5.7 0.1 0.7
v 5.8 0.1 0.7
v 4.6 0.1 0.6
v 4.7 0.1 0.6
v 5.4 0.1 0.6
v 5.5 0.1 0.6
v 4.5 0.1 0.5
v 4.6 0.1 0.5
v 5.5 0.1 0.5
v 5.6 0.1 0.5
v 4.2 0.1 0.4
v 4.3 0.1 0.4
v 5.8 0.1 0.4
v 5.9 0.1 0.4
v 4.4 0.1 0.3
v 4.5 0.1 0.3
v 5.6 0.1 0.3
v 5.7 0.1 0.3
v 4.6 0.1 -0.1
v 4.9 0.1 -0.1
v 5.2 0.1 -0.1
v 5.5 0.1 -0.1
v 4.5 0.1 -0.2
v 4.6 0.1 -0.2
v 4.9 0.1 -0.2
v 5 0.1 -0.2
v 5.1 0.1 -0.2
v 5.2 0.1 -0.2
v 5.5 0.1 -0.2
v 5.6 0.1 -0.2
v 4.4 0.1 -0.3
v 4.5 0.1 -0.3
v 5 0.1 -0.3
v 5.1 0.1 -0.3
v 5.6 0.1 -0.3
v 5.7 0.1 -0.3
v 4.4 0.1 -0.4
v 4.8 0.1 -0.4
v 5.3 0.1 -0.4
v 5.7 0.1 -0.4
v 4.3 0.1 -0.5
v 4.4 0.1 -0.5
v 4.8 0.1 -0.5
v 4.9 0.1 -0.5
v 5.2 0.1 -0.5
v 5.3 0.1 -0.5
v 5.7 0.1 -0.5
v 5.8 0.1 -0.5
v 4.2 0.1 -0.6
v 4.3 0.1 -0.6
v 4.9 0.1 -0.6
v 5 0.1 -0.6
v 5.1 0.1 -0.6
v 5.2 0.1 -0.6
v 5.8 0.1 -0.6
v 5.9 0.1 -0.6
v 5 0.1 -0.7
v 5.1 0.1 -0.7
v 5 0.2 1.1
v 5.1 0.2 1.1
v 4.9 0.2 1
v 5 0.2 1
v 5.1 0.2 1
v 5.2 0.2 1
v 4.8 0.2 0.9
v 4.9 0.2 0.9
v 5 0.2 0.9
v 5.1 0.2 0.9
v 5.2 0.2 0.9
v 5.3 0.2 0.9
v 4.7 0.2 0.8
v 4.8 0.2 0.8
v 5.3 0.2 0.8
v 5.4 0.2 0.8
v 4.8 0.2 0.7
v 5 0.2 0.7
v 5.1 0.2 0.7
v 5.3 0.2 0.7
v 4.6 0.2 0.6
v 4.7 0.2 0.6
v 4.8 0.2 0.6
v 5 0.2 0.6
v 5.1 0.2 0.6
v 5.3 0.2 0.6
v 5.4 0.2 0.6
v 5.5 0.2 0.6
v 4.5 0.2 0.5
v 4.6 0.2 0.5
v 4.7 0.2 0.5
v 4.8 0.2 0.5
v 5.3 0.2 0.5
v 5.4 0.2 0.5
v 5.5 0.2 0.5
v 5.6 0.2 0.5
v 4.4 0.2 0.3
v 4.5 0.2 0.3
v 5.6 0.2 0.3
v 5.7 0.2 0.3
v 4.6 0.2 -0.1
v 4.9 0.2 -0.1
v 5 0.2 -0.1
v 5.1 0.2 -0.1
v 5.2 0.2 -0.1
v 5.5 0.2 -0.1
v 4.5 0.2 -0.2
v 4.6 0.2 -0.2
v 4.9 0.2 -0.2
v 5 0.2 -0.2
v 5.1 0.2 -0.2
v 5.2 0.2 -0.2
v 5.5 0.2 -0.2
v 5.6 0.2 -0.2
v 4.4 0.2 -0.3
v 4.5 0.2 -0.3
v 5 0.2 -0.3
v 5.1 0.2 -0.3
v 5.6 0.2 -0.3
v 5.7 0.2 -0.3

# faces
f 3/1/1 2/1/1 1/1/1
f 4/1/1 2/1/1 3/1/1
f 7/1/1 6/1/1 5/1/1
f 8/1/1 6/1/1 7/1/1
f 11/1/1 10/1/1 9/1/1
f 12/1/1 10/1/1 11/1/1
f 15/2/1 14/2/1 13/2/1
f 16/2/1 14/2/1 15/2/1
f 19/1/1 18/1/1 17/1/1
f 20/1/1 18/1/1 19/1/1
f 23/2/1 22/2/1 21/2/1
f 24/2/1 22/2/1 23/2/1
f 27/1/1 26/1/1 25/1/1
f 28/1/1 26/1/1 27/1/1
f 31/2/1 30/2/1 29/2/1
f 32/2/1 30/2/1 31/2/1
f 35/1/1 34/1/1 33/1/1
f 36/1/1 34/1/1 35/1/1
f 39/2/1 38/2/1 37/2/1
f 40/2/1 38/2/1 39/2/1
f 45/1/1 42/1/1 41/1/1
f 46/1/1 42/1/1 45/1/1
f 49/1/1 44/1/1 43/1/1
f 50/1/1 44/1/1 49/1/1
f 51/2/1 48/2/1 47/2/1
f 52/2/1 48/2/1 51/2/1
f 57/1/1 54/1/1 53/1/1
f 58/1/1 54/1/1 57/1/1
f 63/1/1 56/1/1 55/1/1
f 64/1/1 56/1/1 63/1/1
f 65/2/1 60/2/1 59/2/1
f 66/2/1 60/2/1 65/2/1
f 67/2/1 62/2/1 61/2/1
f 68/2/1 62/2/1 67/2/1
f 73/1/1 70/1/1 69/1/1
f 74/1/1 70/1/1 73/1/1
f 79/1/1 72/1/1 71/1/1
f 80/1/1 72/1/1 79/1/1
f 81/2/1 76/2/1 75/2/1
f 82/2/1 76/2/1 81/2/1
f 83/2/1 78/2/1 77/2/1
f 84/2/1 78/2/1 83/2/1
f 87/2/1 86/2/1 85/2/1
f 88/2/1 86/2/1 87/2/1
f 91/2/1 90/2/1 89/2/1
f 92/2/1 90/2/1 91/2/1
f 95/1/1 94/1/1 93/1/1
f 96/1/1 94/1/1 95/1/1
f 99/1/1 98/1/1 97/1/1
f 100/1/1 98/1/1 99/1/1
f 101/1/2 102/1/2 103/1/2
f 103/1/2 102/1/2 104/1/2
f 105/1/2 106/1/2 107/1/2
f 107/1/2 106/1/2 108/1/2
f 109/2/2 110/2/2 111/2/2
f 111/2/2 110/2/2 112/2/2
f 113/2/2 114/2/2 115/2/2
f 115/2/2 114/2/2 116/2/2
f 117/1/2 118/1/2 121/1/2
f 121/1/2 118/1/2 122/1/2
f 119/1/2 120/1/2 127/1/2
f 127/1/2 120/1/2 128/1/2
f 123/2/2 124/2/2 129/2/2
f 129/2/2 124/2/2 130/2/2
f 125/2/2 126/2/2 131/2/2
f 131/2/2 126/2/2 132/2/2
f 133/1/2 134/1/2 137/1/2
f 137/1/2 134/1/2 138/1/2
f 135/1/2 136/1/2 143/1/2
f 143/1/2 136/1/2 144/1/2
f 139/2/2 140/2/2 145/2/2
f 145/2/2 140/2/2 146/2/2
f 141/2/2 142/2/2 147/2/2
f 147/2/2 142/2/2 148/2/2
f 149/1/2 150/1/2 153/1/2
f 153/1/2 150/1/2 154/1/2
f 151/1/2 152/1/2 157/1/2
f 157/1/2 152/1/2 158/1/2
f 155/2/2 156/2/2 159/2/2
f 159/2/2 156/2/2 160/2/2
f 161/1/2 162/1/2 163/1/2
f 163/1/2 162/1/2 164/1/2
f 165/2/2 166/2/2 167/2/2
f 167/2/2 166/2/2 168/2/2
f 169/1/2 170/1/2 171/1/2
f 171/1/2 170/1/2 172/1/2
f 173/2/2 174/2/2 175/2/2
f 175/2/2 174/2/2 176/2/2
f 177/1/2 178/1/2 179/1/2
f 179/1/2 178/1/2 180/1/2
f 181/2/2 182/2/2 183/2/2
f 183/2/2 182/2/2 184/2/2
f 185/1/2 186/1/2 187/1/2
f 187/1/2 186/1/2 188/1/2
f 189/2/2 190/2/2 191/2/2
f 191/2/2 190/2/2 192/2/2
f 193/1/2 194/1/2 195/1/2
f 195/1/2 194/1/2 196/1/2
f 197/1/2 198/1/2 199/1/2
f 199/1/2 198/1/2 200/1/2
f 203/1/3 202/1/3 201/1/3
f 204/1/3 202/1/3 203/1/3
f 207/1/3 206/1/3 205/1/3
f 208/1/3 206/1/3 207/1/3
f 211/1/3 210/1/3 209/1/3
f 212/1/3 210/1/3 211/1/3
f 215/1/3 214/1/3 213/1/3
f 216/1/3 214/1/3 215/1/3
f 219/1/3 218/1/3 217/1/3
f 220/1/3 218/1/3 219/1/3
f 223/1/3 222/1/3 221/1/3
f 224/1/3 222/1/3 223/1/3
f 227/1/3 226/1/3 225/1/3
f 228/1/3 226/1/3 227/1/3
f 231/1/3 230/1/3 229/1/3
f 232/1/3 230/1/3 231/1/3
f 235/2/3 234/2/3 233/2/3
f 236/2/3 234/2/3 235/2/3
f 239/1/3 238/1/3 237/1/3
f 240/1/3 238/1/3 239/1/3
f 243/1/3 242/1/3 241/1/3
f 244/1/3 242/1/3 243/1/3
f 247/2/3 246/2/3 245/2/3
f 248/2/3 246/2/3 247/2/3
f 251/2/3 250/2/3 249/2/3
f 252/2/3 250/2/3 251/2/3
f 255/1/3 254/1/3 253/1/3
f 256/1/3 254/1/3 255/1/3
f 259/2/3 258/2/3 257/2/3
f 260/2/3 258/2/3 259/2/3
f 263/2/3 262/2/3 261/2/3
f 264/2/3 262/2/3 263/2/3
f 267/1/3 266/1/3 265/1/3
f 268/1/3 266/1/3 267/1/3
f 271/2/3 270/2/3 269/2/3
f 272/2/3 270/2/3 271/2/3
f 275/2/3 274/2/3 273/2/3
f 276/2/3 274/2/3 275/2/3
f 279/1/3 278/1/3 277/1/3
f 280/1/3 278/1/3 279/1/3
f 283/1/3 282/1/3 281/1/3
f 284/1/3 282/1/3 283/1/3
f 287/1/3 286/1/3 285/1/3
f 288/1/3 286/1/3 287/1/3
f 291/2/3 290/2/3 289/2/3
f 292/2/3 290/2/3 291/2/3
f 295/2/3 294/2/3 293/2/3
f 296/2/3 294/2/3 295/2/3
f 299/2/3 298/2/3 297/2/3
f 300/2/3 298/2/3 299/2/3
f 303/2/3 302/2/3 301/2/3
f 304/2/3 302/2/3 303/2/3
f 307/1/3 306/1/3 305/1/3
f 308/1/3 306/1/3 307/1/3
f 311/1/3 310/1/3 309/1/3
f 312/1/3 310/1/3 311/1/3
f 315/2/3 314/2/3 313/2/3
f 316/2/3 314/2/3 315/2/3
f 319/2/3 318/2/3 317/2/3
f 320/2/3 318/2/3 319/2/3
f 321/2/4 322/2/4 323/2/4
f 323/2/4 322/2/4 324/2/4
f 325/2/4 326/2/4 327/2/4
f 327/2/4 326/2/4 328/2/4
f 329/2/4 330/2/4 331/2/4
f 331/2/4 330/2/4 332/2/4
f 333/2/4 334/2/4 335/2/4
f 335/2/4 334/2/4 336/2/4
f 337/2/4 338/2/4 339/2/4
f 339/2/4 338/2/4 340/2/4
f 341/2/4 342/2/4 343/2/4
f 343/2/4 342/2/4 344/2/4
f 345/2/4 346/2/4 347/2/4
f 347/2/4 346/2/4 348/2/4
f 349/2/4 350/2/4 351/2/4
f 351/2/4 350/2/4 352/2/4
f 353/2/4 354/2/4 355/2/4
f 355/2/4 354/2/4 356/2/4
f 357/1/4 358/1/4 359/1/4
f 359/1/4 358/1/4 360/1/4
f 361/1/4 362/1/4 363/1/4
f 363/1/4 362/1/4 364/1/4
f 365/1/4 366/1/4 367/1/4
f 367/1/4 366/1/4 368/1/4
f 369/1/4 370/1/4 371/1/4
f 371/1/4 370/1/4 372/1/4
f 373/1/4 374/1/4 375/1/4
f 375/1/4 374/1/4 376/1/4
f 377/1/4 378/1/4 379/1/4
f 379/1/4 378/1/4 380/1/4
f 381/1/4 382/1/4 383/1/4
f 383/1/4 382/1/4 384/1/4
f 385/1/4 386/1/4 387/1/4
f 387/1/4 386/1/4 388/1/4
f 389/1/4 390/1/4 391/1/4
f 391/1/4 390/1/4 392/1/4
f 393/1/4 394/1/4 395/1/4
f 395/1/4 394/1/4 396/1/4
f 397/1/4 398/1/4 399/1/4
f 399/1/4 398/1/4 400/1/4
f 404/1/5 402/1/5 401/1/5
f 405/1/5 402/1/5 404/1/5
f 408/1/5 404/1/5 403/1/5
f 408/1/5 406/1/5 405/1/5
f 408/1/5 405/1/5 404/1/5
f 409/1/5 406/1/5 408/1/5
f 412/1/5 408/1/5 407/1/5
f 412/1/5 410/1/5 409/1/5
f 412/1/5 409/1/5 408/1/5
f 413/1/5 410/1/5 412/1/5
f 416/1/5 412/1/5 411/1/5
f 416/1/5 414/1/5 413/1/5
f 416/1/5 413/1/5 412/1/5
f 417/1/5 414/1/5 416/1/5
f 418/1/5 414/1/5 417/1/5
f 419/1/5 414/1/5 418/1/5
f 422/1/5 416/1/5 415/1/5
f 422/1/5 417/1/5 416/1/5
f 423/1/5 417/1/5 422/1/5
f 424/4/5 418/4/5 417/4/5
f 424/1/5 417/1/5 423/1/5
f 425/1/5 420/1/5 419/1/5
f 425/4/5 418/4/5 424/4/5
f 425/1/5 419/1/5 418/1/5
f 426/1/5 420/1/5 425/1/5
f 427/1/5 420/1/5 426/1/5
f 429/1/5 422/1/5 421/1/5
f 429/1/5 423/1/5 422/1/5
f 430/4/5 424/4/5 423/4/5
f 430/1/5 423/1/5 429/1/5
f 430/4/5 425/4/5 424/4/5
f 430/4/5 426/4/5 425/4/5
f 431/1/5 428/1/5 427/1/5
f 431/4/5 426/4/5 430/4/5
f 431/1/5 427/1/5 426/1/5
f 432/1/5 428/1/5 431/1/5
f 434/1/5 429/1/5 421/1/5
f 435/1/5 429/1/5 434/1/5
f 436/4/5 430/4/5 429/4/5
f 436/1/5 429/1/5 435/1/5
f 436/4/5 431/4/5 430/4/5
f 436/4/5 432/4/5 431/4/5
f 437/1/5 428/1/5 432/1/5
f 437/4/5 432/4/5 436/4/5
f 438/1/5 428/1/5 437/1/5
f 439/1/5 428/1/5 438/1/5
f 442/1/5 435/1/5 434/1/5
f 442/1/5 434/1/5 433/1/5
f 443/1/5 440/1/5 439/1/5
f 443/1/5 439/1/5 438/1/5
f 445/1/5 442/1/5 441/1/5
f 445/1/5 435/1/5 442/1/5
f 446/4/5 436/4/5 435/4/5
f 446/1/5 435/1/5 445/1/5
f 446/4/5 437/4/5 436/4/5
f 446/4/5 438/4/5 437/4/5
f 447/1/5 444/1/5 443/1/5
f 447/4/5 438/4/5 446/4/5
f 447/1/5 443/1/5 438/1/5
f 448/1/5 444/1/5 447/1/5
f 449/1/5 445/1/5 441/1/5
f 450/4/5 446/4/5 445/4/5
f 450/1/5 445/1/5 449/1/5
f 450/4/5 447/4/5 446/4/5
f 450/4/5 448/4/5 447/4/5
f 451/1/5 444/1/5 448/1/5
f 451/4/5 448/4/5 450/4/5
f 452/1/5 444/1/5 451/1/5
f 454/1/5 449/1/5 441/1/5
f 455/1/5 444/1/5 452/1/5
f 457/1/5 454/1/5 453/1/5
f 457/1/5 449/1/5 454/1/5
f 458/4/5 450/4/5 449/4/5
f 458/1/5 449/1/5 457/1/5
f 458/4/5 451/4/5 450/4/5
f 458/4/5 452/4/5 451/4/5
f 459/1/5 456/1/5 455/1/5
f 459/4/5 452/4/5 458/4/5
f 459/1/5 455/1/5 452/1/5
f 460/1/5 456/1/5 459/1/5
f 461/4/5 458/4/5 457/4/5
f 461/4/5 459/4/5 458/4/5
f 461/4/5 460/4/5 459/4/5
f 462/4/5 460/4/5 461/4/5
f 463/4/5 460/4/5 462/4/5
f 464/4/5 460/4/5 463/4/5
f 465/4/5 461/4/5 457/4/5
f 466/1/5 462/1/5 461/1/5
f 466/4/5 461/4/5 465/4/5
f 467/4/5 463/4/5 462/4/5
f 467/1/5 462/1/5 466/1/5
f 468/4/5 463/4/5 467/4/5
f 469/4/5 463/4/5 468/4/5
f 470/1/5 464/1/5 463/1/5
f 470/4/5 463/4/5 469/4/5
f 471/4/5 460/4/5 464/4/5
f 471/1/5 464/1/5 470/1/5
f 472/4/5 460/4/5 471/4/5
f 473/1/5 457/1/5 453/1/5
f 473/4/5 465/4/5 457/4/5
f 474/1/5 466/1/5 465/1/5
f 474/4/5 465/4/5 473/4/5
f 474/1/5 467/1/5 466/1/5
f 474/1/5 468/1/5 467/1/5
f 475/4/5 469/4/5 468/4/5
f 475/1/5 468/1/5 474/1/5
f 476/1/5 470/1/5 469/1/5
f 476/4/5 469/4/5 475/4/5
f 476/1/5 472/1/5 471/1/5
f 476/1/5 471/1/5 470/1/5
f 477/4/5 460/4/5 472/4/5
f 477/1/5 472/1/5 476/1/5
f 478/1/5 456/1/5 460/1/5
f 478/4/5 460/4/5 477/4/5
f 479/1/5 476/1/5 475/1/5
f 479/1/5 477/1/5 476/1/5
f 479/1/5 478/1/5 477/1/5
f 479/1/5 473/1/5 453/1/5
f 479/1/5 474/1/5 473/1/5
f 479/1/5 475/1/5 474/1/5
f 480/1/5 478/1/5 479/1/5
f 481/1/5 478/1/5 480/1/5
f 482/1/5 456/1/5 478/1/5
f 482/1/5 478/1/5 481/1/5
f 483/1/5 479/1/5 453/1/5
f 484/1/5 479/1/5 483/1/5
f 485/1/5 481/1/5 480/1/5
f 486/1/5 481/1/5 485/1/5
f 487/1/5 481/1/5 486/1/5
f 488/1/5 481/1/5 487/1/5
f 489/1/5 456/1/5 482/1/5
f 490/1/5 456/1/5 489/1/5
f 491/1/5 483/1/5 453/1/5
f 492/1/5 483/1/5 491/1/5
f 493/1/5 487/1/5 486/1/5
f 494/1/5 487/1/5 493/1/5
f 495/1/5 487/1/5 494/1/5
f 496/1/5 487/1/5 495/1/5
f 497/1/5 456/1/5 490/1/5
f 498/1/5 456/1/5 497/1/5
f 499/1/5 495/1/5 494/1/5
f 500/1/5 495/1/5 499/1/5
f 501/1/6 502/1/6 504/1/6
f 504/1/6 502/1/6 505/1/6
f 503/1/6 504/1/6 508/1/6
f 505/1/6 506/1/6 508/1/6
f 504/1/6 505/1/6 508/1/6
f 508/1/6 506/1/6 509/1/6
f 507/1/6 508/1/6 512/1/6
f 509/1/6 510/1/6 512/1/6
f 508/1/6 509/1/6 512/1/6
f 512/1/6 510/1/6 513/1/6
f 511/1/6 512/1/6 516/1/6
f 513/1/6 514/1/6 516/1/6
f 512/1/6 513/1/6 516/1/6
f 516/1/6 514/1/6 517/1/6
f 517/1/6 514/1/6 518/1/6
f 518/1/6 514/1/6 519/1/6
f 515/1/6 516/1/6 522/1/6
f 516/1/6 517/1/6 522/1/6
f 522/1/6 517/1/6 523/1/6
f 523/1/6 517/1/6 524/1/6
f 518/1/6 519/1/6 525/1/6
f 519/1/6 520/1/6 525/1/6
f 525/1/6 520/1/6 526/1/6
f 526/1/6 520/1/6 527/1/6
f 522/1/6 523/1/6 529/1/6
f 521/1/6 522/1/6 529/1/6
f 529/1/6 523/1/6 530/1/6
f 527/1/6 528/1/6 531/1/6
f 526/1/6 527/1/6 531/1/6
f 531/1/6 528/1/6 532/1/6
f 521/1/6 529/1/6 534/1/6
f 534/1/6 529/1/6 535/1/6
f 535/1/6 529/1/6 536/1/6
f 532/1/6 528/1/6 537/1/6
f 537/1/6 528/1/6 538/1/6
f 538/1/6 528/1/6 539/1/6
f 533/1/6 534/1/6 542/1/6
f 534/1/6 535/1/6 542/1/6
f 539/1/6 540/1/6 543/1/6
f 538/1/6 539/1/6 543/1/6
f 541/1/6 542/1/6 545/1/6
f 542/1/6 535/1/6 545/1/6
f 545/1/6 535/1/6 546/1/6
f 543/1/6 544/1/6 547/1/6
f 538/1/6 543/1/6 547/1/6
f 547/1/6 544/1/6 548/1/6
f 541/1/6 545/1/6 549/1/6
f 549/1/6 545/1/6 550/1/6
f 548/1/6 544/1/6 551/1/6
f 551/1/6 544/1/6 552/1/6
f 541/1/6 549/1/6 554/1/6
f 552/1/6 544/1/6 555/1/6
f 553/1/6 554/1/6 557/1/6
f 554/1/6 549/1/6 557/1/6
f 557/1/6 549/1/6 558/1/6
f 555/1/6 556/1/6 559/1/6
f 552/1/6 555/1/6 559/1/6
f 559/1/6 556/1/6 560/1/6
f 561/1/6 562/1/6 566/1/6
f 566/1/6 562/1/6 567/1/6
f 563/1/6 564/1/6 570/1/6
f 570/1/6 564/1/6 571/1/6
f 553/1/6 557/1/6 573/1/6
f 567/1/6 568/1/6 574/1/6
f 565/1/6 566/1/6 574/1/6
f 566/1/6 567/1/6 574/1/6
f 574/1/6 568/1/6 575/1/6
f 571/1/6 572/1/6 576/1/6
f 570/1/6 571/1/6 576/1/6
f 569/1/6 570/1/6 576/1/6
f 576/1/6 572/1/6 577/1/6
f 560/1/6 556/1/6 578/1/6
f 576/1/6 577/1/6 579/1/6
f 577/1/6 578/1/6 579/1/6
f 574/1/6 575/1/6 579/1/6
f 553/1/6 573/1/6 579/1/6
f 575/1/6 576/1/6 579/1/6
f 573/1/6 574/1/6 579/1/6
f 579/1/6 578/1/6 580/1/6
f 580/1/6 578/1/6 581/1/6
f 578/1/6 556/1/6 582/1/6
f 581/1/6 578/1/6 582/1/6
f 553/1/6 579/1/6 583/1/6
f 583/1/6 579/1/6 584/1/6
f 580/1/6 581/1/6 585/1/6
f 585/1/6 581/1/6 586/1/6
f 586/1/6 581/1/6 587/1/6
f 587/1/6 581/1/6 588/1/6
f 582/1/6 556/1/6 589/1/6
f 589/1/6 556/1/6 590/1/6
f 553/1/6 583/1/6 591/1/6
f 591/1/6 583/1/6 592/1/6
f 586/1/6 587/1/6 593/1/6
f 593/1/6 587/1/6 594/1/6
f 594/1/6 587/1/6 595/1/6
f 595/1/6 587/1/6 596/1/6
f 590/1/6 556/1/6 597/1/6
f 597/1/6 556/1/6 598/1/6
f 594/1/6 595/1/6 599/1/6
f 599/1/6 595/1/6 600/1/6
f 601/2/6 602/2/6 604/2/6
f 604/2/6 602/2/6 605/2/6
f 603/2/6 604/2/6 608/2/6
f 605/2/6 606/2/6 608/2/6
f 604/2/6 605/2/6 608/2/6
f 608/2/6 606/2/6 609/2/6
f 609/2/6 606/2/6 610/2/6
f 610/2/6 606/2/6 611/2/6
f 607/2/6 608/2/6 614/2/6
f 608/2/6 609/2/6 614/2/6
f 611/2/6 612/2/6 615/2/6
f 610/2/6 611/2/6 615/2/6
f 613/2/6 614/2/6 617/2/6
f 614/2/6 609/2/6 617/2/6
f 609/3/6 610/3/6 618/3/6
f 617/2/6 609/2/6 618/2/6
f 615/2/6 616/2/6 619/2/6
f 618/3/6 610/3/6 619/3/6
f 610/2/6 615/2/6 619/2/6
f 619/2/6 616/2/6 620/2/6
f 613/2/6 617/2/6 622/2/6
f 617/3/6 618/3/6 623/3/6
f 618/3/6 619/3/6 623/3/6
f 622/2/6 617/2/6 623/2/6
f 619/3/6 620/3/6 623/3/6
f 623/3/6 620/3/6 624/3/6
f 624/3/6 620/3/6 625/3/6
f 620/2/6 616/2/6 626/2/6
f 625/3/6 620/3/6 626/3/6
f 626/2/6 616/2/6 627/2/6
f 621/2/6 622/2/6 630/2/6
f 622/3/6 623/3/6 631/3/6
f 630/2/6 622/2/6 631/2/6
f 623/2/6 624/2/6 632/2/6
f 631/3/6 623/3/6 632/3/6
f 625/2/6 626/2/6 633/2/6
f 626/3/6 627/3/6 633/3/6
f 627/2/6 628/2/6 634/2/6
f 633/3/6 627/3/6 634/3/6
f 634/2/6 628/2/6 635/2/6
f 629/2/6 630/2/6 638/2/6
f 630/2/6 631/2/6 638/2/6
f 631/2/6 632/2/6 638/2/6
f 635/2/6 636/2/6 639/2/6
f 634/2/6 635/2/6 639/2/6
f 633/2/6 634/2/6 639/2/6
f 637/2/6 638/2/6 641/2/6
f 638/2/6 632/2/6 641/2/6
f 632/2/6 624/2/6 642/2/6
f 641/2/6 632/2/6 642/2/6
f 624/3/6 625/3/6 643/3/6
f 642/2/6 624/2/6 643/2/6
f 625/2/6 633/2/6 644/2/6
f 643/3/6 625/3/6 644/3/6
f 639/2/6 640/2/6 644/2/6
f 633/2/6 639/2/6 644/2/6
f 644/2/6 640/2/6 645/2/6
f 645/2/6 640/2/6 646/2/6
f 637/2/6 641/2/6 647/2/6
f 647/2/6 641/2/6 648/2/6
f 642/2/6 643/2/6 649/2/6
f 644/2/6 645/2/6 649/2/6
f 643/2/6 644/2/6 649/2/6
f 649/2/6 645/2/6 650/2/6
f 650/2/6 645/2/6 651/2/6
f 651/2/6 645/2/6 652/2/6
f 646/2/6 640/2/6 653/2/6
f 653/2/6 640/2/6 654/2/6
f 637/2/6 647/2/6 655/2/6
f 655/2/6 647/2/6 656/2/6
f 650/2/6 651/2/6 657/2/6
f 657/2/6 651/2/6 658/2/6
f 654/2/6 640/2/6 659/2/6
f 659/2/6 640/2/6 660/2/6
