# MagicaVoxel @ Ephtracy

# group
o 

# material
mtllib Objetos-7.mtl
usemtl palette

# normals
vn -1 0 0
vn 1 0 0
vn 0 0 1
vn 0 0 -1
vn 0 -1 0
vn 0 1 0

# texcoords
vt 0.0136719 0.5
vt 0.990234 0.5

# verts
v 6.1 0 0.4
v 6.1 0 -0.2
v 6.1 0.1 0.4
v 6.1 0.1 -0.2
v 6.2 0 0.7
v 6.2 0 0.4
v 6.2 0.1 0.7
v 6.2 0.1 0.4
v 6.3 0 0.8
v 6.3 0 0.7
v 6.3 0 -0.2
v 6.3 0 -0.3
v 6.3 0.1 0.8
v 6.3 0.1 0.7
v 6.3 0.1 0.3
v 6.3 0.1 0.1
v 6.3 0.1 -0.2
v 6.3 0.1 -0.3
v 6.3 0.2 0.3
v 6.3 0.2 0.1
v 6.4 0 1
v 6.4 0 0.8
v 6.4 0 -0.3
v 6.4 0 -0.4
v 6.4 0.1 1
v 6.4 0.1 0.8
v 6.4 0.1 0.5
v 6.4 0.1 0.3
v 6.4 0.1 0.1
v 6.4 0.1 0
v 6.4 0.1 -0.3
v 6.4 0.1 -0.4
v 6.4 0.2 0.5
v 6.4 0.2 0.3
v 6.4 0.2 0.1
v 6.4 0.2 0
v 6.5 0 1.1
v 6.5 0 1
v 6.5 0.1 1.1
v 6.5 0.1 1
v 6.5 0.1 0.6
v 6.5 0.1 0.5
v 6.5 0.1 0
v 6.5 0.1 -0.1
v 6.5 0.2 0.6
v 6.5 0.2 0.5
v 6.5 0.2 0
v 6.5 0.2 -0.1
v 6.6 0 1.2
v 6.6 0 1.1
v 6.6 0.1 1.2
v 6.6 0.1 1.1
v 6.6 0.1 0.8
v 6.6 0.1 0.6
v 6.6 0.2 0.8
v 6.6 0.2 0.6
v 6.7 0 1.3
v 6.7 0 1.2
v 6.7 0 -0.4
v 6.7 0 -0.5
v 6.7 0.1 1.3
v 6.7 0.1 1.2
v 6.7 0.1 0.9
v 6.7 0.1 0.8
v 6.7 0.1 -0.4
v 6.7 0.1 -0.5
v 6.7 0.2 0.9
v 6.7 0.2 0.8
v 6.8 0 1.4
v 6.8 0 1.3
v 6.8 0 -0.5
v 6.8 0 -0.6
v 6.8 0.1 1.4
v 6.8 0.1 1.3
v 6.8 0.1 1
v 6.8 0.1 0.9
v 6.8 0.1 -0.1
v 6.8 0.1 -0.2
v 6.8 0.1 -0.5
v 6.8 0.1 -0.6
v 6.8 0.2 1
v 6.8 0.2 0.9
v 6.8 0.2 -0.1
v 6.8 0.2 -0.2
v 6.9 0 1.5
v 6.9 0 1.4
v 6.9 0 -0.6
v 6.9 0 -0.7
v 6.9 0.1 1.5
v 6.9 0.1 1.4
v 6.9 0.1 1.1
v 6.9 0.1 1
v 6.9 0.1 -0.2
v 6.9 0.1 -0.3
v 6.9 0.1 -0.6
v 6.9 0.1 -0.7
v 6.9 0.2 1.1
v 6.9 0.2 1
v 6.9 0.2 -0.2
v 6.9 0.2 -0.3
v 7 0 1.5
v 7 0 1.4
v 7 0 -0.6
v 7 0 -0.7
v 7 0.1 1.5
v 7 0.1 1.4
v 7 0.1 1.1
v 7 0.1 1
v 7 0.1 -0.2
v 7 0.1 -0.3
v 7 0.1 -0.6
v 7 0.1 -0.7
v 7 0.2 1.1
v 7 0.2 1
v 7 0.2 -0.2
v 7 0.2 -0.3
v 7.1 0 1.4
v 7.1 0 1.3
v 7.1 0 -0.5
v 7.1 0 -0.6
v 7.1 0.1 1.4
v 7.1 0.1 1.3
v 7.1 0.1 1
v 7.1 0.1 0.9
v 7.1 0.1 -0.1
v 7.1 0.1 -0.2
v 7.1 0.1 -0.5
v 7.1 0.1 -0.6
v 7.1 0.2 1
v 7.1 0.2 0.9
v 7.1 0.2 -0.1
v 7.1 0.2 -0.2
v 7.2 0 1.3
v 7.2 0 1.2
v 7.2 0 -0.4
v 7.2 0 -0.5
v 7.2 0.1 1.3
v 7.2 0.1 1.2
v 7.2 0.1 0.9
v 7.2 0.1 0.8
v 7.2 0.1 -0.4
v 7.2 0.1 -0.5
v 7.2 0.2 0.9
v 7.2 0.2 0.8
v 7.3 0 1.2
v 7.3 0 1.1
v 7.3 0.1 1.2
v 7.3 0.1 1.1
v 7.3 0.1 0.8
v 7.3 0.1 0.6
v 7.3 0.2 0.8
v 7.3 0.2 0.6
v 7.4 0 1.1
v 7.4 0 1
v 7.4 0.1 1.1
v 7.4 0.1 1
v 7.4 0.1 0.6
v 7.4 0.1 0.5
v 7.4 0.1 0
v 7.4 0.1 -0.1
v 7.4 0.2 0.6
v 7.4 0.2 0.5
v 7.4 0.2 0
v 7.4 0.2 -0.1
v 7.5 0 1
v 7.5 0 0.8
v 7.5 0 -0.3
v 7.5 0 -0.4
v 7.5 0.1 1
v 7.5 0.1 0.8
v 7.5 0.1 0.5
v 7.5 0.1 0.3
v 7.5 0.1 0.1
v 7.5 0.1 0
v 7.5 0.1 -0.3
v 7.5 0.1 -0.4
v 7.5 0.2 0.5
v 7.5 0.2 0.3
v 7.5 0.2 0.1
v 7.5 0.2 0
v 7.6 0 0.8
v 7.6 0 0.7
v 7.6 0 -0.2
v 7.6 0 -0.3
v 7.6 0.1 0.8
v 7.6 0.1 0.7
v 7.6 0.1 0.3
v 7.6 0.1 0.1
v 7.6 0.1 -0.2
v 7.6 0.1 -0.3
v 7.6 0.2 0.3
v 7.6 0.2 0.1
v 7.7 0 0.7
v 7.7 0 0.4
v 7.7 0.1 0.7
v 7.7 0.1 0.4
v 7.8 0 0.4
v 7.8 0 -0.2
v 7.8 0.1 0.4
v 7.8 0.1 -0.2
v 6.9 0 1.5
v 6.9 0.1 1.5
v 7 0 1.5
v 7 0.1 1.5
v 6.8 0 1.4
v 6.8 0.1 1.4
v 6.9 0 1.4
v 6.9 0.1 1.4
v 7 0 1.4
v 7 0.1 1.4
v 7.1 0 1.4
v 7.1 0.1 1.4
v 6.7 0 1.3
v 6.7 0.1 1.3
v 6.8 0 1.3
v 6.8 0.1 1.3
v 7.1 0 1.3
v 7.1 0.1 1.3
v 7.2 0 1.3
v 7.2 0.1 1.3
v 6.6 0 1.2
v 6.6 0.1 1.2
v 6.7 0 1.2
v 6.7 0.1 1.2
v 7.2 0 1.2
v 7.2 0.1 1.2
v 7.3 0 1.2
v 7.3 0.1 1.2
v 6.5 0 1.1
v 6.5 0.1 1.1
v 6.6 0 1.1
v 6.6 0.1 1.1
v 6.9 0.1 1.1
v 6.9 0.2 1.1
v 7 0.1 1.1
v 7 0.2 1.1
v 7.3 0 1.1
v 7.3 0.1 1.1
v 7.4 0 1.1
v 7.4 0.1 1.1
v 6.4 0 1
v 6.4 0.1 1
v 6.5 0 1
v 6.5 0.1 1
v 6.8 0.1 1
v 6.8 0.2 1
v 6.9 0.1 1
v 6.9 0.2 1
v 7 0.1 1
v 7 0.2 1
v 7.1 0.1 1
v 7.1 0.2 1
v 7.4 0 1
v 7.4 0.1 1
v 7.5 0 1
v 7.5 0.1 1
v 6.7 0.1 0.9
v 6.7 0.2 0.9
v 6.8 0.1 0.9
v 6.8 0.2 0.9
v 7.1 0.1 0.9
v 7.1 0.2 0.9
v 7.2 0.1 0.9
v 7.2 0.2 0.9
v 6.3 0 0.8
v 6.3 0.1 0.8
v 6.4 0 0.8
v 6.4 0.1 0.8
v 6.6 0.1 0.8
v 6.6 0.2 0.8
v 6.7 0.1 0.8
v 6.7 0.2 0.8
v 7.2 0.1 0.8
v 7.2 0.2 0.8
v 7.3 0.1 0.8
v 7.3 0.2 0.8
v 7.5 0 0.8
v 7.5 0.1 0.8
v 7.6 0 0.8
v 7.6 0.1 0.8
v 6.2 0 0.7
v 6.2 0.1 0.7
v 6.3 0 0.7
v 6.3 0.1 0.7
v 7.6 0 0.7
v 7.6 0.1 0.7
v 7.7 0 0.7
v 7.7 0.1 0.7
v 6.5 0.1 0.6
v 6.5 0.2 0.6
v 6.6 0.1 0.6
v 6.6 0.2 0.6
v 7.3 0.1 0.6
v 7.3 0.2 0.6
v 7.4 0.1 0.6
v 7.4 0.2 0.6
v 6.4 0.1 0.5
v 6.4 0.2 0.5
v 6.5 0.1 0.5
v 6.5 0.2 0.5
v 7.4 0.1 0.5
v 7.4 0.2 0.5
v 7.5 0.1 0.5
v 7.5 0.2 0.5
v 6.1 0 0.4
v 6.1 0.1 0.4
v 6.2 0 0.4
v 6.2 0.1 0.4
v 7.7 0 0.4
v 7.7 0.1 0.4
v 7.8 0 0.4
v 7.8 0.1 0.4
v 6.3 0.1 0.3
v 6.3 0.2 0.3
v 6.4 0.1 0.3
v 6.4 0.2 0.3
v 7.5 0.1 0.3
v 7.5 0.2 0.3
v 7.6 0.1 0.3
v 7.6 0.2 0.3
v 6.3 0.1 0.1
v 6.3 0.2 0.1
v 6.4 0.1 0.1
v 6.4 0.2 0.1
v 7.5 0.1 0.1
v 7.5 0.2 0.1
v 7.6 0.1 0.1
v 7.6 0.2 0.1
v 6.4 0.1 0
v 6.4 0.2 0
v 6.5 0.1 0
v 6.5 0.2 0
v 7.4 0.1 0
v 7.4 0.2 0
v 7.5 0.1 0
v 7.5 0.2 0
v 6.5 0.1 -0.1
v 6.5 0.2 -0.1
v 6.8 0.1 -0.1
v 6.8 0.2 -0.1
v 7.1 0.1 -0.1
v 7.1 0.2 -0.1
v 7.4 0.1 -0.1
v 7.4 0.2 -0.1
v 6.1 0 -0.2
v 6.1 0.1 -0.2
v 6.3 0 -0.2
v 6.3 0.1 -0.2
v 6.8 0.1 -0.2
v 6.8 0.2 -0.2
v 6.9 0.1 -0.2
v 6.9 0.2 -0.2
v 7 0.1 -0.2
v 7 0.2 -0.2
v 7.1 0.1 -0.2
v 7.1 0.2 -0.2
v 7.6 0 -0.2
v 7.6 0.1 -0.2
v 7.8 0 -0.2
v 7.8 0.1 -0.2
v 6.3 0 -0.3
v 6.3 0.1 -0.3
v 6.4 0 -0.3
v 6.4 0.1 -0.3
v 6.9 0.1 -0.3
v 6.9 0.2 -0.3
v 7 0.1 -0.3
v 7 0.2 -0.3
v 7.5 0 -0.3
v 7.5 0.1 -0.3
v 7.6 0 -0.3
v 7.6 0.1 -0.3
v 6.4 0 -0.4
v 6.4 0.1 -0.4
v 6.7 0 -0.4
v 6.7 0.1 -0.4
v 7.2 0 -0.4
v 7.2 0.1 -0.4
v 7.5 0 -0.4
v 7.5 0.1 -0.4
v 6.7 0 -0.5
v 6.7 0.1 -0.5
v 6.8 0 -0.5
v 6.8 0.1 -0.5
v 7.1 0 -0.5
v 7.1 0.1 -0.5
v 7.2 0 -0.5
v 7.2 0.1 -0.5
v 6.8 0 -0.6
v 6.8 0.1 -0.6
v 6.9 0 -0.6
v 6.9 0.1 -0.6
v 7 0 -0.6
v 7 0.1 -0.6
v 7.1 0 -0.6
v 7.1 0.1 -0.6
v 6.9 0 -0.7
v 6.9 0.1 -0.7
v 7 0 -0.7
v 7 0.1 -0.7
v 6.9 0 1.5
v 7 0 1.5
v 6.8 0 1.4
v 6.9 0 1.4
v 7 0 1.4
v 7.1 0 1.4
v 6.7 0 1.3
v 6.8 0 1.3
v 7.1 0 1.3
v 7.2 0 1.3
v 6.6 0 1.2
v 6.7 0 1.2
v 7.2 0 1.2
v 7.3 0 1.2
v 6.5 0 1.1
v 6.6 0 1.1
v 7.3 0 1.1
v 7.4 0 1.1
v 6.4 0 1
v 6.5 0 1
v 7.4 0 1
v 7.5 0 1
v 6.3 0 0.8
v 6.4 0 0.8
v 7.5 0 0.8
v 7.6 0 0.8
v 6.2 0 0.7
v 6.3 0 0.7
v 7.6 0 0.7
v 7.7 0 0.7
v 6.1 0 0.4
v 6.2 0 0.4
v 7.7 0 0.4
v 7.8 0 0.4
v 6.1 0 -0.2
v 6.3 0 -0.2
v 7.6 0 -0.2
v 7.8 0 -0.2
v 6.3 0 -0.3
v 6.4 0 -0.3
v 7.5 0 -0.3
v 7.6 0 -0.3
v 6.4 0 -0.4
v 6.7 0 -0.4
v 7.2 0 -0.4
v 7.5 0 -0.4
v 6.7 0 -0.5
v 6.8 0 -0.5
v 7.1 0 -0.5
v 7.2 0 -0.5
v 6.8 0 -0.6
v 6.9 0 -0.6
v 7 0 -0.6
v 7.1 0 -0.6
v 6.9 0 -0.7
v 7 0 -0.7
v 6.9 0.1 1.5
v 7 0.1 1.5
v 6.8 0.1 1.4
v 6.9 0.1 1.4
v 7 0.1 1.4
v 7.1 0.1 1.4
v 6.7 0.1 1.3
v 6.8 0.1 1.3
v 7.1 0.1 1.3
v 7.2 0.1 1.3
v 6.6 0.1 1.2
v 6.7 0.1 1.2
v 7.2 0.1 1.2
v 7.3 0.1 1.2
v 6.5 0.1 1.1
v 6.6 0.1 1.1
v 6.9 0.1 1.1
v 7 0.1 1.1
v 7.3 0.1 1.1
v 7.4 0.1 1.1
v 6.4 0.1 1
v 6.5 0.1 1
v 6.8 0.1 1
v 6.9 0.1 1
v 7 0.1 1
v 7.1 0.1 1
v 7.4 0.1 1
v 7.5 0.1 1
v 6.7 0.1 0.9
v 6.8 0.1 0.9
v 7.1 0.1 0.9
v 7.2 0.1 0.9
v 6.3 0.1 0.8
v 6.4 0.1 0.8
v 6.6 0.1 0.8
v 6.7 0.1 0.8
v 7.2 0.1 0.8
v 7.3 0.1 0.8
v 7.5 0.1 0.8
v 7.6 0.1 0.8
v 6.2 0.1 0.7
v 6.3 0.1 0.7
v 7.6 0.1 0.7
v 7.7 0.1 0.7
v 6.5 0.1 0.6
v 6.6 0.1 0.6
v 7.3 0.1 0.6
v 7.4 0.1 0.6
v 6.4 0.1 0.5
v 6.5 0.1 0.5
v 7.4 0.1 0.5
v 7.5 0.1 0.5
v 6.1 0.1 0.4
v 6.2 0.1 0.4
v 7.7 0.1 0.4
v 7.8 0.1 0.4
v 6.3 0.1 0.3
v 6.4 0.1 0.3
v 7.5 0.1 0.3
v 7.6 0.1 0.3
v 6.3 0.1 0.1
v 6.4 0.1 0.1
v 7.5 0.1 0.1
v 7.6 0.1 0.1
v 6.4 0.1 0
v 6.5 0.1 0
v 7.4 0.1 0
v 7.5 0.1 0
v 6.5 0.1 -0.1
v 6.8 0.1 -0.1
v 7.1 0.1 -0.1
v 7.4 0.1 -0.1
v 6.1 0.1 -0.2
v 6.3 0.1 -0.2
v 6.8 0.1 -0.2
v 6.9 0.1 -0.2
v 7 0.1 -0.2
v 7.1 0.1 -0.2
v 7.6 0.1 -0.2
v 7.8 0.1 -0.2
v 6.3 0.1 -0.3
v 6.4 0.1 -0.3
v 6.9 0.1 -0.3
v 7 0.1 -0.3
v 7.5 0.1 -0.3
v 7.6 0.1 -0.3
v 6.4 0.1 -0.4
v 6.7 0.1 -0.4
v 7.2 0.1 -0.4
v 7.5 0.1 -0.4
v 6.7 0.1 -0.5
v 6.8 0.1 -0.5
v 7.1 0.1 -0.5
v 7.2 0.1 -0.5
v 6.8 0.1 -0.6
v 6.9 0.1 -0.6
v 7 0.1 -0.6
v 7.1 0.1 -0.6
v 6.9 0.1 -0.7
v 7 0.1 -0.7
v 6.9 0.2 1.1
v 7 0.2 1.1
v 6.8 0.2 1
v 6.9 0.2 1
v 7 0.2 1
v 7.1 0.2 1
v 6.7 0.2 0.9
v 6.8 0.2 0.9
v 7.1 0.2 0.9
v 7.2 0.2 0.9
v 6.6 0.2 0.8
v 6.7 0.2 0.8
v 6.9 0.2 0.8
v 7 0.2 0.8
v 7.2 0.2 0.8
v 7.3 0.2 0.8
v 6.8 0.2 0.7
v 6.9 0.2 0.7
v 7 0.2 0.7
v 7.1 0.2 0.7
v 6.5 0.2 0.6
v 6.6 0.2 0.6
v 6.7 0.2 0.6
v 6.8 0.2 0.6
v 7.1 0.2 0.6
v 7.2 0.2 0.6
v 7.3 0.2 0.6
v 7.4 0.2 0.6
v 6.4 0.2 0.5
v 6.5 0.2 0.5
v 7.4 0.2 0.5
v 7.5 0.2 0.5
v 6.6 0.2 0.4
v 6.7 0.2 0.4
v 7.2 0.2 0.4
v 7.3 0.2 0.4
v 6.3 0.2 0.3
v 6.4 0.2 0.3
v 7.5 0.2 0.3
v 7.6 0.2 0.3
v 6.6 0.2 0.2
v 6.7 0.2 0.2
v 7.2 0.2 0.2
v 7.3 0.2 0.2
v 6.3 0.2 0.1
v 6.4 0.2 0.1
v 6.7 0.2 0.1
v 6.9 0.2 0.1
v 7 0.2 0.1
v 7.2 0.2 0.1
v 7.5 0.2 0.1
v 7.6 0.2 0.1
v 6.4 0.2 0
v 6.5 0.2 0
v 6.9 0.2 0
v 7 0.2 0
v 7.4 0.2 0
v 7.5 0.2 0
v 6.5 0.2 -0.1
v 6.8 0.2 -0.1
v 7.1 0.2 -0.1
v 7.4 0.2 -0.1
v 6.8 0.2 -0.2
v 6.9 0.2 -0.2
v 7 0.2 -0.2
v 7.1 0.2 -0.2
v 6.9 0.2 -0.3
v 7 0.2 -0.3

# faces
f 3/2/1 2/2/1 1/2/1
f 4/2/1 2/2/1 3/2/1
f 7/2/1 6/2/1 5/2/1
f 8/2/1 6/2/1 7/2/1
f 13/2/1 10/2/1 9/2/1
f 14/2/1 10/2/1 13/2/1
f 17/2/1 12/2/1 11/2/1
f 18/2/1 12/2/1 17/2/1
f 19/1/1 16/1/1 15/1/1
f 20/1/1 16/1/1 19/1/1
f 25/2/1 22/2/1 21/2/1
f 26/2/1 22/2/1 25/2/1
f 31/2/1 24/2/1 23/2/1
f 32/2/1 24/2/1 31/2/1
f 33/1/1 28/1/1 27/1/1
f 34/1/1 28/1/1 33/1/1
f 35/1/1 30/1/1 29/1/1
f 36/1/1 30/1/1 35/1/1
f 39/2/1 38/2/1 37/2/1
f 40/2/1 38/2/1 39/2/1
f 45/1/1 42/1/1 41/1/1
f 46/1/1 42/1/1 45/1/1
f 47/1/1 44/1/1 43/1/1
f 48/1/1 44/1/1 47/1/1
f 51/2/1 50/2/1 49/2/1
f 52/2/1 50/2/1 51/2/1
f 55/1/1 54/1/1 53/1/1
f 56/1/1 54/1/1 55/1/1
f 61/2/1 58/2/1 57/2/1
f 62/2/1 58/2/1 61/2/1
f 65/2/1 60/2/1 59/2/1
f 66/2/1 60/2/1 65/2/1
f 67/1/1 64/1/1 63/1/1
f 68/1/1 64/1/1 67/1/1
f 73/2/1 70/2/1 69/2/1
f 74/2/1 70/2/1 73/2/1
f 79/2/1 72/2/1 71/2/1
f 80/2/1 72/2/1 79/2/1
f 81/1/1 76/1/1 75/1/1
f 82/1/1 76/1/1 81/1/1
f 83/1/1 78/1/1 77/1/1
f 84/1/1 78/1/1 83/1/1
f 89/2/1 86/2/1 85/2/1
f 90/2/1 86/2/1 89/2/1
f 95/2/1 88/2/1 87/2/1
f 96/2/1 88/2/1 95/2/1
f 97/1/1 92/1/1 91/1/1
f 98/1/1 92/1/1 97/1/1
f 99/1/1 94/1/1 93/1/1
f 100/1/1 94/1/1 99/1/1
f 101/2/2 102/2/2 105/2/2
f 105/2/2 102/2/2 106/2/2
f 103/2/2 104/2/2 111/2/2
f 111/2/2 104/2/2 112/2/2
f 107/1/2 108/1/2 113/1/2
f 113/1/2 108/1/2 114/1/2
f 109/1/2 110/1/2 115/1/2
f 115/1/2 110/1/2 116/1/2
f 117/2/2 118/2/2 121/2/2
f 121/2/2 118/2/2 122/2/2
f 119/2/2 120/2/2 127/2/2
f 127/2/2 120/2/2 128/2/2
f 123/1/2 124/1/2 129/1/2
f 129/1/2 124/1/2 130/1/2
f 125/1/2 126/1/2 131/1/2
f 131/1/2 126/1/2 132/1/2
f 133/2/2 134/2/2 137/2/2
f 137/2/2 134/2/2 138/2/2
f 135/2/2 136/2/2 141/2/2
f 141/2/2 136/2/2 142/2/2
f 139/1/2 140/1/2 143/1/2
f 143/1/2 140/1/2 144/1/2
f 145/2/2 146/2/2 147/2/2
f 147/2/2 146/2/2 148/2/2
f 149/1/2 150/1/2 151/1/2
f 151/1/2 150/1/2 152/1/2
f 153/2/2 154/2/2 155/2/2
f 155/2/2 154/2/2 156/2/2
f 157/1/2 158/1/2 161/1/2
f 161/1/2 158/1/2 162/1/2
f 159/1/2 160/1/2 163/1/2
f 163/1/2 160/1/2 164/1/2
f 165/2/2 166/2/2 169/2/2
f 169/2/2 166/2/2 170/2/2
f 167/2/2 168/2/2 175/2/2
f 175/2/2 168/2/2 176/2/2
f 171/1/2 172/1/2 177/1/2
f 177/1/2 172/1/2 178/1/2
f 173/1/2 174/1/2 179/1/2
f 179/1/2 174/1/2 180/1/2
f 181/2/2 182/2/2 185/2/2
f 185/2/2 182/2/2 186/2/2
f 183/2/2 184/2/2 189/2/2
f 189/2/2 184/2/2 190/2/2
f 187/1/2 188/1/2 191/1/2
f 191/1/2 188/1/2 192/1/2
f 193/2/2 194/2/2 195/2/2
f 195/2/2 194/2/2 196/2/2
f 197/2/2 198/2/2 199/2/2
f 199/2/2 198/2/2 200/2/2
f 203/2/3 202/2/3 201/2/3
f 204/2/3 202/2/3 203/2/3
f 207/2/3 206/2/3 205/2/3
f 208/2/3 206/2/3 207/2/3
f 211/2/3 210/2/3 209/2/3
f 212/2/3 210/2/3 211/2/3
f 215/2/3 214/2/3 213/2/3
f 216/2/3 214/2/3 215/2/3
f 219/2/3 218/2/3 217/2/3
f 220/2/3 218/2/3 219/2/3
f 223/2/3 222/2/3 221/2/3
f 224/2/3 222/2/3 223/2/3
f 227/2/3 226/2/3 225/2/3
f 228/2/3 226/2/3 227/2/3
f 231/2/3 230/2/3 229/2/3
f 232/2/3 230/2/3 231/2/3
f 235/1/3 234/1/3 233/1/3
f 236/1/3 234/1/3 235/1/3
f 239/2/3 238/2/3 237/2/3
f 240/2/3 238/2/3 239/2/3
f 243/2/3 242/2/3 241/2/3
f 244/2/3 242/2/3 243/2/3
f 247/1/3 246/1/3 245/1/3
f 248/1/3 246/1/3 247/1/3
f 251/1/3 250/1/3 249/1/3
f 252/1/3 250/1/3 251/1/3
f 255/2/3 254/2/3 253/2/3
f 256/2/3 254/2/3 255/2/3
f 259/1/3 258/1/3 257/1/3
f 260/1/3 258/1/3 259/1/3
f 263/1/3 262/1/3 261/1/3
f 264/1/3 262/1/3 263/1/3
f 267/2/3 266/2/3 265/2/3
f 268/2/3 266/2/3 267/2/3
f 271/1/3 270/1/3 269/1/3
f 272/1/3 270/1/3 271/1/3
f 275/1/3 274/1/3 273/1/3
f 276/1/3 274/1/3 275/1/3
f 279/2/3 278/2/3 277/2/3
f 280/2/3 278/2/3 279/2/3
f 283/2/3 282/2/3 281/2/3
f 284/2/3 282/2/3 283/2/3
f 287/2/3 286/2/3 285/2/3
f 288/2/3 286/2/3 287/2/3
f 291/1/3 290/1/3 289/1/3
f 292/1/3 290/1/3 291/1/3
f 295/1/3 294/1/3 293/1/3
f 296/1/3 294/1/3 295/1/3
f 299/1/3 298/1/3 297/1/3
f 300/1/3 298/1/3 299/1/3
f 303/1/3 302/1/3 301/1/3
f 304/1/3 302/1/3 303/1/3
f 307/2/3 306/2/3 305/2/3
f 308/2/3 306/2/3 307/2/3
f 311/2/3 310/2/3 309/2/3
f 312/2/3 310/2/3 311/2/3
f 315/1/3 314/1/3 313/1/3
f 316/1/3 314/1/3 315/1/3
f 319/1/3 318/1/3 317/1/3
f 320/1/3 318/1/3 319/1/3
f 321/1/4 322/1/4 323/1/4
f 323/1/4 322/1/4 324/1/4
f 325/1/4 326/1/4 327/1/4
f 327/1/4 326/1/4 328/1/4
f 329/1/4 330/1/4 331/1/4
f 331/1/4 330/1/4 332/1/4
f 333/1/4 334/1/4 335/1/4
f 335/1/4 334/1/4 336/1/4
f 337/1/4 338/1/4 339/1/4
f 339/1/4 338/1/4 340/1/4
f 341/1/4 342/1/4 343/1/4
f 343/1/4 342/1/4 344/1/4
f 345/2/4 346/2/4 347/2/4
f 347/2/4 346/2/4 348/2/4
f 349/1/4 350/1/4 351/1/4
f 351/1/4 350/1/4 352/1/4
f 353/1/4 354/1/4 355/1/4
f 355/1/4 354/1/4 356/1/4
f 357/2/4 358/2/4 359/2/4
f 359/2/4 358/2/4 360/2/4
f 361/2/4 362/2/4 363/2/4
f 363/2/4 362/2/4 364/2/4
f 365/1/4 366/1/4 367/1/4
f 367/1/4 366/1/4 368/1/4
f 369/2/4 370/2/4 371/2/4
f 371/2/4 370/2/4 372/2/4
f 373/2/4 374/2/4 375/2/4
f 375/2/4 374/2/4 376/2/4
f 377/2/4 378/2/4 379/2/4
f 379/2/4 378/2/4 380/2/4
f 381/2/4 382/2/4 383/2/4
f 383/2/4 382/2/4 384/2/4
f 385/2/4 386/2/4 387/2/4
f 387/2/4 386/2/4 388/2/4
f 389/2/4 390/2/4 391/2/4
f 391/2/4 390/2/4 392/2/4
f 393/2/4 394/2/4 395/2/4
f 395/2/4 394/2/4 396/2/4
f 397/2/4 398/2/4 399/2/4
f 399/2/4 398/2/4 400/2/4
f 404/2/5 402/2/5 401/2/5
f 405/2/5 402/2/5 404/2/5
f 408/2/5 404/2/5 403/2/5
f 408/2/5 406/2/5 405/2/5
f 408/2/5 405/2/5 404/2/5
f 409/2/5 406/2/5 408/2/5
f 412/2/5 408/2/5 407/2/5
f 412/2/5 410/2/5 409/2/5
f 412/2/5 409/2/5 408/2/5
f 413/2/5 410/2/5 412/2/5
f 416/2/5 412/2/5 411/2/5
f 416/2/5 414/2/5 413/2/5
f 416/2/5 413/2/5 412/2/5
f 417/2/5 414/2/5 416/2/5
f 420/2/5 416/2/5 415/2/5
f 420/2/5 418/2/5 417/2/5
f 420/2/5 417/2/5 416/2/5
f 421/2/5 418/2/5 420/2/5
f 424/2/5 420/2/5 419/2/5
f 424/2/5 422/2/5 421/2/5
f 424/2/5 421/2/5 420/2/5
f 425/2/5 422/2/5 424/2/5
f 428/2/5 424/2/5 423/2/5
f 428/2/5 426/2/5 425/2/5
f 428/2/5 425/2/5 424/2/5
f 429/2/5 426/2/5 428/2/5
f 432/2/5 428/2/5 427/2/5
f 432/2/5 430/2/5 429/2/5
f 432/2/5 429/2/5 428/2/5
f 433/2/5 430/2/5 432/2/5
f 435/2/5 432/2/5 431/2/5
f 435/2/5 434/2/5 433/2/5
f 435/2/5 433/2/5 432/2/5
f 436/2/5 434/2/5 435/2/5
f 437/2/5 434/2/5 436/2/5
f 438/2/5 434/2/5 437/2/5
f 439/2/5 437/2/5 436/2/5
f 440/2/5 437/2/5 439/2/5
f 441/2/5 437/2/5 440/2/5
f 442/2/5 437/2/5 441/2/5
f 443/2/5 441/2/5 440/2/5
f 444/2/5 441/2/5 443/2/5
f 445/2/5 441/2/5 444/2/5
f 446/2/5 441/2/5 445/2/5
f 447/2/5 445/2/5 444/2/5
f 448/2/5 445/2/5 447/2/5
f 449/2/5 445/2/5 448/2/5
f 450/2/5 445/2/5 449/2/5
f 451/2/5 449/2/5 448/2/5
f 452/2/5 449/2/5 451/2/5
f 453/2/5 449/2/5 452/2/5
f 454/2/5 449/2/5 453/2/5
f 455/2/5 453/2/5 452/2/5
f 456/2/5 453/2/5 455/2/5
f 457/2/6 458/2/6 460/2/6
f 460/2/6 458/2/6 461/2/6
f 459/2/6 460/2/6 464/2/6
f 461/2/6 462/2/6 464/2/6
f 460/2/6 461/2/6 464/2/6
f 464/2/6 462/2/6 465/2/6
f 463/2/6 464/2/6 468/2/6
f 465/2/6 466/2/6 468/2/6
f 464/2/6 465/2/6 468/2/6
f 468/2/6 466/2/6 469/2/6
f 467/2/6 468/2/6 472/2/6
f 469/2/6 470/2/6 472/2/6
f 468/2/6 469/2/6 472/2/6
f 472/2/6 470/2/6 473/2/6
f 473/2/6 470/2/6 474/2/6
f 474/2/6 470/2/6 475/2/6
f 471/2/6 472/2/6 478/2/6
f 472/2/6 473/2/6 478/2/6
f 478/2/6 473/2/6 479/2/6
f 479/2/6 473/2/6 480/2/6
f 474/2/6 475/2/6 481/2/6
f 475/2/6 476/2/6 481/2/6
f 481/2/6 476/2/6 482/2/6
f 482/2/6 476/2/6 483/2/6
f 478/2/6 479/2/6 485/2/6
f 477/2/6 478/2/6 485/2/6
f 485/2/6 479/2/6 486/2/6
f 483/2/6 484/2/6 487/2/6
f 482/2/6 483/2/6 487/2/6
f 487/2/6 484/2/6 488/2/6
f 477/2/6 485/2/6 490/2/6
f 490/2/6 485/2/6 491/2/6
f 491/2/6 485/2/6 492/2/6
f 488/2/6 484/2/6 493/2/6
f 493/2/6 484/2/6 494/2/6
f 494/2/6 484/2/6 495/2/6
f 489/2/6 490/2/6 498/2/6
f 490/2/6 491/2/6 498/2/6
f 495/2/6 496/2/6 499/2/6
f 494/2/6 495/2/6 499/2/6
f 497/2/6 498/2/6 501/2/6
f 498/2/6 491/2/6 501/2/6
f 501/2/6 491/2/6 502/2/6
f 499/2/6 500/2/6 503/2/6
f 494/2/6 499/2/6 503/2/6
f 503/2/6 500/2/6 504/2/6
f 497/2/6 501/2/6 505/2/6
f 505/2/6 501/2/6 506/2/6
f 504/2/6 500/2/6 507/2/6
f 507/2/6 500/2/6 508/2/6
f 497/2/6 505/2/6 510/2/6
f 508/2/6 500/2/6 511/2/6
f 509/2/6 510/2/6 513/2/6
f 510/2/6 505/2/6 513/2/6
f 513/2/6 505/2/6 514/2/6
f 511/2/6 512/2/6 515/2/6
f 508/2/6 511/2/6 515/2/6
f 515/2/6 512/2/6 516/2/6
f 509/2/6 513/2/6 517/2/6
f 516/2/6 512/2/6 520/2/6
f 517/2/6 518/2/6 521/2/6
f 519/2/6 520/2/6 524/2/6
f 521/2/6 522/2/6 525/2/6
f 523/2/6 524/2/6 528/2/6
f 525/2/6 526/2/6 529/2/6
f 509/2/6 517/2/6 529/2/6
f 517/2/6 521/2/6 529/2/6
f 521/2/6 525/2/6 529/2/6
f 529/2/6 526/2/6 530/2/6
f 530/2/6 526/2/6 531/2/6
f 527/2/6 528/2/6 534/2/6
f 528/2/6 524/2/6 535/2/6
f 520/2/6 512/2/6 535/2/6
f 534/2/6 528/2/6 535/2/6
f 524/2/6 520/2/6 535/2/6
f 535/2/6 512/2/6 536/2/6
f 531/2/6 532/2/6 537/2/6
f 530/2/6 531/2/6 537/2/6
f 537/2/6 532/2/6 538/2/6
f 538/2/6 532/2/6 539/2/6
f 533/2/6 534/2/6 540/2/6
f 534/2/6 535/2/6 540/2/6
f 540/2/6 535/2/6 541/2/6
f 541/2/6 535/2/6 542/2/6
f 538/2/6 539/2/6 543/2/6
f 540/2/6 541/2/6 543/2/6
f 539/2/6 540/2/6 543/2/6
f 543/2/6 541/2/6 544/2/6
f 544/2/6 541/2/6 545/2/6
f 545/2/6 541/2/6 546/2/6
f 544/2/6 545/2/6 547/2/6
f 547/2/6 545/2/6 548/2/6
f 548/2/6 545/2/6 549/2/6
f 549/2/6 545/2/6 550/2/6
f 548/2/6 549/2/6 551/2/6
f 551/2/6 549/2/6 552/2/6
f 552/2/6 549/2/6 553/2/6
f 553/2/6 549/2/6 554/2/6
f 552/2/6 553/2/6 555/2/6
f 555/2/6 553/2/6 556/2/6
f 557/1/6 558/1/6 560/1/6
f 560/1/6 558/1/6 561/1/6
f 559/1/6 560/1/6 564/1/6
f 561/1/6 562/1/6 564/1/6
f 560/1/6 561/1/6 564/1/6
f 564/1/6 562/1/6 565/1/6
f 563/1/6 564/1/6 568/1/6
f 565/1/6 566/1/6 568/1/6
f 564/1/6 565/1/6 568/1/6
f 568/1/6 566/1/6 569/1/6
f 569/1/6 566/1/6 570/1/6
f 570/1/6 566/1/6 571/1/6
f 567/1/6 568/1/6 573/1/6
f 568/1/6 569/1/6 573/1/6
f 569/2/6 570/2/6 574/2/6
f 573/1/6 569/1/6 574/1/6
f 571/1/6 572/1/6 575/1/6
f 574/2/6 570/2/6 575/2/6
f 570/1/6 571/1/6 575/1/6
f 575/1/6 572/1/6 576/1/6
f 567/1/6 573/1/6 578/1/6
f 578/1/6 573/1/6 579/1/6
f 573/2/6 574/2/6 580/2/6
f 579/1/6 573/1/6 580/1/6
f 574/2/6 575/2/6 580/2/6
f 575/2/6 576/2/6 580/2/6
f 576/1/6 572/1/6 581/1/6
f 580/2/6 576/2/6 581/2/6
f 581/1/6 572/1/6 582/1/6
f 582/1/6 572/1/6 583/1/6
f 578/1/6 579/1/6 586/1/6
f 577/1/6 578/1/6 586/1/6
f 583/1/6 584/1/6 587/1/6
f 582/1/6 583/1/6 587/1/6
f 585/1/6 586/1/6 589/1/6
f 586/1/6 579/1/6 589/1/6
f 579/2/6 580/2/6 590/2/6
f 589/1/6 579/1/6 590/1/6
f 580/2/6 581/2/6 590/2/6
f 581/2/6 582/2/6 590/2/6
f 587/1/6 588/1/6 591/1/6
f 590/2/6 582/2/6 591/2/6
f 582/1/6 587/1/6 591/1/6
f 591/1/6 588/1/6 592/1/6
f 585/1/6 589/1/6 594/1/6
f 592/1/6 588/1/6 595/1/6
f 589/2/6 590/2/6 597/2/6
f 593/1/6 594/1/6 597/1/6
f 590/2/6 591/2/6 597/2/6
f 594/1/6 589/1/6 597/1/6
f 591/2/6 592/2/6 597/2/6
f 597/2/6 592/2/6 598/2/6
f 598/2/6 592/2/6 599/2/6
f 595/1/6 596/1/6 600/1/6
f 599/2/6 592/2/6 600/2/6
f 592/1/6 595/1/6 600/1/6
f 597/1/6 598/1/6 601/1/6
f 593/1/6 597/1/6 601/1/6
f 601/1/6 598/1/6 602/1/6
f 598/2/6 599/2/6 603/2/6
f 602/1/6 598/1/6 603/1/6
f 603/2/6 599/2/6 604/2/6
f 604/2/6 599/2/6 605/2/6
f 599/1/6 600/1/6 606/1/6
f 605/2/6 599/2/6 606/2/6
f 600/1/6 596/1/6 607/1/6
f 606/1/6 600/1/6 607/1/6
f 607/1/6 596/1/6 608/1/6
f 602/1/6 603/1/6 609/1/6
f 603/1/6 604/1/6 609/1/6
f 609/1/6 604/1/6 610/1/6
f 604/2/6 605/2/6 611/2/6
f 610/1/6 604/1/6 611/1/6
f 605/1/6 606/1/6 612/1/6
f 611/2/6 605/2/6 612/2/6
f 606/1/6 607/1/6 612/1/6
f 612/1/6 607/1/6 613/1/6
f 613/1/6 607/1/6 614/1/6
f 610/1/6 611/1/6 615/1/6
f 612/1/6 613/1/6 615/1/6
f 611/1/6 612/1/6 615/1/6
f 615/1/6 613/1/6 616/1/6
f 616/1/6 613/1/6 617/1/6
f 617/1/6 613/1/6 618/1/6
f 616/1/6 617/1/6 619/1/6
f 619/1/6 617/1/6 620/1/6
f 620/1/6 617/1/6 621/1/6
f 621/1/6 617/1/6 622/1/6
f 620/1/6 621/1/6 623/1/6
f 623/1/6 621/1/6 624/1/6
