# MagicaVoxel @ Ephtracy

# group
o 

# material
mtllib Suelo-6.mtl
usemtl palette

# normals
vn -1 0 0
vn 1 0 0
vn 0 0 1
vn 0 0 -1
vn 0 -1 0
vn 0 1 0

# texcoords
vt 0.201172 0.5
vt 0.845703 0.5
vt 0.958984 0.5

# verts
v 5.9 0 0
v 5.9 0 -3.2
v 5.9 0.1 0
v 5.9 0.1 -3.2
v 9.1 0 0
v 9.1 0 -3.2
v 9.1 0.1 0
v 9.1 0.1 -3.2
v 5.9 0 0
v 5.9 0.1 0
v 6.2 0 0
v 6.2 0.1 0
v 6.6 0 0
v 6.6 0.1 0
v 8.4 0 0
v 8.4 0.1 0
v 8.8 0 0
v 8.8 0.1 0
v 9.1 0 0
v 9.1 0.1 0
v 5.9 0 -3.2
v 5.9 0.1 -3.2
v 6.2 0 -3.2
v 6.2 0.1 -3.2
v 6.6 0 -3.2
v 6.6 0.1 -3.2
v 8.4 0 -3.2
v 8.4 0.1 -3.2
v 8.8 0 -3.2
v 8.8 0.1 -3.2
v 9.1 0 -3.2
v 9.1 0.1 -3.2
v 5.9 0 0
v 6.2 0 0
v 6.6 0 0
v 8.4 0 0
v 8.8 0 0
v 9.1 0 0
v 6.2 0 -1.6
v 6.6 0 -1.6
v 8.4 0 -1.6
v 8.8 0 -1.6
v 5.9 0 -3.2
v 6.2 0 -3.2
v 6.6 0 -3.2
v 8.4 0 -3.2
v 8.8 0 -3.2
v 9.1 0 -3.2
v 5.9 0.1 0
v 6.2 0.1 0
v 6.6 0.1 0
v 8.4 0.1 0
v 8.8 0.1 0
v 9.1 0.1 0
v 6.2 0.1 -1.6
v 6.6 0.1 -1.6
v 8.4 0.1 -1.6
v 8.8 0.1 -1.6
v 5.9 0.1 -3.2
v 6.2 0.1 -3.2
v 6.6 0.1 -3.2
v 8.4 0.1 -3.2
v 8.8 0.1 -3.2
v 9.1 0.1 -3.2

# faces
f 3/1/1 2/1/1 1/1/1
f 4/1/1 2/1/1 3/1/1
f 5/1/2 6/1/2 7/1/2
f 7/1/2 6/1/2 8/1/2
f 11/1/3 10/1/3 9/1/3
f 12/1/3 10/1/3 11/1/3
f 13/3/3 12/3/3 11/3/3
f 14/3/3 12/3/3 13/3/3
f 15/2/3 14/2/3 13/2/3
f 16/2/3 14/2/3 15/2/3
f 17/3/3 16/3/3 15/3/3
f 18/3/3 16/3/3 17/3/3
f 19/1/3 18/1/3 17/1/3
f 20/1/3 18/1/3 19/1/3
f 21/1/4 22/1/4 23/1/4
f 23/1/4 22/1/4 24/1/4
f 23/2/4 24/2/4 25/2/4
f 25/2/4 24/2/4 26/2/4
f 25/3/4 26/3/4 27/3/4
f 27/3/4 26/3/4 28/3/4
f 27/2/4 28/2/4 29/2/4
f 29/2/4 28/2/4 30/2/4
f 29/1/4 30/1/4 31/1/4
f 31/1/4 30/1/4 32/1/4
f 39/1/5 34/1/5 33/1/5
f 39/3/5 35/3/5 34/3/5
f 40/2/5 36/2/5 35/2/5
f 40/3/5 35/3/5 39/3/5
f 41/3/5 37/3/5 36/3/5
f 41/2/5 36/2/5 40/2/5
f 42/1/5 38/1/5 37/1/5
f 42/3/5 37/3/5 41/3/5
f 43/1/5 39/1/5 33/1/5
f 44/2/5 40/2/5 39/2/5
f 44/1/5 39/1/5 43/1/5
f 45/3/5 41/3/5 40/3/5
f 45/2/5 40/2/5 44/2/5
f 46/2/5 42/2/5 41/2/5
f 46/3/5 41/3/5 45/3/5
f 47/1/5 38/1/5 42/1/5
f 47/2/5 42/2/5 46/2/5
f 48/1/5 38/1/5 47/1/5
f 49/1/6 50/1/6 55/1/6
f 50/3/6 51/3/6 55/3/6
f 51/2/6 52/2/6 56/2/6
f 55/3/6 51/3/6 56/3/6
f 52/3/6 53/3/6 57/3/6
f 56/2/6 52/2/6 57/2/6
f 53/1/6 54/1/6 58/1/6
f 57/3/6 53/3/6 58/3/6
f 49/1/6 55/1/6 59/1/6
f 55/2/6 56/2/6 60/2/6
f 59/1/6 55/1/6 60/1/6
f 56/3/6 57/3/6 61/3/6
f 60/2/6 56/2/6 61/2/6
f 57/2/6 58/2/6 62/2/6
f 61/3/6 57/3/6 62/3/6
f 58/1/6 54/1/6 63/1/6
f 62/2/6 58/2/6 63/2/6
f 63/1/6 54/1/6 64/1/6
