# MagicaVoxel @ Ephtracy

# group
o 

# material
mtllib Suelo-9.mtl
usemtl palette

# normals
vn -1 0 0
vn 1 0 0
vn 0 0 1
vn 0 0 -1
vn 0 -1 0
vn 0 1 0

# texcoords
vt 0.201172 0.5
vt 0.845703 0.5
vt 0.958984 0.5

# verts
v 5.9 0 9.6
v 5.9 0 6.4
v 5.9 0.1 9.6
v 5.9 0.1 6.4
v 9.1 0 9.6
v 9.1 0 6.4
v 9.1 0.1 9.6
v 9.1 0.1 6.4
v 5.9 0 9.6
v 5.9 0.1 9.6
v 9.1 0 9.6
v 9.1 0.1 9.6
v 5.9 0 6.4
v 5.9 0.1 6.4
v 6.2 0 6.4
v 6.2 0.1 6.4
v 6.6 0 6.4
v 6.6 0.1 6.4
v 8.4 0 6.4
v 8.4 0.1 6.4
v 8.8 0 6.4
v 8.8 0.1 6.4
v 9.1 0 6.4
v 9.1 0.1 6.4
v 5.9 0 9.6
v 9.1 0 9.6
v 6.2 0 9.3
v 8.8 0 9.3
v 6.6 0 7.9
v 8.4 0 7.9
v 5.9 0 6.4
v 6.2 0 6.4
v 6.6 0 6.4
v 8.4 0 6.4
v 8.8 0 6.4
v 9.1 0 6.4
v 5.9 0.1 9.6
v 9.1 0.1 9.6
v 6.2 0.1 9.3
v 8.8 0.1 9.3
v 6.6 0.1 7.9
v 8.4 0.1 7.9
v 5.9 0.1 6.4
v 6.2 0.1 6.4
v 6.6 0.1 6.4
v 8.4 0.1 6.4
v 8.8 0.1 6.4
v 9.1 0.1 6.4

# faces
f 3/1/1 2/1/1 1/1/1
f 4/1/1 2/1/1 3/1/1
f 5/1/2 6/1/2 7/1/2
f 7/1/2 6/1/2 8/1/2
f 11/1/3 10/1/3 9/1/3
f 12/1/3 10/1/3 11/1/3
f 13/1/4 14/1/4 15/1/4
f 15/1/4 14/1/4 16/1/4
f 15/3/4 16/3/4 17/3/4
f 17/3/4 16/3/4 18/3/4
f 17/2/4 18/2/4 19/2/4
f 19/2/4 18/2/4 20/2/4
f 19/3/4 20/3/4 21/3/4
f 21/3/4 20/3/4 22/3/4
f 21/1/4 22/1/4 23/1/4
f 23/1/4 22/1/4 24/1/4
f 27/1/5 26/1/5 25/1/5
f 28/1/5 26/1/5 27/1/5
f 29/3/5 28/3/5 27/3/5
f 30/3/5 28/3/5 29/3/5
f 31/1/5 27/1/5 25/1/5
f 32/3/5 29/3/5 27/3/5
f 32/1/5 27/1/5 31/1/5
f 33/2/5 30/2/5 29/2/5
f 33/3/5 29/3/5 32/3/5
f 34/3/5 28/3/5 30/3/5
f 34/2/5 30/2/5 33/2/5
f 35/1/5 26/1/5 28/1/5
f 35/3/5 28/3/5 34/3/5
f 36/1/5 26/1/5 35/1/5
f 37/1/6 38/1/6 39/1/6
f 39/1/6 38/1/6 40/1/6
f 39/3/6 40/3/6 41/3/6
f 41/3/6 40/3/6 42/3/6
f 37/1/6 39/1/6 43/1/6
f 39/3/6 41/3/6 44/3/6
f 43/1/6 39/1/6 44/1/6
f 41/2/6 42/2/6 45/2/6
f 44/3/6 41/3/6 45/3/6
f 42/3/6 40/3/6 46/3/6
f 45/2/6 42/2/6 46/2/6
f 40/1/6 38/1/6 47/1/6
f 46/3/6 40/3/6 47/3/6
f 47/1/6 38/1/6 48/1/6
