# MagicaVoxel @ Ephtracy

# group
o 

# material
mtllib SueloBig-2.mtl
usemtl palette

# normals
vn -1 0 0
vn 1 0 0
vn 0 0 1
vn 0 0 -1
vn 0 -1 0
vn 0 1 0

# texcoords
vt 0.201172 0.5
vt 0.634766 0.5
vt 0.958984 0.5

# verts
v -14 0 2
v -14 0 -1.1
v -14 0 -1.2
v -14 0.1 2
v -14 0.1 -1.1
v -14 0.1 -1.2
v -10.8 0 2
v -10.8 0 -1.2
v -10.8 0.1 2
v -10.8 0.1 -1.2
v -14 0 2
v -14 0.1 2
v -12.8 0 2
v -12.8 0.1 2
v -12.5 0 2
v -12.5 0.1 2
v -12.4 0 2
v -12.4 0.1 2
v -10.8 0 2
v -10.8 0.1 2
v -14 0 -1.2
v -14 0.1 -1.2
v -12.5 0 -1.2
v -12.5 0.1 -1.2
v -12.4 0 -1.2
v -12.4 0.1 -1.2
v -10.8 0 -1.2
v -10.8 0.1 -1.2
v -14 0 2
v -12.8 0 2
v -12.5 0 2
v -12.4 0 2
v -10.8 0 2
v -14 0 -1.1
v -12.8 0 -1.1
v -14 0 -1.2
v -12.5 0 -1.2
v -12.4 0 -1.2
v -10.8 0 -1.2
v -14 0.1 2
v -12.8 0.1 2
v -12.5 0.1 2
v -12.4 0.1 2
v -10.8 0.1 2
v -14 0.1 -1.1
v -12.8 0.1 -1.1
v -14 0.1 -1.2
v -12.5 0.1 -1.2
v -12.4 0.1 -1.2
v -10.8 0.1 -1.2

# faces
f 4/3/1 2/3/1 1/3/1
f 5/2/1 3/2/1 2/2/1
f 5/3/1 2/3/1 4/3/1
f 6/2/1 3/2/1 5/2/1
f 7/1/2 8/1/2 9/1/2
f 9/1/2 8/1/2 10/1/2
f 13/3/3 12/3/3 11/3/3
f 14/3/3 12/3/3 13/3/3
f 15/2/3 14/2/3 13/2/3
f 16/2/3 14/2/3 15/2/3
f 17/3/3 16/3/3 15/3/3
f 18/3/3 16/3/3 17/3/3
f 19/1/3 18/1/3 17/1/3
f 20/1/3 18/1/3 19/1/3
f 21/2/4 22/2/4 23/2/4
f 23/2/4 22/2/4 24/2/4
f 23/3/4 24/3/4 25/3/4
f 25/3/4 24/3/4 26/3/4
f 25/1/4 26/1/4 27/1/4
f 27/1/4 26/1/4 28/1/4
f 34/3/5 30/3/5 29/3/5
f 35/2/5 31/2/5 30/2/5
f 35/3/5 30/3/5 34/3/5
f 36/2/5 35/2/5 34/2/5
f 37/3/5 32/3/5 31/3/5
f 37/2/5 35/2/5 36/2/5
f 37/2/5 31/2/5 35/2/5
f 38/1/5 33/1/5 32/1/5
f 38/3/5 32/3/5 37/3/5
f 39/1/5 33/1/5 38/1/5
f 40/3/6 41/3/6 45/3/6
f 41/2/6 42/2/6 46/2/6
f 45/3/6 41/3/6 46/3/6
f 45/2/6 46/2/6 47/2/6
f 42/3/6 43/3/6 48/3/6
f 47/2/6 46/2/6 48/2/6
f 46/2/6 42/2/6 48/2/6
f 43/1/6 44/1/6 49/1/6
f 48/3/6 43/3/6 49/3/6
f 49/1/6 44/1/6 50/1/6
