# MagicaVoxel @ Ephtracy

# group
o 

# material
mtllib Sumo-0.mtl
usemtl palette

# normals
vn -1 0 0
vn 1 0 0
vn 0 0 1
vn 0 0 -1
vn 0 -1 0
vn 0 1 0

# texcoords
vt 0.00195313 0.5
vt 0.208984 0.5

# verts
v 1.6 0 1.6
v 1.6 0 1.1
v 1.6 0 0.6
v 1.6 0 -1.5
v 1.6 0 -1.6
v 1.6 0.1 1.6
v 1.6 0.1 1.1
v 1.6 0.1 0.6
v 1.6 0.1 -1.5
v 1.6 0.1 -1.6
v 3.2 0 1.6
v 3.2 0 -1.6
v 3.2 0.1 1.6
v 3.2 0.1 -1.6
v 1.6 0 1.6
v 1.6 0.1 1.6
v 1.7 0 1.6
v 1.7 0.1 1.6
v 1.8 0 1.6
v 1.8 0.1 1.6
v 3.1 0 1.6
v 3.1 0.1 1.6
v 3.2 0 1.6
v 3.2 0.1 1.6
v 1.6 0 -1.6
v 1.6 0.1 -1.6
v 3.2 0 -1.6
v 3.2 0.1 -1.6
v 1.6 0 1.6
v 1.7 0 1.6
v 1.8 0 1.6
v 3.1 0 1.6
v 3.2 0 1.6
v 1.6 0 1.1
v 1.7 0 1.1
v 1.7 0 1
v 1.8 0 1
v 1.6 0 0.6
v 1.7 0 0.6
v 1.6 0 -1.5
v 3.1 0 -1.5
v 1.6 0 -1.6
v 3.2 0 -1.6
v 1.6 0.1 1.6
v 1.7 0.1 1.6
v 1.8 0.1 1.6
v 3.1 0.1 1.6
v 3.2 0.1 1.6
v 1.6 0.1 1.1
v 1.7 0.1 1.1
v 1.7 0.1 1
v 1.8 0.1 1
v 1.6 0.1 0.6
v 1.7 0.1 0.6
v 1.6 0.1 -1.5
v 3.1 0.1 -1.5
v 1.6 0.1 -1.6
v 3.2 0.1 -1.6

# faces
f 6/2/1 2/2/1 1/2/1
f 7/1/1 3/1/1 2/1/1
f 7/2/1 2/2/1 6/2/1
f 8/2/1 4/2/1 3/2/1
f 8/1/1 3/1/1 7/1/1
f 9/1/1 5/1/1 4/1/1
f 9/2/1 4/2/1 8/2/1
f 10/1/1 5/1/1 9/1/1
f 11/1/2 12/1/2 13/1/2
f 13/1/2 12/1/2 14/1/2
f 17/2/3 16/2/3 15/2/3
f 18/2/3 16/2/3 17/2/3
f 19/1/3 18/1/3 17/1/3
f 20/1/3 18/1/3 19/1/3
f 21/2/3 20/2/3 19/2/3
f 22/2/3 20/2/3 21/2/3
f 23/1/3 22/1/3 21/1/3
f 24/1/3 22/1/3 23/1/3
f 25/1/4 26/1/4 27/1/4
f 27/1/4 26/1/4 28/1/4
f 34/2/5 30/2/5 29/2/5
f 35/1/5 31/1/5 30/1/5
f 35/2/5 30/2/5 34/2/5
f 36/1/5 35/1/5 34/1/5
f 36/1/5 31/1/5 35/1/5
f 37/2/5 32/2/5 31/2/5
f 37/1/5 31/1/5 36/1/5
f 38/1/5 36/1/5 34/1/5
f 39/2/5 37/2/5 36/2/5
f 39/1/5 36/1/5 38/1/5
f 40/2/5 39/2/5 38/2/5
f 41/1/5 33/1/5 32/1/5
f 41/2/5 39/2/5 40/2/5
f 41/2/5 32/2/5 37/2/5
f 41/2/5 37/2/5 39/2/5
f 42/1/5 41/1/5 40/1/5
f 43/1/5 33/1/5 41/1/5
f 43/1/5 41/1/5 42/1/5
f 44/2/6 45/2/6 49/2/6
f 45/1/6 46/1/6 50/1/6
f 49/2/6 45/2/6 50/2/6
f 49/1/6 50/1/6 51/1/6
f 50/1/6 46/1/6 51/1/6
f 46/2/6 47/2/6 52/2/6
f 51/1/6 46/1/6 52/1/6
f 49/1/6 51/1/6 53/1/6
f 51/2/6 52/2/6 54/2/6
f 53/1/6 51/1/6 54/1/6
f 53/2/6 54/2/6 55/2/6
f 47/1/6 48/1/6 56/1/6
f 55/2/6 54/2/6 56/2/6
f 52/2/6 47/2/6 56/2/6
f 54/2/6 52/2/6 56/2/6
f 55/1/6 56/1/6 57/1/6
f 56/1/6 48/1/6 58/1/6
f 57/1/6 56/1/6 58/1/6
