# MagicaVoxel @ Ephtracy

# group
o 

# material
mtllib Tatami-0.mtl
usemtl palette

# normals
vn -1 0 0
vn 1 0 0
vn 0 0 1
vn 0 0 -1
vn 0 -1 0
vn 0 1 0

# texcoords
vt 0.658203 0.5
vt 0.841797 0.5

# verts
v 1.6 0 -1.6
v 1.6 0 -2.5
v 1.6 0 -3
v 1.6 0 -4.8
v 1.6 0.1 -1.6
v 1.6 0.1 -2.5
v 1.6 0.1 -3
v 1.6 0.1 -4.8
v 4.8 0 -1.6
v 4.8 0 -4.8
v 4.8 0.1 -1.6
v 4.8 0.1 -4.8
v 1.6 0 -1.6
v 1.6 0.1 -1.6
v 3.5 0 -1.6
v 3.5 0.1 -1.6
v 4 0 -1.6
v 4 0.1 -1.6
v 4.8 0 -1.6
v 4.8 0.1 -1.6
v 1.6 0 -4.8
v 1.6 0.1 -4.8
v 4.8 0 -4.8
v 4.8 0.1 -4.8
v 1.6 0 -1.6
v 3.5 0 -1.6
v 4 0 -1.6
v 4.8 0 -1.6
v 1.6 0 -2.5
v 3.5 0 -2.5
v 1.6 0 -3
v 4 0 -3
v 1.6 0 -4.8
v 4.8 0 -4.8
v 1.6 0.1 -1.6
v 3.5 0.1 -1.6
v 4 0.1 -1.6
v 4.8 0.1 -1.6
v 1.6 0.1 -2.5
v 3.5 0.1 -2.5
v 1.6 0.1 -3
v 4 0.1 -3
v 1.6 0.1 -4.8
v 4.8 0.1 -4.8

# faces
f 5/1/1 2/1/1 1/1/1
f 6/2/1 3/2/1 2/2/1
f 6/1/1 2/1/1 5/1/1
f 7/1/1 4/1/1 3/1/1
f 7/2/1 3/2/1 6/2/1
f 8/1/1 4/1/1 7/1/1
f 9/1/2 10/1/2 11/1/2
f 11/1/2 10/1/2 12/1/2
f 15/1/3 14/1/3 13/1/3
f 16/1/3 14/1/3 15/1/3
f 17/2/3 16/2/3 15/2/3
f 18/2/3 16/2/3 17/2/3
f 19/1/3 18/1/3 17/1/3
f 20/1/3 18/1/3 19/1/3
f 21/1/4 22/1/4 23/1/4
f 23/1/4 22/1/4 24/1/4
f 29/1/5 26/1/5 25/1/5
f 30/2/5 27/2/5 26/2/5
f 30/1/5 26/1/5 29/1/5
f 31/2/5 30/2/5 29/2/5
f 32/1/5 28/1/5 27/1/5
f 32/2/5 30/2/5 31/2/5
f 32/2/5 27/2/5 30/2/5
f 33/1/5 32/1/5 31/1/5
f 34/1/5 28/1/5 32/1/5
f 34/1/5 32/1/5 33/1/5
f 35/1/6 36/1/6 39/1/6
f 36/2/6 37/2/6 40/2/6
f 39/1/6 36/1/6 40/1/6
f 39/2/6 40/2/6 41/2/6
f 37/1/6 38/1/6 42/1/6
f 41/2/6 40/2/6 42/2/6
f 40/2/6 37/2/6 42/2/6
f 41/1/6 42/1/6 43/1/6
f 42/1/6 38/1/6 44/1/6
f 43/1/6 42/1/6 44/1/6
