# MagicaVoxel @ Ephtracy

# group
o 

# material
mtllib Trofeos-2.mtl
usemtl palette

# normals
vn -1 0 0
vn 1 0 0
vn 0 0 1
vn 0 0 -1
vn 0 -1 0
vn 0 1 0

# texcoords
vt 0.0449219 0.5
vt 0.208984 0.5
vt 0.537109 0.5

# verts
v -1 1.2 0.3
v -1 1.2 0.1
v -1 1.5 0.3
v -1 1.5 0.1
v -0.9 1.1 0.3
v -0.9 1.1 0.1
v -0.9 1.2 0.3
v -0.9 1.2 0.1
v -0.9 1.5 0.3
v -0.9 1.5 0.1
v -0.9 1.6 0.3
v -0.9 1.6 0.1
v -0.8 0 0.6
v -0.8 0 -0.2
v -0.8 0.1 0.6
v -0.8 0.1 -0.2
v -0.8 0.4 0.6
v -0.8 0.4 -0.2
v -0.8 0.5 0.6
v -0.8 0.5 -0.2
v -0.8 1.1 0.4
v -0.8 1.1 0.3
v -0.8 1.1 0.1
v -0.8 1.1 5.96046e-08
v -0.8 1.2 0.3
v -0.8 1.2 0.1
v -0.8 1.3 0.4
v -0.8 1.3 5.96046e-08
v -0.8 1.4 0.6
v -0.8 1.4 -0.2
v -0.8 1.5 0.6
v -0.8 1.5 0.4
v -0.8 1.5 0.3
v -0.8 1.5 0.1
v -0.8 1.5 5.96046e-08
v -0.8 1.5 -0.2
v -0.8 1.6 0.4
v -0.8 1.6 0.3
v -0.8 1.6 0.1
v -0.8 1.6 5.96046e-08
v -0.7 0.1 0.5
v -0.7 0.1 -0.1
v -0.7 0.4 0.5
v -0.7 0.4 -0.1
v -0.7 1 0.5
v -0.7 1 -0.1
v -0.7 1.1 0.4
v -0.7 1.1 5.96046e-08
v -0.7 1.3 0.5
v -0.7 1.3 0.4
v -0.7 1.3 5.96046e-08
v -0.7 1.3 -0.1
v -0.7 1.4 0.4
v -0.7 1.4 5.96046e-08
v -0.7 1.5 0.5
v -0.7 1.5 0.4
v -0.7 1.5 5.96046e-08
v -0.7 1.5 -0.1
v -0.7 1.6 0.5
v -0.7 1.6 0.4
v -0.7 1.6 5.96046e-08
v -0.7 1.6 -0.1
v -0.7 1.7 0.4
v -0.7 1.7 5.96046e-08
v -0.6 0.5 0.4
v -0.6 0.5 5.96046e-08
v -0.6 0.6 0.4
v -0.6 0.6 5.96046e-08
v -0.6 0.9 0.4
v -0.6 0.9 5.96046e-08
v -0.6 1 0.4
v -0.6 1 5.96046e-08
v -0.6 1.6 0.5
v -0.6 1.6 0.4
v -0.6 1.6 5.96046e-08
v -0.6 1.6 -0.1
v -0.6 1.7 0.5
v -0.6 1.7 0.4
v -0.6 1.7 5.96046e-08
v -0.6 1.7 -0.1
v -0.6 1.8 0.4
v -0.6 1.8 5.96046e-08
v -0.5 0.6 0.3
v -0.5 0.6 0.1
v -0.5 0.9 0.3
v -0.5 0.9 0.1
v -0.5 1.8 0.3
v -0.5 1.8 0.1
v -0.5 1.9 0.3
v -0.5 1.9 0.1
v 0.1 1.2 0.3
v 0.1 1.2 0.1
v 0.1 1.5 0.3
v 0.1 1.5 0.1
v -0.9 1.2 0.3
v -0.9 1.2 0.1
v -0.9 1.5 0.3
v -0.9 1.5 0.1
v -0.3 0.6 0.3
v -0.3 0.6 0.1
v -0.3 0.9 0.3
v -0.3 0.9 0.1
v -0.3 1.8 0.3
v -0.3 1.8 0.1
v -0.3 1.9 0.3
v -0.3 1.9 0.1
v -0.2 0.5 0.4
v -0.2 0.5 5.96046e-08
v -0.2 0.6 0.4
v -0.2 0.6 5.96046e-08
v -0.2 0.9 0.4
v -0.2 0.9 5.96046e-08
v -0.2 1 0.4
v -0.2 1 5.96046e-08
v -0.2 1.6 0.5
v -0.2 1.6 0.4
v -0.2 1.6 5.96046e-08
v -0.2 1.6 -0.1
v -0.2 1.7 0.5
v -0.2 1.7 0.4
v -0.2 1.7 5.96046e-08
v -0.2 1.7 -0.1
v -0.2 1.8 0.4
v -0.2 1.8 5.96046e-08
v -0.1 0.1 0.5
v -0.1 0.1 -0.1
v -0.1 0.4 0.5
v -0.1 0.4 -0.1
v -0.1 1 0.5
v -0.1 1 -0.1
v -0.1 1.1 0.4
v -0.1 1.1 5.96046e-08
v -0.1 1.3 0.5
v -0.1 1.3 0.4
v -0.1 1.3 5.96046e-08
v -0.1 1.3 -0.1
v -0.1 1.4 0.4
v -0.1 1.4 5.96046e-08
v -0.1 1.5 0.5
v -0.1 1.5 0.4
v -0.1 1.5 5.96046e-08
v -0.1 1.5 -0.1
v -0.1 1.6 0.5
v -0.1 1.6 0.4
v -0.1 1.6 5.96046e-08
v -0.1 1.6 -0.1
v -0.1 1.7 0.4
v -0.1 1.7 5.96046e-08
v 0 0 0.6
v 0 0 -0.2
v 0 0.1 0.6
v 0 0.1 -0.2
v 0 0.4 0.6
v 0 0.4 -0.2
v 0 0.5 0.6
v 0 0.5 -0.2
v 0 1.1 0.4
v 0 1.1 0.3
v 0 1.1 0.1
v 0 1.1 5.96046e-08
v 0 1.2 0.3
v 0 1.2 0.1
v 0 1.3 0.4
v 0 1.3 5.96046e-08
v 0 1.4 0.6
v 0 1.4 -0.2
v 0 1.5 0.6
v 0 1.5 0.4
v 0 1.5 0.3
v 0 1.5 0.1
v 0 1.5 5.96046e-08
v 0 1.5 -0.2
v 0 1.6 0.4
v 0 1.6 0.3
v 0 1.6 0.1
v 0 1.6 5.96046e-08
v 0.1 1.1 0.3
v 0.1 1.1 0.1
v 0.1 1.2 0.3
v 0.1 1.2 0.1
v 0.1 1.5 0.3
v 0.1 1.5 0.1
v 0.1 1.6 0.3
v 0.1 1.6 0.1
v 0.2 1.2 0.3
v 0.2 1.2 0.1
v 0.2 1.5 0.3
v 0.2 1.5 0.1
v -0.8 0 0.6
v -0.8 0.1 0.6
v -0.8 0.4 0.6
v -0.8 0.5 0.6
v -0.8 1.4 0.6
v -0.8 1.5 0.6
v 0 0 0.6
v 0 0.1 0.6
v 0 0.4 0.6
v 0 0.5 0.6
v 0 1.4 0.6
v 0 1.5 0.6
v -0.7 0.1 0.5
v -0.7 0.4 0.5
v -0.7 1 0.5
v -0.7 1.3 0.5
v -0.7 1.5 0.5
v -0.7 1.6 0.5
v -0.6 1.6 0.5
v -0.6 1.7 0.5
v -0.5 0.2 0.5
v -0.5 0.3 0.5
v -0.3 0.2 0.5
v -0.3 0.3 0.5
v -0.2 1.6 0.5
v -0.2 1.7 0.5
v -0.1 0.1 0.5
v -0.1 0.4 0.5
v -0.1 1 0.5
v -0.1 1.3 0.5
v -0.1 1.5 0.5
v -0.1 1.6 0.5
v -0.8 1.1 0.4
v -0.8 1.3 0.4
v -0.8 1.5 0.4
v -0.8 1.6 0.4
v -0.7 1.1 0.4
v -0.7 1.3 0.4
v -0.7 1.4 0.4
v -0.7 1.5 0.4
v -0.7 1.6 0.4
v -0.7 1.7 0.4
v -0.6 0.5 0.4
v -0.6 0.6 0.4
v -0.6 0.9 0.4
v -0.6 1 0.4
v -0.6 1.6 0.4
v -0.6 1.7 0.4
v -0.6 1.8 0.4
v -0.2 0.5 0.4
v -0.2 0.6 0.4
v -0.2 0.9 0.4
v -0.2 1 0.4
v -0.2 1.6 0.4
v -0.2 1.7 0.4
v -0.2 1.8 0.4
v -0.1 1.1 0.4
v -0.1 1.3 0.4
v -0.1 1.4 0.4
v -0.1 1.5 0.4
v -0.1 1.6 0.4
v -0.1 1.7 0.4
v 0 1.1 0.4
v 0 1.3 0.4
v 0 1.5 0.4
v 0 1.6 0.4
v -1 1.2 0.3
v -1 1.5 0.3
v -0.9 1.1 0.3
v -0.9 1.2 0.3
v -0.9 1.5 0.3
v -0.9 1.6 0.3
v -0.8 1.1 0.3
v -0.8 1.2 0.3
v -0.8 1.5 0.3
v -0.8 1.6 0.3
v -0.5 0.6 0.3
v -0.5 0.9 0.3
v -0.5 1.8 0.3
v -0.5 1.9 0.3
v -0.3 0.6 0.3
v -0.3 0.9 0.3
v -0.3 1.8 0.3
v -0.3 1.9 0.3
v 0 1.1 0.3
v 0 1.2 0.3
v 0 1.5 0.3
v 0 1.6 0.3
v 0.1 1.1 0.3
v 0.1 1.2 0.3
v 0.1 1.5 0.3
v 0.1 1.6 0.3
v 0.2 1.2 0.3
v 0.2 1.5 0.3
v -1 1.2 0.1
v -1 1.5 0.1
v -0.9 1.1 0.1
v -0.9 1.2 0.1
v -0.9 1.5 0.1
v -0.9 1.6 0.1
v -0.8 1.1 0.1
v -0.8 1.2 0.1
v -0.8 1.5 0.1
v -0.8 1.6 0.1
v -0.5 0.6 0.1
v -0.5 0.9 0.1
v -0.5 1.8 0.1
v -0.5 1.9 0.1
v -0.3 0.6 0.1
v -0.3 0.9 0.1
v -0.3 1.8 0.1
v -0.3 1.9 0.1
v 0 1.1 0.1
v 0 1.2 0.1
v 0 1.5 0.1
v 0 1.6 0.1
v 0.1 1.1 0.1
v 0.1 1.2 0.1
v 0.1 1.5 0.1
v 0.1 1.6 0.1
v 0.2 1.2 0.1
v 0.2 1.5 0.1
v -0.8 1.1 5.96046e-08
v -0.8 1.3 5.96046e-08
v -0.8 1.5 5.96046e-08
v -0.8 1.6 5.96046e-08
v -0.7 1.1 5.96046e-08
v -0.7 1.3 5.96046e-08
v -0.7 1.4 5.96046e-08
v -0.7 1.5 5.96046e-08
v -0.7 1.6 5.96046e-08
v -0.7 1.7 5.96046e-08
v -0.6 0.5 5.96046e-08
v -0.6 0.6 5.96046e-08
v -0.6 0.9 5.96046e-08
v -0.6 1 5.96046e-08
v -0.6 1.6 5.96046e-08
v -0.6 1.7 5.96046e-08
v -0.6 1.8 5.96046e-08
v -0.2 0.5 5.96046e-08
v -0.2 0.6 5.96046e-08
v -0.2 0.9 5.96046e-08
v -0.2 1 5.96046e-08
v -0.2 1.6 5.96046e-08
v -0.2 1.7 5.96046e-08
v -0.2 1.8 5.96046e-08
v -0.1 1.1 5.96046e-08
v -0.1 1.3 5.96046e-08
v -0.1 1.4 5.96046e-08
v -0.1 1.5 5.96046e-08
v -0.1 1.6 5.96046e-08
v -0.1 1.7 5.96046e-08
v 0 1.1 5.96046e-08
v 0 1.3 5.96046e-08
v 0 1.5 5.96046e-08
v 0 1.6 5.96046e-08
v -0.7 0.1 -0.1
v -0.7 0.4 -0.1
v -0.7 1 -0.1
v -0.7 1.3 -0.1
v -0.7 1.5 -0.1
v -0.7 1.6 -0.1
v -0.6 1.6 -0.1
v -0.6 1.7 -0.1
v -0.2 1.6 -0.1
v -0.2 1.7 -0.1
v -0.1 0.1 -0.1
v -0.1 0.4 -0.1
v -0.1 1 -0.1
v -0.1 1.3 -0.1
v -0.1 1.5 -0.1
v -0.1 1.6 -0.1
v -0.8 0 -0.2
v -0.8 0.1 -0.2
v -0.8 0.4 -0.2
v -0.8 0.5 -0.2
v -0.8 1.4 -0.2
v -0.8 1.5 -0.2
v 0 0 -0.2
v 0 0.1 -0.2
v 0 0.4 -0.2
v 0 0.5 -0.2
v 0 1.4 -0.2
v 0 1.5 -0.2
v -0.8 0 0.6
v 0 0 0.6
v -0.8 0 -0.2
v 0 0 -0.2
v -0.8 0.4 0.6
v 0 0.4 0.6
v -0.7 0.4 0.5
v -0.1 0.4 0.5
v -0.7 0.4 -0.1
v -0.1 0.4 -0.1
v -0.8 0.4 -0.2
v 0 0.4 -0.2
v -0.6 0.9 0.4
v -0.2 0.9 0.4
v -0.5 0.9 0.3
v -0.3 0.9 0.3
v -0.5 0.9 0.1
v -0.3 0.9 0.1
v -0.6 0.9 5.96046e-08
v -0.2 0.9 5.96046e-08
v -0.7 1 0.5
v -0.1 1 0.5
v -0.6 1 0.4
v -0.2 1 0.4
v -0.6 1 5.96046e-08
v -0.2 1 5.96046e-08
v -0.7 1 -0.1
v -0.1 1 -0.1
v -0.8 1.1 0.4
v -0.7 1.1 0.4
v -0.1 1.1 0.4
v 0 1.1 0.4
v -0.9 1.1 0.3
v -0.8 1.1 0.3
v 0 1.1 0.3
v 0.1 1.1 0.3
v -0.9 1.1 0.1
v -0.8 1.1 0.1
v 0 1.1 0.1
v 0.1 1.1 0.1
v -0.8 1.1 5.96046e-08
v -0.7 1.1 5.96046e-08
v -0.1 1.1 5.96046e-08
v 0 1.1 5.96046e-08
v -1 1.2 0.3
v -0.9 1.2 0.3
v 0.1 1.2 0.3
v 0.2 1.2 0.3
v -1 1.2 0.1
v -0.9 1.2 0.1
v 0.1 1.2 0.1
v 0.2 1.2 0.1
v -0.8 1.4 0.6
v 0 1.4 0.6
v -0.7 1.4 0.4
v -0.1 1.4 0.4
v -0.7 1.4 5.96046e-08
v -0.1 1.4 5.96046e-08
v -0.8 1.4 -0.2
v 0 1.4 -0.2
v -0.9 1.5 0.3
v -0.8 1.5 0.3
v 0 1.5 0.3
v 0.1 1.5 0.3
v -0.9 1.5 0.1
v -0.8 1.5 0.1
v 0 1.5 0.1
v 0.1 1.5 0.1
v -0.8 0.1 0.6
v 0 0.1 0.6
v -0.7 0.1 0.5
v -0.1 0.1 0.5
v -0.7 0.1 -0.1
v -0.1 0.1 -0.1
v -0.8 0.1 -0.2
v 0 0.1 -0.2
v -0.8 0.5 0.6
v 0 0.5 0.6
v -0.6 0.5 0.4
v -0.2 0.5 0.4
v -0.6 0.5 5.96046e-08
v -0.2 0.5 5.96046e-08
v -0.8 0.5 -0.2
v 0 0.5 -0.2
v -0.6 0.6 0.4
v -0.2 0.6 0.4
v -0.5 0.6 0.3
v -0.3 0.6 0.3
v -0.5 0.6 0.1
v -0.3 0.6 0.1
v -0.6 0.6 5.96046e-08
v -0.2 0.6 5.96046e-08
v -0.9 1.2 0.3
v -0.8 1.2 0.3
v 0 1.2 0.3
v 0.1 1.2 0.3
v -0.9 1.2 0.1
v -0.8 1.2 0.1
v 0 1.2 0.1
v 0.1 1.2 0.1
v -0.7 1.3 0.5
v -0.1 1.3 0.5
v -0.8 1.3 0.4
v -0.7 1.3 0.4
v -0.1 1.3 0.4
v 0 1.3 0.4
v -0.8 1.3 5.96046e-08
v -0.7 1.3 5.96046e-08
v -0.1 1.3 5.96046e-08
v 0 1.3 5.96046e-08
v -0.7 1.3 -0.1
v -0.1 1.3 -0.1
v -0.8 1.5 0.6
v 0 1.5 0.6
v -0.7 1.5 0.5
v -0.1 1.5 0.5
v -0.8 1.5 0.4
v -0.7 1.5 0.4
v -0.1 1.5 0.4
v 0 1.5 0.4
v -1 1.5 0.3
v -0.9 1.5 0.3
v 0.1 1.5 0.3
v 0.2 1.5 0.3
v -1 1.5 0.1
v -0.9 1.5 0.1
v 0.1 1.5 0.1
v 0.2 1.5 0.1
v -0.8 1.5 5.96046e-08
v -0.7 1.5 5.96046e-08
v -0.1 1.5 5.96046e-08
v 0 1.5 5.96046e-08
v -0.7 1.5 -0.1
v -0.1 1.5 -0.1
v -0.8 1.5 -0.2
v 0 1.5 -0.2
v -0.7 1.6 0.5
v -0.6 1.6 0.5
v -0.2 1.6 0.5
v -0.1 1.6 0.5
v -0.8 1.6 0.4
v -0.7 1.6 0.4
v -0.6 1.6 0.4
v -0.2 1.6 0.4
v -0.1 1.6 0.4
v 0 1.6 0.4
v -0.9 1.6 0.3
v -0.8 1.6 0.3
v 0 1.6 0.3
v 0.1 1.6 0.3
v -0.9 1.6 0.1
v -0.8 1.6 0.1
v 0 1.6 0.1
v 0.1 1.6 0.1
v -0.8 1.6 5.96046e-08
v -0.7 1.6 5.96046e-08
v -0.6 1.6 5.96046e-08
v -0.2 1.6 5.96046e-08
v -0.1 1.6 5.96046e-08
v 0 1.6 5.96046e-08
v -0.7 1.6 -0.1
v -0.6 1.6 -0.1
v -0.2 1.6 -0.1
v -0.1 1.6 -0.1
v -0.6 1.7 0.5
v -0.2 1.7 0.5
v -0.7 1.7 0.4
v -0.6 1.7 0.4
v -0.2 1.7 0.4
v -0.1 1.7 0.4
v -0.7 1.7 5.96046e-08
v -0.6 1.7 5.96046e-08
v -0.2 1.7 5.96046e-08
v -0.1 1.7 5.96046e-08
v -0.6 1.7 -0.1
v -0.2 1.7 -0.1
v -0.6 1.8 0.4
v -0.2 1.8 0.4
v -0.5 1.8 0.3
v -0.3 1.8 0.3
v -0.5 1.8 0.1
v -0.3 1.8 0.1
v -0.6 1.8 5.96046e-08
v -0.2 1.8 5.96046e-08
v -0.5 1.9 0.3
v -0.3 1.9 0.3
v -0.5 1.9 0.1
v -0.3 1.9 0.1

# faces
f 3/2/1 2/2/1 1/2/1
f 4/2/1 2/2/1 3/2/1
f 7/2/1 6/2/1 5/2/1
f 8/2/1 6/2/1 7/2/1
f 11/2/1 10/2/1 9/2/1
f 12/2/1 10/2/1 11/2/1
f 15/3/1 14/3/1 13/3/1
f 16/3/1 14/3/1 15/3/1
f 19/3/1 18/3/1 17/3/1
f 20/3/1 18/3/1 19/3/1
f 25/1/1 22/1/1 21/1/1
f 26/1/1 24/1/1 23/1/1
f 27/1/1 25/1/1 21/1/1
f 27/1/1 26/1/1 25/1/1
f 28/1/1 24/1/1 26/1/1
f 28/1/1 26/1/1 27/1/1
f 31/1/1 30/1/1 29/1/1
f 32/1/1 30/1/1 31/1/1
f 33/1/1 30/1/1 32/1/1
f 34/1/1 30/1/1 33/1/1
f 35/1/1 30/1/1 34/1/1
f 36/1/1 30/1/1 35/1/1
f 37/1/1 33/1/1 32/1/1
f 38/1/1 33/1/1 37/1/1
f 39/1/1 35/1/1 34/1/1
f 40/1/1 35/1/1 39/1/1
f 43/3/1 42/3/1 41/3/1
f 44/3/1 42/3/1 43/3/1
f 47/1/1 46/1/1 45/1/1
f 48/1/1 46/1/1 47/1/1
f 49/1/1 47/1/1 45/1/1
f 50/1/1 47/1/1 49/1/1
f 51/1/1 46/1/1 48/1/1
f 52/1/1 46/1/1 51/1/1
f 53/1/1 51/1/1 50/1/1
f 54/1/1 51/1/1 53/1/1
f 59/1/1 56/1/1 55/1/1
f 60/1/1 56/1/1 59/1/1
f 61/1/1 58/1/1 57/1/1
f 62/1/1 58/1/1 61/1/1
f 63/1/1 61/1/1 60/1/1
f 64/1/1 61/1/1 63/1/1
f 67/2/1 66/2/1 65/2/1
f 68/2/1 66/2/1 67/2/1
f 71/1/1 70/1/1 69/1/1
f 72/1/1 70/1/1 71/1/1
f 77/1/1 74/1/1 73/1/1
f 78/1/1 74/1/1 77/1/1
f 79/1/1 76/1/1 75/1/1
f 80/1/1 76/1/1 79/1/1
f 81/1/1 79/1/1 78/1/1
f 82/1/1 79/1/1 81/1/1
f 85/1/1 84/1/1 83/1/1
f 86/1/1 84/1/1 85/1/1
f 89/2/1 88/2/1 87/2/1
f 90/2/1 88/2/1 89/2/1
f 93/2/1 92/2/1 91/2/1
f 94/2/1 92/2/1 93/2/1
f 95/2/2 96/2/2 97/2/2
f 97/2/2 96/2/2 98/2/2
f 99/1/2 100/1/2 101/1/2
f 101/1/2 100/1/2 102/1/2
f 103/2/2 104/2/2 105/2/2
f 105/2/2 104/2/2 106/2/2
f 107/2/2 108/2/2 109/2/2
f 109/2/2 108/2/2 110/2/2
f 111/1/2 112/1/2 113/1/2
f 113/1/2 112/1/2 114/1/2
f 115/1/2 116/1/2 119/1/2
f 119/1/2 116/1/2 120/1/2
f 117/1/2 118/1/2 121/1/2
f 121/1/2 118/1/2 122/1/2
f 120/1/2 121/1/2 123/1/2
f 123/1/2 121/1/2 124/1/2
f 125/3/2 126/3/2 127/3/2
f 127/3/2 126/3/2 128/3/2
f 129/1/2 130/1/2 131/1/2
f 131/1/2 130/1/2 132/1/2
f 129/1/2 131/1/2 133/1/2
f 133/1/2 131/1/2 134/1/2
f 132/1/2 130/1/2 135/1/2
f 135/1/2 130/1/2 136/1/2
f 134/1/2 135/1/2 137/1/2
f 137/1/2 135/1/2 138/1/2
f 139/1/2 140/1/2 143/1/2
f 143/1/2 140/1/2 144/1/2
f 141/1/2 142/1/2 145/1/2
f 145/1/2 142/1/2 146/1/2
f 144/1/2 145/1/2 147/1/2
f 147/1/2 145/1/2 148/1/2
f 149/3/2 150/3/2 151/3/2
f 151/3/2 150/3/2 152/3/2
f 153/3/2 154/3/2 155/3/2
f 155/3/2 154/3/2 156/3/2
f 157/1/2 158/1/2 161/1/2
f 159/1/2 160/1/2 162/1/2
f 157/1/2 161/1/2 163/1/2
f 161/1/2 162/1/2 163/1/2
f 162/1/2 160/1/2 164/1/2
f 163/1/2 162/1/2 164/1/2
f 165/1/2 166/1/2 167/1/2
f 167/1/2 166/1/2 168/1/2
f 168/1/2 166/1/2 169/1/2
f 169/1/2 166/1/2 170/1/2
f 170/1/2 166/1/2 171/1/2
f 171/1/2 166/1/2 172/1/2
f 168/1/2 169/1/2 173/1/2
f 173/1/2 169/1/2 174/1/2
f 170/1/2 171/1/2 175/1/2
f 175/1/2 171/1/2 176/1/2
f 177/2/2 178/2/2 179/2/2
f 179/2/2 178/2/2 180/2/2
f 181/2/2 182/2/2 183/2/2
f 183/2/2 182/2/2 184/2/2
f 185/2/2 186/2/2 187/2/2
f 187/2/2 186/2/2 188/2/2
f 195/3/3 190/3/3 189/3/3
f 196/3/3 190/3/3 195/3/3
f 197/3/3 192/3/3 191/3/3
f 198/3/3 192/3/3 197/3/3
f 199/1/3 194/1/3 193/1/3
f 200/1/3 194/1/3 199/1/3
f 207/1/3 206/1/3 205/1/3
f 209/3/3 202/3/3 201/3/3
f 210/3/3 202/3/3 209/3/3
f 211/3/3 209/3/3 201/3/3
f 211/1/3 210/1/3 209/1/3
f 212/3/3 202/3/3 210/3/3
f 212/1/3 210/1/3 211/1/3
f 213/1/3 208/1/3 207/1/3
f 213/1/3 207/1/3 205/1/3
f 214/1/3 208/1/3 213/1/3
f 215/3/3 212/3/3 211/3/3
f 215/3/3 211/3/3 201/3/3
f 216/3/3 202/3/3 212/3/3
f 216/3/3 212/3/3 215/3/3
f 217/1/3 204/1/3 203/1/3
f 218/1/3 204/1/3 217/1/3
f 219/1/3 213/1/3 205/1/3
f 220/1/3 213/1/3 219/1/3
f 225/1/3 222/1/3 221/1/3
f 226/1/3 222/1/3 225/1/3
f 228/1/3 224/1/3 223/1/3
f 229/1/3 224/1/3 228/1/3
f 235/1/3 230/1/3 229/1/3
f 236/1/3 230/1/3 235/1/3
f 238/2/3 232/2/3 231/2/3
f 239/2/3 232/2/3 238/2/3
f 240/1/3 234/1/3 233/1/3
f 241/1/3 234/1/3 240/1/3
f 243/1/3 237/1/3 236/1/3
f 244/1/3 237/1/3 243/1/3
f 246/1/3 227/1/3 226/1/3
f 247/1/3 227/1/3 246/1/3
f 249/1/3 243/1/3 242/1/3
f 250/1/3 243/1/3 249/1/3
f 251/1/3 246/1/3 245/1/3
f 252/1/3 246/1/3 251/1/3
f 253/1/3 249/1/3 248/1/3
f 254/1/3 249/1/3 253/1/3
f 258/2/3 256/2/3 255/2/3
f 259/2/3 256/2/3 258/2/3
f 261/2/3 258/2/3 257/2/3
f 262/2/3 258/2/3 261/2/3
f 263/2/3 260/2/3 259/2/3
f 264/2/3 260/2/3 263/2/3
f 269/1/3 266/1/3 265/1/3
f 270/1/3 266/1/3 269/1/3
f 271/2/3 268/2/3 267/2/3
f 272/2/3 268/2/3 271/2/3
f 277/2/3 274/2/3 273/2/3
f 278/2/3 274/2/3 277/2/3
f 279/2/3 276/2/3 275/2/3
f 280/2/3 276/2/3 279/2/3
f 281/2/3 279/2/3 278/2/3
f 282/2/3 279/2/3 281/2/3
f 283/2/4 284/2/4 286/2/4
f 286/2/4 284/2/4 287/2/4
f 285/2/4 286/2/4 289/2/4
f 289/2/4 286/2/4 290/2/4
f 287/2/4 288/2/4 291/2/4
f 291/2/4 288/2/4 292/2/4
f 293/1/4 294/1/4 297/1/4
f 297/1/4 294/1/4 298/1/4
f 295/2/4 296/2/4 299/2/4
f 299/2/4 296/2/4 300/2/4
f 301/2/4 302/2/4 305/2/4
f 305/2/4 302/2/4 306/2/4
f 303/2/4 304/2/4 307/2/4
f 307/2/4 304/2/4 308/2/4
f 306/2/4 307/2/4 309/2/4
f 309/2/4 307/2/4 310/2/4
f 311/1/4 312/1/4 315/1/4
f 315/1/4 312/1/4 316/1/4
f 313/1/4 314/1/4 318/1/4
f 318/1/4 314/1/4 319/1/4
f 319/1/4 320/1/4 325/1/4
f 325/1/4 320/1/4 326/1/4
f 321/2/4 322/2/4 328/2/4
f 328/2/4 322/2/4 329/2/4
f 323/1/4 324/1/4 330/1/4
f 330/1/4 324/1/4 331/1/4
f 326/1/4 327/1/4 333/1/4
f 333/1/4 327/1/4 334/1/4
f 316/1/4 317/1/4 336/1/4
f 336/1/4 317/1/4 337/1/4
f 332/1/4 333/1/4 339/1/4
f 339/1/4 333/1/4 340/1/4
f 335/1/4 336/1/4 341/1/4
f 341/1/4 336/1/4 342/1/4
f 338/1/4 339/1/4 343/1/4
f 343/1/4 339/1/4 344/1/4
f 349/1/4 350/1/4 351/1/4
f 349/1/4 351/1/4 353/1/4
f 351/1/4 352/1/4 353/1/4
f 353/1/4 352/1/4 354/1/4
f 345/3/4 346/3/4 355/3/4
f 355/3/4 346/3/4 356/3/4
f 347/1/4 348/1/4 357/1/4
f 357/1/4 348/1/4 358/1/4
f 349/1/4 353/1/4 359/1/4
f 359/1/4 353/1/4 360/1/4
f 361/3/4 362/3/4 367/3/4
f 367/3/4 362/3/4 368/3/4
f 363/3/4 364/3/4 369/3/4
f 369/3/4 364/3/4 370/3/4
f 365/1/4 366/1/4 371/1/4
f 371/1/4 366/1/4 372/1/4
f 375/3/5 374/3/5 373/3/5
f 376/3/5 374/3/5 375/3/5
f 379/3/5 378/3/5 377/3/5
f 380/3/5 378/3/5 379/3/5
f 381/3/5 379/3/5 377/3/5
f 382/3/5 378/3/5 380/3/5
f 383/3/5 381/3/5 377/3/5
f 383/3/5 382/3/5 381/3/5
f 384/3/5 378/3/5 382/3/5
f 384/3/5 382/3/5 383/3/5
f 387/1/5 386/1/5 385/1/5
f 388/1/5 386/1/5 387/1/5
f 389/1/5 387/1/5 385/1/5
f 390/1/5 386/1/5 388/1/5
f 391/1/5 389/1/5 385/1/5
f 391/1/5 390/1/5 389/1/5
f 392/1/5 386/1/5 390/1/5
f 392/1/5 390/1/5 391/1/5
f 395/1/5 394/1/5 393/1/5
f 396/1/5 394/1/5 395/1/5
f 397/1/5 395/1/5 393/1/5
f 398/1/5 394/1/5 396/1/5
f 399/1/5 397/1/5 393/1/5
f 399/1/5 398/1/5 397/1/5
f 400/1/5 394/1/5 398/1/5
f 400/1/5 398/1/5 399/1/5
f 406/1/5 402/1/5 401/1/5
f 407/1/5 404/1/5 403/1/5
f 409/2/5 406/2/5 405/2/5
f 410/1/5 402/1/5 406/1/5
f 410/2/5 406/2/5 409/2/5
f 411/2/5 408/2/5 407/2/5
f 411/1/5 407/1/5 403/1/5
f 412/2/5 408/2/5 411/2/5
f 413/1/5 402/1/5 410/1/5
f 414/1/5 402/1/5 413/1/5
f 415/1/5 411/1/5 403/1/5
f 416/1/5 411/1/5 415/1/5
f 421/2/5 418/2/5 417/2/5
f 422/2/5 418/2/5 421/2/5
f 423/2/5 420/2/5 419/2/5
f 424/2/5 420/2/5 423/2/5
f 427/1/5 426/1/5 425/1/5
f 428/1/5 426/1/5 427/1/5
f 429/1/5 427/1/5 425/1/5
f 430/1/5 426/1/5 428/1/5
f 431/1/5 429/1/5 425/1/5
f 431/1/5 430/1/5 429/1/5
f 432/1/5 426/1/5 430/1/5
f 432/1/5 430/1/5 431/1/5
f 437/2/5 434/2/5 433/2/5
f 438/2/5 434/2/5 437/2/5
f 439/2/5 436/2/5 435/2/5
f 440/2/5 436/2/5 439/2/5
f 441/3/6 442/3/6 443/3/6
f 443/3/6 442/3/6 444/3/6
f 441/3/6 443/3/6 445/3/6
f 444/3/6 442/3/6 446/3/6
f 441/3/6 445/3/6 447/3/6
f 445/3/6 446/3/6 447/3/6
f 446/3/6 442/3/6 448/3/6
f 447/3/6 446/3/6 448/3/6
f 449/3/6 450/3/6 451/3/6
f 451/3/6 450/3/6 452/3/6
f 449/3/6 451/3/6 453/3/6
f 452/3/6 450/3/6 454/3/6
f 449/3/6 453/3/6 455/3/6
f 453/3/6 454/3/6 455/3/6
f 454/3/6 450/3/6 456/3/6
f 455/3/6 454/3/6 456/3/6
f 457/2/6 458/2/6 459/2/6
f 459/2/6 458/2/6 460/2/6
f 457/2/6 459/2/6 461/2/6
f 460/2/6 458/2/6 462/2/6
f 457/2/6 461/2/6 463/2/6
f 461/2/6 462/2/6 463/2/6
f 462/2/6 458/2/6 464/2/6
f 463/2/6 462/2/6 464/2/6
f 465/2/6 466/2/6 469/2/6
f 469/2/6 466/2/6 470/2/6
f 467/2/6 468/2/6 471/2/6
f 471/2/6 468/2/6 472/2/6
f 473/1/6 474/1/6 476/1/6
f 476/1/6 474/1/6 477/1/6
f 475/1/6 476/1/6 479/1/6
f 479/1/6 476/1/6 480/1/6
f 477/1/6 478/1/6 481/1/6
f 481/1/6 478/1/6 482/1/6
f 480/1/6 481/1/6 483/1/6
f 483/1/6 481/1/6 484/1/6
f 485/1/6 486/1/6 487/1/6
f 487/1/6 486/1/6 488/1/6
f 485/1/6 487/1/6 489/1/6
f 489/1/6 487/1/6 490/1/6
f 488/1/6 486/1/6 491/1/6
f 491/1/6 486/1/6 492/1/6
f 493/2/6 494/2/6 497/2/6
f 497/2/6 494/2/6 498/2/6
f 495/2/6 496/2/6 499/2/6
f 499/2/6 496/2/6 500/2/6
f 501/1/6 502/1/6 505/1/6
f 503/1/6 504/1/6 506/1/6
f 501/1/6 505/1/6 507/1/6
f 505/1/6 506/1/6 507/1/6
f 506/1/6 504/1/6 508/1/6
f 507/1/6 506/1/6 508/1/6
f 509/1/6 510/1/6 514/1/6
f 514/1/6 510/1/6 515/1/6
f 511/1/6 512/1/6 516/1/6
f 516/1/6 512/1/6 517/1/6
f 513/1/6 514/1/6 520/1/6
f 517/1/6 518/1/6 521/1/6
f 519/2/6 520/2/6 523/2/6
f 520/1/6 514/1/6 524/1/6
f 523/2/6 520/2/6 524/2/6
f 521/2/6 522/2/6 525/2/6
f 517/1/6 521/1/6 525/1/6
f 525/2/6 522/2/6 526/2/6
f 524/1/6 514/1/6 527/1/6
f 527/1/6 514/1/6 528/1/6
f 517/1/6 525/1/6 531/1/6
f 531/1/6 525/1/6 532/1/6
f 528/1/6 529/1/6 533/1/6
f 533/1/6 529/1/6 534/1/6
f 530/1/6 531/1/6 535/1/6
f 535/1/6 531/1/6 536/1/6
f 537/1/6 538/1/6 540/1/6
f 540/1/6 538/1/6 541/1/6
f 539/1/6 540/1/6 543/1/6
f 543/1/6 540/1/6 544/1/6
f 541/1/6 542/1/6 545/1/6
f 545/1/6 542/1/6 546/1/6
f 544/1/6 545/1/6 547/1/6
f 547/1/6 545/1/6 548/1/6
f 549/1/6 550/1/6 551/1/6
f 551/1/6 550/1/6 552/1/6
f 549/1/6 551/1/6 553/1/6
f 552/1/6 550/1/6 554/1/6
f 549/1/6 553/1/6 555/1/6
f 553/1/6 554/1/6 555/1/6
f 554/1/6 550/1/6 556/1/6
f 555/1/6 554/1/6 556/1/6
f 557/2/6 558/2/6 559/2/6
f 559/2/6 558/2/6 560/2/6
