# MagicaVoxel @ Ephtracy

# group
o 

# material
mtllib Trofeos-0.mtl
usemtl palette

# normals
vn -1 0 0
vn 1 0 0
vn 0 0 1
vn 0 0 -1
vn 0 -1 0
vn 0 1 0

# texcoords
vt 0.423828 0.5
vt 0.646484 0.5
vt 0.986328 0.5
vt 0.990234 0.5
vt 0.994141 0.5

# verts
v 2.6 0 1.6
v 2.6 0 1.4
v 2.6 0.1 1.6
v 2.6 0.1 1.4
v 2.7 0 1.4
v 2.7 0 1.3
v 2.7 0.1 1.4
v 2.7 0.1 1.3
v 2.8 0 1.3
v 2.8 0 1.2
v 2.8 0.1 1.3
v 2.8 0.1 1.2
v 2.9 0 1.2
v 2.9 0 1.1
v 2.9 0.1 1.2
v 2.9 0.1 1.1
v 3 0 1.1
v 3 0 1
v 3 0 0.5
v 3 0 0.2
v 3 0.1 1.1
v 3 0.1 1
v 3 0.1 0.5
v 3 0.1 0.2
v 3.1 0 1
v 3.1 0 0.9
v 3.1 0 0.7
v 3.1 0 0.5
v 3.1 0 0.2
v 3.1 0 0.1
v 3.1 0.1 1
v 3.1 0.1 0.9
v 3.1 0.1 0.7
v 3.1 0.1 0.5
v 3.1 0.1 0.2
v 3.1 0.1 0.1
v 3.2 0 0.9
v 3.2 0 0.7
v 3.2 0.1 0.9
v 3.2 0.1 0.7
v 3.4 0 0.4
v 3.4 0 0.3
v 3.4 0.1 0.4
v 3.4 0.1 0.3
v 3.5 0 1.1
v 3.5 0 1
v 3.5 0 0.3
v 3.5 0 0.2
v 3.5 0.1 1.1
v 3.5 0.1 1
v 3.5 0.1 0.3
v 3.5 0.1 0.2
v 3.6 0 0.2
v 3.6 0 0.1
v 3.6 0.1 0.2
v 3.6 0.1 0.1
v 3.7 0 1.2
v 3.7 0 1.1
v 3.7 0 0.1
v 3.7 0 0
v 3.7 0.1 1.2
v 3.7 0.1 1.1
v 3.7 0.1 0.1
v 3.7 0.1 0
v 3.8 0 0
v 3.8 0 -0.1
v 3.8 0.1 0
v 3.8 0.1 -0.1
v 3.9 0 -0.1
v 3.9 0 -0.2
v 3.9 0.1 -0.1
v 3.9 0.1 -0.2
v 4 0 1
v 4 0 0.9
v 4 0 -0.2
v 4 0 -0.3
v 4 0.1 1
v 4 0.1 0.9
v 4 0.1 -0.2
v 4 0.1 -0.3
v 4.1 0 -0.3
v 4.1 0 -0.4
v 4.1 0.1 -0.3
v 4.1 0.1 -0.4
v 4.2 0 -0.4
v 4.2 0 -0.5
v 4.2 0.1 -0.4
v 4.2 0.1 -0.5
v 4.3 0 -0.5
v 4.3 0 -0.6
v 4.3 0.1 -0.5
v 4.3 0.1 -0.6
v 4.4 0 -0.6
v 4.4 0 -0.7
v 4.4 0.1 -0.6
v 4.4 0.1 -0.7
v 4.5 0 -0.7
v 4.5 0 -0.8
v 4.5 0.1 -0.7
v 4.5 0.1 -0.8
v 4.6 0 -0.8
v 4.6 0 -0.9
v 4.6 0.1 -0.8
v 4.6 0.1 -0.9
v 4.7 0 -0.9
v 4.7 0 -1
v 4.7 0.1 -0.9
v 4.7 0.1 -1
v 4.8 0 -1
v 4.8 0 -1.1
v 4.8 0.1 -1
v 4.8 0.1 -1.1
v 4.9 0 -1.1
v 4.9 0 -1.2
v 4.9 0.1 -1.1
v 4.9 0.1 -1.2
v 5 0 -1.2
v 5 0 -1.3
v 5 0.1 -1.2
v 5 0.1 -1.3
v 2.8 0 1.6
v 2.8 0 1.5
v 2.8 0.1 1.6
v 2.8 0.1 1.5
v 2.9 0 1.5
v 2.9 0 1.4
v 2.9 0.1 1.5
v 2.9 0.1 1.4
v 3 0 1.4
v 3 0 1.3
v 3 0.1 1.4
v 3 0.1 1.3
v 3.1 0 1.3
v 3.1 0 1.2
v 3.1 0.1 1.3
v 3.1 0.1 1.2
v 3.2 0 1.2
v 3.2 0 1.1
v 3.2 0 0.3
v 3.2 0 0.2
v 3.2 0.1 1.2
v 3.2 0.1 1.1
v 3.2 0.1 0.3
v 3.2 0.1 0.2
v 3.3 0 1.1
v 3.3 0 1
v 3.3 0 0.4
v 3.3 0 0.3
v 3.3 0 0.2
v 3.3 0 0.1
v 3.3 0.1 1.1
v 3.3 0.1 1
v 3.3 0.1 0.4
v 3.3 0.1 0.3
v 3.3 0.1 0.2
v 3.3 0.1 0.1
v 3.8 0 0.9
v 3.8 0 0.8
v 3.8 0.1 0.9
v 3.8 0.1 0.8
v 3.9 0 1
v 3.9 0 0.9
v 3.9 0 0.8
v 3.9 0 0.7
v 3.9 0.1 1
v 3.9 0.1 0.9
v 3.9 0.1 0.8
v 3.9 0.1 0.7
v 4 0 1.2
v 4 0 1.1
v 4 0 0.7
v 4 0 0.6
v 4 0.1 1.2
v 4 0.1 1.1
v 4 0.1 0.7
v 4 0.1 0.6
v 4.1 0 1.1
v 4.1 0 0.9
v 4.1 0 0.6
v 4.1 0 0.5
v 4.1 0.1 1.1
v 4.1 0.1 0.9
v 4.1 0.1 0.6
v 4.1 0.1 0.5
v 4.2 0 0.5
v 4.2 0 0.4
v 4.2 0.1 0.5
v 4.2 0.1 0.4
v 4.3 0 0.4
v 4.3 0 0.3
v 4.3 0.1 0.4
v 4.3 0.1 0.3
v 4.4 0 0.3
v 4.4 0 0.2
v 4.4 0.1 0.3
v 4.4 0.1 0.2
v 4.5 0 0.2
v 4.5 0 0.1
v 4.5 0.1 0.2
v 4.5 0.1 0.1
v 4.6 0 0.1
v 4.6 0 0
v 4.6 0.1 0.1
v 4.6 0.1 0
v 4.7 0 0
v 4.7 0 -0.1
v 4.7 0.1 0
v 4.7 0.1 -0.1
v 4.8 0 -0.1
v 4.8 0 -0.2
v 4.8 0.1 -0.1
v 4.8 0.1 -0.2
v 4.9 0 -0.2
v 4.9 0 -0.3
v 4.9 0.1 -0.2
v 4.9 0.1 -0.3
v 5 0 -0.3
v 5 0 -0.4
v 5 0.1 -0.3
v 5 0.1 -0.4
v 5.1 0 -0.4
v 5.1 0 -0.5
v 5.1 0.1 -0.4
v 5.1 0.1 -0.5
v 5.2 0 -0.5
v 5.2 0 -0.6
v 5.2 0.1 -0.5
v 5.2 0.1 -0.6
v 5.3 0 -0.6
v 5.3 0 -0.7
v 5.3 0.1 -0.6
v 5.3 0.1 -0.7
v 5.4 0 -0.7
v 5.4 0 -0.8
v 5.4 0.1 -0.7
v 5.4 0.1 -0.8
v 5.5 0 -0.8
v 5.5 0 -1.3
v 5.5 0.1 -0.8
v 5.5 0.1 -1.3
v 2.6 0 1.6
v 2.6 0.1 1.6
v 2.8 0 1.6
v 2.8 0.1 1.6
v 2.8 0 1.5
v 2.8 0.1 1.5
v 2.9 0 1.5
v 2.9 0.1 1.5
v 2.9 0 1.4
v 2.9 0.1 1.4
v 3 0 1.4
v 3 0.1 1.4
v 3 0 1.3
v 3 0.1 1.3
v 3.1 0 1.3
v 3.1 0.1 1.3
v 3.1 0 1.2
v 3.1 0.1 1.2
v 3.2 0 1.2
v 3.2 0.1 1.2
v 3.7 0 1.2
v 3.7 0.1 1.2
v 4 0 1.2
v 4 0.1 1.2
v 3.2 0 1.1
v 3.2 0.1 1.1
v 3.3 0 1.1
v 3.3 0.1 1.1
v 3.5 0 1.1
v 3.5 0.1 1.1
v 3.7 0 1.1
v 3.7 0.1 1.1
v 4 0 1.1
v 4 0.1 1.1
v 4.1 0 1.1
v 4.1 0.1 1.1
v 3.3 0 1
v 3.3 0.1 1
v 3.5 0 1
v 3.5 0.1 1
v 3.8 0 0.8
v 3.8 0.1 0.8
v 3.9 0 0.8
v 3.9 0.1 0.8
v 3.1 0 0.7
v 3.1 0.1 0.7
v 3.2 0 0.7
v 3.2 0.1 0.7
v 3.9 0 0.7
v 3.9 0.1 0.7
v 4 0 0.7
v 4 0.1 0.7
v 4 0 0.6
v 4 0.1 0.6
v 4.1 0 0.6
v 4.1 0.1 0.6
v 3 0 0.5
v 3 0.1 0.5
v 3.1 0 0.5
v 3.1 0.1 0.5
v 4.1 0 0.5
v 4.1 0.1 0.5
v 4.2 0 0.5
v 4.2 0.1 0.5
v 4.2 0 0.4
v 4.2 0.1 0.4
v 4.3 0 0.4
v 4.3 0.1 0.4
v 4.3 0 0.3
v 4.3 0.1 0.3
v 4.4 0 0.3
v 4.4 0.1 0.3
v 3.2 0 0.2
v 3.2 0.1 0.2
v 3.3 0 0.2
v 3.3 0.1 0.2
v 4.4 0 0.2
v 4.4 0.1 0.2
v 4.5 0 0.2
v 4.5 0.1 0.2
v 4.5 0 0.1
v 4.5 0.1 0.1
v 4.6 0 0.1
v 4.6 0.1 0.1
v 4.6 0 0
v 4.6 0.1 0
v 4.7 0 0
v 4.7 0.1 0
v 4.7 0 -0.1
v 4.7 0.1 -0.1
v 4.8 0 -0.1
v 4.8 0.1 -0.1
v 4.8 0 -0.2
v 4.8 0.1 -0.2
v 4.9 0 -0.2
v 4.9 0.1 -0.2
v 4.9 0 -0.3
v 4.9 0.1 -0.3
v 5 0 -0.3
v 5 0.1 -0.3
v 5 0 -0.4
v 5 0.1 -0.4
v 5.1 0 -0.4
v 5.1 0.1 -0.4
v 5.1 0 -0.5
v 5.1 0.1 -0.5
v 5.2 0 -0.5
v 5.2 0.1 -0.5
v 5.2 0 -0.6
v 5.2 0.1 -0.6
v 5.3 0 -0.6
v 5.3 0.1 -0.6
v 5.3 0 -0.7
v 5.3 0.1 -0.7
v 5.4 0 -0.7
v 5.4 0.1 -0.7
v 5.4 0 -0.8
v 5.4 0.1 -0.8
v 5.5 0 -0.8
v 5.5 0.1 -0.8
v 2.6 0 1.4
v 2.6 0.1 1.4
v 2.7 0 1.4
v 2.7 0.1 1.4
v 2.7 0 1.3
v 2.7 0.1 1.3
v 2.8 0 1.3
v 2.8 0.1 1.3
v 2.8 0 1.2
v 2.8 0.1 1.2
v 2.9 0 1.2
v 2.9 0.1 1.2
v 2.9 0 1.1
v 2.9 0.1 1.1
v 3 0 1.1
v 3 0.1 1.1
v 3 0 1
v 3 0.1 1
v 3.1 0 1
v 3.1 0.1 1
v 3.9 0 1
v 3.9 0.1 1
v 4 0 1
v 4 0.1 1
v 3.1 0 0.9
v 3.1 0.1 0.9
v 3.2 0 0.9
v 3.2 0.1 0.9
v 3.8 0 0.9
v 3.8 0.1 0.9
v 3.9 0 0.9
v 3.9 0.1 0.9
v 4 0 0.9
v 4 0.1 0.9
v 4.1 0 0.9
v 4.1 0.1 0.9
v 3.3 0 0.4
v 3.3 0.1 0.4
v 3.4 0 0.4
v 3.4 0.1 0.4
v 3.2 0 0.3
v 3.2 0.1 0.3
v 3.3 0 0.3
v 3.3 0.1 0.3
v 3.4 0 0.3
v 3.4 0.1 0.3
v 3.5 0 0.3
v 3.5 0.1 0.3
v 3 0 0.2
v 3 0.1 0.2
v 3.1 0 0.2
v 3.1 0.1 0.2
v 3.5 0 0.2
v 3.5 0.1 0.2
v 3.6 0 0.2
v 3.6 0.1 0.2
v 3.1 0 0.1
v 3.1 0.1 0.1
v 3.3 0 0.1
v 3.3 0.1 0.1
v 3.6 0 0.1
v 3.6 0.1 0.1
v 3.7 0 0.1
v 3.7 0.1 0.1
v 3.7 0 0
v 3.7 0.1 0
v 3.8 0 0
v 3.8 0.1 0
v 3.8 0 -0.1
v 3.8 0.1 -0.1
v 3.9 0 -0.1
v 3.9 0.1 -0.1
v 3.9 0 -0.2
v 3.9 0.1 -0.2
v 4 0 -0.2
v 4 0.1 -0.2
v 4 0 -0.3
v 4 0.1 -0.3
v 4.1 0 -0.3
v 4.1 0.1 -0.3
v 4.1 0 -0.4
v 4.1 0.1 -0.4
v 4.2 0 -0.4
v 4.2 0.1 -0.4
v 4.2 0 -0.5
v 4.2 0.1 -0.5
v 4.3 0 -0.5
v 4.3 0.1 -0.5
v 4.3 0 -0.6
v 4.3 0.1 -0.6
v 4.4 0 -0.6
v 4.4 0.1 -0.6
v 4.4 0 -0.7
v 4.4 0.1 -0.7
v 4.5 0 -0.7
v 4.5 0.1 -0.7
v 4.5 0 -0.8
v 4.5 0.1 -0.8
v 4.6 0 -0.8
v 4.6 0.1 -0.8
v 4.6 0 -0.9
v 4.6 0.1 -0.9
v 4.7 0 -0.9
v 4.7 0.1 -0.9
v 4.7 0 -1
v 4.7 0.1 -1
v 4.8 0 -1
v 4.8 0.1 -1
v 4.8 0 -1.1
v 4.8 0.1 -1.1
v 4.9 0 -1.1
v 4.9 0.1 -1.1
v 4.9 0 -1.2
v 4.9 0.1 -1.2
v 5 0 -1.2
v 5 0.1 -1.2
v 5 0 -1.3
v 5 0.1 -1.3
v 5.5 0 -1.3
v 5.5 0.1 -1.3
v 2.6 0 1.6
v 2.8 0 1.6
v 2.7 0 1.5
v 2.8 0 1.5
v 2.9 0 1.5
v 2.6 0 1.4
v 2.7 0 1.4
v 2.8 0 1.4
v 2.9 0 1.4
v 3 0 1.4
v 2.7 0 1.3
v 2.8 0 1.3
v 3 0 1.3
v 3.1 0 1.3
v 2.8 0 1.2
v 2.9 0 1.2
v 3.1 0 1.2
v 3.2 0 1.2
v 3.7 0 1.2
v 4 0 1.2
v 2.9 0 1.1
v 3 0 1.1
v 3.2 0 1.1
v 3.3 0 1.1
v 3.5 0 1.1
v 3.7 0 1.1
v 3.9 0 1.1
v 4 0 1.1
v 4.1 0 1.1
v 3 0 1
v 3.1 0 1
v 3.3 0 1
v 3.5 0 1
v 3.6 0 1
v 3.7 0 1
v 3.9 0 1
v 4 0 1
v 3.1 0 0.9
v 3.2 0 0.9
v 3.3 0 0.9
v 3.4 0 0.9
v 3.5 0 0.9
v 3.6 0 0.9
v 3.7 0 0.9
v 3.8 0 0.9
v 3.9 0 0.9
v 4 0 0.9
v 4.1 0 0.9
v 3.3 0 0.8
v 3.4 0 0.8
v 3.5 0 0.8
v 3.6 0 0.8
v 3.7 0 0.8
v 3.8 0 0.8
v 3.9 0 0.8
v 3.1 0 0.7
v 3.2 0 0.7
v 3.3 0 0.7
v 3.4 0 0.7
v 3.5 0 0.7
v 3.6 0 0.7
v 3.7 0 0.7
v 3.8 0 0.7
v 3.9 0 0.7
v 4 0 0.7
v 3.2 0 0.6
v 3.3 0 0.6
v 3.4 0 0.6
v 3.5 0 0.6
v 3.6 0 0.6
v 3.7 0 0.6
v 3.8 0 0.6
v 3.9 0 0.6
v 4 0 0.6
v 4.1 0 0.6
v 3 0 0.5
v 3.1 0 0.5
v 3.2 0 0.5
v 3.3 0 0.5
v 3.4 0 0.5
v 3.5 0 0.5
v 3.6 0 0.5
v 3.7 0 0.5
v 3.8 0 0.5
v 3.9 0 0.5
v 4 0 0.5
v 4.1 0 0.5
v 4.2 0 0.5
v 3.3 0 0.4
v 3.4 0 0.4
v 3.5 0 0.4
v 3.6 0 0.4
v 3.7 0 0.4
v 3.8 0 0.4
v 3.9 0 0.4
v 4 0 0.4
v 4.1 0 0.4
v 4.2 0 0.4
v 4.3 0 0.4
v 3.1 0 0.3
v 3.2 0 0.3
v 3.3 0 0.3
v 3.4 0 0.3
v 3.5 0 0.3
v 3.6 0 0.3
v 3.7 0 0.3
v 3.8 0 0.3
v 3.9 0 0.3
v 4 0 0.3
v 4.1 0 0.3
v 4.2 0 0.3
v 4.3 0 0.3
v 4.4 0 0.3
v 3 0 0.2
v 3.1 0 0.2
v 3.2 0 0.2
v 3.3 0 0.2
v 3.5 0 0.2
v 3.6 0 0.2
v 3.7 0 0.2
v 3.8 0 0.2
v 3.9 0 0.2
v 4 0 0.2
v 4.1 0 0.2
v 4.2 0 0.2
v 4.3 0 0.2
v 4.4 0 0.2
v 4.5 0 0.2
v 3.1 0 0.1
v 3.3 0 0.1
v 3.6 0 0.1
v 3.7 0 0.1
v 3.8 0 0.1
v 3.9 0 0.1
v 4 0 0.1
v 4.1 0 0.1
v 4.2 0 0.1
v 4.3 0 0.1
v 4.4 0 0.1
v 4.5 0 0.1
v 4.6 0 0.1
v 3.7 0 0
v 3.8 0 0
v 3.9 0 0
v 4 0 0
v 4.1 0 0
v 4.2 0 0
v 4.3 0 0
v 4.4 0 0
v 4.5 0 0
v 4.6 0 0
v 4.7 0 0
v 3.8 0 -0.1
v 3.9 0 -0.1
v 4 0 -0.1
v 4.1 0 -0.1
v 4.2 0 -0.1
v 4.3 0 -0.1
v 4.4 0 -0.1
v 4.5 0 -0.1
v 4.6 0 -0.1
v 4.7 0 -0.1
v 4.8 0 -0.1
v 3.9 0 -0.2
v 4 0 -0.2
v 4.1 0 -0.2
v 4.2 0 -0.2
v 4.3 0 -0.2
v 4.4 0 -0.2
v 4.5 0 -0.2
v 4.6 0 -0.2
v 4.7 0 -0.2
v 4.8 0 -0.2
v 4.9 0 -0.2
v 4 0 -0.3
v 4.1 0 -0.3
v 4.2 0 -0.3
v 4.3 0 -0.3
v 4.4 0 -0.3
v 4.5 0 -0.3
v 4.6 0 -0.3
v 4.7 0 -0.3
v 4.8 0 -0.3
v 4.9 0 -0.3
v 5 0 -0.3
v 4.1 0 -0.4
v 4.2 0 -0.4
v 4.3 0 -0.4
v 4.4 0 -0.4
v 4.5 0 -0.4
v 4.6 0 -0.4
v 4.7 0 -0.4
v 4.8 0 -0.4
v 4.9 0 -0.4
v 5 0 -0.4
v 5.1 0 -0.4
v 4.2 0 -0.5
v 4.3 0 -0.5
v 4.4 0 -0.5
v 4.5 0 -0.5
v 4.6 0 -0.5
v 4.7 0 -0.5
v 4.8 0 -0.5
v 4.9 0 -0.5
v 5 0 -0.5
v 5.1 0 -0.5
v 5.2 0 -0.5
v 4.3 0 -0.6
v 4.4 0 -0.6
v 4.5 0 -0.6
v 4.6 0 -0.6
v 4.7 0 -0.6
v 4.8 0 -0.6
v 4.9 0 -0.6
v 5 0 -0.6
v 5.1 0 -0.6
v 5.2 0 -0.6
v 5.3 0 -0.6
v 4.4 0 -0.7
v 4.5 0 -0.7
v 4.6 0 -0.7
v 4.7 0 -0.7
v 4.8 0 -0.7
v 4.9 0 -0.7
v 5 0 -0.7
v 5.1 0 -0.7
v 5.2 0 -0.7
v 5.3 0 -0.7
v 5.4 0 -0.7
v 4.5 0 -0.8
v 4.6 0 -0.8
v 4.7 0 -0.8
v 4.8 0 -0.8
v 4.9 0 -0.8
v 5 0 -0.8
v 5.1 0 -0.8
v 5.2 0 -0.8
v 5.3 0 -0.8
v 5.4 0 -0.8
v 5.5 0 -0.8
v 4.6 0 -0.9
v 4.7 0 -0.9
v 4.8 0 -0.9
v 4.9 0 -0.9
v 5 0 -0.9
v 5.1 0 -0.9
v 5.2 0 -0.9
v 5.3 0 -0.9
v 4.7 0 -1
v 4.8 0 -1
v 4.9 0 -1
v 5 0 -1
v 5.1 0 -1
v 5.2 0 -1
v 5.3 0 -1
v 4.8 0 -1.1
v 4.9 0 -1.1
v 5 0 -1.1
v 5.1 0 -1.1
v 5.2 0 -1.1
v 5.3 0 -1.1
v 4.9 0 -1.2
v 5 0 -1.2
v 5.4 0 -1.2
v 5 0 -1.3
v 5.5 0 -1.3
v 2.6 0.1 1.6
v 2.8 0.1 1.6
v 2.7 0.1 1.5
v 2.8 0.1 1.5
v 2.9 0.1 1.5
v 2.6 0.1 1.4
v 2.7 0.1 1.4
v 2.8 0.1 1.4
v 2.9 0.1 1.4
v 3 0.1 1.4
v 2.7 0.1 1.3
v 2.8 0.1 1.3
v 3 0.1 1.3
v 3.1 0.1 1.3
v 2.8 0.1 1.2
v 2.9 0.1 1.2
v 3.1 0.1 1.2
v 3.2 0.1 1.2
v 3.7 0.1 1.2
v 4 0.1 1.2
v 2.9 0.1 1.1
v 3 0.1 1.1
v 3.2 0.1 1.1
v 3.3 0.1 1.1
v 3.5 0.1 1.1
v 3.7 0.1 1.1
v 3.9 0.1 1.1
v 4 0.1 1.1
v 4.1 0.1 1.1
v 3 0.1 1
v 3.1 0.1 1
v 3.3 0.1 1
v 3.5 0.1 1
v 3.6 0.1 1
v 3.7 0.1 1
v 3.9 0.1 1
v 4 0.1 1
v 3.1 0.1 0.9
v 3.2 0.1 0.9
v 3.3 0.1 0.9
v 3.4 0.1 0.9
v 3.5 0.1 0.9
v 3.6 0.1 0.9
v 3.7 0.1 0.9
v 3.8 0.1 0.9
v 3.9 0.1 0.9
v 4 0.1 0.9
v 4.1 0.1 0.9
v 3.3 0.1 0.8
v 3.4 0.1 0.8
v 3.5 0.1 0.8
v 3.6 0.1 0.8
v 3.7 0.1 0.8
v 3.8 0.1 0.8
v 3.9 0.1 0.8
v 3.1 0.1 0.7
v 3.2 0.1 0.7
v 3.3 0.1 0.7
v 3.4 0.1 0.7
v 3.5 0.1 0.7
v 3.6 0.1 0.7
v 3.7 0.1 0.7
v 3.8 0.1 0.7
v 3.9 0.1 0.7
v 4 0.1 0.7
v 3.2 0.1 0.6
v 3.3 0.1 0.6
v 3.4 0.1 0.6
v 3.5 0.1 0.6
v 3.6 0.1 0.6
v 3.7 0.1 0.6
v 3.8 0.1 0.6
v 3.9 0.1 0.6
v 4 0.1 0.6
v 4.1 0.1 0.6
v 3 0.1 0.5
v 3.1 0.1 0.5
v 3.2 0.1 0.5
v 3.3 0.1 0.5
v 3.4 0.1 0.5
v 3.5 0.1 0.5
v 3.6 0.1 0.5
v 3.7 0.1 0.5
v 3.8 0.1 0.5
v 3.9 0.1 0.5
v 4 0.1 0.5
v 4.1 0.1 0.5
v 4.2 0.1 0.5
v 3.3 0.1 0.4
v 3.4 0.1 0.4
v 3.5 0.1 0.4
v 3.6 0.1 0.4
v 3.7 0.1 0.4
v 3.8 0.1 0.4
v 3.9 0.1 0.4
v 4 0.1 0.4
v 4.1 0.1 0.4
v 4.2 0.1 0.4
v 4.3 0.1 0.4
v 3.1 0.1 0.3
v 3.2 0.1 0.3
v 3.3 0.1 0.3
v 3.4 0.1 0.3
v 3.5 0.1 0.3
v 3.6 0.1 0.3
v 3.7 0.1 0.3
v 3.8 0.1 0.3
v 3.9 0.1 0.3
v 4 0.1 0.3
v 4.1 0.1 0.3
v 4.2 0.1 0.3
v 4.3 0.1 0.3
v 4.4 0.1 0.3
v 3 0.1 0.2
v 3.1 0.1 0.2
v 3.2 0.1 0.2
v 3.3 0.1 0.2
v 3.5 0.1 0.2
v 3.6 0.1 0.2
v 3.7 0.1 0.2
v 3.8 0.1 0.2
v 3.9 0.1 0.2
v 4 0.1 0.2
v 4.1 0.1 0.2
v 4.2 0.1 0.2
v 4.3 0.1 0.2
v 4.4 0.1 0.2
v 4.5 0.1 0.2
v 3.1 0.1 0.1
v 3.3 0.1 0.1
v 3.6 0.1 0.1
v 3.7 0.1 0.1
v 3.8 0.1 0.1
v 3.9 0.1 0.1
v 4 0.1 0.1
v 4.1 0.1 0.1
v 4.2 0.1 0.1
v 4.3 0.1 0.1
v 4.4 0.1 0.1
v 4.5 0.1 0.1
v 4.6 0.1 0.1
v 3.7 0.1 0
v 3.8 0.1 0
v 3.9 0.1 0
v 4 0.1 0
v 4.1 0.1 0
v 4.2 0.1 0
v 4.3 0.1 0
v 4.4 0.1 0
v 4.5 0.1 0
v 4.6 0.1 0
v 4.7 0.1 0
v 3.8 0.1 -0.1
v 3.9 0.1 -0.1
v 4 0.1 -0.1
v 4.1 0.1 -0.1
v 4.2 0.1 -0.1
v 4.3 0.1 -0.1
v 4.4 0.1 -0.1
v 4.5 0.1 -0.1
v 4.6 0.1 -0.1
v 4.7 0.1 -0.1
v 4.8 0.1 -0.1
v 3.9 0.1 -0.2
v 4 0.1 -0.2
v 4.1 0.1 -0.2
v 4.2 0.1 -0.2
v 4.3 0.1 -0.2
v 4.4 0.1 -0.2
v 4.5 0.1 -0.2
v 4.6 0.1 -0.2
v 4.7 0.1 -0.2
v 4.8 0.1 -0.2
v 4.9 0.1 -0.2
v 4 0.1 -0.3
v 4.1 0.1 -0.3
v 4.2 0.1 -0.3
v 4.3 0.1 -0.3
v 4.4 0.1 -0.3
v 4.5 0.1 -0.3
v 4.6 0.1 -0.3
v 4.7 0.1 -0.3
v 4.8 0.1 -0.3
v 4.9 0.1 -0.3
v 5 0.1 -0.3
v 4.1 0.1 -0.4
v 4.2 0.1 -0.4
v 4.3 0.1 -0.4
v 4.4 0.1 -0.4
v 4.5 0.1 -0.4
v 4.6 0.1 -0.4
v 4.7 0.1 -0.4
v 4.8 0.1 -0.4
v 4.9 0.1 -0.4
v 5 0.1 -0.4
v 5.1 0.1 -0.4
v 4.2 0.1 -0.5
v 4.3 0.1 -0.5
v 4.4 0.1 -0.5
v 4.5 0.1 -0.5
v 4.6 0.1 -0.5
v 4.7 0.1 -0.5
v 4.8 0.1 -0.5
v 4.9 0.1 -0.5
v 5 0.1 -0.5
v 5.1 0.1 -0.5
v 5.2 0.1 -0.5
v 4.3 0.1 -0.6
v 4.4 0.1 -0.6
v 4.5 0.1 -0.6
v 4.6 0.1 -0.6
v 4.7 0.1 -0.6
v 4.8 0.1 -0.6
v 4.9 0.1 -0.6
v 5 0.1 -0.6
v 5.1 0.1 -0.6
v 5.2 0.1 -0.6
v 5.3 0.1 -0.6
v 4.4 0.1 -0.7
v 4.5 0.1 -0.7
v 4.6 0.1 -0.7
v 4.7 0.1 -0.7
v 4.8 0.1 -0.7
v 4.9 0.1 -0.7
v 5 0.1 -0.7
v 5.1 0.1 -0.7
v 5.2 0.1 -0.7
v 5.3 0.1 -0.7
v 5.4 0.1 -0.7
v 4.5 0.1 -0.8
v 4.6 0.1 -0.8
v 4.7 0.1 -0.8
v 4.8 0.1 -0.8
v 4.9 0.1 -0.8
v 5 0.1 -0.8
v 5.1 0.1 -0.8
v 5.2 0.1 -0.8
v 5.3 0.1 -0.8
v 5.4 0.1 -0.8
v 5.5 0.1 -0.8
v 4.6 0.1 -0.9
v 4.7 0.1 -0.9
v 4.8 0.1 -0.9
v 4.9 0.1 -0.9
v 5 0.1 -0.9
v 5.1 0.1 -0.9
v 5.2 0.1 -0.9
v 5.3 0.1 -0.9
v 4.7 0.1 -1
v 4.8 0.1 -1
v 4.9 0.1 -1
v 5 0.1 -1
v 5.1 0.1 -1
v 5.2 0.1 -1
v 5.3 0.1 -1
v 4.8 0.1 -1.1
v 4.9 0.1 -1.1
v 5 0.1 -1.1
v 5.1 0.1 -1.1
v 5.2 0.1 -1.1
v 5.3 0.1 -1.1
v 4.9 0.1 -1.2
v 5 0.1 -1.2
v 5.4 0.1 -1.2
v 5 0.1 -1.3
v 5.5 0.1 -1.3

# faces
f 3/4/1 2/4/1 1/4/1
f 4/4/1 2/4/1 3/4/1
f 7/5/1 6/5/1 5/5/1
f 8/5/1 6/5/1 7/5/1
f 11/5/1 10/5/1 9/5/1
f 12/5/1 10/5/1 11/5/1
f 15/5/1 14/5/1 13/5/1
f 16/5/1 14/5/1 15/5/1
f 21/5/1 18/5/1 17/5/1
f 22/5/1 18/5/1 21/5/1
f 23/5/1 20/5/1 19/5/1
f 24/5/1 20/5/1 23/5/1
f 31/5/1 26/5/1 25/5/1
f 32/5/1 26/5/1 31/5/1
f 33/5/1 28/5/1 27/5/1
f 34/5/1 28/5/1 33/5/1
f 35/5/1 30/5/1 29/5/1
f 36/5/1 30/5/1 35/5/1
f 39/5/1 38/5/1 37/5/1
f 40/5/1 38/5/1 39/5/1
f 43/2/1 42/2/1 41/2/1
f 44/2/1 42/2/1 43/2/1
f 49/5/1 46/5/1 45/5/1
f 50/5/1 46/5/1 49/5/1
f 51/2/1 48/2/1 47/2/1
f 52/2/1 48/2/1 51/2/1
f 55/2/1 54/2/1 53/2/1
f 56/2/1 54/2/1 55/2/1
f 61/5/1 58/5/1 57/5/1
f 62/5/1 58/5/1 61/5/1
f 63/2/1 60/2/1 59/2/1
f 64/2/1 60/2/1 63/2/1
f 67/2/1 66/2/1 65/2/1
f 68/2/1 66/2/1 67/2/1
f 71/2/1 70/2/1 69/2/1
f 72/2/1 70/2/1 71/2/1
f 77/5/1 74/5/1 73/5/1
f 78/5/1 74/5/1 77/5/1
f 79/2/1 76/2/1 75/2/1
f 80/2/1 76/2/1 79/2/1
f 83/2/1 82/2/1 81/2/1
f 84/2/1 82/2/1 83/2/1
f 87/2/1 86/2/1 85/2/1
f 88/2/1 86/2/1 87/2/1
f 91/2/1 90/2/1 89/2/1
f 92/2/1 90/2/1 91/2/1
f 95/2/1 94/2/1 93/2/1
f 96/2/1 94/2/1 95/2/1
f 99/2/1 98/2/1 97/2/1
f 100/2/1 98/2/1 99/2/1
f 103/2/1 102/2/1 101/2/1
f 104/2/1 102/2/1 103/2/1
f 107/2/1 106/2/1 105/2/1
f 108/2/1 106/2/1 107/2/1
f 111/2/1 110/2/1 109/2/1
f 112/2/1 110/2/1 111/2/1
f 115/2/1 114/2/1 113/2/1
f 116/2/1 114/2/1 115/2/1
f 119/2/1 118/2/1 117/2/1
f 120/2/1 118/2/1 119/2/1
f 121/4/2 122/4/2 123/4/2
f 123/4/2 122/4/2 124/4/2
f 125/5/2 126/5/2 127/5/2
f 127/5/2 126/5/2 128/5/2
f 129/5/2 130/5/2 131/5/2
f 131/5/2 130/5/2 132/5/2
f 133/5/2 134/5/2 135/5/2
f 135/5/2 134/5/2 136/5/2
f 137/5/2 138/5/2 141/5/2
f 141/5/2 138/5/2 142/5/2
f 139/5/2 140/5/2 143/5/2
f 143/5/2 140/5/2 144/5/2
f 145/5/2 146/5/2 151/5/2
f 151/5/2 146/5/2 152/5/2
f 147/5/2 148/5/2 153/5/2
f 153/5/2 148/5/2 154/5/2
f 149/5/2 150/5/2 155/5/2
f 155/5/2 150/5/2 156/5/2
f 157/5/2 158/5/2 159/5/2
f 159/5/2 158/5/2 160/5/2
f 161/5/2 162/5/2 165/5/2
f 165/5/2 162/5/2 166/5/2
f 163/2/2 164/2/2 167/2/2
f 167/2/2 164/2/2 168/2/2
f 169/5/2 170/5/2 173/5/2
f 173/5/2 170/5/2 174/5/2
f 171/2/2 172/2/2 175/2/2
f 175/2/2 172/2/2 176/2/2
f 177/5/2 178/5/2 181/5/2
f 181/5/2 178/5/2 182/5/2
f 179/2/2 180/2/2 183/2/2
f 183/2/2 180/2/2 184/2/2
f 185/2/2 186/2/2 187/2/2
f 187/2/2 186/2/2 188/2/2
f 189/2/2 190/2/2 191/2/2
f 191/2/2 190/2/2 192/2/2
f 193/2/2 194/2/2 195/2/2
f 195/2/2 194/2/2 196/2/2
f 197/2/2 198/2/2 199/2/2
f 199/2/2 198/2/2 200/2/2
f 201/2/2 202/2/2 203/2/2
f 203/2/2 202/2/2 204/2/2
f 205/2/2 206/2/2 207/2/2
f 207/2/2 206/2/2 208/2/2
f 209/2/2 210/2/2 211/2/2
f 211/2/2 210/2/2 212/2/2
f 213/2/2 214/2/2 215/2/2
f 215/2/2 214/2/2 216/2/2
f 217/2/2 218/2/2 219/2/2
f 219/2/2 218/2/2 220/2/2
f 221/2/2 222/2/2 223/2/2
f 223/2/2 222/2/2 224/2/2
f 225/2/2 226/2/2 227/2/2
f 227/2/2 226/2/2 228/2/2
f 229/2/2 230/2/2 231/2/2
f 231/2/2 230/2/2 232/2/2
f 233/2/2 234/2/2 235/2/2
f 235/2/2 234/2/2 236/2/2
f 237/2/2 238/2/2 239/2/2
f 239/2/2 238/2/2 240/2/2
f 243/4/3 242/4/3 241/4/3
f 244/4/3 242/4/3 243/4/3
f 247/5/3 246/5/3 245/5/3
f 248/5/3 246/5/3 247/5/3
f 251/5/3 250/5/3 249/5/3
f 252/5/3 250/5/3 251/5/3
f 255/5/3 254/5/3 253/5/3
f 256/5/3 254/5/3 255/5/3
f 259/5/3 258/5/3 257/5/3
f 260/5/3 258/5/3 259/5/3
f 263/5/3 262/5/3 261/5/3
f 264/5/3 262/5/3 263/5/3
f 267/5/3 266/5/3 265/5/3
f 268/5/3 266/5/3 267/5/3
f 271/5/3 270/5/3 269/5/3
f 272/5/3 270/5/3 271/5/3
f 275/5/3 274/5/3 273/5/3
f 276/5/3 274/5/3 275/5/3
f 279/5/3 278/5/3 277/5/3
f 280/5/3 278/5/3 279/5/3
f 283/2/3 282/2/3 281/2/3
f 284/2/3 282/2/3 283/2/3
f 287/5/3 286/5/3 285/5/3
f 288/5/3 286/5/3 287/5/3
f 291/2/3 290/2/3 289/2/3
f 292/2/3 290/2/3 291/2/3
f 295/2/3 294/2/3 293/2/3
f 296/2/3 294/2/3 295/2/3
f 299/5/3 298/5/3 297/5/3
f 300/5/3 298/5/3 299/5/3
f 303/2/3 302/2/3 301/2/3
f 304/2/3 302/2/3 303/2/3
f 307/2/3 306/2/3 305/2/3
f 308/2/3 306/2/3 307/2/3
f 311/2/3 310/2/3 309/2/3
f 312/2/3 310/2/3 311/2/3
f 315/5/3 314/5/3 313/5/3
f 316/5/3 314/5/3 315/5/3
f 319/2/3 318/2/3 317/2/3
f 320/2/3 318/2/3 319/2/3
f 323/2/3 322/2/3 321/2/3
f 324/2/3 322/2/3 323/2/3
f 327/2/3 326/2/3 325/2/3
f 328/2/3 326/2/3 327/2/3
f 331/2/3 330/2/3 329/2/3
f 332/2/3 330/2/3 331/2/3
f 335/2/3 334/2/3 333/2/3
f 336/2/3 334/2/3 335/2/3
f 339/2/3 338/2/3 337/2/3
f 340/2/3 338/2/3 339/2/3
f 343/2/3 342/2/3 341/2/3
f 344/2/3 342/2/3 343/2/3
f 347/2/3 346/2/3 345/2/3
f 348/2/3 346/2/3 347/2/3
f 351/2/3 350/2/3 349/2/3
f 352/2/3 350/2/3 351/2/3
f 355/2/3 354/2/3 353/2/3
f 356/2/3 354/2/3 355/2/3
f 359/2/3 358/2/3 357/2/3
f 360/2/3 358/2/3 359/2/3
f 361/4/4 362/4/4 363/4/4
f 363/4/4 362/4/4 364/4/4
f 365/5/4 366/5/4 367/5/4
f 367/5/4 366/5/4 368/5/4
f 369/5/4 370/5/4 371/5/4
f 371/5/4 370/5/4 372/5/4
f 373/5/4 374/5/4 375/5/4
f 375/5/4 374/5/4 376/5/4
f 377/5/4 378/5/4 379/5/4
f 379/5/4 378/5/4 380/5/4
f 381/5/4 382/5/4 383/5/4
f 383/5/4 382/5/4 384/5/4
f 385/5/4 386/5/4 387/5/4
f 387/5/4 386/5/4 388/5/4
f 389/5/4 390/5/4 391/5/4
f 391/5/4 390/5/4 392/5/4
f 393/5/4 394/5/4 395/5/4
f 395/5/4 394/5/4 396/5/4
f 397/5/4 398/5/4 399/5/4
f 399/5/4 398/5/4 400/5/4
f 401/5/4 402/5/4 403/5/4
f 403/5/4 402/5/4 404/5/4
f 405/2/4 406/2/4 407/2/4
f 407/2/4 406/2/4 408/2/4
f 409/5/4 410/5/4 411/5/4
f 411/5/4 410/5/4 412/5/4
f 413/2/4 414/2/4 415/2/4
f 415/2/4 414/2/4 416/2/4
f 417/5/4 418/5/4 419/5/4
f 419/5/4 418/5/4 420/5/4
f 421/2/4 422/2/4 423/2/4
f 423/2/4 422/2/4 424/2/4
f 425/2/4 426/2/4 427/2/4
f 427/2/4 426/2/4 428/2/4
f 429/2/4 430/2/4 431/2/4
f 431/2/4 430/2/4 432/2/4
f 433/2/4 434/2/4 435/2/4
f 435/2/4 434/2/4 436/2/4
f 437/2/4 438/2/4 439/2/4
f 439/2/4 438/2/4 440/2/4
f 441/2/4 442/2/4 443/2/4
f 443/2/4 442/2/4 444/2/4
f 445/2/4 446/2/4 447/2/4
f 447/2/4 446/2/4 448/2/4
f 449/2/4 450/2/4 451/2/4
f 451/2/4 450/2/4 452/2/4
f 453/2/4 454/2/4 455/2/4
f 455/2/4 454/2/4 456/2/4
f 457/2/4 458/2/4 459/2/4
f 459/2/4 458/2/4 460/2/4
f 461/2/4 462/2/4 463/2/4
f 463/2/4 462/2/4 464/2/4
f 465/2/4 466/2/4 467/2/4
f 467/2/4 466/2/4 468/2/4
f 469/2/4 470/2/4 471/2/4
f 471/2/4 470/2/4 472/2/4
f 473/2/4 474/2/4 475/2/4
f 475/2/4 474/2/4 476/2/4
f 477/2/4 478/2/4 479/2/4
f 479/2/4 478/2/4 480/2/4
f 483/4/5 482/4/5 481/4/5
f 484/4/5 482/4/5 483/4/5
f 486/4/5 483/4/5 481/4/5
f 487/1/5 484/1/5 483/1/5
f 487/4/5 483/4/5 486/4/5
f 488/5/5 485/5/5 484/5/5
f 488/1/5 484/1/5 487/1/5
f 489/5/5 485/5/5 488/5/5
f 491/5/5 490/5/5 489/5/5
f 491/5/5 489/5/5 488/5/5
f 491/5/5 488/5/5 487/5/5
f 492/5/5 490/5/5 491/5/5
f 493/5/5 490/5/5 492/5/5
f 495/5/5 494/5/5 493/5/5
f 495/5/5 493/5/5 492/5/5
f 496/5/5 494/5/5 495/5/5
f 497/5/5 494/5/5 496/5/5
f 501/5/5 497/5/5 496/5/5
f 501/5/5 498/5/5 497/5/5
f 502/5/5 498/5/5 501/5/5
f 503/5/5 498/5/5 502/5/5
f 506/5/5 500/5/5 499/5/5
f 507/5/5 500/5/5 506/5/5
f 508/5/5 500/5/5 507/5/5
f 510/5/5 504/5/5 503/5/5
f 510/5/5 503/5/5 502/5/5
f 511/5/5 504/5/5 510/5/5
f 512/5/5 504/5/5 511/5/5
f 513/5/5 506/5/5 505/5/5
f 514/5/5 506/5/5 513/5/5
f 515/3/5 507/3/5 506/3/5
f 515/5/5 506/5/5 514/5/5
f 516/5/5 509/5/5 508/5/5
f 516/3/5 507/3/5 515/3/5
f 516/5/5 508/5/5 507/5/5
f 517/5/5 509/5/5 516/5/5
f 518/5/5 513/5/5 512/5/5
f 518/5/5 514/5/5 513/5/5
f 518/5/5 512/5/5 511/5/5
f 519/5/5 514/5/5 518/5/5
f 520/5/5 514/5/5 519/5/5
f 521/5/5 514/5/5 520/5/5
f 522/5/5 514/5/5 521/5/5
f 523/3/5 515/3/5 514/3/5
f 523/5/5 514/5/5 522/5/5
f 524/5/5 516/5/5 515/5/5
f 524/3/5 515/3/5 523/3/5
f 525/5/5 516/5/5 524/5/5
f 526/5/5 516/5/5 525/5/5
f 527/5/5 509/5/5 517/5/5
f 528/5/5 509/5/5 527/5/5
f 529/5/5 520/5/5 519/5/5
f 529/2/5 521/2/5 520/2/5
f 530/1/5 522/1/5 521/1/5
f 530/2/5 521/2/5 529/2/5
f 531/3/5 523/3/5 522/3/5
f 531/1/5 522/1/5 530/1/5
f 532/5/5 525/5/5 524/5/5
f 532/3/5 523/3/5 531/3/5
f 532/5/5 524/5/5 523/5/5
f 533/5/5 525/5/5 532/5/5
f 534/5/5 525/5/5 533/5/5
f 537/5/5 529/5/5 519/5/5
f 538/1/5 530/1/5 529/1/5
f 538/5/5 529/5/5 537/5/5
f 539/2/5 531/2/5 530/2/5
f 539/1/5 530/1/5 538/1/5
f 540/5/5 532/5/5 531/5/5
f 540/2/5 531/2/5 539/2/5
f 540/5/5 533/5/5 532/5/5
f 541/5/5 533/5/5 540/5/5
f 542/1/5 534/1/5 533/1/5
f 542/5/5 533/5/5 541/5/5
f 543/2/5 535/2/5 534/2/5
f 543/1/5 534/1/5 542/1/5
f 544/2/5 535/2/5 543/2/5
f 546/5/5 537/5/5 536/5/5
f 546/5/5 538/5/5 537/5/5
f 547/3/5 539/3/5 538/3/5
f 547/5/5 538/5/5 546/5/5
f 548/5/5 541/5/5 540/5/5
f 548/3/5 539/3/5 547/3/5
f 548/5/5 540/5/5 539/5/5
f 549/5/5 541/5/5 548/5/5
f 550/3/5 542/3/5 541/3/5
f 550/5/5 541/5/5 549/5/5
f 551/5/5 543/5/5 542/5/5
f 551/3/5 542/3/5 550/3/5
f 552/1/5 544/1/5 543/1/5
f 552/5/5 543/5/5 551/5/5
f 553/2/5 545/2/5 544/2/5
f 553/1/5 544/1/5 552/1/5
f 554/2/5 545/2/5 553/2/5
f 557/5/5 546/5/5 536/5/5
f 558/3/5 547/3/5 546/3/5
f 558/5/5 546/5/5 557/5/5
f 559/5/5 549/5/5 548/5/5
f 559/3/5 547/3/5 558/3/5
f 559/5/5 548/5/5 547/5/5
f 560/5/5 549/5/5 559/5/5
f 561/3/5 550/3/5 549/3/5
f 561/5/5 549/5/5 560/5/5
f 562/5/5 551/5/5 550/5/5
f 562/3/5 550/3/5 561/3/5
f 563/3/5 552/3/5 551/3/5
f 563/5/5 551/5/5 562/5/5
f 564/5/5 553/5/5 552/5/5
f 564/3/5 552/3/5 563/3/5
f 565/1/5 554/1/5 553/1/5
f 565/5/5 553/5/5 564/5/5
f 566/2/5 555/2/5 554/2/5
f 566/1/5 554/1/5 565/1/5
f 567/2/5 555/2/5 566/2/5
f 569/5/5 560/5/5 559/5/5
f 569/5/5 559/5/5 558/5/5
f 570/1/5 561/1/5 560/1/5
f 570/5/5 560/5/5 569/5/5
f 571/5/5 562/5/5 561/5/5
f 571/1/5 561/1/5 570/1/5
f 572/3/5 563/3/5 562/3/5
f 572/5/5 562/5/5 571/5/5
f 573/5/5 564/5/5 563/5/5
f 573/3/5 563/3/5 572/3/5
f 574/3/5 565/3/5 564/3/5
f 574/5/5 564/5/5 573/5/5
f 575/5/5 566/5/5 565/5/5
f 575/3/5 565/3/5 574/3/5
f 576/1/5 567/1/5 566/1/5
f 576/5/5 566/5/5 575/5/5
f 577/2/5 568/2/5 567/2/5
f 577/1/5 567/1/5 576/1/5
f 578/2/5 568/2/5 577/2/5
f 580/3/5 558/3/5 557/3/5
f 580/5/5 557/5/5 556/5/5
f 581/5/5 569/5/5 558/5/5
f 581/3/5 558/3/5 580/3/5
f 582/5/5 569/5/5 581/5/5
f 583/2/5 571/2/5 570/2/5
f 584/1/5 572/1/5 571/1/5
f 584/2/5 571/2/5 583/2/5
f 585/5/5 573/5/5 572/5/5
f 585/1/5 572/1/5 584/1/5
f 586/3/5 574/3/5 573/3/5
f 586/5/5 573/5/5 585/5/5
f 587/5/5 575/5/5 574/5/5
f 587/3/5 574/3/5 586/3/5
f 588/3/5 576/3/5 575/3/5
f 588/5/5 575/5/5 587/5/5
f 589/5/5 577/5/5 576/5/5
f 589/3/5 576/3/5 588/3/5
f 590/1/5 578/1/5 577/1/5
f 590/5/5 577/5/5 589/5/5
f 591/2/5 579/2/5 578/2/5
f 591/1/5 578/1/5 590/1/5
f 592/2/5 579/2/5 591/2/5
f 594/5/5 580/5/5 556/5/5
f 594/5/5 581/5/5 580/5/5
f 595/5/5 581/5/5 594/5/5
f 596/5/5 581/5/5 595/5/5
f 598/2/5 585/2/5 584/2/5
f 599/1/5 586/1/5 585/1/5
f 599/2/5 585/2/5 598/2/5
f 600/5/5 587/5/5 586/5/5
f 600/1/5 586/1/5 599/1/5
f 601/3/5 588/3/5 587/3/5
f 601/5/5 587/5/5 600/5/5
f 602/5/5 589/5/5 588/5/5
f 602/3/5 588/3/5 601/3/5
f 603/3/5 590/3/5 589/3/5
f 603/5/5 589/5/5 602/5/5
f 604/5/5 591/5/5 590/5/5
f 604/3/5 590/3/5 603/3/5
f 605/1/5 592/1/5 591/1/5
f 605/5/5 591/5/5 604/5/5
f 606/2/5 593/2/5 592/2/5
f 606/1/5 592/1/5 605/1/5
f 607/2/5 593/2/5 606/2/5
f 609/5/5 597/5/5 596/5/5
f 609/5/5 596/5/5 595/5/5
f 610/5/5 597/5/5 609/5/5
f 611/2/5 600/2/5 599/2/5
f 612/1/5 601/1/5 600/1/5
f 612/2/5 600/2/5 611/2/5
f 613/5/5 602/5/5 601/5/5
f 613/1/5 601/1/5 612/1/5
f 614/3/5 603/3/5 602/3/5
f 614/5/5 602/5/5 613/5/5
f 615/5/5 604/5/5 603/5/5
f 615/3/5 603/3/5 614/3/5
f 616/3/5 605/3/5 604/3/5
f 616/5/5 604/5/5 615/5/5
f 617/5/5 606/5/5 605/5/5
f 617/3/5 605/3/5 616/3/5
f 618/1/5 607/1/5 606/1/5
f 618/5/5 606/5/5 617/5/5
f 619/2/5 608/2/5 607/2/5
f 619/1/5 607/1/5 618/1/5
f 620/2/5 608/2/5 619/2/5
f 622/2/5 613/2/5 612/2/5
f 623/1/5 614/1/5 613/1/5
f 623/2/5 613/2/5 622/2/5
f 624/5/5 615/5/5 614/5/5
f 624/1/5 614/1/5 623/1/5
f 625/3/5 616/3/5 615/3/5
f 625/5/5 615/5/5 624/5/5
f 626/5/5 617/5/5 616/5/5
f 626/3/5 616/3/5 625/3/5
f 627/3/5 618/3/5 617/3/5
f 627/5/5 617/5/5 626/5/5
f 628/5/5 619/5/5 618/5/5
f 628/3/5 618/3/5 627/3/5
f 629/1/5 620/1/5 619/1/5
f 629/5/5 619/5/5 628/5/5
f 630/2/5 621/2/5 620/2/5
f 630/1/5 620/1/5 629/1/5
f 631/2/5 621/2/5 630/2/5
f 633/2/5 624/2/5 623/2/5
f 634/1/5 625/1/5 624/1/5
f 634/2/5 624/2/5 633/2/5
f 635/5/5 626/5/5 625/5/5
f 635/1/5 625/1/5 634/1/5
f 636/3/5 627/3/5 626/3/5
f 636/5/5 626/5/5 635/5/5
f 637/5/5 628/5/5 627/5/5
f 637/3/5 627/3/5 636/3/5
f 638/3/5 629/3/5 628/3/5
f 638/5/5 628/5/5 637/5/5
f 639/5/5 630/5/5 629/5/5
f 639/3/5 629/3/5 638/3/5
f 640/1/5 631/1/5 630/1/5
f 640/5/5 630/5/5 639/5/5
f 641/2/5 632/2/5 631/2/5
f 641/1/5 631/1/5 640/1/5
f 642/2/5 632/2/5 641/2/5
f 644/2/5 635/2/5 634/2/5
f 645/1/5 636/1/5 635/1/5
f 645/2/5 635/2/5 644/2/5
f 646/5/5 637/5/5 636/5/5
f 646/1/5 636/1/5 645/1/5
f 647/3/5 638/3/5 637/3/5
f 647/5/5 637/5/5 646/5/5
f 648/5/5 639/5/5 638/5/5
f 648/3/5 638/3/5 647/3/5
f 649/3/5 640/3/5 639/3/5
f 649/5/5 639/5/5 648/5/5
f 650/5/5 641/5/5 640/5/5
f 650/3/5 640/3/5 649/3/5
f 651/1/5 642/1/5 641/1/5
f 651/5/5 641/5/5 650/5/5
f 652/2/5 643/2/5 642/2/5
f 652/1/5 642/1/5 651/1/5
f 653/2/5 643/2/5 652/2/5
f 655/2/5 646/2/5 645/2/5
f 656/1/5 647/1/5 646/1/5
f 656/2/5 646/2/5 655/2/5
f 657/5/5 648/5/5 647/5/5
f 657/1/5 647/1/5 656/1/5
f 658/3/5 649/3/5 648/3/5
f 658/5/5 648/5/5 657/5/5
f 659/5/5 650/5/5 649/5/5
f 659/3/5 649/3/5 658/3/5
f 660/3/5 651/3/5 650/3/5
f 660/5/5 650/5/5 659/5/5
f 661/5/5 652/5/5 651/5/5
f 661/3/5 651/3/5 660/3/5
f 662/1/5 653/1/5 652/1/5
f 662/5/5 652/5/5 661/5/5
f 663/2/5 654/2/5 653/2/5
f 663/1/5 653/1/5 662/1/5
f 664/2/5 654/2/5 663/2/5
f 666/2/5 657/2/5 656/2/5
f 667/1/5 658/1/5 657/1/5
f 667/2/5 657/2/5 666/2/5
f 668/5/5 659/5/5 658/5/5
f 668/1/5 658/1/5 667/1/5
f 669/3/5 660/3/5 659/3/5
f 669/5/5 659/5/5 668/5/5
f 670/5/5 661/5/5 660/5/5
f 670/3/5 660/3/5 669/3/5
f 671/3/5 662/3/5 661/3/5
f 671/5/5 661/5/5 670/5/5
f 672/5/5 663/5/5 662/5/5
f 672/3/5 662/3/5 671/3/5
f 673/1/5 664/1/5 663/1/5
f 673/5/5 663/5/5 672/5/5
f 674/2/5 665/2/5 664/2/5
f 674/1/5 664/1/5 673/1/5
f 675/2/5 665/2/5 674/2/5
f 677/2/5 668/2/5 667/2/5
f 678/1/5 669/1/5 668/1/5
f 678/2/5 668/2/5 677/2/5
f 679/5/5 670/5/5 669/5/5
f 679/1/5 669/1/5 678/1/5
f 680/3/5 671/3/5 670/3/5
f 680/5/5 670/5/5 679/5/5
f 681/5/5 672/5/5 671/5/5
f 681/3/5 671/3/5 680/3/5
f 682/3/5 673/3/5 672/3/5
f 682/5/5 672/5/5 681/5/5
f 683/5/5 674/5/5 673/5/5
f 683/3/5 673/3/5 682/3/5
f 684/1/5 675/1/5 674/1/5
f 684/5/5 674/5/5 683/5/5
f 685/2/5 676/2/5 675/2/5
f 685/1/5 675/1/5 684/1/5
f 686/2/5 676/2/5 685/2/5
f 688/2/5 679/2/5 678/2/5
f 689/1/5 680/1/5 679/1/5
f 689/2/5 679/2/5 688/2/5
f 690/5/5 681/5/5 680/5/5
f 690/1/5 680/1/5 689/1/5
f 691/3/5 682/3/5 681/3/5
f 691/5/5 681/5/5 690/5/5
f 692/5/5 683/5/5 682/5/5
f 692/3/5 682/3/5 691/3/5
f 693/3/5 684/3/5 683/3/5
f 693/5/5 683/5/5 692/5/5
f 694/5/5 685/5/5 684/5/5
f 694/3/5 684/3/5 693/3/5
f 695/1/5 686/1/5 685/1/5
f 695/5/5 685/5/5 694/5/5
f 696/2/5 687/2/5 686/2/5
f 696/1/5 686/1/5 695/1/5
f 697/2/5 687/2/5 696/2/5
f 699/2/5 690/2/5 689/2/5
f 700/1/5 691/1/5 690/1/5
f 700/2/5 690/2/5 699/2/5
f 701/5/5 692/5/5 691/5/5
f 701/1/5 691/1/5 700/1/5
f 702/3/5 693/3/5 692/3/5
f 702/5/5 692/5/5 701/5/5
f 703/5/5 694/5/5 693/5/5
f 703/3/5 693/3/5 702/3/5
f 704/3/5 695/3/5 694/3/5
f 704/5/5 694/5/5 703/5/5
f 705/5/5 696/5/5 695/5/5
f 705/3/5 695/3/5 704/3/5
f 706/1/5 697/1/5 696/1/5
f 706/5/5 696/5/5 705/5/5
f 707/2/5 698/2/5 697/2/5
f 707/1/5 697/1/5 706/1/5
f 708/2/5 698/2/5 707/2/5
f 710/2/5 701/2/5 700/2/5
f 711/1/5 702/1/5 701/1/5
f 711/2/5 701/2/5 710/2/5
f 712/5/5 703/5/5 702/5/5
f 712/1/5 702/1/5 711/1/5
f 713/3/5 704/3/5 703/3/5
f 713/5/5 703/5/5 712/5/5
f 714/5/5 705/5/5 704/5/5
f 714/3/5 704/3/5 713/3/5
f 715/3/5 706/3/5 705/3/5
f 715/5/5 705/5/5 714/5/5
f 716/5/5 707/5/5 706/5/5
f 716/3/5 706/3/5 715/3/5
f 717/1/5 708/1/5 707/1/5
f 717/5/5 707/5/5 716/5/5
f 718/2/5 709/2/5 708/2/5
f 718/1/5 708/1/5 717/1/5
f 719/2/5 709/2/5 718/2/5
f 721/2/5 712/2/5 711/2/5
f 722/1/5 713/1/5 712/1/5
f 722/2/5 712/2/5 721/2/5
f 723/5/5 714/5/5 713/5/5
f 723/1/5 713/1/5 722/1/5
f 724/3/5 715/3/5 714/3/5
f 724/5/5 714/5/5 723/5/5
f 725/5/5 716/5/5 715/5/5
f 725/3/5 715/3/5 724/3/5
f 726/3/5 717/3/5 716/3/5
f 726/5/5 716/5/5 725/5/5
f 727/5/5 718/5/5 717/5/5
f 727/3/5 717/3/5 726/3/5
f 728/1/5 719/1/5 718/1/5
f 728/5/5 718/5/5 727/5/5
f 729/2/5 723/2/5 722/2/5
f 730/1/5 724/1/5 723/1/5
f 730/2/5 723/2/5 729/2/5
f 731/5/5 725/5/5 724/5/5
f 731/1/5 724/1/5 730/1/5
f 732/3/5 726/3/5 725/3/5
f 732/5/5 725/5/5 731/5/5
f 733/5/5 727/5/5 726/5/5
f 733/3/5 726/3/5 732/3/5
f 734/3/5 728/3/5 727/3/5
f 734/5/5 727/5/5 733/5/5
f 735/1/5 719/1/5 728/1/5
f 735/3/5 728/3/5 734/3/5
f 736/2/5 731/2/5 730/2/5
f 737/1/5 732/1/5 731/1/5
f 737/2/5 731/2/5 736/2/5
f 738/5/5 733/5/5 732/5/5
f 738/1/5 732/1/5 737/1/5
f 739/3/5 734/3/5 733/3/5
f 739/5/5 733/5/5 738/5/5
f 740/5/5 735/5/5 734/5/5
f 740/3/5 734/3/5 739/3/5
f 741/1/5 719/1/5 735/1/5
f 741/5/5 735/5/5 740/5/5
f 742/2/5 738/2/5 737/2/5
f 743/1/5 740/1/5 739/1/5
f 743/2/5 738/2/5 742/2/5
f 743/1/5 741/1/5 740/1/5
f 743/1/5 739/1/5 738/1/5
f 744/2/5 720/2/5 719/2/5
f 744/1/5 741/1/5 743/1/5
f 744/1/5 719/1/5 741/1/5
f 745/2/5 744/2/5 743/2/5
f 746/2/5 720/2/5 744/2/5
f 746/2/5 744/2/5 745/2/5
f 747/4/6 748/4/6 749/4/6
f 749/4/6 748/4/6 750/4/6
f 747/4/6 749/4/6 752/4/6
f 749/1/6 750/1/6 753/1/6
f 752/4/6 749/4/6 753/4/6
f 750/5/6 751/5/6 754/5/6
f 753/1/6 750/1/6 754/1/6
f 754/5/6 751/5/6 755/5/6
f 755/5/6 756/5/6 757/5/6
f 754/5/6 755/5/6 757/5/6
f 753/5/6 754/5/6 757/5/6
f 757/5/6 756/5/6 758/5/6
f 758/5/6 756/5/6 759/5/6
f 759/5/6 760/5/6 761/5/6
f 758/5/6 759/5/6 761/5/6
f 761/5/6 760/5/6 762/5/6
f 762/5/6 760/5/6 763/5/6
f 762/5/6 763/5/6 767/5/6
f 763/5/6 764/5/6 767/5/6
f 767/5/6 764/5/6 768/5/6
f 768/5/6 764/5/6 769/5/6
f 765/5/6 766/5/6 772/5/6
f 772/5/6 766/5/6 773/5/6
f 773/5/6 766/5/6 774/5/6
f 769/5/6 770/5/6 776/5/6
f 768/5/6 769/5/6 776/5/6
f 776/5/6 770/5/6 777/5/6
f 777/5/6 770/5/6 778/5/6
f 771/5/6 772/5/6 779/5/6
f 779/5/6 772/5/6 780/5/6
f 772/3/6 773/3/6 781/3/6
f 780/5/6 772/5/6 781/5/6
f 774/5/6 775/5/6 782/5/6
f 781/3/6 773/3/6 782/3/6
f 773/5/6 774/5/6 782/5/6
f 782/5/6 775/5/6 783/5/6
f 778/5/6 779/5/6 784/5/6
f 779/5/6 780/5/6 784/5/6
f 777/5/6 778/5/6 784/5/6
f 784/5/6 780/5/6 785/5/6
f 785/5/6 780/5/6 786/5/6
f 786/5/6 780/5/6 787/5/6
f 787/5/6 780/5/6 788/5/6
f 780/3/6 781/3/6 789/3/6
f 788/5/6 780/5/6 789/5/6
f 781/5/6 782/5/6 790/5/6
f 789/3/6 781/3/6 790/3/6
f 790/5/6 782/5/6 791/5/6
f 791/5/6 782/5/6 792/5/6
f 783/5/6 775/5/6 793/5/6
f 793/5/6 775/5/6 794/5/6
f 785/5/6 786/5/6 795/5/6
f 786/2/6 787/2/6 795/2/6
f 787/1/6 788/1/6 796/1/6
f 795/2/6 787/2/6 796/2/6
f 788/3/6 789/3/6 797/3/6
f 796/1/6 788/1/6 797/1/6
f 790/5/6 791/5/6 798/5/6
f 797/3/6 789/3/6 798/3/6
f 789/5/6 790/5/6 798/5/6
f 798/5/6 791/5/6 799/5/6
f 799/5/6 791/5/6 800/5/6
f 785/5/6 795/5/6 803/5/6
f 795/1/6 796/1/6 804/1/6
f 803/5/6 795/5/6 804/5/6
f 796/2/6 797/2/6 805/2/6
f 804/1/6 796/1/6 805/1/6
f 797/5/6 798/5/6 806/5/6
f 805/2/6 797/2/6 806/2/6
f 798/5/6 799/5/6 806/5/6
f 806/5/6 799/5/6 807/5/6
f 799/1/6 800/1/6 808/1/6
f 807/5/6 799/5/6 808/5/6
f 800/2/6 801/2/6 809/2/6
f 808/1/6 800/1/6 809/1/6
f 809/2/6 801/2/6 810/2/6
f 802/5/6 803/5/6 812/5/6
f 803/5/6 804/5/6 812/5/6
f 804/3/6 805/3/6 813/3/6
f 812/5/6 804/5/6 813/5/6
f 806/5/6 807/5/6 814/5/6
f 813/3/6 805/3/6 814/3/6
f 805/5/6 806/5/6 814/5/6
f 814/5/6 807/5/6 815/5/6
f 807/3/6 808/3/6 816/3/6
f 815/5/6 807/5/6 816/5/6
f 808/5/6 809/5/6 817/5/6
f 816/3/6 808/3/6 817/3/6
f 809/1/6 810/1/6 818/1/6
f 817/5/6 809/5/6 818/5/6
f 810/2/6 811/2/6 819/2/6
f 818/1/6 810/1/6 819/1/6
f 819/2/6 811/2/6 820/2/6
f 802/5/6 812/5/6 823/5/6
f 812/3/6 813/3/6 824/3/6
f 823/5/6 812/5/6 824/5/6
f 814/5/6 815/5/6 825/5/6
f 824/3/6 813/3/6 825/3/6
f 813/5/6 814/5/6 825/5/6
f 825/5/6 815/5/6 826/5/6
f 815/3/6 816/3/6 827/3/6
f 826/5/6 815/5/6 827/5/6
f 816/5/6 817/5/6 828/5/6
f 827/3/6 816/3/6 828/3/6
f 817/3/6 818/3/6 829/3/6
f 828/5/6 817/5/6 829/5/6
f 818/5/6 819/5/6 830/5/6
f 829/3/6 818/3/6 830/3/6
f 819/1/6 820/1/6 831/1/6
f 830/5/6 819/5/6 831/5/6
f 820/2/6 821/2/6 832/2/6
f 831/1/6 820/1/6 832/1/6
f 832/2/6 821/2/6 833/2/6
f 825/5/6 826/5/6 835/5/6
f 824/5/6 825/5/6 835/5/6
f 826/1/6 827/1/6 836/1/6
f 835/5/6 826/5/6 836/5/6
f 827/5/6 828/5/6 837/5/6
f 836/1/6 827/1/6 837/1/6
f 828/3/6 829/3/6 838/3/6
f 837/5/6 828/5/6 838/5/6
f 829/5/6 830/5/6 839/5/6
f 838/3/6 829/3/6 839/3/6
f 830/3/6 831/3/6 840/3/6
f 839/5/6 830/5/6 840/5/6
f 831/5/6 832/5/6 841/5/6
f 840/3/6 831/3/6 841/3/6
f 832/1/6 833/1/6 842/1/6
f 841/5/6 832/5/6 842/5/6
f 833/2/6 834/2/6 843/2/6
f 842/1/6 833/1/6 843/1/6
f 843/2/6 834/2/6 844/2/6
f 823/3/6 824/3/6 846/3/6
f 822/5/6 823/5/6 846/5/6
f 824/5/6 835/5/6 847/5/6
f 846/3/6 824/3/6 847/3/6
f 847/5/6 835/5/6 848/5/6
f 836/2/6 837/2/6 849/2/6
f 837/1/6 838/1/6 850/1/6
f 849/2/6 837/2/6 850/2/6
f 838/5/6 839/5/6 851/5/6
f 850/1/6 838/1/6 851/1/6
f 839/3/6 840/3/6 852/3/6
f 851/5/6 839/5/6 852/5/6
f 840/5/6 841/5/6 853/5/6
f 852/3/6 840/3/6 853/3/6
f 841/3/6 842/3/6 854/3/6
f 853/5/6 841/5/6 854/5/6
f 842/5/6 843/5/6 855/5/6
f 854/3/6 842/3/6 855/3/6
f 843/1/6 844/1/6 856/1/6
f 855/5/6 843/5/6 856/5/6
f 844/2/6 845/2/6 857/2/6
f 856/1/6 844/1/6 857/1/6
f 857/2/6 845/2/6 858/2/6
f 822/5/6 846/5/6 860/5/6
f 846/5/6 847/5/6 860/5/6
f 860/5/6 847/5/6 861/5/6
f 861/5/6 847/5/6 862/5/6
f 850/2/6 851/2/6 864/2/6
f 851/1/6 852/1/6 865/1/6
f 864/2/6 851/2/6 865/2/6
f 852/5/6 853/5/6 866/5/6
f 865/1/6 852/1/6 866/1/6
f 853/3/6 854/3/6 867/3/6
f 866/5/6 853/5/6 867/5/6
f 854/5/6 855/5/6 868/5/6
f 867/3/6 854/3/6 868/3/6
f 855/3/6 856/3/6 869/3/6
f 868/5/6 855/5/6 869/5/6
f 856/5/6 857/5/6 870/5/6
f 869/3/6 856/3/6 870/3/6
f 857/1/6 858/1/6 871/1/6
f 870/5/6 857/5/6 871/5/6
f 858/2/6 859/2/6 872/2/6
f 871/1/6 858/1/6 872/1/6
f 872/2/6 859/2/6 873/2/6
f 862/5/6 863/5/6 875/5/6
f 861/5/6 862/5/6 875/5/6
f 875/5/6 863/5/6 876/5/6
f 865/2/6 866/2/6 877/2/6
f 866/1/6 867/1/6 878/1/6
f 877/2/6 866/2/6 878/2/6
f 867/5/6 868/5/6 879/5/6
f 878/1/6 867/1/6 879/1/6
f 868/3/6 869/3/6 880/3/6
f 879/5/6 868/5/6 880/5/6
f 869/5/6 870/5/6 881/5/6
f 880/3/6 869/3/6 881/3/6
f 870/3/6 871/3/6 882/3/6
f 881/5/6 870/5/6 882/5/6
f 871/5/6 872/5/6 883/5/6
f 882/3/6 871/3/6 883/3/6
f 872/1/6 873/1/6 884/1/6
f 883/5/6 872/5/6 884/5/6
f 873/2/6 874/2/6 885/2/6
f 884/1/6 873/1/6 885/1/6
f 885/2/6 874/2/6 886/2/6
f 878/2/6 879/2/6 888/2/6
f 879/1/6 880/1/6 889/1/6
f 888/2/6 879/2/6 889/2/6
f 880/5/6 881/5/6 890/5/6
f 889/1/6 880/1/6 890/1/6
f 881/3/6 882/3/6 891/3/6
f 890/5/6 881/5/6 891/5/6
f 882/5/6 883/5/6 892/5/6
f 891/3/6 882/3/6 892/3/6
f 883/3/6 884/3/6 893/3/6
f 892/5/6 883/5/6 893/5/6
f 884/5/6 885/5/6 894/5/6
f 893/3/6 884/3/6 894/3/6
f 885/1/6 886/1/6 895/1/6
f 894/5/6 885/5/6 895/5/6
f 886/2/6 887/2/6 896/2/6
f 895/1/6 886/1/6 896/1/6
f 896/2/6 887/2/6 897/2/6
f 889/2/6 890/2/6 899/2/6
f 890/1/6 891/1/6 900/1/6
f 899/2/6 890/2/6 900/2/6
f 891/5/6 892/5/6 901/5/6
f 900/1/6 891/1/6 901/1/6
f 892/3/6 893/3/6 902/3/6
f 901/5/6 892/5/6 902/5/6
f 893/5/6 894/5/6 903/5/6
f 902/3/6 893/3/6 903/3/6
f 894/3/6 895/3/6 904/3/6
f 903/5/6 894/5/6 904/5/6
f 895/5/6 896/5/6 905/5/6
f 904/3/6 895/3/6 905/3/6
f 896/1/6 897/1/6 906/1/6
f 905/5/6 896/5/6 906/5/6
f 897/2/6 898/2/6 907/2/6
f 906/1/6 897/1/6 907/1/6
f 907/2/6 898/2/6 908/2/6
f 900/2/6 901/2/6 910/2/6
f 901/1/6 902/1/6 911/1/6
f 910/2/6 901/2/6 911/2/6
f 902/5/6 903/5/6 912/5/6
f 911/1/6 902/1/6 912/1/6
f 903/3/6 904/3/6 913/3/6
f 912/5/6 903/5/6 913/5/6
f 904/5/6 905/5/6 914/5/6
f 913/3/6 904/3/6 914/3/6
f 905/3/6 906/3/6 915/3/6
f 914/5/6 905/5/6 915/5/6
f 906/5/6 907/5/6 916/5/6
f 915/3/6 906/3/6 916/3/6
f 907/1/6 908/1/6 917/1/6
f 916/5/6 907/5/6 917/5/6
f 908/2/6 909/2/6 918/2/6
f 917/1/6 908/1/6 918/1/6
f 918/2/6 909/2/6 919/2/6
f 911/2/6 912/2/6 921/2/6
f 912/1/6 913/1/6 922/1/6
f 921/2/6 912/2/6 922/2/6
f 913/5/6 914/5/6 923/5/6
f 922/1/6 913/1/6 923/1/6
f 914/3/6 915/3/6 924/3/6
f 923/5/6 914/5/6 924/5/6
f 915/5/6 916/5/6 925/5/6
f 924/3/6 915/3/6 925/3/6
f 916/3/6 917/3/6 926/3/6
f 925/5/6 916/5/6 926/5/6
f 917/5/6 918/5/6 927/5/6
f 926/3/6 917/3/6 927/3/6
f 918/1/6 919/1/6 928/1/6
f 927/5/6 918/5/6 928/5/6
f 919/2/6 920/2/6 929/2/6
f 928/1/6 919/1/6 929/1/6
f 929/2/6 920/2/6 930/2/6
f 922/2/6 923/2/6 932/2/6
f 923/1/6 924/1/6 933/1/6
f 932/2/6 923/2/6 933/2/6
f 924/5/6 925/5/6 934/5/6
f 933/1/6 924/1/6 934/1/6
f 925/3/6 926/3/6 935/3/6
f 934/5/6 925/5/6 935/5/6
f 926/5/6 927/5/6 936/5/6
f 935/3/6 926/3/6 936/3/6
f 927/3/6 928/3/6 937/3/6
f 936/5/6 927/5/6 937/5/6
f 928/5/6 929/5/6 938/5/6
f 937/3/6 928/3/6 938/3/6
f 929/1/6 930/1/6 939/1/6
f 938/5/6 929/5/6 939/5/6
f 930/2/6 931/2/6 940/2/6
f 939/1/6 930/1/6 940/1/6
f 940/2/6 931/2/6 941/2/6
f 933/2/6 934/2/6 943/2/6
f 934/1/6 935/1/6 944/1/6
f 943/2/6 934/2/6 944/2/6
f 935/5/6 936/5/6 945/5/6
f 944/1/6 935/1/6 945/1/6
f 936/3/6 937/3/6 946/3/6
f 945/5/6 936/5/6 946/5/6
f 937/5/6 938/5/6 947/5/6
f 946/3/6 937/3/6 947/3/6
f 938/3/6 939/3/6 948/3/6
f 947/5/6 938/5/6 948/5/6
f 939/5/6 940/5/6 949/5/6
f 948/3/6 939/3/6 949/3/6
f 940/1/6 941/1/6 950/1/6
f 949/5/6 940/5/6 950/5/6
f 941/2/6 942/2/6 951/2/6
f 950/1/6 941/1/6 951/1/6
f 951/2/6 942/2/6 952/2/6
f 944/2/6 945/2/6 954/2/6
f 945/1/6 946/1/6 955/1/6
f 954/2/6 945/2/6 955/2/6
f 946/5/6 947/5/6 956/5/6
f 955/1/6 946/1/6 956/1/6
f 947/3/6 948/3/6 957/3/6
f 956/5/6 947/5/6 957/5/6
f 948/5/6 949/5/6 958/5/6
f 957/3/6 948/3/6 958/3/6
f 949/3/6 950/3/6 959/3/6
f 958/5/6 949/5/6 959/5/6
f 950/5/6 951/5/6 960/5/6
f 959/3/6 950/3/6 960/3/6
f 951/1/6 952/1/6 961/1/6
f 960/5/6 951/5/6 961/5/6
f 952/2/6 953/2/6 962/2/6
f 961/1/6 952/1/6 962/1/6
f 962/2/6 953/2/6 963/2/6
f 955/2/6 956/2/6 965/2/6
f 956/1/6 957/1/6 966/1/6
f 965/2/6 956/2/6 966/2/6
f 957/5/6 958/5/6 967/5/6
f 966/1/6 957/1/6 967/1/6
f 958/3/6 959/3/6 968/3/6
f 967/5/6 958/5/6 968/5/6
f 959/5/6 960/5/6 969/5/6
f 968/3/6 959/3/6 969/3/6
f 960/3/6 961/3/6 970/3/6
f 969/5/6 960/5/6 970/5/6
f 961/5/6 962/5/6 971/5/6
f 970/3/6 961/3/6 971/3/6
f 962/1/6 963/1/6 972/1/6
f 971/5/6 962/5/6 972/5/6
f 963/2/6 964/2/6 973/2/6
f 972/1/6 963/1/6 973/1/6
f 973/2/6 964/2/6 974/2/6
f 966/2/6 967/2/6 976/2/6
f 967/1/6 968/1/6 977/1/6
f 976/2/6 967/2/6 977/2/6
f 968/5/6 969/5/6 978/5/6
f 977/1/6 968/1/6 978/1/6
f 969/3/6 970/3/6 979/3/6
f 978/5/6 969/5/6 979/5/6
f 970/5/6 971/5/6 980/5/6
f 979/3/6 970/3/6 980/3/6
f 971/3/6 972/3/6 981/3/6
f 980/5/6 971/5/6 981/5/6
f 972/5/6 973/5/6 982/5/6
f 981/3/6 972/3/6 982/3/6
f 973/1/6 974/1/6 983/1/6
f 982/5/6 973/5/6 983/5/6
f 974/2/6 975/2/6 984/2/6
f 983/1/6 974/1/6 984/1/6
f 984/2/6 975/2/6 985/2/6
f 977/2/6 978/2/6 987/2/6
f 978/1/6 979/1/6 988/1/6
f 987/2/6 978/2/6 988/2/6
f 979/5/6 980/5/6 989/5/6
f 988/1/6 979/1/6 989/1/6
f 980/3/6 981/3/6 990/3/6
f 989/5/6 980/5/6 990/5/6
f 981/5/6 982/5/6 991/5/6
f 990/3/6 981/3/6 991/3/6
f 982/3/6 983/3/6 992/3/6
f 991/5/6 982/5/6 992/5/6
f 983/5/6 984/5/6 993/5/6
f 992/3/6 983/3/6 993/3/6
f 984/1/6 985/1/6 994/1/6
f 993/5/6 984/5/6 994/5/6
f 988/2/6 989/2/6 995/2/6
f 989/1/6 990/1/6 996/1/6
f 995/2/6 989/2/6 996/2/6
f 990/5/6 991/5/6 997/5/6
f 996/1/6 990/1/6 997/1/6
f 991/3/6 992/3/6 998/3/6
f 997/5/6 991/5/6 998/5/6
f 992/5/6 993/5/6 999/5/6
f 998/3/6 992/3/6 999/3/6
f 993/3/6 994/3/6 1000/3/6
f 999/5/6 993/5/6 1000/5/6
f 994/1/6 985/1/6 1001/1/6
f 1000/3/6 994/3/6 1001/3/6
f 996/2/6 997/2/6 1002/2/6
f 997/1/6 998/1/6 1003/1/6
f 1002/2/6 997/2/6 1003/2/6
f 998/5/6 999/5/6 1004/5/6
f 1003/1/6 998/1/6 1004/1/6
f 999/3/6 1000/3/6 1005/3/6
f 1004/5/6 999/5/6 1005/5/6
f 1000/5/6 1001/5/6 1006/5/6
f 1005/3/6 1000/3/6 1006/3/6
f 1001/1/6 985/1/6 1007/1/6
f 1006/5/6 1001/5/6 1007/5/6
f 1003/2/6 1004/2/6 1008/2/6
f 1005/1/6 1006/1/6 1009/1/6
f 1008/2/6 1004/2/6 1009/2/6
f 1006/1/6 1007/1/6 1009/1/6
f 1004/1/6 1005/1/6 1009/1/6
f 985/2/6 986/2/6 1010/2/6
f 1009/1/6 1007/1/6 1010/1/6
f 1007/1/6 985/1/6 1010/1/6
f 1009/2/6 1010/2/6 1011/2/6
f 1010/2/6 986/2/6 1012/2/6
f 1011/2/6 1010/2/6 1012/2/6
