# MagicaVoxel @ Ephtracy

# group
o 

# material
mtllib Ventana.mtl
usemtl palette

# normals
vn -1 0 0
vn 1 0 0
vn 0 0 1
vn 0 0 -1
vn 0 -1 0
vn 0 1 0

# texcoords
vt 0.0136719 0.5
vt 0.142578 0.5
vt 0.158203 0.5
vt 0.208984 0.5
vt 0.373047 0.5
vt 0.638672 0.5
vt 0.705078 0.5
vt 0.958984 0.5
vt 0.962891 0.5

# verts
v -2 0 -1.7
v -2 0 -1.8
v -2 1.1 -1.6
v -2 1.1 -1.7
v -2 1.1 -1.8
v -2 1.3 -1.6
v -2 1.3 -1.7
v -2 1.3 -1.8
v -2 3.2 -1.6
v -2 3.2 -1.7
v -2 3.2 -1.8
v -2 3.2 -1.9
v -2 3.3 -1.6
v -2 3.3 -1.7
v -2 4 -1.6
v -2 4 -1.9
v -1.9 0.1 -1.8
v -1.9 0.1 -1.9
v -1.9 1 -1.6
v -1.9 1 -1.7
v -1.9 1.1 -1.6
v -1.9 1.1 -1.7
v -1.9 1.1 -1.8
v -1.9 1.3 -1.8
v -1.9 2.8 -1.8
v -1.9 2.8 -1.9
v -1.8 0.1 -1.9
v -1.8 0.1 -2
v -1.8 2.7 -1.9
v -1.8 2.7 -2
v -1.8 3.2 -1.6
v -1.8 3.2 -1.7
v -1.8 3.3 -1.6
v -1.8 3.3 -1.7
v -1.7 0.9 -1.6
v -1.7 0.9 -1.7
v -1.7 1 -1.6
v -1.7 1 -1.7
v -1.7 1 -1.8
v -1.7 1.1 -1.7
v -1.7 1.1 -1.8
v -1.6 0.8 -1.8
v -1.6 0.8 -1.9
v -1.6 0.9 -1.8
v -1.6 1 -1.8
v -1.6 1 -1.9
v -1.6 3.2 -1.6
v -1.6 3.2 -1.7
v -1.6 3.3 -1.6
v -1.6 3.3 -1.7
v -1.5 0.7 -1.8
v -1.5 0.7 -1.9
v -1.5 0.8 -1.8
v -1.5 0.8 -1.9
v -1.4 0.5 -1.8
v -1.4 0.5 -1.9
v -1.4 0.6 -1.8
v -1.4 0.6 -1.9
v -1.4 0.7 -1.8
v -1.4 0.7 -1.9
v -1.4 3.2 -1.6
v -1.4 3.2 -1.7
v -1.4 3.3 -1.6
v -1.4 3.3 -1.7
v -1.2 3.2 -1.6
v -1.2 3.2 -1.7
v -1.2 3.3 -1.6
v -1.2 3.3 -1.7
v -1.1 2.7 -1.9
v -1.1 2.7 -2
v -1.1 2.8 -1.9
v -1.1 3.2 -1.9
v -1.1 3.2 -2
v -1 3.2 -1.6
v -1 3.2 -1.7
v -1 3.3 -1.6
v -1 3.3 -1.7
v -0.8 3.2 -1.6
v -0.8 3.2 -1.7
v -0.8 3.3 -1.6
v -0.8 3.3 -1.7
v -0.6 3.2 -1.6
v -0.6 3.2 -1.7
v -0.6 3.3 -1.6
v -0.6 3.3 -1.7
v -0.4 3.2 -1.6
v -0.4 3.2 -1.7
v -0.4 3.3 -1.6
v -0.4 3.3 -1.7
v -0.2 3.2 -1.6
v -0.2 3.2 -1.7
v -0.2 3.3 -1.6
v -0.2 3.3 -1.7
v -0.0999999 0.2 -1.8
v -0.0999999 0.2 -1.9
v -0.0999999 2.7 -1.8
v -0.0999999 2.7 -1.9
v 2.38419e-07 3.2 -1.6
v 2.38419e-07 3.2 -1.7
v 2.38419e-07 3.3 -1.6
v 2.38419e-07 3.3 -1.7
v 0.1 0.1 -1.9
v 0.1 0.1 -2
v 0.1 2.7 -1.9
v 0.1 2.7 -2
v 0.2 3.2 -1.6
v 0.2 3.2 -1.7
v 0.2 3.3 -1.6
v 0.2 3.3 -1.7
v 0.4 3.2 -1.6
v 0.4 3.2 -1.7
v 0.4 3.3 -1.6
v 0.4 3.3 -1.7
v 0.6 3.2 -1.6
v 0.6 3.2 -1.7
v 0.6 3.3 -1.6
v 0.6 3.3 -1.7
v 0.8 3.2 -1.6
v 0.8 3.2 -1.7
v 0.8 3.3 -1.6
v 0.8 3.3 -1.7
v 0.9 2.8 -1.7
v 0.9 2.8 -1.8
v 0.9 3.2 -1.7
v 0.9 3.2 -1.8
v 1 2.3 -1.7
v 1 2.3 -1.8
v 1 2.7 -1.8
v 1 2.8 -1.7
v 1 2.8 -1.8
v 1 3.2 -1.6
v 1 3.2 -1.7
v 1 3.3 -1.6
v 1 3.3 -1.7
v 1.1 1.9 -1.7
v 1.1 1.9 -1.8
v 1.1 2.3 -1.7
v 1.1 2.3 -1.8
v 1.2 1.4 -1.7
v 1.2 1.4 -1.8
v 1.2 1.9 -1.7
v 1.2 1.9 -1.8
v 1.2 3.2 -1.6
v 1.2 3.2 -1.7
v 1.2 3.3 -1.6
v 1.2 3.3 -1.7
v 1.3 0.4 -1.8
v 1.3 0.4 -1.9
v 1.3 0.5 -1.8
v 1.3 0.5 -1.9
v 1.3 0.8 -1.7
v 1.3 0.8 -1.8
v 1.3 0.9 -1.7
v 1.3 0.9 -1.9
v 1.3 1.3 -1.7
v 1.3 1.3 -1.8
v 1.3 1.4 -1.7
v 1.3 1.4 -1.8
v 1.4 0.9 -1.7
v 1.4 0.9 -1.9
v 1.4 1 -1.7
v 1.4 1 -1.8
v 1.4 1 -1.9
v 1.4 1.3 -1.7
v 1.4 1.3 -1.8
v 1.4 3.2 -1.6
v 1.4 3.2 -1.7
v 1.4 3.3 -1.6
v 1.4 3.3 -1.7
v 1.5 0 -1.7
v 1.5 0 -1.8
v 1.5 0.1 -1.8
v 1.5 0.2 -1.8
v 1.5 0.7 -1.8
v 1.5 0.8 -1.7
v 1.5 0.8 -1.8
v 1.5 0.9 -1.6
v 1.5 0.9 -1.7
v 1.5 1 -1.6
v 1.5 1 -1.7
v 1.6 1 -1.6
v 1.6 1 -1.7
v 1.6 1.1 -1.7
v 1.6 1.2 -1.6
v 1.6 1.2 -1.7
v 1.6 3.2 -1.6
v 1.6 3.2 -1.7
v 1.6 3.3 -1.6
v 1.6 3.3 -1.7
v 1.8 0.2 -1.8
v 1.8 0.2 -1.9
v 1.8 1 -1.8
v 1.8 1.2 -1.6
v 1.8 1.2 -1.7
v 1.8 1.2 -1.8
v 1.8 1.3 -1.6
v 1.8 1.3 -1.7
v 1.8 2.7 -1.8
v 1.8 2.7 -1.9
v 1.8 3.2 -1.6
v 1.8 3.2 -1.7
v 1.8 3.3 -1.6
v 1.8 3.3 -1.7
v -1.9 1 -1.7
v -1.9 1 -1.8
v -1.9 1.1 -1.7
v -1.9 1.1 -1.8
v -1.9 3.2 -1.6
v -1.9 3.2 -1.7
v -1.9 3.3 -1.6
v -1.9 3.3 -1.7
v -1.8 0.2 -1.8
v -1.8 0.2 -1.9
v -1.8 1 -1.8
v -1.8 1.1 -1.8
v -1.8 1.2 -1.6
v -1.8 1.2 -1.7
v -1.8 1.2 -1.8
v -1.8 1.3 -1.6
v -1.8 1.3 -1.7
v -1.8 2.7 -1.8
v -1.8 2.7 -1.9
v -1.7 3.2 -1.6
v -1.7 3.2 -1.7
v -1.7 3.3 -1.6
v -1.7 3.3 -1.7
v -1.6 1 -1.6
v -1.6 1 -1.7
v -1.6 1.1 -1.7
v -1.6 1.2 -1.6
v -1.6 1.2 -1.7
v -1.5 0 -1.7
v -1.5 0 -1.8
v -1.5 0.1 -1.8
v -1.5 0.2 -1.8
v -1.5 0.7 -1.8
v -1.5 0.8 -1.7
v -1.5 0.8 -1.8
v -1.5 0.9 -1.6
v -1.5 0.9 -1.7
v -1.5 1 -1.6
v -1.5 1 -1.7
v -1.5 3.2 -1.6
v -1.5 3.2 -1.7
v -1.5 3.3 -1.6
v -1.5 3.3 -1.7
v -1.4 0.9 -1.7
v -1.4 0.9 -1.9
v -1.4 1 -1.7
v -1.4 1 -1.8
v -1.4 1 -1.9
v -1.4 1.3 -1.7
v -1.4 1.3 -1.8
v -1.3 0.5 -1.8
v -1.3 0.5 -1.9
v -1.3 0.6 -1.8
v -1.3 0.6 -1.9
v -1.3 0.8 -1.7
v -1.3 0.8 -1.8
v -1.3 0.9 -1.7
v -1.3 0.9 -1.9
v -1.3 1.3 -1.7
v -1.3 1.3 -1.8
v -1.3 1.4 -1.7
v -1.3 1.4 -1.8
v -1.3 3.2 -1.6
v -1.3 3.2 -1.7
v -1.3 3.3 -1.6
v -1.3 3.3 -1.7
v -1.2 1.4 -1.7
v -1.2 1.4 -1.8
v -1.2 1.9 -1.7
v -1.2 1.9 -1.8
v -1.1 1.9 -1.7
v -1.1 1.9 -1.8
v -1.1 2.3 -1.7
v -1.1 2.3 -1.8
v -1.1 3.2 -1.6
v -1.1 3.2 -1.7
v -1.1 3.3 -1.6
v -1.1 3.3 -1.7
v -1 2.3 -1.7
v -1 2.3 -1.8
v -1 2.7 -1.8
v -1 2.8 -1.7
v -1 2.8 -1.8
v -0.9 2.8 -1.7
v -0.9 2.8 -1.8
v -0.9 3.2 -1.6
v -0.9 3.2 -1.7
v -0.9 3.2 -1.8
v -0.9 3.3 -1.6
v -0.9 3.3 -1.7
v -0.7 3.2 -1.6
v -0.7 3.2 -1.7
v -0.7 3.3 -1.6
v -0.7 3.3 -1.7
v -0.5 3.2 -1.6
v -0.5 3.2 -1.7
v -0.5 3.3 -1.6
v -0.5 3.3 -1.7
v -0.3 3.2 -1.6
v -0.3 3.2 -1.7
v -0.3 3.3 -1.6
v -0.3 3.3 -1.7
v -0.0999999 0.1 -1.9
v -0.0999999 0.1 -2
v -0.0999999 2.7 -1.9
v -0.0999999 2.7 -2
v -0.0999999 3.2 -1.6
v -0.0999999 3.2 -1.7
v -0.0999999 3.3 -1.6
v -0.0999999 3.3 -1.7
v 0.1 0.2 -1.8
v 0.1 0.2 -1.9
v 0.1 2.7 -1.8
v 0.1 2.7 -1.9
v 0.1 3.2 -1.6
v 0.1 3.2 -1.7
v 0.1 3.3 -1.6
v 0.1 3.3 -1.7
v 0.3 3.2 -1.6
v 0.3 3.2 -1.7
v 0.3 3.3 -1.6
v 0.3 3.3 -1.7
v 0.5 3.2 -1.6
v 0.5 3.2 -1.7
v 0.5 3.3 -1.6
v 0.5 3.3 -1.7
v 0.7 3.2 -1.6
v 0.7 3.2 -1.7
v 0.7 3.3 -1.6
v 0.7 3.3 -1.7
v 0.9 3.2 -1.6
v 0.9 3.2 -1.7
v 0.9 3.3 -1.6
v 0.9 3.3 -1.7
v 1.1 2.7 -1.9
v 1.1 2.7 -2
v 1.1 2.8 -1.9
v 1.1 3.2 -1.6
v 1.1 3.2 -1.7
v 1.1 3.2 -1.9
v 1.1 3.2 -2
v 1.1 3.3 -1.6
v 1.1 3.3 -1.7
v 1.3 3.2 -1.6
v 1.3 3.2 -1.7
v 1.3 3.3 -1.6
v 1.3 3.3 -1.7
v 1.4 0.4 -1.8
v 1.4 0.4 -1.9
v 1.4 0.5 -1.8
v 1.4 0.5 -1.9
v 1.4 0.7 -1.8
v 1.4 0.7 -1.9
v 1.5 0.7 -1.8
v 1.5 0.7 -1.9
v 1.5 0.8 -1.8
v 1.5 0.8 -1.9
v 1.5 3.2 -1.6
v 1.5 3.2 -1.7
v 1.5 3.3 -1.6
v 1.5 3.3 -1.7
v 1.6 0.8 -1.8
v 1.6 0.8 -1.9
v 1.6 0.9 -1.8
v 1.6 1 -1.8
v 1.6 1 -1.9
v 1.7 0.9 -1.6
v 1.7 0.9 -1.7
v 1.7 1 -1.6
v 1.7 1 -1.7
v 1.7 3.2 -1.6
v 1.7 3.2 -1.7
v 1.7 3.3 -1.6
v 1.7 3.3 -1.7
v 1.8 0.1 -1.9
v 1.8 0.1 -2
v 1.8 2.7 -1.9
v 1.8 2.7 -2
v 1.9 0.1 -1.8
v 1.9 0.1 -1.9
v 1.9 1 -1.6
v 1.9 1 -1.7
v 1.9 1.1 -1.6
v 1.9 1.1 -1.7
v 1.9 1.1 -1.8
v 1.9 1.3 -1.8
v 1.9 2.8 -1.8
v 1.9 2.8 -1.9
v 1.9 3.2 -1.6
v 1.9 3.2 -1.7
v 1.9 3.3 -1.6
v 1.9 3.3 -1.7
v 2 0 -1.7
v 2 0 -1.8
v 2 1.1 -1.6
v 2 1.1 -1.7
v 2 1.1 -1.8
v 2 1.3 -1.6
v 2 1.3 -1.7
v 2 1.3 -1.8
v 2 3.2 -1.8
v 2 3.2 -1.9
v 2 3.3 -1.6
v 2 3.3 -1.7
v 2 4 -1.6
v 2 4 -1.9
v -2 1.1 -1.6
v -2 1.3 -1.6
v -2 3.2 -1.6
v -2 3.3 -1.6
v -2 4 -1.6
v -1.9 1 -1.6
v -1.9 1.1 -1.6
v -1.9 3.2 -1.6
v -1.9 3.3 -1.6
v -1.8 1.2 -1.6
v -1.8 1.3 -1.6
v -1.8 3.2 -1.6
v -1.8 3.3 -1.6
v -1.8 4 -1.6
v -1.7 0.9 -1.6
v -1.7 1 -1.6
v -1.7 3.2 -1.6
v -1.7 3.3 -1.6
v -1.7 4 -1.6
v -1.6 1 -1.6
v -1.6 1.2 -1.6
v -1.6 3.2 -1.6
v -1.6 3.3 -1.6
v -1.5 0.9 -1.6
v -1.5 1 -1.6
v -1.5 3.2 -1.6
v -1.5 3.3 -1.6
v -1.4 3.2 -1.6
v -1.4 3.3 -1.6
v -1.4 4 -1.6
v -1.3 3.2 -1.6
v -1.3 3.3 -1.6
v -1.3 4 -1.6
v -1.2 3.2 -1.6
v -1.2 3.3 -1.6
v -1.1 3.2 -1.6
v -1.1 3.3 -1.6
v -1 3.2 -1.6
v -1 3.3 -1.6
v -1 4 -1.6
v -0.9 3.2 -1.6
v -0.9 3.3 -1.6
v -0.9 4 -1.6
v -0.8 3.2 -1.6
v -0.8 3.3 -1.6
v -0.7 3.2 -1.6
v -0.7 3.3 -1.6
v -0.6 3.2 -1.6
v -0.6 3.3 -1.6
v -0.6 4 -1.6
v -0.5 3.2 -1.6
v -0.5 3.3 -1.6
v -0.5 4 -1.6
v -0.4 3.2 -1.6
v -0.4 3.3 -1.6
v -0.3 3.2 -1.6
v -0.3 3.3 -1.6
v -0.2 3.2 -1.6
v -0.2 3.3 -1.6
v -0.2 4 -1.6
v -0.0999999 3.2 -1.6
v -0.0999999 3.3 -1.6
v -0.0999999 4 -1.6
v 2.38419e-07 3.2 -1.6
v 2.38419e-07 3.3 -1.6
v 0.1 3.2 -1.6
v 0.1 3.3 -1.6
v 0.2 3.2 -1.6
v 0.2 3.3 -1.6
v 0.2 4 -1.6
v 0.3 3.2 -1.6
v 0.3 3.3 -1.6
v 0.3 4 -1.6
v 0.4 3.2 -1.6
v 0.4 3.3 -1.6
v 0.5 3.2 -1.6
v 0.5 3.3 -1.6
v 0.6 3.2 -1.6
v 0.6 3.3 -1.6
v 0.6 4 -1.6
v 0.7 3.2 -1.6
v 0.7 3.3 -1.6
v 0.7 4 -1.6
v 0.8 3.2 -1.6
v 0.8 3.3 -1.6
v 0.9 3.2 -1.6
v 0.9 3.3 -1.6
v 1 3.2 -1.6
v 1 3.3 -1.6
v 1 4 -1.6
v 1.1 3.2 -1.6
v 1.1 3.3 -1.6
v 1.1 4 -1.6
v 1.2 3.2 -1.6
v 1.2 3.3 -1.6
v 1.3 3.2 -1.6
v 1.3 3.3 -1.6
v 1.4 3.2 -1.6
v 1.4 3.3 -1.6
v 1.4 4 -1.6
v 1.5 0.9 -1.6
v 1.5 1 -1.6
v 1.5 3.2 -1.6
v 1.5 3.3 -1.6
v 1.5 4 -1.6
v 1.6 1 -1.6
v 1.6 1.2 -1.6
v 1.6 3.2 -1.6
v 1.6 3.3 -1.6
v 1.7 0.9 -1.6
v 1.7 1 -1.6
v 1.7 3.2 -1.6
v 1.7 3.3 -1.6
v 1.8 1.2 -1.6
v 1.8 1.3 -1.6
v 1.8 3.2 -1.6
v 1.8 3.3 -1.6
v 1.8 4 -1.6
v 1.9 1 -1.6
v 1.9 1.1 -1.6
v 1.9 3.2 -1.6
v 1.9 3.3 -1.6
v 1.9 4 -1.6
v 2 1.1 -1.6
v 2 1.3 -1.6
v 2 3.3 -1.6
v 2 4 -1.6
v -2 0 -1.7
v -2 1.1 -1.7
v -2 1.3 -1.7
v -2 3.2 -1.7
v -1.9 1 -1.7
v -1.9 1.1 -1.7
v -1.9 3.2 -1.7
v -1.9 3.3 -1.7
v -1.8 0 -1.7
v -1.8 1 -1.7
v -1.8 1.2 -1.7
v -1.8 1.3 -1.7
v -1.8 3.2 -1.7
v -1.8 3.3 -1.7
v -1.7 0 -1.7
v -1.7 0.9 -1.7
v -1.7 1 -1.7
v -1.7 1.2 -1.7
v -1.7 3.2 -1.7
v -1.7 3.3 -1.7
v -1.6 0.8 -1.7
v -1.6 0.9 -1.7
v -1.6 1 -1.7
v -1.6 1.1 -1.7
v -1.6 1.2 -1.7
v -1.6 3.2 -1.7
v -1.6 3.3 -1.7
v -1.5 0 -1.7
v -1.5 0.8 -1.7
v -1.5 0.9 -1.7
v -1.5 1 -1.7
v -1.5 1.1 -1.7
v -1.5 3.2 -1.7
v -1.5 3.3 -1.7
v -1.4 0.9 -1.7
v -1.4 1 -1.7
v -1.4 1.3 -1.7
v -1.4 3.2 -1.7
v -1.4 3.3 -1.7
v -1.3 0.8 -1.7
v -1.3 0.9 -1.7
v -1.3 1.3 -1.7
v -1.3 1.4 -1.7
v -1.3 3.2 -1.7
v -1.3 3.3 -1.7
v -1.2 1.4 -1.7
v -1.2 1.9 -1.7
v -1.2 3.2 -1.7
v -1.2 3.3 -1.7
v -1.1 1.9 -1.7
v -1.1 2.3 -1.7
v -1.1 3.2 -1.7
v -1.1 3.3 -1.7
v -1 2.3 -1.7
v -1 2.8 -1.7
v -1 3.2 -1.7
v -1 3.3 -1.7
v -0.9 2.8 -1.7
v -0.9 3.2 -1.7
v -0.9 3.3 -1.7
v -0.8 3.2 -1.7
v -0.8 3.3 -1.7
v -0.7 3.2 -1.7
v -0.7 3.3 -1.7
v -0.6 3.2 -1.7
v -0.6 3.3 -1.7
v -0.5 3.2 -1.7
v -0.5 3.3 -1.7
v -0.4 3.2 -1.7
v -0.4 3.3 -1.7
v -0.3 3.2 -1.7
v -0.3 3.3 -1.7
v -0.2 3.2 -1.7
v -0.2 3.3 -1.7
v -0.0999999 3.2 -1.7
v -0.0999999 3.3 -1.7
v 2.38419e-07 3.2 -1.7
v 2.38419e-07 3.3 -1.7
v 0.1 3.2 -1.7
v 0.1 3.3 -1.7
v 0.2 3.2 -1.7
v 0.2 3.3 -1.7
v 0.3 3.2 -1.7
v 0.3 3.3 -1.7
v 0.4 3.2 -1.7
v 0.4 3.3 -1.7
v 0.5 3.2 -1.7
v 0.5 3.3 -1.7
v 0.6 3.2 -1.7
v 0.6 3.3 -1.7
v 0.7 3.2 -1.7
v 0.7 3.3 -1.7
v 0.8 3.2 -1.7
v 0.8 3.3 -1.7
v 0.9 2.8 -1.7
v 0.9 3.2 -1.7
v 0.9 3.3 -1.7
v 1 2.3 -1.7
v 1 2.8 -1.7
v 1 3.2 -1.7
v 1 3.3 -1.7
v 1.1 1.9 -1.7
v 1.1 2.3 -1.7
v 1.1 3.2 -1.7
v 1.1 3.3 -1.7
v 1.2 1.4 -1.7
v 1.2 1.9 -1.7
v 1.2 3.2 -1.7
v 1.2 3.3 -1.7
v 1.3 0.8 -1.7
v 1.3 0.9 -1.7
v 1.3 1.3 -1.7
v 1.3 1.4 -1.7
v 1.3 3.2 -1.7
v 1.3 3.3 -1.7
v 1.4 0.9 -1.7
v 1.4 1 -1.7
v 1.4 1.3 -1.7
v 1.4 3.2 -1.7
v 1.4 3.3 -1.7
v 1.5 0 -1.7
v 1.5 0.8 -1.7
v 1.5 0.9 -1.7
v 1.5 1 -1.7
v 1.5 1.1 -1.7
v 1.5 3.2 -1.7
v 1.5 3.3 -1.7
v 1.6 0.8 -1.7
v 1.6 0.9 -1.7
v 1.6 1 -1.7
v 1.6 1.1 -1.7
v 1.6 1.2 -1.7
v 1.6 3.2 -1.7
v 1.6 3.3 -1.7
v 1.7 0.9 -1.7
v 1.7 1 -1.7
v 1.7 3.2 -1.7
v 1.7 3.3 -1.7
v 1.8 0 -1.7
v 1.8 1 -1.7
v 1.8 1.2 -1.7
v 1.8 1.3 -1.7
v 1.8 3.2 -1.7
v 1.8 3.3 -1.7
v 1.9 0 -1.7
v 1.9 1 -1.7
v 1.9 1.1 -1.7
v 1.9 1.3 -1.7
v 1.9 3.2 -1.7
v 1.9 3.3 -1.7
v 2 0 -1.7
v 2 1.1 -1.7
v 2 1.3 -1.7
v 2 3.3 -1.7
v -1.9 1 -1.8
v -1.9 1.1 -1.8
v -1.8 1 -1.8
v -1.8 1.1 -1.8
v -1.5 0.1 -1.8
v -1.5 0.2 -1.8
v -1.5 0.7 -1.8
v -1.5 0.8 -1.8
v -1.4 0.5 -1.8
v -1.4 0.6 -1.8
v -1.4 0.7 -1.8
v -1.3 0.5 -1.8
v -1.3 0.6 -1.8
v -1.3 0.8 -1.8
v -1 2.7 -1.8
v -1 2.8 -1.8
v -0.9 2.8 -1.8
v -0.0999999 0.2 -1.8
v -0.0999999 2.7 -1.8
v 0.1 0.2 -1.8
v 0.1 2.7 -1.8
v 0.9 2.8 -1.8
v 1 2.7 -1.8
v 1 2.8 -1.8
v 1.3 0.4 -1.8
v 1.3 0.5 -1.8
v 1.3 0.8 -1.8
v 1.4 0.4 -1.8
v 1.4 0.5 -1.8
v 1.4 0.7 -1.8
v 1.5 0.1 -1.8
v 1.5 0.2 -1.8
v 1.5 0.7 -1.8
v 1.5 0.8 -1.8
v -1.8 0.2 -1.9
v -1.8 2.7 -1.9
v -1.6 0.8 -1.9
v -1.6 1 -1.9
v -1.5 0.2 -1.9
v -1.5 0.7 -1.9
v -1.5 0.8 -1.9
v -1.4 0.5 -1.9
v -1.4 0.6 -1.9
v -1.4 0.7 -1.9
v -1.4 0.9 -1.9
v -1.4 1 -1.9
v -1.3 0.3 -1.9
v -1.3 0.4 -1.9
v -1.3 0.5 -1.9
v -1.3 0.6 -1.9
v -1.3 0.9 -1.9
v -1.2 0.3 -1.9
v -1.2 0.4 -1.9
v -1.2 0.5 -1.9
v -1.1 0.4 -1.9
v -1.1 0.5 -1.9
v -1.1 2.8 -1.9
v -1.1 3.2 -1.9
v -1 1.2 -1.9
v -1 1.3 -1.9
v -1 2.7 -1.9
v -1 2.8 -1.9
v -0.9 0.6 -1.9
v -0.9 0.7 -1.9
v -0.9 1.2 -1.9
v -0.9 1.3 -1.9
v -0.9 1.4 -1.9
v -0.8 0.6 -1.9
v -0.8 0.7 -1.9
v -0.8 0.8 -1.9
v -0.8 1.3 -1.9
v -0.8 1.4 -1.9
v -0.8 1.5 -1.9
v -0.7 0.7 -1.9
v -0.7 0.8 -1.9
v -0.7 1.4 -1.9
v -0.7 1.5 -1.9
v -0.6 2.9 -1.9
v -0.6 3 -1.9
v -0.5 0.5 -1.9
v -0.5 0.6 -1.9
v -0.5 1.7 -1.9
v -0.5 1.8 -1.9
v -0.5 2.3 -1.9
v -0.5 2.4 -1.9
v -0.5 2.9 -1.9
v -0.5 3 -1.9
v -0.5 3.1 -1.9
v -0.4 0.5 -1.9
v -0.4 0.6 -1.9
v -0.4 0.7 -1.9
v -0.4 1.7 -1.9
v -0.4 1.8 -1.9
v -0.4 1.9 -1.9
v -0.4 2.3 -1.9
v -0.4 2.4 -1.9
v -0.4 2.5 -1.9
v -0.4 3 -1.9
v -0.4 3.1 -1.9
v -0.3 0.6 -1.9
v -0.3 0.7 -1.9
v -0.3 0.8 -1.9
v -0.3 1.8 -1.9
v -0.3 1.9 -1.9
v -0.3 2.4 -1.9
v -0.3 2.5 -1.9
v -0.2 0.7 -1.9
v -0.2 0.8 -1.9
v -0.0999999 0.2 -1.9
v -0.0999999 2.7 -1.9
v 0.1 0.2 -1.9
v 0.1 2.7 -1.9
v 0.3 0.6 -1.9
v 0.3 0.7 -1.9
v 0.3 2.9 -1.9
v 0.3 3 -1.9
v 0.4 0.6 -1.9
v 0.4 0.7 -1.9
v 0.4 0.8 -1.9
v 0.4 2.9 -1.9
v 0.4 3 -1.9
v 0.4 3.1 -1.9
v 0.5 0.7 -1.9
v 0.5 0.8 -1.9
v 0.5 1.4 -1.9
v 0.5 1.5 -1.9
v 0.5 3 -1.9
v 0.5 3.1 -1.9
v 0.5 3.2 -1.9
v 0.6 1.4 -1.9
v 0.6 1.5 -1.9
v 0.6 1.6 -1.9
v 0.6 3.1 -1.9
v 0.6 3.2 -1.9
v 0.7 1.5 -1.9
v 0.7 1.6 -1.9
v 0.7 2 -1.9
v 0.7 2.1 -1.9
v 0.8 0.4 -1.9
v 0.8 0.5 -1.9
v 0.8 1.6 -1.9
v 0.8 1.7 -1.9
v 0.8 2 -1.9
v 0.8 2.1 -1.9
v 0.8 2.2 -1.9
v 0.9 0.4 -1.9
v 0.9 0.5 -1.9
v 0.9 0.6 -1.9
v 0.9 1.6 -1.9
v 0.9 1.7 -1.9
v 0.9 1.8 -1.9
v 0.9 2.1 -1.9
v 0.9 2.2 -1.9
v 1 0.5 -1.9
v 1 0.6 -1.9
v 1 0.7 -1.9
v 1 1.7 -1.9
v 1 1.8 -1.9
v 1 2.7 -1.9
v 1 2.8 -1.9
v 1.1 0.6 -1.9
v 1.1 0.7 -1.9
v 1.1 2.8 -1.9
v 1.1 3.2 -1.9
v 1.3 0.4 -1.9
v 1.3 0.5 -1.9
v 1.3 0.9 -1.9
v 1.4 0.4 -1.9
v 1.4 0.5 -1.9
v 1.4 0.7 -1.9
v 1.4 0.9 -1.9
v 1.4 1 -1.9
v 1.5 0.2 -1.9
v 1.5 0.7 -1.9
v 1.5 0.8 -1.9
v 1.6 0.8 -1.9
v 1.6 1 -1.9
v 1.8 0.2 -1.9
v 1.8 2.7 -1.9
v -1.9 1 -1.7
v -1.9 1.1 -1.7
v -1.8 1 -1.7
v -1.7 1 -1.7
v -1.7 1.1 -1.7
v -2 0 -1.8
v -2 1.1 -1.8
v -2 1.3 -1.8
v -2 3.2 -1.8
v -1.9 0.1 -1.8
v -1.9 1.1 -1.8
v -1.9 1.3 -1.8
v -1.9 2.8 -1.8
v -1.9 3.2 -1.8
v -1.8 0 -1.8
v -1.8 0.1 -1.8
v -1.8 0.2 -1.8
v -1.8 1 -1.8
v -1.8 1.1 -1.8
v -1.8 1.2 -1.8
v -1.8 2.7 -1.8
v -1.8 2.8 -1.8
v -1.8 3.2 -1.8
v -1.7 0 -1.8
v -1.7 0.1 -1.8
v -1.7 0.2 -1.8
v -1.7 0.9 -1.8
v -1.7 1 -1.8
v -1.7 1.1 -1.8
v -1.7 1.2 -1.8
v -1.7 2.7 -1.8
v -1.7 2.8 -1.8
v -1.7 3.2 -1.8
v -1.6 0.8 -1.8
v -1.6 0.9 -1.8
v -1.6 1 -1.8
v -1.6 1.1 -1.8
v -1.6 1.2 -1.8
v -1.5 0 -1.8
v -1.5 0.1 -1.8
v -1.5 0.2 -1.8
v -1.5 0.7 -1.8
v -1.5 0.8 -1.8
v -1.5 1 -1.8
v -1.5 1.1 -1.8
v -1.4 1 -1.8
v -1.4 1.3 -1.8
v -1.4 2.7 -1.8
v -1.4 2.8 -1.8
v -1.4 3.2 -1.8
v -1.3 1.3 -1.8
v -1.3 1.4 -1.8
v -1.3 2.7 -1.8
v -1.3 2.8 -1.8
v -1.3 3.2 -1.8
v -1.2 1.4 -1.8
v -1.2 1.9 -1.8
v -1.1 1.9 -1.8
v -1.1 2.3 -1.8
v -1 2.3 -1.8
v -1 2.7 -1.8
v -1 2.8 -1.8
v -0.9 2.8 -1.8
v -0.9 3.2 -1.8
v 0.9 2.8 -1.8
v 0.9 3.2 -1.8
v 1 2.3 -1.8
v 1 2.7 -1.8
v 1 2.8 -1.8
v 1.1 1.9 -1.8
v 1.1 2.3 -1.8
v 1.2 1.4 -1.8
v 1.2 1.9 -1.8
v 1.3 1.3 -1.8
v 1.3 1.4 -1.8
v 1.4 1 -1.8
v 1.4 1.3 -1.8
v 1.4 2.7 -1.8
v 1.4 2.8 -1.8
v 1.4 3.2 -1.8
v 1.5 0 -1.8
v 1.5 0.1 -1.8
v 1.5 0.2 -1.8
v 1.5 0.7 -1.8
v 1.5 0.8 -1.8
v 1.5 1 -1.8
v 1.5 1.1 -1.8
v 1.5 2.7 -1.8
v 1.5 2.8 -1.8
v 1.5 3.2 -1.8
v 1.6 0.8 -1.8
v 1.6 0.9 -1.8
v 1.6 1 -1.8
v 1.6 1.1 -1.8
v 1.6 1.2 -1.8
v 1.7 0.9 -1.8
v 1.7 1 -1.8
v 1.8 0 -1.8
v 1.8 0.1 -1.8
v 1.8 0.2 -1.8
v 1.8 1 -1.8
v 1.8 1.2 -1.8
v 1.8 2.7 -1.8
v 1.8 2.8 -1.8
v 1.8 3.2 -1.8
v 1.9 0 -1.8
v 1.9 0.1 -1.8
v 1.9 1.1 -1.8
v 1.9 1.3 -1.8
v 1.9 2.8 -1.8
v 1.9 3.2 -1.8
v 2 0 -1.8
v 2 1.1 -1.8
v 2 1.3 -1.8
v 2 3.2 -1.8
v -2 3.2 -1.9
v -2 4 -1.9
v -1.9 0.1 -1.9
v -1.9 2.8 -1.9
v -1.9 3.2 -1.9
v -1.9 3.3 -1.9
v -1.8 0.1 -1.9
v -1.8 2.7 -1.9
v -1.8 3.9 -1.9
v -1.8 4 -1.9
v -1.7 3.9 -1.9
v -1.7 4 -1.9
v -1.4 3.9 -1.9
v -1.4 4 -1.9
v -1.3 3.9 -1.9
v -1.3 4 -1.9
v -1.1 2.7 -1.9
v -1.1 2.8 -1.9
v -1.1 3.2 -1.9
v -1 3.9 -1.9
v -1 4 -1.9
v -0.9 3.9 -1.9
v -0.9 4 -1.9
v -0.6 3.9 -1.9
v -0.6 4 -1.9
v -0.5 3.9 -1.9
v -0.5 4 -1.9
v -0.2 3.9 -1.9
v -0.2 4 -1.9
v -0.0999999 0.1 -1.9
v -0.0999999 2.7 -1.9
v -0.0999999 3.9 -1.9
v -0.0999999 4 -1.9
v 0.1 0.1 -1.9
v 0.1 2.7 -1.9
v 0.2 3.9 -1.9
v 0.2 4 -1.9
v 0.3 3.9 -1.9
v 0.3 4 -1.9
v 0.5 3.2 -1.9
v 0.6 3.2 -1.9
v 0.6 3.9 -1.9
v 0.6 4 -1.9
v 0.7 3.9 -1.9
v 0.7 4 -1.9
v 1 3.9 -1.9
v 1 4 -1.9
v 1.1 2.7 -1.9
v 1.1 2.8 -1.9
v 1.1 3.2 -1.9
v 1.1 3.9 -1.9
v 1.1 4 -1.9
v 1.4 3.9 -1.9
v 1.4 4 -1.9
v 1.5 3.9 -1.9
v 1.5 4 -1.9
v 1.8 0.1 -1.9
v 1.8 2.7 -1.9
v 1.8 3.9 -1.9
v 1.8 4 -1.9
v 1.9 0.1 -1.9
v 1.9 2.8 -1.9
v 1.9 3.2 -1.9
v 1.9 3.3 -1.9
v 1.9 3.9 -1.9
v 1.9 4 -1.9
v 2 3.2 -1.9
v 2 4 -1.9
v -1.8 0.1 -2
v -1.8 2.7 -2
v -1.3 0.3 -2
v -1.3 0.4 -2
v -1.2 0.3 -2
v -1.2 0.4 -2
v -1.2 0.5 -2
v -1.1 0.4 -2
v -1.1 0.5 -2
v -1.1 2.7 -2
v -1.1 3.2 -2
v -1 1.2 -2
v -1 1.3 -2
v -0.9 0.6 -2
v -0.9 0.7 -2
v -0.9 1.2 -2
v -0.9 1.3 -2
v -0.9 1.4 -2
v -0.8 0.6 -2
v -0.8 0.7 -2
v -0.8 0.8 -2
v -0.8 1.3 -2
v -0.8 1.4 -2
v -0.8 1.5 -2
v -0.7 0.7 -2
v -0.7 0.8 -2
v -0.7 1.4 -2
v -0.7 1.5 -2
v -0.6 2.9 -2
v -0.6 3 -2
v -0.5 0.5 -2
v -0.5 0.6 -2
v -0.5 1.7 -2
v -0.5 1.8 -2
v -0.5 2.3 -2
v -0.5 2.4 -2
v -0.5 2.9 -2
v -0.5 3 -2
v -0.5 3.1 -2
v -0.4 0.5 -2
v -0.4 0.6 -2
v -0.4 0.7 -2
v -0.4 1.7 -2
v -0.4 1.8 -2
v -0.4 1.9 -2
v -0.4 2.3 -2
v -0.4 2.4 -2
v -0.4 2.5 -2
v -0.4 3 -2
v -0.4 3.1 -2
v -0.3 0.6 -2
v -0.3 0.7 -2
v -0.3 0.8 -2
v -0.3 1.8 -2
v -0.3 1.9 -2
v -0.3 2.4 -2
v -0.3 2.5 -2
v -0.2 0.7 -2
v -0.2 0.8 -2
v -0.0999999 0.1 -2
v -0.0999999 2.7 -2
v 0.1 0.1 -2
v 0.1 2.7 -2
v 0.3 0.6 -2
v 0.3 0.7 -2
v 0.3 2.9 -2
v 0.3 3 -2
v 0.4 0.6 -2
v 0.4 0.7 -2
v 0.4 0.8 -2
v 0.4 2.9 -2
v 0.4 3 -2
v 0.4 3.1 -2
v 0.5 0.7 -2
v 0.5 0.8 -2
v 0.5 1.4 -2
v 0.5 1.5 -2
v 0.5 3 -2
v 0.5 3.1 -2
v 0.5 3.2 -2
v 0.6 1.4 -2
v 0.6 1.5 -2
v 0.6 1.6 -2
v 0.6 3.1 -2
v 0.6 3.2 -2
v 0.7 1.5 -2
v 0.7 1.6 -2
v 0.7 2 -2
v 0.7 2.1 -2
v 0.8 0.4 -2
v 0.8 0.5 -2
v 0.8 1.6 -2
v 0.8 1.7 -2
v 0.8 2 -2
v 0.8 2.1 -2
v 0.8 2.2 -2
v 0.9 0.4 -2
v 0.9 0.5 -2
v 0.9 0.6 -2
v 0.9 1.6 -2
v 0.9 1.7 -2
v 0.9 1.8 -2
v 0.9 2.1 -2
v 0.9 2.2 -2
v 1 0.5 -2
v 1 0.6 -2
v 1 0.7 -2
v 1 1.7 -2
v 1 1.8 -2
v 1.1 0.6 -2
v 1.1 0.7 -2
v 1.1 2.7 -2
v 1.1 3.2 -2
v 1.8 0.1 -2
v 1.8 2.7 -2
v -2 0 -1.7
v -1.8 0 -1.7
v -1.7 0 -1.7
v -1.5 0 -1.7
v 1.5 0 -1.7
v 1.8 0 -1.7
v 1.9 0 -1.7
v 2 0 -1.7
v -2 0 -1.8
v -1.8 0 -1.8
v -1.7 0 -1.8
v -1.5 0 -1.8
v 1.5 0 -1.8
v 1.8 0 -1.8
v 1.9 0 -1.8
v 2 0 -1.8
v -1.9 0.1 -1.8
v -1.8 0.1 -1.8
v -1.7 0.1 -1.8
v -1.5 0.1 -1.8
v 1.5 0.1 -1.8
v 1.8 0.1 -1.8
v 1.9 0.1 -1.8
v -1.9 0.1 -1.9
v -1.8 0.1 -1.9
v -1.5 0.1 -1.9
v -0.0999999 0.1 -1.9
v 0.1 0.1 -1.9
v 1.5 0.1 -1.9
v 1.8 0.1 -1.9
v 1.9 0.1 -1.9
v -1.8 0.1 -2
v -0.0999999 0.1 -2
v 0.1 0.1 -2
v 1.8 0.1 -2
v 1.3 0.4 -1.8
v 1.4 0.4 -1.8
v 1.3 0.4 -1.9
v 1.4 0.4 -1.9
v -1.4 0.5 -1.8
v -1.3 0.5 -1.8
v -1.4 0.5 -1.9
v -1.3 0.5 -1.9
v -1.5 0.7 -1.8
v -1.4 0.7 -1.8
v 1.4 0.7 -1.8
v 1.5 0.7 -1.8
v -1.5 0.7 -1.9
v -1.4 0.7 -1.9
v 1.4 0.7 -1.9
v 1.5 0.7 -1.9
v -1.5 0.8 -1.7
v -1.3 0.8 -1.7
v 1.3 0.8 -1.7
v 1.5 0.8 -1.7
v -1.6 0.8 -1.8
v -1.5 0.8 -1.8
v -1.3 0.8 -1.8
v 1.3 0.8 -1.8
v 1.5 0.8 -1.8
v 1.6 0.8 -1.8
v -1.6 0.8 -1.9
v -1.5 0.8 -1.9
v 1.5 0.8 -1.9
v 1.6 0.8 -1.9
v -1.7 0.9 -1.6
v -1.5 0.9 -1.6
v 1.5 0.9 -1.6
v 1.7 0.9 -1.6
v -1.7 0.9 -1.7
v -1.6 0.9 -1.7
v -1.5 0.9 -1.7
v 1.5 0.9 -1.7
v 1.6 0.9 -1.7
v 1.7 0.9 -1.7
v -1.9 1 -1.6
v -1.7 1 -1.6
v 1.7 1 -1.6
v 1.9 1 -1.6
v -1.9 1 -1.7
v -1.8 1 -1.7
v -1.7 1 -1.7
v 1.7 1 -1.7
v 1.8 1 -1.7
v 1.9 1 -1.7
v -2 1.1 -1.6
v -1.9 1.1 -1.6
v 1.9 1.1 -1.6
v 2 1.1 -1.6
v -2 1.1 -1.7
v -1.9 1.1 -1.7
v -1.7 1.1 -1.7
v 1.9 1.1 -1.7
v 2 1.1 -1.7
v -1.9 1.1 -1.8
v -1.8 1.1 -1.8
v -1.7 1.1 -1.8
v -1.4 1.3 -1.7
v -1.3 1.3 -1.7
v 1.3 1.3 -1.7
v 1.4 1.3 -1.7
v -1.4 1.3 -1.8
v -1.3 1.3 -1.8
v 1.3 1.3 -1.8
v 1.4 1.3 -1.8
v -1.3 1.4 -1.7
v -1.2 1.4 -1.7
v 1.2 1.4 -1.7
v 1.3 1.4 -1.7
v -1.3 1.4 -1.8
v -1.2 1.4 -1.8
v 1.2 1.4 -1.8
v 1.3 1.4 -1.8
v -1.2 1.9 -1.7
v -1.1 1.9 -1.7
v 1.1 1.9 -1.7
v 1.2 1.9 -1.7
v -1.2 1.9 -1.8
v -1.1 1.9 -1.8
v 1.1 1.9 -1.8
v 1.2 1.9 -1.8
v -1.1 2.3 -1.7
v -1 2.3 -1.7
v 1 2.3 -1.7
v 1.1 2.3 -1.7
v -1.1 2.3 -1.8
v -1 2.3 -1.8
v 1 2.3 -1.8
v 1.1 2.3 -1.8
v -1.8 2.7 -1.8
v -1.7 2.7 -1.8
v -1.4 2.7 -1.8
v -1.3 2.7 -1.8
v -1 2.7 -1.8
v -0.0999999 2.7 -1.8
v 0.1 2.7 -1.8
v 1 2.7 -1.8
v 1.4 2.7 -1.8
v 1.5 2.7 -1.8
v 1.8 2.7 -1.8
v -1.8 2.7 -1.9
v -1 2.7 -1.9
v -0.0999999 2.7 -1.9
v 0.1 2.7 -1.9
v 1 2.7 -1.9
v 1.8 2.7 -1.9
v -0.0999999 2.7 -2
v 0.1 2.7 -2
v -1 2.8 -1.7
v -0.9 2.8 -1.7
v 0.9 2.8 -1.7
v 1 2.8 -1.7
v -1 2.8 -1.8
v -0.9 2.8 -1.8
v 0.9 2.8 -1.8
v 1 2.8 -1.8
v -2 3.2 -1.6
v -1.9 3.2 -1.6
v -1.8 3.2 -1.6
v -1.7 3.2 -1.6
v -1.6 3.2 -1.6
v -1.5 3.2 -1.6
v -1.4 3.2 -1.6
v -1.3 3.2 -1.6
v -1.2 3.2 -1.6
v -1.1 3.2 -1.6
v -1 3.2 -1.6
v -0.9 3.2 -1.6
v -0.8 3.2 -1.6
v -0.7 3.2 -1.6
v -0.6 3.2 -1.6
v -0.5 3.2 -1.6
v -0.4 3.2 -1.6
v -0.3 3.2 -1.6
v -0.2 3.2 -1.6
v -0.0999999 3.2 -1.6
v 2.38419e-07 3.2 -1.6
v 0.1 3.2 -1.6
v 0.2 3.2 -1.6
v 0.3 3.2 -1.6
v 0.4 3.2 -1.6
v 0.5 3.2 -1.6
v 0.6 3.2 -1.6
v 0.7 3.2 -1.6
v 0.8 3.2 -1.6
v 0.9 3.2 -1.6
v 1 3.2 -1.6
v 1.1 3.2 -1.6
v 1.2 3.2 -1.6
v 1.3 3.2 -1.6
v 1.4 3.2 -1.6
v 1.5 3.2 -1.6
v 1.6 3.2 -1.6
v 1.7 3.2 -1.6
v 1.8 3.2 -1.6
v 1.9 3.2 -1.6
v -2 3.2 -1.7
v -1.9 3.2 -1.7
v -1.8 3.2 -1.7
v -1.7 3.2 -1.7
v -1.6 3.2 -1.7
v -1.5 3.2 -1.7
v -1.4 3.2 -1.7
v -1.3 3.2 -1.7
v -1.2 3.2 -1.7
v -1.1 3.2 -1.7
v -1 3.2 -1.7
v -0.9 3.2 -1.7
v -0.8 3.2 -1.7
v -0.7 3.2 -1.7
v -0.6 3.2 -1.7
v -0.5 3.2 -1.7
v -0.4 3.2 -1.7
v -0.3 3.2 -1.7
v -0.2 3.2 -1.7
v -0.0999999 3.2 -1.7
v 2.38419e-07 3.2 -1.7
v 0.1 3.2 -1.7
v 0.2 3.2 -1.7
v 0.3 3.2 -1.7
v 0.4 3.2 -1.7
v 0.5 3.2 -1.7
v 0.6 3.2 -1.7
v 0.7 3.2 -1.7
v 0.8 3.2 -1.7
v 0.9 3.2 -1.7
v 1 3.2 -1.7
v 1.1 3.2 -1.7
v 1.2 3.2 -1.7
v 1.3 3.2 -1.7
v 1.4 3.2 -1.7
v 1.5 3.2 -1.7
v 1.6 3.2 -1.7
v 1.7 3.2 -1.7
v 1.8 3.2 -1.7
v 1.9 3.2 -1.7
v -2 3.2 -1.8
v -1.9 3.2 -1.8
v -1.8 3.2 -1.8
v -1.7 3.2 -1.8
v -1.4 3.2 -1.8
v -1.3 3.2 -1.8
v -0.9 3.2 -1.8
v 0.9 3.2 -1.8
v 1.4 3.2 -1.8
v 1.5 3.2 -1.8
v 1.8 3.2 -1.8
v 1.9 3.2 -1.8
v 2 3.2 -1.8
v -2 3.2 -1.9
v -1.9 3.2 -1.9
v -1.1 3.2 -1.9
v 0.5 3.2 -1.9
v 0.6 3.2 -1.9
v 1.1 3.2 -1.9
v 1.9 3.2 -1.9
v 2 3.2 -1.9
v -1.9 3.3 -1.6
v -1.8 3.3 -1.6
v -1.7 3.3 -1.6
v -1.6 3.3 -1.6
v -1.5 3.3 -1.6
v -1.4 3.3 -1.6
v -1.3 3.3 -1.6
v -1.2 3.3 -1.6
v -1.1 3.3 -1.6
v -1 3.3 -1.6
v -0.9 3.3 -1.6
v -0.8 3.3 -1.6
v -0.7 3.3 -1.6
v -0.6 3.3 -1.6
v -0.5 3.3 -1.6
v -0.4 3.3 -1.6
v -0.3 3.3 -1.6
v -0.2 3.3 -1.6
v -0.0999999 3.3 -1.6
v 2.38419e-07 3.3 -1.6
v 0.1 3.3 -1.6
v 0.2 3.3 -1.6
v 0.3 3.3 -1.6
v 0.4 3.3 -1.6
v 0.5 3.3 -1.6
v 0.6 3.3 -1.6
v 0.7 3.3 -1.6
v 0.8 3.3 -1.6
v 0.9 3.3 -1.6
v 1 3.3 -1.6
v 1.1 3.3 -1.6
v 1.2 3.3 -1.6
v 1.3 3.3 -1.6
v 1.4 3.3 -1.6
v 1.5 3.3 -1.6
v 1.6 3.3 -1.6
v 1.7 3.3 -1.6
v 1.8 3.3 -1.6
v 1.9 3.3 -1.6
v 2 3.3 -1.6
v -1.9 3.3 -1.7
v -1.8 3.3 -1.7
v -1.7 3.3 -1.7
v -1.6 3.3 -1.7
v -1.5 3.3 -1.7
v -1.4 3.3 -1.7
v -1.3 3.3 -1.7
v -1.2 3.3 -1.7
v -1.1 3.3 -1.7
v -1 3.3 -1.7
v -0.9 3.3 -1.7
v -0.8 3.3 -1.7
v -0.7 3.3 -1.7
v -0.6 3.3 -1.7
v -0.5 3.3 -1.7
v -0.4 3.3 -1.7
v -0.3 3.3 -1.7
v -0.2 3.3 -1.7
v -0.0999999 3.3 -1.7
v 2.38419e-07 3.3 -1.7
v 0.1 3.3 -1.7
v 0.2 3.3 -1.7
v 0.3 3.3 -1.7
v 0.4 3.3 -1.7
v 0.5 3.3 -1.7
v 0.6 3.3 -1.7
v 0.7 3.3 -1.7
v 0.8 3.3 -1.7
v 0.9 3.3 -1.7
v 1 3.3 -1.7
v 1.1 3.3 -1.7
v 1.2 3.3 -1.7
v 1.3 3.3 -1.7
v 1.4 3.3 -1.7
v 1.5 3.3 -1.7
v 1.6 3.3 -1.7
v 1.7 3.3 -1.7
v 1.8 3.3 -1.7
v 1.9 3.3 -1.7
v 2 3.3 -1.7
v -1.8 0.2 -1.8
v -1.7 0.2 -1.8
v -1.5 0.2 -1.8
v -0.0999999 0.2 -1.8
v 0.1 0.2 -1.8
v 1.5 0.2 -1.8
v 1.8 0.2 -1.8
v -1.8 0.2 -1.9
v -1.5 0.2 -1.9
v -0.0999999 0.2 -1.9
v 0.1 0.2 -1.9
v 1.5 0.2 -1.9
v 1.8 0.2 -1.9
v -1.4 0.9 -1.7
v -1.3 0.9 -1.7
v 1.3 0.9 -1.7
v 1.4 0.9 -1.7
v -1.4 0.9 -1.9
v -1.3 0.9 -1.9
v 1.3 0.9 -1.9
v 1.4 0.9 -1.9
v -1.6 1 -1.6
v -1.5 1 -1.6
v 1.5 1 -1.6
v 1.6 1 -1.6
v -1.9 1 -1.7
v -1.8 1 -1.7
v -1.7 1 -1.7
v -1.6 1 -1.7
v -1.5 1 -1.7
v 1.5 1 -1.7
v 1.6 1 -1.7
v -1.9 1 -1.8
v -1.8 1 -1.8
v -1.7 1 -1.8
v -1.6 1 -1.8
v -1.5 1 -1.8
v -1.4 1 -1.8
v 1.4 1 -1.8
v 1.5 1 -1.8
v 1.6 1 -1.8
v -1.6 1 -1.9
v -1.4 1 -1.9
v 1.4 1 -1.9
v 1.6 1 -1.9
v -1.8 1.2 -1.6
v -1.6 1.2 -1.6
v 1.6 1.2 -1.6
v 1.8 1.2 -1.6
v -1.8 1.2 -1.7
v -1.7 1.2 -1.7
v -1.6 1.2 -1.7
v 1.6 1.2 -1.7
v 1.8 1.2 -1.7
v -2 1.3 -1.6
v -1.8 1.3 -1.6
v 1.8 1.3 -1.6
v 2 1.3 -1.6
v -2 1.3 -1.7
v -1.8 1.3 -1.7
v 1.8 1.3 -1.7
v 1.9 1.3 -1.7
v 2 1.3 -1.7
v -1.8 2.7 -1.9
v -1.1 2.7 -1.9
v 1.1 2.7 -1.9
v 1.8 2.7 -1.9
v -1.8 2.7 -2
v -1.1 2.7 -2
v 1.1 2.7 -2
v 1.8 2.7 -2
v -1.9 2.8 -1.8
v -1.8 2.8 -1.8
v -1.7 2.8 -1.8
v -1.4 2.8 -1.8
v -1.3 2.8 -1.8
v -1 2.8 -1.8
v -0.9 2.8 -1.8
v 0.9 2.8 -1.8
v 1 2.8 -1.8
v 1.4 2.8 -1.8
v 1.5 2.8 -1.8
v 1.8 2.8 -1.8
v 1.9 2.8 -1.8
v -1.9 2.8 -1.9
v -1.1 2.8 -1.9
v -1 2.8 -1.9
v 1 2.8 -1.9
v 1.1 2.8 -1.9
v 1.9 2.8 -1.9
v -1.1 3.2 -1.9
v 0.5 3.2 -1.9
v 0.6 3.2 -1.9
v 1.1 3.2 -1.9
v -1.1 3.2 -2
v 0.5 3.2 -2
v 0.6 3.2 -2
v 1.1 3.2 -2
v -2 4 -1.6
v -1.8 4 -1.6
v -1.7 4 -1.6
v -1.4 4 -1.6
v -1.3 4 -1.6
v -1 4 -1.6
v -0.9 4 -1.6
v -0.6 4 -1.6
v -0.5 4 -1.6
v -0.2 4 -1.6
v -0.0999999 4 -1.6
v 0.2 4 -1.6
v 0.3 4 -1.6
v 0.6 4 -1.6
v 0.7 4 -1.6
v 1 4 -1.6
v 1.1 4 -1.6
v 1.4 4 -1.6
v 1.5 4 -1.6
v 1.8 4 -1.6
v 1.9 4 -1.6
v 2 4 -1.6
v -2 4 -1.9
v -1.8 4 -1.9
v -1.7 4 -1.9
v -1.4 4 -1.9
v -1.3 4 -1.9
v -1 4 -1.9
v -0.9 4 -1.9
v -0.6 4 -1.9
v -0.5 4 -1.9
v -0.2 4 -1.9
v -0.0999999 4 -1.9
v 0.2 4 -1.9
v 0.3 4 -1.9
v 0.6 4 -1.9
v 0.7 4 -1.9
v 1 4 -1.9
v 1.1 4 -1.9
v 1.4 4 -1.9
v 1.5 4 -1.9
v 1.8 4 -1.9
v 1.9 4 -1.9
v 2 4 -1.9

# faces
f 4/6/1 2/6/1 1/6/1
f 5/6/1 2/6/1 4/6/1
f 6/5/1 4/5/1 3/5/1
f 6/5/1 5/5/1 4/5/1
f 7/5/1 5/5/1 6/5/1
f 8/5/1 5/5/1 7/5/1
f 10/6/1 8/6/1 7/6/1
f 11/6/1 8/6/1 10/6/1
f 13/1/1 10/1/1 9/1/1
f 14/6/1 11/6/1 10/6/1
f 14/1/1 10/1/1 13/1/1
f 14/6/1 12/6/1 11/6/1
f 15/6/1 14/6/1 13/6/1
f 16/6/1 12/6/1 14/6/1
f 16/6/1 14/6/1 15/6/1
f 21/5/1 20/5/1 19/5/1
f 22/5/1 20/5/1 21/5/1
f 23/8/1 18/8/1 17/8/1
f 24/8/1 18/8/1 23/8/1
f 25/8/1 18/8/1 24/8/1
f 26/8/1 18/8/1 25/8/1
f 29/2/1 28/2/1 27/2/1
f 30/2/1 28/2/1 29/2/1
f 33/1/1 32/1/1 31/1/1
f 34/1/1 32/1/1 33/1/1
f 37/5/1 36/5/1 35/5/1
f 38/5/1 36/5/1 37/5/1
f 40/5/1 39/5/1 38/5/1
f 41/5/1 39/5/1 40/5/1
f 44/5/1 43/5/1 42/5/1
f 45/5/1 43/5/1 44/5/1
f 46/5/1 43/5/1 45/5/1
f 49/1/1 48/1/1 47/1/1
f 50/1/1 48/1/1 49/1/1
f 53/5/1 52/5/1 51/5/1
f 54/5/1 52/5/1 53/5/1
f 57/3/1 56/3/1 55/3/1
f 58/3/1 56/3/1 57/3/1
f 59/5/1 58/5/1 57/5/1
f 60/5/1 58/5/1 59/5/1
f 63/1/1 62/1/1 61/1/1
f 64/1/1 62/1/1 63/1/1
f 67/1/1 66/1/1 65/1/1
f 68/1/1 66/1/1 67/1/1
f 71/2/1 70/2/1 69/2/1
f 72/2/1 70/2/1 71/2/1
f 73/2/1 70/2/1 72/2/1
f 76/1/1 75/1/1 74/1/1
f 77/1/1 75/1/1 76/1/1
f 80/1/1 79/1/1 78/1/1
f 81/1/1 79/1/1 80/1/1
f 84/1/1 83/1/1 82/1/1
f 85/1/1 83/1/1 84/1/1
f 88/1/1 87/1/1 86/1/1
f 89/1/1 87/1/1 88/1/1
f 92/1/1 91/1/1 90/1/1
f 93/1/1 91/1/1 92/1/1
f 96/9/1 95/9/1 94/9/1
f 97/9/1 95/9/1 96/9/1
f 100/1/1 99/1/1 98/1/1
f 101/1/1 99/1/1 100/1/1
f 104/2/1 103/2/1 102/2/1
f 105/2/1 103/2/1 104/2/1
f 108/1/1 107/1/1 106/1/1
f 109/1/1 107/1/1 108/1/1
f 112/1/1 111/1/1 110/1/1
f 113/1/1 111/1/1 112/1/1
f 116/1/1 115/1/1 114/1/1
f 117/1/1 115/1/1 116/1/1
f 120/1/1 119/1/1 118/1/1
f 121/1/1 119/1/1 120/1/1
f 124/6/1 123/6/1 122/6/1
f 125/6/1 123/6/1 124/6/1
f 128/6/1 127/6/1 126/6/1
f 129/6/1 128/6/1 126/6/1
f 130/6/1 128/6/1 129/6/1
f 133/1/1 132/1/1 131/1/1
f 134/1/1 132/1/1 133/1/1
f 137/6/1 136/6/1 135/6/1
f 138/6/1 136/6/1 137/6/1
f 141/6/1 140/6/1 139/6/1
f 142/6/1 140/6/1 141/6/1
f 145/1/1 144/1/1 143/1/1
f 146/1/1 144/1/1 145/1/1
f 149/3/1 148/3/1 147/3/1
f 150/3/1 148/3/1 149/3/1
f 152/5/1 150/5/1 149/5/1
f 153/5/1 152/5/1 151/5/1
f 154/5/1 150/5/1 152/5/1
f 154/5/1 152/5/1 153/5/1
f 157/6/1 156/6/1 155/6/1
f 158/6/1 156/6/1 157/6/1
f 161/5/1 160/5/1 159/5/1
f 162/5/1 160/5/1 161/5/1
f 163/5/1 160/5/1 162/5/1
f 164/1/1 162/1/1 161/1/1
f 165/1/1 162/1/1 164/1/1
f 168/1/1 167/1/1 166/1/1
f 169/1/1 167/1/1 168/1/1
f 172/6/1 171/6/1 170/6/1
f 173/6/1 172/6/1 170/6/1
f 174/6/1 173/6/1 170/6/1
f 175/6/1 174/6/1 170/6/1
f 176/6/1 174/6/1 175/6/1
f 179/5/1 178/5/1 177/5/1
f 180/5/1 178/5/1 179/5/1
f 183/5/1 182/5/1 181/5/1
f 184/5/1 183/5/1 181/5/1
f 185/5/1 183/5/1 184/5/1
f 188/1/1 187/1/1 186/1/1
f 189/1/1 187/1/1 188/1/1
f 192/8/1 191/8/1 190/8/1
f 195/8/1 191/8/1 192/8/1
f 196/5/1 194/5/1 193/5/1
f 197/5/1 194/5/1 196/5/1
f 198/8/1 191/8/1 195/8/1
f 199/8/1 191/8/1 198/8/1
f 202/1/1 201/1/1 200/1/1
f 203/1/1 201/1/1 202/1/1
f 204/6/2 205/6/2 206/6/2
f 206/6/2 205/6/2 207/6/2
f 208/1/2 209/1/2 210/1/2
f 210/1/2 209/1/2 211/1/2
f 212/8/2 213/8/2 214/8/2
f 214/8/2 213/8/2 215/8/2
f 215/8/2 213/8/2 218/8/2
f 216/5/2 217/5/2 219/5/2
f 219/5/2 217/5/2 220/5/2
f 218/8/2 213/8/2 221/8/2
f 221/8/2 213/8/2 222/8/2
f 223/1/2 224/1/2 225/1/2
f 225/1/2 224/1/2 226/1/2
f 227/5/2 228/5/2 229/5/2
f 227/5/2 229/5/2 230/5/2
f 230/5/2 229/5/2 231/5/2
f 232/6/2 233/6/2 234/6/2
f 232/6/2 234/6/2 235/6/2
f 232/6/2 235/6/2 236/6/2
f 232/6/2 236/6/2 237/6/2
f 237/6/2 236/6/2 238/6/2
f 239/5/2 240/5/2 241/5/2
f 241/5/2 240/5/2 242/5/2
f 243/1/2 244/1/2 245/1/2
f 245/1/2 244/1/2 246/1/2
f 247/5/2 248/5/2 249/5/2
f 249/5/2 248/5/2 250/5/2
f 250/5/2 248/5/2 251/5/2
f 249/6/2 250/6/2 252/6/2
f 252/6/2 250/6/2 253/6/2
f 254/3/2 255/3/2 256/3/2
f 256/3/2 255/3/2 257/3/2
f 256/5/2 257/5/2 259/5/2
f 258/5/2 259/5/2 260/5/2
f 259/5/2 257/5/2 261/5/2
f 260/5/2 259/5/2 261/5/2
f 262/1/2 263/1/2 264/1/2
f 264/1/2 263/1/2 265/1/2
f 266/1/2 267/1/2 268/1/2
f 268/1/2 267/1/2 269/1/2
f 270/6/2 271/6/2 272/6/2
f 272/6/2 271/6/2 273/6/2
f 274/6/2 275/6/2 276/6/2
f 276/6/2 275/6/2 277/6/2
f 278/1/2 279/1/2 280/1/2
f 280/1/2 279/1/2 281/1/2
f 282/6/2 283/6/2 284/6/2
f 282/6/2 284/6/2 285/6/2
f 285/6/2 284/6/2 286/6/2
f 287/6/2 288/6/2 290/6/2
f 290/6/2 288/6/2 291/6/2
f 289/1/2 290/1/2 292/1/2
f 292/1/2 290/1/2 293/1/2
f 294/1/2 295/1/2 296/1/2
f 296/1/2 295/1/2 297/1/2
f 298/1/2 299/1/2 300/1/2
f 300/1/2 299/1/2 301/1/2
f 302/1/2 303/1/2 304/1/2
f 304/1/2 303/1/2 305/1/2
f 306/2/2 307/2/2 308/2/2
f 308/2/2 307/2/2 309/2/2
f 310/1/2 311/1/2 312/1/2
f 312/1/2 311/1/2 313/1/2
f 314/9/2 315/9/2 316/9/2
f 316/9/2 315/9/2 317/9/2
f 318/1/2 319/1/2 320/1/2
f 320/1/2 319/1/2 321/1/2
f 322/1/2 323/1/2 324/1/2
f 324/1/2 323/1/2 325/1/2
f 326/1/2 327/1/2 328/1/2
f 328/1/2 327/1/2 329/1/2
f 330/1/2 331/1/2 332/1/2
f 332/1/2 331/1/2 333/1/2
f 334/1/2 335/1/2 336/1/2
f 336/1/2 335/1/2 337/1/2
f 338/2/2 339/2/2 340/2/2
f 340/2/2 339/2/2 343/2/2
f 343/2/2 339/2/2 344/2/2
f 341/1/2 342/1/2 345/1/2
f 345/1/2 342/1/2 346/1/2
f 347/1/2 348/1/2 349/1/2
f 349/1/2 348/1/2 350/1/2
f 351/3/2 352/3/2 353/3/2
f 353/3/2 352/3/2 354/3/2
f 353/5/2 354/5/2 355/5/2
f 355/5/2 354/5/2 356/5/2
f 357/5/2 358/5/2 359/5/2
f 359/5/2 358/5/2 360/5/2
f 361/1/2 362/1/2 363/1/2
f 363/1/2 362/1/2 364/1/2
f 365/5/2 366/5/2 367/5/2
f 367/5/2 366/5/2 368/5/2
f 368/5/2 366/5/2 369/5/2
f 370/5/2 371/5/2 372/5/2
f 372/5/2 371/5/2 373/5/2
f 374/1/2 375/1/2 376/1/2
f 376/1/2 375/1/2 377/1/2
f 378/2/2 379/2/2 380/2/2
f 380/2/2 379/2/2 381/2/2
f 384/5/2 385/5/2 386/5/2
f 386/5/2 385/5/2 387/5/2
f 382/8/2 383/8/2 388/8/2
f 388/8/2 383/8/2 389/8/2
f 389/8/2 383/8/2 390/8/2
f 390/8/2 383/8/2 391/8/2
f 392/1/2 393/1/2 394/1/2
f 394/1/2 393/1/2 395/1/2
f 396/6/2 397/6/2 399/6/2
f 399/6/2 397/6/2 400/6/2
f 398/5/2 399/5/2 401/5/2
f 399/5/2 400/5/2 401/5/2
f 401/5/2 400/5/2 402/5/2
f 402/5/2 400/5/2 403/5/2
f 402/6/2 403/6/2 404/6/2
f 402/6/2 404/6/2 407/6/2
f 404/6/2 405/6/2 407/6/2
f 406/6/2 407/6/2 408/6/2
f 407/6/2 405/6/2 409/6/2
f 408/6/2 407/6/2 409/6/2
f 416/5/3 411/5/3 410/5/3
f 417/1/3 413/1/3 412/1/3
f 418/6/3 414/6/3 413/6/3
f 418/1/3 413/1/3 417/1/3
f 419/5/3 416/5/3 415/5/3
f 419/5/3 411/5/3 416/5/3
f 420/5/3 411/5/3 419/5/3
f 422/6/3 414/6/3 418/6/3
f 423/6/3 414/6/3 422/6/3
f 425/5/3 419/5/3 415/5/3
f 426/1/3 423/1/3 422/1/3
f 426/1/3 422/1/3 421/1/3
f 427/1/3 423/1/3 426/1/3
f 428/1/3 423/1/3 427/1/3
f 429/5/3 425/5/3 424/5/3
f 429/5/3 419/5/3 425/5/3
f 430/5/3 419/5/3 429/5/3
f 432/6/3 428/6/3 427/6/3
f 433/5/3 429/5/3 424/5/3
f 434/5/3 429/5/3 433/5/3
f 435/1/3 432/1/3 431/1/3
f 436/6/3 428/6/3 432/6/3
f 436/1/3 432/1/3 435/1/3
f 438/6/3 428/6/3 436/6/3
f 439/6/3 428/6/3 438/6/3
f 440/1/3 438/1/3 437/1/3
f 440/1/3 439/1/3 438/1/3
f 441/1/3 439/1/3 440/1/3
f 442/1/3 439/1/3 441/1/3
f 444/6/3 442/6/3 441/6/3
f 445/1/3 444/1/3 443/1/3
f 446/6/3 442/6/3 444/6/3
f 446/1/3 444/1/3 445/1/3
f 448/6/3 442/6/3 446/6/3
f 449/6/3 442/6/3 448/6/3
f 450/1/3 448/1/3 447/1/3
f 450/1/3 449/1/3 448/1/3
f 451/1/3 449/1/3 450/1/3
f 452/1/3 449/1/3 451/1/3
f 454/6/3 452/6/3 451/6/3
f 455/1/3 454/1/3 453/1/3
f 456/6/3 452/6/3 454/6/3
f 456/1/3 454/1/3 455/1/3
f 458/6/3 452/6/3 456/6/3
f 459/6/3 452/6/3 458/6/3
f 460/1/3 458/1/3 457/1/3
f 460/1/3 459/1/3 458/1/3
f 461/1/3 459/1/3 460/1/3
f 462/1/3 459/1/3 461/1/3
f 464/6/3 462/6/3 461/6/3
f 465/1/3 464/1/3 463/1/3
f 466/6/3 462/6/3 464/6/3
f 466/1/3 464/1/3 465/1/3
f 468/6/3 462/6/3 466/6/3
f 469/6/3 462/6/3 468/6/3
f 470/1/3 468/1/3 467/1/3
f 470/1/3 469/1/3 468/1/3
f 471/1/3 469/1/3 470/1/3
f 472/1/3 469/1/3 471/1/3
f 474/6/3 472/6/3 471/6/3
f 475/1/3 474/1/3 473/1/3
f 476/6/3 472/6/3 474/6/3
f 476/1/3 474/1/3 475/1/3
f 478/6/3 472/6/3 476/6/3
f 479/6/3 472/6/3 478/6/3
f 480/1/3 478/1/3 477/1/3
f 480/1/3 479/1/3 478/1/3
f 481/1/3 479/1/3 480/1/3
f 482/1/3 479/1/3 481/1/3
f 484/6/3 482/6/3 481/6/3
f 485/1/3 484/1/3 483/1/3
f 486/6/3 482/6/3 484/6/3
f 486/1/3 484/1/3 485/1/3
f 488/6/3 482/6/3 486/6/3
f 489/6/3 482/6/3 488/6/3
f 490/1/3 488/1/3 487/1/3
f 490/1/3 489/1/3 488/1/3
f 491/1/3 489/1/3 490/1/3
f 492/1/3 489/1/3 491/1/3
f 494/6/3 492/6/3 491/6/3
f 495/1/3 494/1/3 493/1/3
f 496/6/3 492/6/3 494/6/3
f 496/1/3 494/1/3 495/1/3
f 498/6/3 492/6/3 496/6/3
f 499/6/3 492/6/3 498/6/3
f 500/1/3 498/1/3 497/1/3
f 500/1/3 499/1/3 498/1/3
f 501/1/3 499/1/3 500/1/3
f 502/1/3 499/1/3 501/1/3
f 504/6/3 502/6/3 501/6/3
f 505/1/3 504/1/3 503/1/3
f 506/6/3 502/6/3 504/6/3
f 506/1/3 504/1/3 505/1/3
f 508/6/3 502/6/3 506/6/3
f 509/6/3 502/6/3 508/6/3
f 512/1/3 508/1/3 507/1/3
f 512/1/3 509/1/3 508/1/3
f 513/1/3 509/1/3 512/1/3
f 514/1/3 509/1/3 513/1/3
f 515/5/3 511/5/3 510/5/3
f 518/6/3 514/6/3 513/6/3
f 519/5/3 516/5/3 515/5/3
f 519/5/3 515/5/3 510/5/3
f 520/5/3 516/5/3 519/5/3
f 521/1/3 518/1/3 517/1/3
f 522/6/3 514/6/3 518/6/3
f 522/1/3 518/1/3 521/1/3
f 523/5/3 516/5/3 520/5/3
f 526/6/3 514/6/3 522/6/3
f 527/6/3 514/6/3 526/6/3
f 528/5/3 524/5/3 523/5/3
f 528/5/3 523/5/3 520/5/3
f 529/5/3 524/5/3 528/5/3
f 530/1/3 527/1/3 526/1/3
f 530/1/3 526/1/3 525/1/3
f 531/1/3 527/1/3 530/1/3
f 532/1/3 527/1/3 531/1/3
f 533/5/3 524/5/3 529/5/3
f 534/5/3 524/5/3 533/5/3
f 535/6/3 532/6/3 531/6/3
f 536/6/3 532/6/3 535/6/3
f 541/6/3 538/6/3 537/6/3
f 542/6/3 538/6/3 541/6/3
f 543/6/3 540/6/3 539/6/3
f 545/6/3 541/6/3 537/6/3
f 546/6/3 541/6/3 545/6/3
f 548/6/3 544/6/3 543/6/3
f 548/6/3 543/6/3 539/6/3
f 549/6/3 544/6/3 548/6/3
f 550/6/3 544/6/3 549/6/3
f 551/1/3 546/1/3 545/1/3
f 552/1/3 546/1/3 551/1/3
f 553/1/3 546/1/3 552/1/3
f 554/1/3 548/1/3 547/1/3
f 554/1/3 549/1/3 548/1/3
f 555/1/3 549/1/3 554/1/3
f 557/6/3 552/6/3 551/6/3
f 558/6/3 552/6/3 557/6/3
f 561/6/3 556/6/3 555/6/3
f 561/6/3 555/6/3 554/6/3
f 562/6/3 556/6/3 561/6/3
f 563/6/3 556/6/3 562/6/3
f 564/6/3 557/6/3 551/6/3
f 565/5/3 558/5/3 557/5/3
f 565/6/3 557/6/3 564/6/3
f 566/5/3 558/5/3 565/5/3
f 567/5/3 560/5/3 559/5/3
f 568/6/3 561/6/3 560/6/3
f 568/6/3 562/6/3 561/6/3
f 568/5/3 560/5/3 567/5/3
f 569/6/3 562/6/3 568/6/3
f 571/5/3 566/5/3 565/5/3
f 571/5/3 567/5/3 566/5/3
f 572/6/3 570/6/3 569/6/3
f 572/5/3 567/5/3 571/5/3
f 572/6/3 569/6/3 568/6/3
f 572/6/3 568/6/3 567/6/3
f 573/6/3 570/6/3 572/6/3
f 574/6/3 570/6/3 573/6/3
f 575/6/3 570/6/3 574/6/3
f 576/5/3 571/5/3 565/5/3
f 577/5/3 571/5/3 576/5/3
f 578/1/3 574/1/3 573/1/3
f 579/1/3 574/1/3 578/1/3
f 580/1/3 574/1/3 579/1/3
f 582/6/3 581/6/3 580/6/3
f 582/6/3 580/6/3 579/6/3
f 583/6/3 581/6/3 582/6/3
f 584/6/3 581/6/3 583/6/3
f 585/6/3 581/6/3 584/6/3
f 586/6/3 584/6/3 583/6/3
f 587/6/3 584/6/3 586/6/3
f 588/6/3 584/6/3 587/6/3
f 590/6/3 589/6/3 588/6/3
f 590/6/3 588/6/3 587/6/3
f 591/6/3 589/6/3 590/6/3
f 592/6/3 589/6/3 591/6/3
f 593/6/3 589/6/3 592/6/3
f 594/6/3 592/6/3 591/6/3
f 595/6/3 592/6/3 594/6/3
f 597/9/3 596/9/3 595/9/3
f 598/9/3 596/9/3 597/9/3
f 601/9/3 600/9/3 599/9/3
f 602/9/3 600/9/3 601/9/3
f 605/9/3 604/9/3 603/9/3
f 606/9/3 604/9/3 605/9/3
f 609/9/3 608/9/3 607/9/3
f 610/9/3 608/9/3 609/9/3
f 613/9/3 612/9/3 611/9/3
f 614/9/3 612/9/3 613/9/3
f 617/9/3 616/9/3 615/9/3
f 618/9/3 616/9/3 617/9/3
f 621/9/3 620/9/3 619/9/3
f 622/9/3 620/9/3 621/9/3
f 625/9/3 624/9/3 623/9/3
f 626/9/3 624/9/3 625/9/3
f 629/9/3 628/9/3 627/9/3
f 630/9/3 628/9/3 629/9/3
f 635/6/3 632/6/3 631/6/3
f 635/6/3 633/6/3 632/6/3
f 636/6/3 633/6/3 635/6/3
f 637/6/3 633/6/3 636/6/3
f 639/6/3 635/6/3 634/6/3
f 639/6/3 636/6/3 635/6/3
f 640/6/3 636/6/3 639/6/3
f 643/6/3 639/6/3 638/6/3
f 643/6/3 641/6/3 640/6/3
f 643/6/3 640/6/3 639/6/3
f 644/6/3 641/6/3 643/6/3
f 645/6/3 641/6/3 644/6/3
f 649/6/3 643/6/3 642/6/3
f 649/6/3 644/6/3 643/6/3
f 650/6/3 644/6/3 649/6/3
f 652/5/3 647/5/3 646/5/3
f 654/6/3 651/6/3 650/6/3
f 654/6/3 649/6/3 648/6/3
f 654/6/3 650/6/3 649/6/3
f 655/6/3 651/6/3 654/6/3
f 656/6/3 651/6/3 655/6/3
f 658/5/3 653/5/3 652/5/3
f 658/5/3 652/5/3 646/5/3
f 659/5/3 653/5/3 658/5/3
f 660/1/3 655/1/3 654/1/3
f 660/5/3 653/5/3 659/5/3
f 660/1/3 654/1/3 653/1/3
f 661/1/3 655/1/3 660/1/3
f 662/1/3 655/1/3 661/1/3
f 664/5/3 659/5/3 658/5/3
f 664/6/3 658/6/3 657/6/3
f 665/5/3 659/5/3 664/5/3
f 666/5/3 661/5/3 660/5/3
f 667/6/3 663/6/3 662/6/3
f 667/5/3 661/5/3 666/5/3
f 667/6/3 662/6/3 661/6/3
f 668/6/3 663/6/3 667/6/3
f 669/6/3 663/6/3 668/6/3
f 670/6/3 663/6/3 669/6/3
f 671/6/3 665/6/3 664/6/3
f 673/6/3 669/6/3 668/6/3
f 675/6/3 664/6/3 657/6/3
f 675/6/3 672/6/3 671/6/3
f 675/6/3 671/6/3 664/6/3
f 676/6/3 672/6/3 675/6/3
f 677/6/3 674/6/3 673/6/3
f 677/6/3 673/6/3 668/6/3
f 678/6/3 674/6/3 677/6/3
f 679/6/3 674/6/3 678/6/3
f 680/6/3 674/6/3 679/6/3
f 681/1/3 676/1/3 675/1/3
f 682/1/3 676/1/3 681/1/3
f 684/1/3 679/1/3 678/1/3
f 685/1/3 679/1/3 684/1/3
f 687/6/3 683/6/3 682/6/3
f 687/6/3 682/6/3 681/6/3
f 688/6/3 683/6/3 687/6/3
f 689/6/3 686/6/3 685/6/3
f 689/6/3 685/6/3 684/6/3
f 690/6/3 686/6/3 689/6/3
f 693/8/3 692/8/3 691/8/3
f 694/8/3 692/8/3 693/8/3
f 701/5/3 698/5/3 697/5/3
f 702/3/3 700/3/3 699/3/3
f 703/5/3 701/5/3 700/5/3
f 703/3/3 700/3/3 702/3/3
f 704/5/3 698/5/3 701/5/3
f 704/5/3 701/5/3 703/5/3
f 707/9/3 706/9/3 705/9/3
f 708/9/3 696/9/3 695/9/3
f 709/9/3 707/9/3 705/9/3
f 710/9/3 708/9/3 695/9/3
f 710/9/3 709/9/3 708/9/3
f 711/9/3 707/9/3 709/9/3
f 711/9/3 709/9/3 710/9/3
f 712/9/3 707/9/3 711/9/3
f 713/9/3 712/9/3 711/9/3
f 714/9/3 712/9/3 713/9/3
f 718/3/3 716/3/3 715/3/3
f 719/5/3 717/5/3 716/5/3
f 719/3/3 716/3/3 718/3/3
f 720/5/3 717/5/3 719/5/3
f 721/9/3 710/9/3 695/9/3
f 722/9/3 710/9/3 721/9/3
f 723/5/3 717/5/3 720/5/3
f 724/5/3 717/5/3 723/5/3
f 727/2/3 726/2/3 725/2/3
f 728/2/3 726/2/3 727/2/3
f 729/2/3 727/2/3 725/2/3
f 730/2/3 727/2/3 729/2/3
f 731/2/3 727/2/3 730/2/3
f 732/2/3 730/2/3 729/2/3
f 733/2/3 730/2/3 732/2/3
f 734/2/3 730/2/3 733/2/3
f 736/2/3 726/2/3 728/2/3
f 737/2/3 732/2/3 729/2/3
f 738/2/3 732/2/3 737/2/3
f 739/2/3 732/2/3 738/2/3
f 741/2/3 736/2/3 735/2/3
f 742/2/3 737/2/3 729/2/3
f 742/7/3 738/7/3 737/7/3
f 743/2/3 740/2/3 739/2/3
f 743/7/3 738/7/3 742/7/3
f 743/2/3 741/2/3 740/2/3
f 743/2/3 739/2/3 738/2/3
f 744/2/3 741/2/3 743/2/3
f 745/2/3 743/2/3 742/2/3
f 745/7/3 744/7/3 743/7/3
f 746/2/3 741/2/3 744/2/3
f 746/7/3 744/7/3 745/7/3
f 749/2/3 726/2/3 736/2/3
f 749/2/3 736/2/3 741/2/3
f 749/2/3 741/2/3 746/2/3
f 749/2/3 746/2/3 745/2/3
f 750/2/3 726/2/3 749/2/3
f 751/2/3 726/2/3 750/2/3
f 752/2/3 748/2/3 747/2/3
f 753/2/3 749/2/3 745/2/3
f 754/2/3 749/2/3 753/2/3
f 755/7/3 750/7/3 749/7/3
f 755/2/3 749/2/3 754/2/3
f 756/2/3 751/2/3 750/2/3
f 756/7/3 750/7/3 755/7/3
f 757/2/3 751/2/3 756/2/3
f 758/7/3 754/7/3 753/7/3
f 758/2/3 753/2/3 745/2/3
f 759/2/3 755/2/3 754/2/3
f 759/7/3 754/7/3 758/7/3
f 759/2/3 756/2/3 755/2/3
f 760/2/3 756/2/3 759/2/3
f 761/7/3 757/7/3 756/7/3
f 761/2/3 756/2/3 760/2/3
f 762/2/3 751/2/3 757/2/3
f 762/7/3 757/7/3 761/7/3
f 763/2/3 751/2/3 762/2/3
f 764/7/3 760/7/3 759/7/3
f 764/2/3 759/2/3 758/2/3
f 765/2/3 761/2/3 760/2/3
f 765/7/3 760/7/3 764/7/3
f 765/2/3 762/2/3 761/2/3
f 766/7/3 763/7/3 762/7/3
f 766/2/3 762/2/3 765/2/3
f 767/2/3 751/2/3 763/2/3
f 767/7/3 763/7/3 766/7/3
f 768/2/3 748/2/3 752/2/3
f 769/2/3 748/2/3 768/2/3
f 770/2/3 758/2/3 745/2/3
f 770/2/3 764/2/3 758/2/3
f 770/2/3 766/2/3 765/2/3
f 770/2/3 765/2/3 764/2/3
f 770/2/3 767/2/3 766/2/3
f 771/2/3 767/2/3 770/2/3
f 772/2/3 751/2/3 767/2/3
f 772/2/3 767/2/3 771/2/3
f 773/2/3 751/2/3 772/2/3
f 774/2/3 751/2/3 773/2/3
f 775/2/3 751/2/3 774/2/3
f 776/7/3 769/7/3 768/7/3
f 776/2/3 768/2/3 752/2/3
f 777/2/3 748/2/3 769/2/3
f 777/7/3 769/7/3 776/7/3
f 778/2/3 748/2/3 777/2/3
f 779/7/3 771/7/3 770/7/3
f 779/2/3 770/2/3 745/2/3
f 780/2/3 772/2/3 771/2/3
f 780/7/3 771/7/3 779/7/3
f 781/2/3 772/2/3 780/2/3
f 782/7/3 773/7/3 772/7/3
f 782/2/3 772/2/3 781/2/3
f 783/2/3 774/2/3 773/2/3
f 783/7/3 773/7/3 782/7/3
f 784/2/3 774/2/3 783/2/3
f 785/7/3 775/7/3 774/7/3
f 785/2/3 774/2/3 784/2/3
f 786/2/3 751/2/3 775/2/3
f 786/7/3 775/7/3 785/7/3
f 787/2/3 751/2/3 786/2/3
f 788/7/3 778/7/3 777/7/3
f 788/2/3 777/2/3 776/2/3
f 789/2/3 748/2/3 778/2/3
f 789/7/3 778/7/3 788/7/3
f 790/7/3 781/7/3 780/7/3
f 790/2/3 780/2/3 779/2/3
f 791/2/3 782/2/3 781/2/3
f 791/7/3 781/7/3 790/7/3
f 791/2/3 783/2/3 782/2/3
f 792/2/3 783/2/3 791/2/3
f 793/7/3 784/7/3 783/7/3
f 793/2/3 783/2/3 792/2/3
f 794/2/3 785/2/3 784/2/3
f 794/7/3 784/7/3 793/7/3
f 794/2/3 786/2/3 785/2/3
f 795/7/3 787/7/3 786/7/3
f 795/2/3 786/2/3 794/2/3
f 796/2/3 751/2/3 787/2/3
f 796/7/3 787/7/3 795/7/3
f 797/7/3 792/7/3 791/7/3
f 797/2/3 791/2/3 790/2/3
f 798/2/3 793/2/3 792/2/3
f 798/7/3 792/7/3 797/7/3
f 798/2/3 795/2/3 794/2/3
f 798/2/3 796/2/3 795/2/3
f 798/2/3 794/2/3 793/2/3
f 799/2/3 742/2/3 729/2/3
f 799/2/3 745/2/3 742/2/3
f 799/2/3 798/2/3 797/2/3
f 799/2/3 790/2/3 779/2/3
f 799/2/3 797/2/3 790/2/3
f 799/2/3 779/2/3 745/2/3
f 800/2/3 796/2/3 798/2/3
f 800/2/3 798/2/3 799/2/3
f 800/2/3 751/2/3 796/2/3
f 803/2/3 802/2/3 801/2/3
f 804/2/3 802/2/3 803/2/3
f 805/2/3 776/2/3 752/2/3
f 805/2/3 788/2/3 776/2/3
f 805/2/3 789/2/3 788/2/3
f 806/2/3 789/2/3 805/2/3
f 807/7/3 804/7/3 803/7/3
f 807/2/3 803/2/3 801/2/3
f 808/2/3 802/2/3 804/2/3
f 808/7/3 804/7/3 807/7/3
f 809/2/3 802/2/3 808/2/3
f 810/7/3 806/7/3 805/7/3
f 810/2/3 805/2/3 752/2/3
f 811/2/3 789/2/3 806/2/3
f 811/7/3 806/7/3 810/7/3
f 812/2/3 748/2/3 789/2/3
f 812/2/3 789/2/3 811/2/3
f 813/7/3 809/7/3 808/7/3
f 813/2/3 808/2/3 807/2/3
f 814/2/3 802/2/3 809/2/3
f 814/7/3 809/7/3 813/7/3
f 815/2/3 802/2/3 814/2/3
f 816/2/3 802/2/3 815/2/3
f 817/2/3 811/2/3 810/2/3
f 817/7/3 812/7/3 811/7/3
f 818/2/3 748/2/3 812/2/3
f 818/7/3 812/7/3 817/7/3
f 819/2/3 748/2/3 818/2/3
f 820/7/3 816/7/3 815/7/3
f 820/2/3 814/2/3 813/2/3
f 820/2/3 815/2/3 814/2/3
f 821/2/3 802/2/3 816/2/3
f 821/7/3 816/7/3 820/7/3
f 822/2/3 802/2/3 821/2/3
f 823/7/3 819/7/3 818/7/3
f 823/2/3 818/2/3 817/2/3
f 824/7/3 819/7/3 823/7/3
f 825/7/3 822/7/3 821/7/3
f 825/2/3 821/2/3 820/2/3
f 826/2/3 802/2/3 822/2/3
f 826/7/3 822/7/3 825/7/3
f 827/2/3 802/2/3 826/2/3
f 828/2/3 802/2/3 827/2/3
f 829/2/3 807/2/3 801/2/3
f 829/2/3 820/2/3 813/2/3
f 829/2/3 813/2/3 807/2/3
f 829/2/3 827/2/3 826/2/3
f 829/2/3 826/2/3 825/2/3
f 829/2/3 825/2/3 820/2/3
f 830/2/3 827/2/3 829/2/3
f 831/2/3 827/2/3 830/2/3
f 832/2/3 827/2/3 831/2/3
f 833/7/3 828/7/3 827/7/3
f 833/2/3 827/2/3 832/2/3
f 834/2/3 802/2/3 828/2/3
f 834/7/3 828/7/3 833/7/3
f 835/2/3 802/2/3 834/2/3
f 836/2/3 829/2/3 801/2/3
f 836/7/3 830/7/3 829/7/3
f 837/2/3 831/2/3 830/2/3
f 837/7/3 830/7/3 836/7/3
f 838/2/3 831/2/3 837/2/3
f 839/7/3 832/7/3 831/7/3
f 839/2/3 831/2/3 838/2/3
f 840/2/3 833/2/3 832/2/3
f 840/7/3 832/7/3 839/7/3
f 840/2/3 834/2/3 833/2/3
f 841/2/3 834/2/3 840/2/3
f 842/7/3 835/7/3 834/7/3
f 842/2/3 834/2/3 841/2/3
f 843/2/3 802/2/3 835/2/3
f 843/7/3 835/7/3 842/7/3
f 844/7/3 838/7/3 837/7/3
f 844/2/3 837/2/3 836/2/3
f 845/2/3 839/2/3 838/2/3
f 845/7/3 838/7/3 844/7/3
f 845/2/3 840/2/3 839/2/3
f 846/2/3 840/2/3 845/2/3
f 847/7/3 841/7/3 840/7/3
f 847/2/3 840/2/3 846/2/3
f 848/2/3 842/2/3 841/2/3
f 848/7/3 841/7/3 847/7/3
f 848/2/3 843/2/3 842/2/3
f 849/2/3 802/2/3 843/2/3
f 849/2/3 843/2/3 848/2/3
f 850/2/3 810/2/3 752/2/3
f 850/2/3 823/2/3 817/2/3
f 850/2/3 817/2/3 810/2/3
f 850/2/3 824/2/3 823/2/3
f 851/2/3 845/2/3 844/2/3
f 851/7/3 846/7/3 845/7/3
f 852/2/3 848/2/3 847/2/3
f 852/7/3 846/7/3 851/7/3
f 852/2/3 849/2/3 848/2/3
f 852/2/3 847/2/3 846/2/3
f 853/2/3 824/2/3 850/2/3
f 854/2/3 824/2/3 853/2/3
f 855/2/3 844/2/3 836/2/3
f 855/2/3 851/2/3 844/2/3
f 855/2/3 836/2/3 801/2/3
f 855/2/3 852/2/3 851/2/3
f 856/2/3 852/2/3 855/2/3
f 857/2/3 849/2/3 852/2/3
f 857/2/3 852/2/3 856/2/3
f 858/2/3 855/2/3 801/2/3
f 861/2/3 849/2/3 857/2/3
f 862/2/3 849/2/3 861/2/3
f 863/2/3 860/2/3 859/2/3
f 863/2/3 858/2/3 801/2/3
f 863/2/3 859/2/3 858/2/3
f 864/2/3 860/2/3 863/2/3
f 866/2/3 864/2/3 863/2/3
f 866/2/3 865/2/3 864/2/3
f 867/2/3 849/2/3 862/2/3
f 868/2/3 866/2/3 863/2/3
f 868/2/3 867/2/3 866/2/3
f 869/2/3 849/2/3 867/2/3
f 869/2/3 867/2/3 868/2/3
f 870/5/4 871/5/4 872/5/4
f 872/5/4 871/5/4 873/5/4
f 873/5/4 871/5/4 874/5/4
f 875/6/4 876/6/4 879/6/4
f 876/5/4 877/5/4 880/5/4
f 879/6/4 876/6/4 880/6/4
f 877/6/4 878/6/4 881/6/4
f 880/5/4 877/5/4 881/5/4
f 881/6/4 878/6/4 882/6/4
f 882/6/4 878/6/4 883/6/4
f 875/6/4 879/6/4 884/6/4
f 884/6/4 879/6/4 885/6/4
f 882/6/4 883/6/4 891/6/4
f 891/6/4 883/6/4 892/6/4
f 884/1/4 885/1/4 893/1/4
f 893/1/4 885/1/4 894/1/4
f 886/1/4 887/1/4 895/1/4
f 895/1/4 887/1/4 896/1/4
f 896/1/4 887/1/4 897/1/4
f 888/4/4 889/4/4 898/4/4
f 889/1/4 890/1/4 899/1/4
f 898/4/4 889/4/4 899/4/4
f 899/1/4 890/1/4 900/1/4
f 891/1/4 892/1/4 901/1/4
f 901/1/4 892/1/4 902/1/4
f 895/6/4 896/6/4 903/6/4
f 896/4/4 897/4/4 904/4/4
f 903/6/4 896/6/4 904/6/4
f 897/5/4 898/5/4 905/5/4
f 904/4/4 897/4/4 905/4/4
f 898/4/4 899/4/4 906/4/4
f 905/5/4 898/5/4 906/5/4
f 899/6/4 900/6/4 907/6/4
f 906/4/4 899/4/4 907/4/4
f 893/6/4 894/6/4 908/6/4
f 908/6/4 894/6/4 909/6/4
f 895/6/4 903/6/4 910/6/4
f 910/6/4 903/6/4 911/6/4
f 911/6/4 903/6/4 912/6/4
f 905/5/4 906/5/4 913/5/4
f 906/6/4 907/6/4 914/6/4
f 913/5/4 906/5/4 914/5/4
f 913/6/4 914/6/4 915/6/4
f 907/6/4 900/6/4 916/6/4
f 915/6/4 914/6/4 916/6/4
f 914/6/4 907/6/4 916/6/4
f 916/6/4 900/6/4 917/6/4
f 901/6/4 902/6/4 918/6/4
f 918/6/4 902/6/4 919/6/4
f 916/1/4 917/1/4 920/1/4
f 920/1/4 917/1/4 921/1/4
f 921/1/4 917/1/4 922/1/4
f 918/1/4 919/1/4 923/1/4
f 923/1/4 919/1/4 924/1/4
f 921/6/4 922/6/4 925/6/4
f 925/6/4 922/6/4 926/6/4
f 926/6/4 922/6/4 927/6/4
f 927/6/4 922/6/4 928/6/4
f 928/6/4 922/6/4 929/6/4
f 929/6/4 922/6/4 930/6/4
f 923/6/4 924/6/4 931/6/4
f 931/6/4 924/6/4 932/6/4
f 932/6/4 924/6/4 933/6/4
f 934/6/4 935/6/4 938/6/4
f 936/6/4 937/6/4 940/6/4
f 939/6/4 940/6/4 942/6/4
f 941/6/4 942/6/4 944/6/4
f 943/6/4 944/6/4 946/6/4
f 940/6/4 937/6/4 947/6/4
f 942/6/4 940/6/4 947/6/4
f 946/6/4 944/6/4 947/6/4
f 944/6/4 942/6/4 947/6/4
f 938/6/4 935/6/4 948/6/4
f 948/6/4 935/6/4 949/6/4
f 946/1/4 947/1/4 955/1/4
f 945/1/4 946/1/4 955/1/4
f 955/1/4 947/1/4 956/1/4
f 956/1/4 947/1/4 957/1/4
f 948/1/4 949/1/4 958/1/4
f 958/1/4 949/1/4 959/1/4
f 953/6/4 954/6/4 960/6/4
f 952/6/4 953/6/4 960/6/4
f 955/5/4 956/5/4 962/5/4
f 956/6/4 957/6/4 963/6/4
f 962/5/4 956/5/4 963/5/4
f 963/6/4 957/6/4 964/6/4
f 961/4/4 962/4/4 965/4/4
f 960/6/4 961/6/4 965/6/4
f 963/4/4 964/4/4 965/4/4
f 962/4/4 963/4/4 965/4/4
f 965/4/4 964/4/4 966/4/4
f 950/6/4 951/6/4 967/6/4
f 967/6/4 951/6/4 968/6/4
f 952/6/4 960/6/4 969/6/4
f 960/6/4 965/6/4 969/6/4
f 965/6/4 966/6/4 969/6/4
f 966/4/4 964/4/4 970/4/4
f 969/6/4 966/6/4 970/6/4
f 964/6/4 957/6/4 971/6/4
f 970/4/4 964/4/4 971/4/4
f 971/6/4 957/6/4 972/6/4
f 958/6/4 959/6/4 973/6/4
f 973/6/4 959/6/4 974/6/4
f 967/1/4 968/1/4 975/1/4
f 975/1/4 968/1/4 976/1/4
f 973/1/4 974/1/4 979/1/4
f 979/1/4 974/1/4 980/1/4
f 975/6/4 976/6/4 981/6/4
f 976/6/4 977/6/4 981/6/4
f 977/5/4 978/5/4 982/5/4
f 981/6/4 977/6/4 982/6/4
f 979/6/4 980/6/4 983/6/4
f 982/5/4 978/5/4 983/5/4
f 978/6/4 979/6/4 983/6/4
f 983/6/4 980/6/4 984/6/4
f 985/6/4 986/6/4 989/6/4
f 989/6/4 986/6/4 990/6/4
f 987/8/4 988/8/4 991/8/4
f 991/8/4 988/8/4 992/8/4
f 990/6/4 986/6/4 993/6/4
f 993/6/4 986/6/4 994/6/4
f 990/6/4 993/6/4 995/6/4
f 993/1/4 994/1/4 995/1/4
f 995/1/4 994/1/4 996/1/4
f 990/6/4 995/6/4 997/6/4
f 995/6/4 996/6/4 997/6/4
f 997/6/4 996/6/4 998/6/4
f 990/6/4 997/6/4 999/6/4
f 997/1/4 998/1/4 999/1/4
f 999/1/4 998/1/4 1000/1/4
f 992/8/4 988/8/4 1001/8/4
f 1001/8/4 988/8/4 1002/8/4
f 989/9/4 990/9/4 1003/9/4
f 990/6/4 999/6/4 1004/6/4
f 999/6/4 1000/6/4 1004/6/4
f 1004/6/4 1000/6/4 1005/6/4
f 990/6/4 1004/6/4 1006/6/4
f 1004/1/4 1005/1/4 1006/1/4
f 1006/1/4 1005/1/4 1007/1/4
f 990/6/4 1006/6/4 1008/6/4
f 1006/6/4 1007/6/4 1008/6/4
f 1008/6/4 1007/6/4 1009/6/4
f 990/6/4 1008/6/4 1010/6/4
f 1008/1/4 1009/1/4 1010/1/4
f 1010/1/4 1009/1/4 1011/1/4
f 990/6/4 1010/6/4 1012/6/4
f 1010/6/4 1011/6/4 1012/6/4
f 1012/6/4 1011/6/4 1013/6/4
f 990/6/4 1012/6/4 1016/6/4
f 1012/1/4 1013/1/4 1016/1/4
f 1016/1/4 1013/1/4 1017/1/4
f 1014/9/4 1015/9/4 1018/9/4
f 1018/9/4 1015/9/4 1019/9/4
f 990/6/4 1016/6/4 1020/6/4
f 1016/6/4 1017/6/4 1020/6/4
f 1020/6/4 1017/6/4 1021/6/4
f 990/6/4 1020/6/4 1022/6/4
f 1020/1/4 1021/1/4 1022/1/4
f 1022/1/4 1021/1/4 1023/1/4
f 1003/9/4 990/9/4 1024/9/4
f 1024/9/4 990/9/4 1025/9/4
f 990/6/4 1022/6/4 1026/6/4
f 1022/6/4 1023/6/4 1026/6/4
f 1026/6/4 1023/6/4 1027/6/4
f 990/6/4 1026/6/4 1028/6/4
f 1026/1/4 1027/1/4 1028/1/4
f 1028/1/4 1027/1/4 1029/1/4
f 990/6/4 1028/6/4 1030/6/4
f 1028/6/4 1029/6/4 1030/6/4
f 1030/6/4 1029/6/4 1031/6/4
f 1025/9/4 990/9/4 1034/9/4
f 990/6/4 1030/6/4 1035/6/4
f 1030/1/4 1031/1/4 1035/1/4
f 1035/1/4 1031/1/4 1036/1/4
f 990/6/4 1035/6/4 1037/6/4
f 1035/6/4 1036/6/4 1037/6/4
f 1037/6/4 1036/6/4 1038/6/4
f 990/6/4 1037/6/4 1039/6/4
f 1037/1/4 1038/1/4 1039/1/4
f 1039/1/4 1038/1/4 1040/1/4
f 1032/8/4 1033/8/4 1042/8/4
f 990/6/4 1039/6/4 1043/6/4
f 1039/6/4 1040/6/4 1043/6/4
f 1043/6/4 1040/6/4 1044/6/4
f 1041/8/4 1042/8/4 1045/8/4
f 1042/8/4 1033/8/4 1046/8/4
f 1045/8/4 1042/8/4 1046/8/4
f 1034/9/4 990/9/4 1047/9/4
f 990/6/4 1043/6/4 1048/6/4
f 1047/9/4 990/9/4 1048/9/4
f 1043/1/4 1044/1/4 1049/1/4
f 1048/6/4 1043/6/4 1049/6/4
f 1049/1/4 1044/1/4 1050/1/4
f 1047/6/4 1048/6/4 1051/6/4
f 1049/6/4 1050/6/4 1051/6/4
f 1048/6/4 1049/6/4 1051/6/4
f 1051/6/4 1050/6/4 1052/6/4
f 1053/2/4 1054/2/4 1055/2/4
f 1055/2/4 1054/2/4 1056/2/4
f 1053/2/4 1055/2/4 1057/2/4
f 1055/7/4 1056/7/4 1057/7/4
f 1056/2/4 1054/2/4 1058/2/4
f 1057/7/4 1056/7/4 1058/7/4
f 1058/2/4 1054/2/4 1059/2/4
f 1057/2/4 1058/2/4 1060/2/4
f 1058/7/4 1059/7/4 1060/7/4
f 1059/2/4 1054/2/4 1061/2/4
f 1060/7/4 1059/7/4 1061/7/4
f 1061/2/4 1054/2/4 1062/2/4
f 1060/2/4 1061/2/4 1064/2/4
f 1062/2/4 1063/2/4 1064/2/4
f 1061/2/4 1062/2/4 1064/2/4
f 1064/2/4 1063/2/4 1065/2/4
f 1060/2/4 1064/2/4 1066/2/4
f 1066/2/4 1064/2/4 1067/2/4
f 1064/7/4 1065/7/4 1068/7/4
f 1067/2/4 1064/2/4 1068/2/4
f 1065/2/4 1063/2/4 1069/2/4
f 1068/7/4 1065/7/4 1069/7/4
f 1069/2/4 1063/2/4 1070/2/4
f 1066/7/4 1067/7/4 1071/7/4
f 1060/2/4 1066/2/4 1071/2/4
f 1067/2/4 1068/2/4 1072/2/4
f 1071/7/4 1067/7/4 1072/7/4
f 1068/2/4 1069/2/4 1072/2/4
f 1072/2/4 1069/2/4 1073/2/4
f 1069/7/4 1070/7/4 1074/7/4
f 1073/2/4 1069/2/4 1074/2/4
f 1070/2/4 1063/2/4 1075/2/4
f 1074/7/4 1070/7/4 1075/7/4
f 1075/2/4 1063/2/4 1076/2/4
f 1072/7/4 1073/7/4 1077/7/4
f 1071/2/4 1072/2/4 1077/2/4
f 1073/2/4 1074/2/4 1078/2/4
f 1077/7/4 1073/7/4 1078/7/4
f 1074/2/4 1075/2/4 1078/2/4
f 1075/7/4 1076/7/4 1079/7/4
f 1078/2/4 1075/2/4 1079/2/4
f 1076/2/4 1063/2/4 1080/2/4
f 1079/7/4 1076/7/4 1080/7/4
f 1078/2/4 1079/2/4 1081/2/4
f 1080/2/4 1063/2/4 1081/2/4
f 1079/2/4 1080/2/4 1081/2/4
f 1077/2/4 1078/2/4 1081/2/4
f 1081/2/4 1063/2/4 1082/2/4
f 1060/2/4 1071/2/4 1083/2/4
f 1071/2/4 1077/2/4 1083/2/4
f 1077/2/4 1081/2/4 1083/2/4
f 1083/2/4 1081/2/4 1084/2/4
f 1084/2/4 1081/2/4 1085/2/4
f 1085/2/4 1081/2/4 1086/2/4
f 1086/2/4 1081/2/4 1087/2/4
f 1087/2/4 1081/2/4 1088/2/4
f 1081/7/4 1082/7/4 1089/7/4
f 1088/2/4 1081/2/4 1089/2/4
f 1082/2/4 1063/2/4 1090/2/4
f 1089/7/4 1082/7/4 1090/7/4
f 1090/2/4 1063/2/4 1091/2/4
f 1060/2/4 1083/2/4 1092/2/4
f 1083/7/4 1084/7/4 1092/7/4
f 1084/2/4 1085/2/4 1093/2/4
f 1092/7/4 1084/7/4 1093/7/4
f 1093/2/4 1085/2/4 1094/2/4
f 1085/7/4 1086/7/4 1095/7/4
f 1094/2/4 1085/2/4 1095/2/4
f 1086/2/4 1087/2/4 1096/2/4
f 1095/7/4 1086/7/4 1096/7/4
f 1096/2/4 1087/2/4 1097/2/4
f 1087/7/4 1088/7/4 1098/7/4
f 1097/2/4 1087/2/4 1098/2/4
f 1088/2/4 1089/2/4 1099/2/4
f 1098/7/4 1088/7/4 1099/7/4
f 1089/2/4 1090/2/4 1099/2/4
f 1099/2/4 1090/2/4 1100/2/4
f 1090/7/4 1091/7/4 1101/7/4
f 1100/2/4 1090/2/4 1101/2/4
f 1091/2/4 1063/2/4 1102/2/4
f 1101/7/4 1091/7/4 1102/7/4
f 1093/7/4 1094/7/4 1103/7/4
f 1092/2/4 1093/2/4 1103/2/4
f 1094/2/4 1095/2/4 1104/2/4
f 1103/7/4 1094/7/4 1104/7/4
f 1095/2/4 1096/2/4 1104/2/4
f 1104/2/4 1096/2/4 1105/2/4
f 1096/7/4 1097/7/4 1106/7/4
f 1105/2/4 1096/2/4 1106/2/4
f 1097/2/4 1098/2/4 1107/2/4
f 1106/7/4 1097/7/4 1107/7/4
f 1098/2/4 1099/2/4 1107/2/4
f 1099/7/4 1100/7/4 1108/7/4
f 1107/2/4 1099/2/4 1108/2/4
f 1100/2/4 1101/2/4 1109/2/4
f 1108/7/4 1100/7/4 1109/7/4
f 1101/2/4 1102/2/4 1109/2/4
f 1104/7/4 1105/7/4 1110/7/4
f 1103/2/4 1104/2/4 1110/2/4
f 1105/2/4 1106/2/4 1111/2/4
f 1110/7/4 1105/7/4 1111/7/4
f 1107/2/4 1108/2/4 1111/2/4
f 1108/2/4 1109/2/4 1111/2/4
f 1106/2/4 1107/2/4 1111/2/4
f 1053/2/4 1057/2/4 1112/2/4
f 1057/2/4 1060/2/4 1112/2/4
f 1110/2/4 1111/2/4 1112/2/4
f 1060/2/4 1092/2/4 1112/2/4
f 1103/2/4 1110/2/4 1112/2/4
f 1092/2/4 1103/2/4 1112/2/4
f 1111/2/4 1109/2/4 1113/2/4
f 1112/2/4 1111/2/4 1113/2/4
f 1109/2/4 1102/2/4 1113/2/4
f 1113/2/4 1102/2/4 1115/2/4
f 1114/2/4 1115/2/4 1116/2/4
f 1116/2/4 1115/2/4 1117/2/4
f 1115/2/4 1102/2/4 1118/2/4
f 1117/2/4 1115/2/4 1118/2/4
f 1118/2/4 1102/2/4 1119/2/4
f 1116/7/4 1117/7/4 1120/7/4
f 1114/2/4 1116/2/4 1120/2/4
f 1117/2/4 1118/2/4 1121/2/4
f 1120/7/4 1117/7/4 1121/7/4
f 1121/2/4 1118/2/4 1122/2/4
f 1118/7/4 1119/7/4 1123/7/4
f 1122/2/4 1118/2/4 1123/2/4
f 1119/2/4 1102/2/4 1124/2/4
f 1123/7/4 1119/7/4 1124/7/4
f 1102/2/4 1063/2/4 1125/2/4
f 1124/2/4 1102/2/4 1125/2/4
f 1121/7/4 1122/7/4 1126/7/4
f 1120/2/4 1121/2/4 1126/2/4
f 1123/2/4 1124/2/4 1127/2/4
f 1126/7/4 1122/7/4 1127/7/4
f 1122/2/4 1123/2/4 1127/2/4
f 1127/2/4 1124/2/4 1128/2/4
f 1128/2/4 1124/2/4 1129/2/4
f 1124/7/4 1125/7/4 1130/7/4
f 1129/2/4 1124/2/4 1130/2/4
f 1125/2/4 1063/2/4 1131/2/4
f 1130/7/4 1125/7/4 1131/7/4
f 1131/2/4 1063/2/4 1132/2/4
f 1128/7/4 1129/7/4 1133/7/4
f 1126/2/4 1127/2/4 1133/2/4
f 1127/2/4 1128/2/4 1133/2/4
f 1129/2/4 1130/2/4 1134/2/4
f 1133/7/4 1129/7/4 1134/7/4
f 1130/2/4 1131/2/4 1134/2/4
f 1134/2/4 1131/2/4 1135/2/4
f 1131/7/4 1132/7/4 1136/7/4
f 1135/2/4 1131/2/4 1136/2/4
f 1136/7/4 1132/7/4 1137/7/4
f 1134/7/4 1135/7/4 1138/7/4
f 1133/2/4 1134/2/4 1138/2/4
f 1136/2/4 1137/2/4 1139/2/4
f 1138/7/4 1135/7/4 1139/7/4
f 1135/2/4 1136/2/4 1139/2/4
f 1139/2/4 1137/2/4 1140/2/4
f 1140/2/4 1137/2/4 1141/2/4
f 1120/2/4 1126/2/4 1142/2/4
f 1126/2/4 1133/2/4 1142/2/4
f 1114/2/4 1120/2/4 1142/2/4
f 1139/2/4 1140/2/4 1142/2/4
f 1138/2/4 1139/2/4 1142/2/4
f 1133/2/4 1138/2/4 1142/2/4
f 1142/2/4 1140/2/4 1143/2/4
f 1143/2/4 1140/2/4 1144/2/4
f 1144/2/4 1140/2/4 1145/2/4
f 1140/7/4 1141/7/4 1146/7/4
f 1145/2/4 1140/2/4 1146/2/4
f 1141/2/4 1137/2/4 1147/2/4
f 1146/7/4 1141/7/4 1147/7/4
f 1147/2/4 1137/2/4 1148/2/4
f 1114/2/4 1142/2/4 1149/2/4
f 1142/7/4 1143/7/4 1149/7/4
f 1143/2/4 1144/2/4 1150/2/4
f 1149/7/4 1143/7/4 1150/7/4
f 1150/2/4 1144/2/4 1151/2/4
f 1144/7/4 1145/7/4 1152/7/4
f 1151/2/4 1144/2/4 1152/2/4
f 1145/2/4 1146/2/4 1153/2/4
f 1152/7/4 1145/7/4 1153/7/4
f 1146/2/4 1147/2/4 1153/2/4
f 1153/2/4 1147/2/4 1154/2/4
f 1147/7/4 1148/7/4 1155/7/4
f 1154/2/4 1147/2/4 1155/2/4
f 1148/2/4 1137/2/4 1156/2/4
f 1155/7/4 1148/7/4 1156/7/4
f 1150/7/4 1151/7/4 1157/7/4
f 1149/2/4 1150/2/4 1157/2/4
f 1151/2/4 1152/2/4 1158/2/4
f 1157/7/4 1151/7/4 1158/7/4
f 1152/2/4 1153/2/4 1158/2/4
f 1158/2/4 1153/2/4 1159/2/4
f 1153/7/4 1154/7/4 1160/7/4
f 1159/2/4 1153/2/4 1160/2/4
f 1154/2/4 1155/2/4 1161/2/4
f 1160/7/4 1154/7/4 1161/7/4
f 1155/2/4 1156/2/4 1161/2/4
f 1158/7/4 1159/7/4 1162/7/4
f 1157/2/4 1158/2/4 1162/2/4
f 1159/2/4 1160/2/4 1163/2/4
f 1162/7/4 1159/7/4 1163/7/4
f 1160/2/4 1161/2/4 1163/2/4
f 1156/2/4 1137/2/4 1164/2/4
f 1163/2/4 1161/2/4 1164/2/4
f 1161/2/4 1156/2/4 1164/2/4
f 1164/2/4 1137/2/4 1165/2/4
f 1149/2/4 1157/2/4 1166/2/4
f 1162/2/4 1163/2/4 1166/2/4
f 1163/2/4 1164/2/4 1166/2/4
f 1114/2/4 1149/2/4 1166/2/4
f 1157/2/4 1162/2/4 1166/2/4
f 1166/2/4 1164/2/4 1167/2/4
f 1176/6/5 1169/6/5 1168/6/5
f 1177/1/5 1170/1/5 1169/1/5
f 1177/6/5 1169/6/5 1176/6/5
f 1178/6/5 1171/6/5 1170/6/5
f 1178/1/5 1170/1/5 1177/1/5
f 1179/6/5 1171/6/5 1178/6/5
f 1180/6/5 1173/6/5 1172/6/5
f 1181/1/5 1174/1/5 1173/1/5
f 1181/6/5 1173/6/5 1180/6/5
f 1182/6/5 1175/6/5 1174/6/5
f 1182/1/5 1174/1/5 1181/1/5
f 1183/6/5 1175/6/5 1182/6/5
f 1191/8/5 1185/8/5 1184/8/5
f 1191/8/5 1186/8/5 1185/8/5
f 1191/8/5 1187/8/5 1186/8/5
f 1192/8/5 1187/8/5 1191/8/5
f 1193/9/5 1188/9/5 1187/9/5
f 1193/8/5 1187/8/5 1192/8/5
f 1194/9/5 1188/9/5 1193/9/5
f 1195/9/5 1188/9/5 1194/9/5
f 1196/8/5 1190/8/5 1189/8/5
f 1196/9/5 1188/9/5 1195/9/5
f 1196/8/5 1189/8/5 1188/8/5
f 1197/8/5 1190/8/5 1196/8/5
f 1198/8/5 1190/8/5 1197/8/5
f 1199/2/5 1194/2/5 1193/2/5
f 1199/2/5 1193/2/5 1192/2/5
f 1200/2/5 1194/2/5 1199/2/5
f 1201/2/5 1197/2/5 1196/2/5
f 1201/2/5 1196/2/5 1195/2/5
f 1202/2/5 1197/2/5 1201/2/5
f 1205/3/5 1204/3/5 1203/3/5
f 1206/3/5 1204/3/5 1205/3/5
f 1209/3/5 1208/3/5 1207/3/5
f 1210/3/5 1208/3/5 1209/3/5
f 1215/5/5 1212/5/5 1211/5/5
f 1216/5/5 1212/5/5 1215/5/5
f 1217/5/5 1214/5/5 1213/5/5
f 1218/5/5 1214/5/5 1217/5/5
f 1224/5/5 1220/5/5 1219/5/5
f 1225/5/5 1220/5/5 1224/5/5
f 1226/5/5 1222/5/5 1221/5/5
f 1227/5/5 1222/5/5 1226/5/5
f 1229/5/5 1224/5/5 1223/5/5
f 1230/5/5 1224/5/5 1229/5/5
f 1231/5/5 1228/5/5 1227/5/5
f 1232/5/5 1228/5/5 1231/5/5
f 1237/5/5 1234/5/5 1233/5/5
f 1238/5/5 1234/5/5 1237/5/5
f 1239/5/5 1234/5/5 1238/5/5
f 1240/5/5 1236/5/5 1235/5/5
f 1241/5/5 1236/5/5 1240/5/5
f 1242/5/5 1236/5/5 1241/5/5
f 1247/5/5 1244/5/5 1243/5/5
f 1248/5/5 1244/5/5 1247/5/5
f 1249/5/5 1244/5/5 1248/5/5
f 1250/5/5 1246/5/5 1245/5/5
f 1251/5/5 1246/5/5 1250/5/5
f 1252/5/5 1246/5/5 1251/5/5
f 1257/5/5 1254/5/5 1253/5/5
f 1258/5/5 1254/5/5 1257/5/5
f 1260/5/5 1256/5/5 1255/5/5
f 1261/5/5 1256/5/5 1260/5/5
f 1262/4/5 1259/4/5 1258/4/5
f 1263/4/5 1259/4/5 1262/4/5
f 1264/4/5 1259/4/5 1263/4/5
f 1269/1/5 1266/1/5 1265/1/5
f 1270/1/5 1266/1/5 1269/1/5
f 1271/6/5 1268/6/5 1267/6/5
f 1272/6/5 1268/6/5 1271/6/5
f 1277/6/5 1274/6/5 1273/6/5
f 1278/6/5 1274/6/5 1277/6/5
f 1279/6/5 1276/6/5 1275/6/5
f 1280/6/5 1276/6/5 1279/6/5
f 1285/6/5 1282/6/5 1281/6/5
f 1286/6/5 1282/6/5 1285/6/5
f 1287/6/5 1284/6/5 1283/6/5
f 1288/6/5 1284/6/5 1287/6/5
f 1293/6/5 1290/6/5 1289/6/5
f 1294/6/5 1290/6/5 1293/6/5
f 1295/6/5 1292/6/5 1291/6/5
f 1296/6/5 1292/6/5 1295/6/5
f 1308/8/5 1298/8/5 1297/8/5
f 1308/8/5 1299/8/5 1298/8/5
f 1308/8/5 1300/8/5 1299/8/5
f 1308/8/5 1301/8/5 1300/8/5
f 1309/9/5 1302/9/5 1301/9/5
f 1309/8/5 1301/8/5 1308/8/5
f 1310/9/5 1302/9/5 1309/9/5
f 1311/9/5 1304/9/5 1303/9/5
f 1312/8/5 1307/8/5 1306/8/5
f 1312/8/5 1306/8/5 1305/8/5
f 1312/9/5 1304/9/5 1311/9/5
f 1312/8/5 1305/8/5 1304/8/5
f 1313/8/5 1307/8/5 1312/8/5
f 1314/2/5 1311/2/5 1310/2/5
f 1315/2/5 1311/2/5 1314/2/5
f 1320/6/5 1317/6/5 1316/6/5
f 1321/6/5 1317/6/5 1320/6/5
f 1322/6/5 1319/6/5 1318/6/5
f 1323/6/5 1319/6/5 1322/6/5
f 1364/1/5 1325/1/5 1324/1/5
f 1365/1/5 1325/1/5 1364/1/5
f 1366/1/5 1327/1/5 1326/1/5
f 1367/1/5 1327/1/5 1366/1/5
f 1368/1/5 1329/1/5 1328/1/5
f 1369/1/5 1329/1/5 1368/1/5
f 1370/1/5 1331/1/5 1330/1/5
f 1371/1/5 1331/1/5 1370/1/5
f 1372/1/5 1333/1/5 1332/1/5
f 1373/1/5 1333/1/5 1372/1/5
f 1374/1/5 1335/1/5 1334/1/5
f 1375/1/5 1335/1/5 1374/1/5
f 1376/1/5 1337/1/5 1336/1/5
f 1377/1/5 1337/1/5 1376/1/5
f 1378/1/5 1339/1/5 1338/1/5
f 1379/1/5 1339/1/5 1378/1/5
f 1380/1/5 1341/1/5 1340/1/5
f 1381/1/5 1341/1/5 1380/1/5
f 1382/1/5 1343/1/5 1342/1/5
f 1383/1/5 1343/1/5 1382/1/5
f 1384/1/5 1345/1/5 1344/1/5
f 1385/1/5 1345/1/5 1384/1/5
f 1386/1/5 1347/1/5 1346/1/5
f 1387/1/5 1347/1/5 1386/1/5
f 1388/1/5 1349/1/5 1348/1/5
f 1389/1/5 1349/1/5 1388/1/5
f 1390/1/5 1351/1/5 1350/1/5
f 1391/1/5 1351/1/5 1390/1/5
f 1392/1/5 1353/1/5 1352/1/5
f 1393/1/5 1353/1/5 1392/1/5
f 1394/1/5 1355/1/5 1354/1/5
f 1395/1/5 1355/1/5 1394/1/5
f 1396/1/5 1357/1/5 1356/1/5
f 1397/1/5 1357/1/5 1396/1/5
f 1398/1/5 1359/1/5 1358/1/5
f 1399/1/5 1359/1/5 1398/1/5
f 1400/1/5 1361/1/5 1360/1/5
f 1401/1/5 1361/1/5 1400/1/5
f 1402/1/5 1363/1/5 1362/1/5
f 1403/1/5 1363/1/5 1402/1/5
f 1410/9/5 1392/9/5 1391/9/5
f 1410/9/5 1377/9/5 1376/9/5
f 1410/9/5 1379/9/5 1378/9/5
f 1410/9/5 1381/9/5 1380/9/5
f 1410/9/5 1383/9/5 1382/9/5
f 1410/9/5 1385/9/5 1384/9/5
f 1410/9/5 1388/9/5 1387/9/5
f 1410/9/5 1387/9/5 1386/9/5
f 1410/9/5 1386/9/5 1385/9/5
f 1410/9/5 1389/9/5 1388/9/5
f 1410/9/5 1384/9/5 1383/9/5
f 1410/9/5 1391/9/5 1390/9/5
f 1410/9/5 1382/9/5 1381/9/5
f 1410/9/5 1393/9/5 1392/9/5
f 1410/9/5 1380/9/5 1379/9/5
f 1410/9/5 1390/9/5 1389/9/5
f 1410/9/5 1378/9/5 1377/9/5
f 1410/9/5 1376/9/5 1375/9/5
f 1411/9/5 1393/9/5 1410/9/5
f 1417/6/5 1405/6/5 1404/6/5
f 1418/9/5 1415/9/5 1414/9/5
f 1418/6/5 1405/6/5 1417/6/5
f 1418/9/5 1409/9/5 1408/9/5
f 1418/9/5 1414/9/5 1413/9/5
f 1418/9/5 1413/9/5 1412/9/5
f 1418/9/5 1412/9/5 1411/9/5
f 1418/9/5 1411/9/5 1410/9/5
f 1418/9/5 1410/9/5 1409/9/5
f 1418/9/5 1408/9/5 1407/9/5
f 1418/9/5 1407/9/5 1406/9/5
f 1418/9/5 1406/9/5 1405/9/5
f 1419/9/5 1415/9/5 1418/9/5
f 1420/9/5 1415/9/5 1419/9/5
f 1421/9/5 1415/9/5 1420/9/5
f 1422/9/5 1415/9/5 1421/9/5
f 1423/6/5 1416/6/5 1415/6/5
f 1423/9/5 1415/9/5 1422/9/5
f 1424/6/5 1416/6/5 1423/6/5
f 1465/6/5 1426/6/5 1425/6/5
f 1466/6/5 1426/6/5 1465/6/5
f 1467/6/5 1428/6/5 1427/6/5
f 1468/6/5 1428/6/5 1467/6/5
f 1469/6/5 1430/6/5 1429/6/5
f 1470/6/5 1430/6/5 1469/6/5
f 1471/6/5 1432/6/5 1431/6/5
f 1472/6/5 1432/6/5 1471/6/5
f 1473/6/5 1434/6/5 1433/6/5
f 1474/6/5 1434/6/5 1473/6/5
f 1475/6/5 1436/6/5 1435/6/5
f 1476/6/5 1436/6/5 1475/6/5
f 1477/6/5 1438/6/5 1437/6/5
f 1478/6/5 1438/6/5 1477/6/5
f 1479/6/5 1440/6/5 1439/6/5
f 1480/6/5 1440/6/5 1479/6/5
f 1481/6/5 1442/6/5 1441/6/5
f 1482/6/5 1442/6/5 1481/6/5
f 1483/6/5 1444/6/5 1443/6/5
f 1484/6/5 1444/6/5 1483/6/5
f 1485/6/5 1446/6/5 1445/6/5
f 1486/6/5 1446/6/5 1485/6/5
f 1487/6/5 1448/6/5 1447/6/5
f 1488/6/5 1448/6/5 1487/6/5
f 1489/6/5 1450/6/5 1449/6/5
f 1490/6/5 1450/6/5 1489/6/5
f 1491/6/5 1452/6/5 1451/6/5
f 1492/6/5 1452/6/5 1491/6/5
f 1493/6/5 1454/6/5 1453/6/5
f 1494/6/5 1454/6/5 1493/6/5
f 1495/6/5 1456/6/5 1455/6/5
f 1496/6/5 1456/6/5 1495/6/5
f 1497/6/5 1458/6/5 1457/6/5
f 1498/6/5 1458/6/5 1497/6/5
f 1499/6/5 1460/6/5 1459/6/5
f 1500/6/5 1460/6/5 1499/6/5
f 1501/6/5 1462/6/5 1461/6/5
f 1502/6/5 1462/6/5 1501/6/5
f 1503/6/5 1464/6/5 1463/6/5
f 1504/6/5 1464/6/5 1503/6/5
f 1505/8/6 1506/8/6 1512/8/6
f 1506/8/6 1507/8/6 1512/8/6
f 1507/9/6 1508/9/6 1513/9/6
f 1512/8/6 1507/8/6 1513/8/6
f 1513/9/6 1508/9/6 1514/9/6
f 1509/9/6 1510/9/6 1515/9/6
f 1510/8/6 1511/8/6 1516/8/6
f 1515/9/6 1510/9/6 1516/9/6
f 1516/8/6 1511/8/6 1517/8/6
f 1518/5/6 1519/5/6 1522/5/6
f 1522/5/6 1519/5/6 1523/5/6
f 1520/5/6 1521/5/6 1524/5/6
f 1524/5/6 1521/5/6 1525/5/6
f 1526/5/6 1527/5/6 1533/5/6
f 1533/5/6 1527/5/6 1534/5/6
f 1528/5/6 1529/5/6 1535/5/6
f 1535/5/6 1529/5/6 1536/5/6
f 1530/6/6 1531/6/6 1537/6/6
f 1531/1/6 1532/1/6 1538/1/6
f 1537/6/6 1531/6/6 1538/6/6
f 1538/1/6 1532/1/6 1539/1/6
f 1540/5/6 1541/5/6 1546/5/6
f 1541/5/6 1542/5/6 1546/5/6
f 1546/5/6 1542/5/6 1547/5/6
f 1544/5/6 1545/5/6 1548/5/6
f 1543/5/6 1544/5/6 1548/5/6
f 1548/5/6 1545/5/6 1549/5/6
f 1550/5/6 1551/5/6 1554/5/6
f 1554/5/6 1551/5/6 1555/5/6
f 1555/5/6 1551/5/6 1556/5/6
f 1552/5/6 1553/5/6 1557/5/6
f 1557/5/6 1553/5/6 1558/5/6
f 1559/5/6 1560/5/6 1563/5/6
f 1563/5/6 1560/5/6 1564/5/6
f 1561/5/6 1562/5/6 1565/5/6
f 1565/5/6 1562/5/6 1566/5/6
f 1566/5/6 1562/5/6 1567/5/6
f 1568/2/6 1569/2/6 1572/2/6
f 1572/2/6 1569/2/6 1573/2/6
f 1570/2/6 1571/2/6 1574/2/6
f 1574/2/6 1571/2/6 1575/2/6
f 1576/8/6 1577/8/6 1589/8/6
f 1577/8/6 1578/8/6 1589/8/6
f 1578/8/6 1579/8/6 1589/8/6
f 1579/8/6 1580/8/6 1589/8/6
f 1580/8/6 1581/8/6 1589/8/6
f 1589/8/6 1581/8/6 1590/8/6
f 1583/9/6 1584/9/6 1591/9/6
f 1590/8/6 1581/8/6 1591/8/6
f 1581/9/6 1582/9/6 1591/9/6
f 1582/9/6 1583/9/6 1591/9/6
f 1587/8/6 1588/8/6 1592/8/6
f 1591/9/6 1584/9/6 1592/9/6
f 1586/8/6 1587/8/6 1592/8/6
f 1585/8/6 1586/8/6 1592/8/6
f 1584/8/6 1585/8/6 1592/8/6
f 1592/8/6 1588/8/6 1593/8/6
f 1593/8/6 1588/8/6 1594/8/6
f 1595/2/6 1596/2/6 1599/2/6
f 1596/7/6 1597/7/6 1600/7/6
f 1599/2/6 1596/2/6 1600/2/6
f 1597/2/6 1598/2/6 1601/2/6
f 1600/7/6 1597/7/6 1601/7/6
f 1601/2/6 1598/2/6 1602/2/6
f 1603/6/6 1604/6/6 1625/6/6
f 1604/1/6 1605/1/6 1626/1/6
f 1625/6/6 1604/6/6 1626/6/6
f 1605/6/6 1606/6/6 1627/6/6
f 1626/1/6 1605/1/6 1627/1/6
f 1606/1/6 1607/1/6 1628/1/6
f 1627/6/6 1606/6/6 1628/6/6
f 1607/6/6 1608/6/6 1629/6/6
f 1628/1/6 1607/1/6 1629/1/6
f 1608/1/6 1609/1/6 1630/1/6
f 1629/6/6 1608/6/6 1630/6/6
f 1609/6/6 1610/6/6 1631/6/6
f 1630/1/6 1609/1/6 1631/1/6
f 1610/1/6 1611/1/6 1632/1/6
f 1631/6/6 1610/6/6 1632/6/6
f 1611/6/6 1612/6/6 1633/6/6
f 1632/1/6 1611/1/6 1633/1/6
f 1612/1/6 1613/1/6 1634/1/6
f 1633/6/6 1612/6/6 1634/6/6
f 1613/6/6 1614/6/6 1635/6/6
f 1634/1/6 1613/1/6 1635/1/6
f 1614/1/6 1615/1/6 1636/1/6
f 1635/6/6 1614/6/6 1636/6/6
f 1615/6/6 1616/6/6 1637/6/6
f 1636/1/6 1615/1/6 1637/1/6
f 1616/1/6 1617/1/6 1638/1/6
f 1637/6/6 1616/6/6 1638/6/6
f 1617/6/6 1618/6/6 1639/6/6
f 1638/1/6 1617/1/6 1639/1/6
f 1618/1/6 1619/1/6 1640/1/6
f 1639/6/6 1618/6/6 1640/6/6
f 1619/6/6 1620/6/6 1641/6/6
f 1640/1/6 1619/1/6 1641/1/6
f 1620/1/6 1621/1/6 1642/1/6
f 1641/6/6 1620/6/6 1642/6/6
f 1621/6/6 1622/6/6 1643/6/6
f 1642/1/6 1621/1/6 1643/1/6
f 1622/1/6 1623/1/6 1644/1/6
f 1643/6/6 1622/6/6 1644/6/6
f 1623/6/6 1624/6/6 1645/6/6
f 1644/1/6 1623/1/6 1645/1/6
f 1645/6/6 1624/6/6 1646/6/6
