# MagicaVoxel @ Ephtracy

# group
o 

# material
mtllib mago-3.mtl
usemtl palette

# normals
vn -1 0 0
vn 1 0 0
vn 0 0 1
vn 0 0 -1
vn 0 -1 0
vn 0 1 0

# texcoords
vt 0.0292969 0.5
vt 0.259766 0.5
vt 0.263672 0.5
vt 0.271484 0.5
vt 0.275391 0.5
vt 0.548828 0.5

# verts
v -0.9 1 0.1
v -0.9 1 -0.2
v -0.9 1.2 0.1
v -0.9 1.2 -0.2
v -0.9 1.3 0.1
v -0.9 1.3 -0.2
v -0.9 1.4 0.1
v -0.9 1.4 -0.2
v -0.9 1.6 0.1
v -0.9 1.6 -0.2
v -0.9 1.7 0.1
v -0.9 1.7 -0.1
v -0.9 1.7 -0.2
v -0.9 1.8 0.1
v -0.9 1.8 0
v -0.9 1.8 -0.1
v -0.9 1.8 -0.2
v -0.9 1.9 0
v -0.9 1.9 -0.1
v -0.9 2 0.1
v -0.9 2 0
v -0.9 2.1 0.2
v -0.9 2.1 0.1
v -0.9 2.1 -0.1
v -0.9 2.1 -0.2
v -0.9 2.2 0.3
v -0.9 2.2 0.2
v -0.9 2.2 0
v -0.9 2.2 -0.1
v -0.9 2.2 -0.2
v -0.9 2.2 -0.3
v -0.9 2.3 0.3
v -0.9 2.3 0.2
v -0.9 2.3 0.1
v -0.9 2.3 0
v -0.9 2.3 -0.2
v -0.9 2.3 -0.3
v -0.9 2.4 0.2
v -0.9 2.4 0.1
v -0.9 2.4 0
v -0.9 2.4 -0.1
v -0.9 2.4 -0.2
v -0.9 2.4 -0.3
v -0.9 2.5 0.1
v -0.9 2.5 0
v -0.9 2.5 -0.2
v -0.8 1.2 0.2
v -0.8 1.2 0.1
v -0.8 1.2 -0.2
v -0.8 1.2 -0.3
v -0.8 1.3 0.1
v -0.8 1.3 -0.2
v -0.8 1.4 0.2
v -0.8 1.4 0.1
v -0.8 1.4 -0.2
v -0.8 1.4 -0.3
v -0.8 1.5 -0.2
v -0.8 1.5 -0.3
v -0.8 1.6 0.2
v -0.8 1.6 0.1
v -0.8 1.6 -0.2
v -0.8 1.7 0.1
v -0.8 1.7 -0.2
v -0.8 1.8 0.1
v -0.8 1.8 -0.2
v -0.8 1.9 0.2
v -0.8 1.9 0.1
v -0.8 2 0.2
v -0.8 2 0.1
v -0.8 2.1 0.3
v -0.8 2.1 0.2
v -0.8 2.1 0.1
v -0.8 2.1 -0.2
v -0.8 2.2 0.3
v -0.8 2.2 0.2
v -0.8 2.2 -0.2
v -0.8 2.2 -0.3
v -0.8 2.3 0.3
v -0.8 2.3 0.2
v -0.8 2.3 -0.3
v -0.8 2.3 -0.4
v -0.8 2.4 0.3
v -0.8 2.4 0.2
v -0.8 2.4 0.1
v -0.8 2.4 -0.2
v -0.8 2.4 -0.3
v -0.8 2.4 -0.4
v -0.8 2.5 0.2
v -0.8 2.5 0.1
v -0.8 2.5 0
v -0.8 2.5 -0.2
v -0.8 2.5 -0.3
v -0.8 2.6 0.1
v -0.8 2.6 -0.2
v -0.7 1 0.2
v -0.7 1 0.1
v -0.7 1.2 0.2
v -0.7 1.2 0.1
v -0.7 2 0.3
v -0.7 2 0.2
v -0.7 2.1 0.3
v -0.7 2.1 0.2
v -0.7 2.4 0.3
v -0.7 2.4 0.2
v -0.7 2.4 -0.3
v -0.7 2.4 -0.4
v -0.7 2.5 0.3
v -0.7 2.5 0.2
v -0.7 2.5 0.1
v -0.7 2.5 -0.2
v -0.7 2.5 -0.3
v -0.7 2.5 -0.4
v -0.7 2.6 0.2
v -0.7 2.6 0.1
v -0.7 2.6 -0.2
v -0.7 2.6 -0.3
v -0.6 1.9 0.3
v -0.6 1.9 0.2
v -0.6 2 0.3
v -0.6 2 0.2
v -0.7 1 0.1
v -0.7 1 -0.2
v -0.7 1.1 0.1
v -0.7 1.1 -0.2
v -0.6 1 0.2
v -0.6 1 0.1
v -0.6 1.1 0.1
v -0.6 1.1 -0.2
v -0.6 1.2 0.2
v -0.6 1.2 -0.2
v -0.6 1.2 -0.3
v -0.6 1.4 0.2
v -0.6 1.4 0.1
v -0.6 1.5 0.2
v -0.6 1.5 0.1
v -0.6 1.8 0.2
v -0.6 1.8 0.1
v -0.6 1.8 -0.2
v -0.6 1.8 -0.3
v -0.6 1.9 0.2
v -0.6 1.9 0.1
v -0.6 1.9 -0.2
v -0.6 1.9 -0.3
v -0.5 1.9 0.3
v -0.5 1.9 0.2
v -0.5 1.9 -0.3
v -0.5 2 0.3
v -0.5 2 0.2
v -0.5 2.1 -0.2
v -0.5 2.1 -0.3
v -0.5 2.2 -0.2
v -0.5 2.2 -0.3
v -0.5 2.3 0.3
v -0.5 2.3 0.2
v -0.5 2.3 -0.2
v -0.5 2.3 -0.3
v -0.5 2.3 -0.4
v -0.5 2.4 0.3
v -0.5 2.4 0.2
v -0.5 2.4 -0.3
v -0.5 2.4 -0.4
v -0.5 2.5 0.3
v -0.5 2.5 0.2
v -0.5 2.5 0.1
v -0.5 2.5 -0.2
v -0.5 2.5 -0.3
v -0.5 2.5 -0.4
v -0.5 2.6 0.2
v -0.5 2.6 0.1
v -0.5 2.6 -0.2
v -0.5 2.6 -0.3
v -0.9 2.2 0.3
v -0.9 2.3 0.3
v -0.8 2.1 0.3
v -0.8 2.2 0.3
v -0.8 2.3 0.3
v -0.8 2.4 0.3
v -0.7 2 0.3
v -0.7 2.1 0.3
v -0.7 2.4 0.3
v -0.7 2.5 0.3
v -0.6 1.9 0.3
v -0.6 2 0.3
v -0.6 2.1 0.3
v -0.6 2.2 0.3
v -0.6 2.3 0.3
v -0.6 2.4 0.3
v -0.5 1.9 0.3
v -0.5 2 0.3
v -0.5 2.3 0.3
v -0.5 2.4 0.3
v -0.5 2.5 0.3
v -0.9 2.1 0.2
v -0.9 2.2 0.2
v -0.9 2.3 0.2
v -0.9 2.4 0.2
v -0.8 1.2 0.2
v -0.8 1.4 0.2
v -0.8 1.6 0.2
v -0.8 1.9 0.2
v -0.8 2 0.2
v -0.8 2.1 0.2
v -0.8 2.2 0.2
v -0.8 2.3 0.2
v -0.8 2.4 0.2
v -0.8 2.5 0.2
v -0.7 1 0.2
v -0.7 1.2 0.2
v -0.7 1.4 0.2
v -0.7 1.5 0.2
v -0.7 1.6 0.2
v -0.7 1.8 0.2
v -0.7 1.9 0.2
v -0.7 2 0.2
v -0.7 2.1 0.2
v -0.7 2.4 0.2
v -0.7 2.5 0.2
v -0.7 2.6 0.2
v -0.6 1 0.2
v -0.6 1.2 0.2
v -0.6 1.4 0.2
v -0.6 1.5 0.2
v -0.6 1.8 0.2
v -0.6 1.9 0.2
v -0.6 2 0.2
v -0.5 2.5 0.2
v -0.5 2.6 0.2
v -0.9 1 0.1
v -0.9 1.2 0.1
v -0.9 1.3 0.1
v -0.9 1.4 0.1
v -0.9 1.6 0.1
v -0.9 1.7 0.1
v -0.9 1.8 0.1
v -0.9 2 0.1
v -0.9 2.1 0.1
v -0.9 2.4 0.1
v -0.9 2.5 0.1
v -0.8 1.2 0.1
v -0.8 1.3 0.1
v -0.8 1.4 0.1
v -0.8 1.6 0.1
v -0.8 1.7 0.1
v -0.8 1.8 0.1
v -0.8 1.9 0.1
v -0.8 2 0.1
v -0.8 2.1 0.1
v -0.8 2.4 0.1
v -0.8 2.5 0.1
v -0.8 2.6 0.1
v -0.7 1 0.1
v -0.7 1.2 0.1
v -0.7 2.5 0.1
v -0.7 2.6 0.1
v -0.7 1 0.1
v -0.7 1.1 0.1
v -0.6 1 0.1
v -0.6 1.1 0.1
v -0.9 1 -0.2
v -0.9 1.2 -0.2
v -0.9 1.3 -0.2
v -0.9 1.4 -0.2
v -0.9 1.6 -0.2
v -0.9 1.7 -0.2
v -0.9 1.8 -0.2
v -0.9 2.1 -0.2
v -0.9 2.2 -0.2
v -0.9 2.4 -0.2
v -0.9 2.5 -0.2
v -0.8 1.2 -0.2
v -0.8 1.3 -0.2
v -0.8 1.4 -0.2
v -0.8 1.5 -0.2
v -0.8 1.6 -0.2
v -0.8 1.7 -0.2
v -0.8 1.8 -0.2
v -0.8 2.1 -0.2
v -0.8 2.2 -0.2
v -0.8 2.4 -0.2
v -0.8 2.5 -0.2
v -0.8 2.6 -0.2
v -0.7 1 -0.2
v -0.7 1.1 -0.2
v -0.7 2.5 -0.2
v -0.7 2.6 -0.2
v -0.6 1.1 -0.2
v -0.6 1.2 -0.2
v -0.9 2.2 -0.3
v -0.9 2.3 -0.3
v -0.9 2.4 -0.3
v -0.8 1.2 -0.3
v -0.8 1.4 -0.3
v -0.8 1.5 -0.3
v -0.8 2.2 -0.3
v -0.8 2.3 -0.3
v -0.8 2.4 -0.3
v -0.8 2.5 -0.3
v -0.7 1.4 -0.3
v -0.7 1.5 -0.3
v -0.7 1.8 -0.3
v -0.7 1.9 -0.3
v -0.7 2.1 -0.3
v -0.7 2.3 -0.3
v -0.7 2.4 -0.3
v -0.7 2.5 -0.3
v -0.7 2.6 -0.3
v -0.6 1.2 -0.3
v -0.6 1.8 -0.3
v -0.6 1.9 -0.3
v -0.6 2.1 -0.3
v -0.6 2.2 -0.3
v -0.6 2.5 -0.3
v -0.5 1.9 -0.3
v -0.5 2.1 -0.3
v -0.5 2.2 -0.3
v -0.5 2.3 -0.3
v -0.5 2.5 -0.3
v -0.5 2.6 -0.3
v -0.8 2.3 -0.4
v -0.8 2.4 -0.4
v -0.7 2.3 -0.4
v -0.7 2.4 -0.4
v -0.7 2.5 -0.4
v -0.6 2.4 -0.4
v -0.6 2.5 -0.4
v -0.5 2.3 -0.4
v -0.5 2.4 -0.4
v -0.5 2.5 -0.4
v -0.7 1 0.2
v -0.6 1 0.2
v -0.9 1 0.1
v -0.7 1 0.1
v -0.6 1 0.1
v -0.9 1 -0.2
v -0.7 1 -0.2
v -0.7 1.1 0.1
v -0.6 1.1 0.1
v -0.7 1.1 -0.2
v -0.6 1.1 -0.2
v -0.8 1.2 0.2
v -0.7 1.2 0.2
v -0.8 1.2 0.1
v -0.7 1.2 0.1
v -0.8 1.2 -0.2
v -0.6 1.2 -0.2
v -0.8 1.2 -0.3
v -0.6 1.2 -0.3
v -0.6 1.9 0.3
v -0.5 1.9 0.3
v -0.6 1.9 0.2
v -0.5 1.9 0.2
v -0.6 1.9 0.1
v -0.6 1.9 -0.2
v -0.6 1.9 -0.3
v -0.5 1.9 -0.3
v -0.7 2 0.3
v -0.6 2 0.3
v -0.7 2 0.2
v -0.6 2 0.2
v -0.8 2.1 0.3
v -0.7 2.1 0.3
v -0.9 2.1 0.2
v -0.8 2.1 0.2
v -0.7 2.1 0.2
v -0.9 2.1 0.1
v -0.8 2.1 0.1
v -0.9 2.2 0.3
v -0.8 2.2 0.3
v -0.9 2.2 0.2
v -0.8 2.2 0.2
v -0.9 2.2 -0.2
v -0.8 2.2 -0.2
v -0.9 2.2 -0.3
v -0.8 2.2 -0.3
v -0.8 2.3 -0.3
v -0.7 2.3 -0.3
v -0.5 2.3 -0.3
v -0.8 2.3 -0.4
v -0.7 2.3 -0.4
v -0.5 2.3 -0.4
v -0.9 2.3 0.3
v -0.8 2.3 0.3
v -0.9 2.3 0.2
v -0.8 2.3 0.2
v -0.8 2.4 0.3
v -0.7 2.4 0.3
v -0.9 2.4 0.2
v -0.8 2.4 0.2
v -0.7 2.4 0.2
v -0.9 2.4 0.1
v -0.8 2.4 0.1
v -0.9 2.4 -0.2
v -0.8 2.4 -0.2
v -0.9 2.4 -0.3
v -0.8 2.4 -0.3
v -0.7 2.4 -0.3
v -0.8 2.4 -0.4
v -0.7 2.4 -0.4
v -0.7 2.5 0.3
v -0.5 2.5 0.3
v -0.8 2.5 0.2
v -0.7 2.5 0.2
v -0.5 2.5 0.2
v -0.9 2.5 0.1
v -0.8 2.5 0.1
v -0.7 2.5 0.1
v -0.9 2.5 0
v -0.8 2.5 0
v -0.9 2.5 -0.2
v -0.8 2.5 -0.2
v -0.7 2.5 -0.2
v -0.8 2.5 -0.3
v -0.7 2.5 -0.3
v -0.6 2.5 -0.3
v -0.5 2.5 -0.3
v -0.7 2.5 -0.4
v -0.6 2.5 -0.4
v -0.5 2.5 -0.4
v -0.7 2.6 0.2
v -0.5 2.6 0.2
v -0.8 2.6 0.1
v -0.7 2.6 0.1
v -0.5 2.6 0.1
v -0.8 2.6 -0.2
v -0.7 2.6 -0.2
v -0.5 2.6 -0.2
v -0.7 2.6 -0.3
v -0.5 2.6 -0.3

# faces
f 3/1/1 2/1/1 1/1/1
f 4/1/1 2/1/1 3/1/1
f 5/2/1 4/2/1 3/2/1
f 6/2/1 4/2/1 5/2/1
f 7/5/1 6/5/1 5/5/1
f 8/5/1 6/5/1 7/5/1
f 9/2/1 8/2/1 7/2/1
f 10/2/1 8/2/1 9/2/1
f 11/5/1 10/5/1 9/5/1
f 12/5/1 10/5/1 11/5/1
f 13/5/1 10/5/1 12/5/1
f 14/2/1 12/2/1 11/2/1
f 15/2/1 12/2/1 14/2/1
f 16/4/1 13/4/1 12/4/1
f 16/2/1 12/2/1 15/2/1
f 17/4/1 13/4/1 16/4/1
f 18/4/1 15/4/1 14/4/1
f 18/5/1 16/5/1 15/5/1
f 19/2/1 17/2/1 16/2/1
f 19/5/1 16/5/1 18/5/1
f 20/4/1 18/4/1 14/4/1
f 21/2/1 19/2/1 18/2/1
f 21/4/1 18/4/1 20/4/1
f 23/2/1 21/2/1 20/2/1
f 24/2/1 17/2/1 19/2/1
f 24/2/1 19/2/1 21/2/1
f 24/2/1 21/2/1 23/2/1
f 25/2/1 17/2/1 24/2/1
f 27/2/1 23/2/1 22/2/1
f 27/2/1 24/2/1 23/2/1
f 28/2/1 24/2/1 27/2/1
f 29/5/1 25/5/1 24/5/1
f 29/2/1 24/2/1 28/2/1
f 30/5/1 25/5/1 29/5/1
f 32/2/1 27/2/1 26/2/1
f 32/2/1 28/2/1 27/2/1
f 33/2/1 28/2/1 32/2/1
f 34/2/1 28/2/1 33/2/1
f 35/5/1 29/5/1 28/5/1
f 35/2/1 28/2/1 34/2/1
f 36/2/1 30/2/1 29/2/1
f 36/6/1 31/6/1 30/6/1
f 37/6/1 31/6/1 36/6/1
f 38/4/1 34/4/1 33/4/1
f 39/5/1 35/5/1 34/5/1
f 39/4/1 34/4/1 38/4/1
f 40/5/1 29/5/1 35/5/1
f 40/5/1 35/5/1 39/5/1
f 41/2/1 37/2/1 36/2/1
f 41/5/1 29/5/1 40/5/1
f 41/2/1 36/2/1 29/2/1
f 42/2/1 37/2/1 41/2/1
f 43/2/1 37/2/1 42/2/1
f 44/4/1 40/4/1 39/4/1
f 45/2/1 42/2/1 41/2/1
f 45/4/1 40/4/1 44/4/1
f 45/2/1 41/2/1 40/2/1
f 46/2/1 42/2/1 45/2/1
f 51/2/1 48/2/1 47/2/1
f 52/2/1 50/2/1 49/2/1
f 53/2/1 51/2/1 47/2/1
f 54/2/1 51/2/1 53/2/1
f 55/2/1 50/2/1 52/2/1
f 56/2/1 50/2/1 55/2/1
f 57/4/1 56/4/1 55/4/1
f 58/4/1 56/4/1 57/4/1
f 59/4/1 54/4/1 53/4/1
f 60/4/1 54/4/1 59/4/1
f 61/2/1 58/2/1 57/2/1
f 62/2/1 60/2/1 59/2/1
f 63/2/1 58/2/1 61/2/1
f 64/2/1 62/2/1 59/2/1
f 65/2/1 58/2/1 63/2/1
f 66/2/1 64/2/1 59/2/1
f 67/2/1 64/2/1 66/2/1
f 68/6/1 67/6/1 66/6/1
f 69/6/1 67/6/1 68/6/1
f 71/2/1 69/2/1 68/2/1
f 72/2/1 69/2/1 71/2/1
f 73/2/1 58/2/1 65/2/1
f 74/4/1 71/4/1 70/4/1
f 75/4/1 71/4/1 74/4/1
f 76/2/1 58/2/1 73/2/1
f 77/2/1 58/2/1 76/2/1
f 82/2/1 79/2/1 78/2/1
f 83/2/1 79/2/1 82/2/1
f 86/2/1 81/2/1 80/2/1
f 87/2/1 81/2/1 86/2/1
f 88/2/1 84/2/1 83/2/1
f 89/2/1 84/2/1 88/2/1
f 91/5/1 86/5/1 85/5/1
f 92/5/1 86/5/1 91/5/1
f 93/3/1 90/3/1 89/3/1
f 93/3/1 91/3/1 90/3/1
f 94/3/1 91/3/1 93/3/1
f 97/1/1 96/1/1 95/1/1
f 98/1/1 96/1/1 97/1/1
f 101/2/1 100/2/1 99/2/1
f 102/2/1 100/2/1 101/2/1
f 107/2/1 104/2/1 103/2/1
f 108/2/1 104/2/1 107/2/1
f 111/5/1 106/5/1 105/5/1
f 112/5/1 106/5/1 111/5/1
f 113/3/1 109/3/1 108/3/1
f 114/3/1 109/3/1 113/3/1
f 115/3/1 111/3/1 110/3/1
f 116/3/1 111/3/1 115/3/1
f 119/6/1 118/6/1 117/6/1
f 120/6/1 118/6/1 119/6/1
f 121/1/2 122/1/2 123/1/2
f 123/1/2 122/1/2 124/1/2
f 125/1/2 126/1/2 127/1/2
f 125/1/2 127/1/2 129/1/2
f 127/1/2 128/1/2 129/1/2
f 129/1/2 128/1/2 130/1/2
f 129/2/2 130/2/2 132/2/2
f 130/2/2 131/2/2 132/2/2
f 132/2/2 131/2/2 133/2/2
f 132/5/2 133/5/2 134/5/2
f 133/2/2 131/2/2 135/2/2
f 134/5/2 133/5/2 135/5/2
f 134/2/2 135/2/2 136/2/2
f 135/2/2 131/2/2 137/2/2
f 136/2/2 135/2/2 137/2/2
f 137/2/2 131/2/2 138/2/2
f 138/2/2 131/2/2 139/2/2
f 136/5/2 137/5/2 140/5/2
f 137/2/2 138/2/2 141/2/2
f 140/5/2 137/5/2 141/5/2
f 138/5/2 139/5/2 142/5/2
f 141/2/2 138/2/2 142/2/2
f 142/5/2 139/5/2 143/5/2
f 144/6/2 145/6/2 147/6/2
f 145/2/2 146/2/2 148/2/2
f 147/6/2 145/6/2 148/6/2
f 147/2/2 148/2/2 149/2/2
f 148/2/2 146/2/2 149/2/2
f 149/2/2 146/2/2 150/2/2
f 147/2/2 149/2/2 151/2/2
f 149/5/2 150/5/2 151/5/2
f 151/5/2 150/5/2 152/5/2
f 147/2/2 151/2/2 153/2/2
f 153/2/2 151/2/2 154/2/2
f 151/6/2 152/6/2 155/6/2
f 154/2/2 151/2/2 155/2/2
f 155/6/2 152/6/2 156/6/2
f 153/5/2 154/5/2 158/5/2
f 155/2/2 156/2/2 159/2/2
f 158/5/2 154/5/2 159/5/2
f 154/2/2 155/2/2 159/2/2
f 156/4/2 157/4/2 160/4/2
f 159/2/2 156/2/2 160/2/2
f 160/4/2 157/4/2 161/4/2
f 158/2/2 159/2/2 162/2/2
f 159/2/2 160/2/2 162/2/2
f 160/2/2 161/2/2 162/2/2
f 162/2/2 161/2/2 163/2/2
f 163/2/2 161/2/2 164/2/2
f 164/2/2 161/2/2 165/2/2
f 165/2/2 161/2/2 166/2/2
f 166/2/2 161/2/2 167/2/2
f 163/3/2 164/3/2 168/3/2
f 164/2/2 165/2/2 169/2/2
f 168/3/2 164/3/2 169/3/2
f 165/3/2 166/3/2 170/3/2
f 169/2/2 165/2/2 170/2/2
f 170/3/2 166/3/2 171/3/2
f 175/2/3 173/2/3 172/2/3
f 176/2/3 173/2/3 175/2/3
f 179/4/3 175/4/3 174/4/3
f 180/2/3 177/2/3 176/2/3
f 183/2/3 179/2/3 178/2/3
f 184/4/3 175/4/3 179/4/3
f 184/2/3 179/2/3 183/2/3
f 185/5/3 176/5/3 175/5/3
f 185/4/3 175/4/3 184/4/3
f 186/2/3 181/2/3 180/2/3
f 186/5/3 176/5/3 185/5/3
f 186/2/3 180/2/3 176/2/3
f 187/2/3 181/2/3 186/2/3
f 188/6/3 183/6/3 182/6/3
f 189/2/3 185/2/3 184/2/3
f 189/6/3 183/6/3 188/6/3
f 189/2/3 184/2/3 183/2/3
f 189/2/3 186/2/3 185/2/3
f 190/5/3 187/5/3 186/5/3
f 190/2/3 186/2/3 189/2/3
f 191/2/3 181/2/3 187/2/3
f 191/5/3 187/5/3 190/5/3
f 192/2/3 181/2/3 191/2/3
f 202/2/3 194/2/3 193/2/3
f 203/2/3 194/2/3 202/2/3
f 204/4/3 196/4/3 195/4/3
f 205/4/3 196/4/3 204/4/3
f 208/2/3 198/2/3 197/2/3
f 209/4/3 199/4/3 198/4/3
f 209/2/3 198/2/3 208/2/3
f 210/4/3 199/4/3 209/4/3
f 211/2/3 200/2/3 199/2/3
f 211/4/3 199/4/3 210/4/3
f 212/2/3 200/2/3 211/2/3
f 213/6/3 201/6/3 200/6/3
f 213/2/3 200/2/3 212/2/3
f 214/2/3 202/2/3 201/2/3
f 214/6/3 201/6/3 213/6/3
f 215/2/3 202/2/3 214/2/3
f 216/2/3 206/2/3 205/2/3
f 217/2/3 206/2/3 216/2/3
f 219/1/3 208/1/3 207/1/3
f 220/2/3 209/2/3 208/2/3
f 220/1/3 208/1/3 219/1/3
f 221/5/3 210/5/3 209/5/3
f 221/2/3 209/2/3 220/2/3
f 222/2/3 212/2/3 211/2/3
f 222/5/3 210/5/3 221/5/3
f 222/2/3 211/2/3 210/2/3
f 223/5/3 213/5/3 212/5/3
f 223/2/3 212/2/3 222/2/3
f 224/6/3 214/6/3 213/6/3
f 224/5/3 213/5/3 223/5/3
f 225/6/3 214/6/3 224/6/3
f 226/3/3 218/3/3 217/3/3
f 227/3/3 218/3/3 226/3/3
f 239/1/3 229/1/3 228/1/3
f 239/2/3 230/2/3 229/2/3
f 240/5/3 231/5/3 230/5/3
f 240/2/3 230/2/3 239/2/3
f 241/2/3 232/2/3 231/2/3
f 241/5/3 231/5/3 240/5/3
f 242/5/3 233/5/3 232/5/3
f 242/2/3 232/2/3 241/2/3
f 243/2/3 234/2/3 233/2/3
f 243/5/3 233/5/3 242/5/3
f 244/4/3 235/4/3 234/4/3
f 244/2/3 234/2/3 243/2/3
f 245/4/3 235/4/3 244/4/3
f 246/2/3 236/2/3 235/2/3
f 246/4/3 235/4/3 245/4/3
f 247/2/3 236/2/3 246/2/3
f 248/4/3 238/4/3 237/4/3
f 249/4/3 238/4/3 248/4/3
f 251/1/3 239/1/3 228/1/3
f 252/1/3 239/1/3 251/1/3
f 253/3/3 250/3/3 249/3/3
f 254/3/3 250/3/3 253/3/3
f 255/1/4 256/1/4 257/1/4
f 257/1/4 256/1/4 258/1/4
f 259/1/4 260/1/4 270/1/4
f 260/2/4 261/2/4 270/2/4
f 261/5/4 262/5/4 271/5/4
f 270/2/4 261/2/4 271/2/4
f 262/2/4 263/2/4 272/2/4
f 271/5/4 262/5/4 272/5/4
f 272/2/4 263/2/4 273/2/4
f 263/5/4 264/5/4 274/5/4
f 273/2/4 263/2/4 274/2/4
f 264/4/4 265/4/4 275/4/4
f 274/5/4 264/5/4 275/5/4
f 265/2/4 266/2/4 276/2/4
f 275/4/4 265/4/4 276/4/4
f 266/5/4 267/5/4 277/5/4
f 276/2/4 266/2/4 277/2/4
f 277/5/4 267/5/4 278/5/4
f 268/2/4 269/2/4 279/2/4
f 279/2/4 269/2/4 280/2/4
f 259/1/4 270/1/4 282/1/4
f 282/1/4 270/1/4 283/1/4
f 280/3/4 281/3/4 284/3/4
f 284/3/4 281/3/4 285/3/4
f 283/1/4 270/1/4 286/1/4
f 286/1/4 270/1/4 287/1/4
f 288/6/4 289/6/4 294/6/4
f 289/2/4 290/2/4 295/2/4
f 294/6/4 289/6/4 295/6/4
f 295/2/4 290/2/4 296/2/4
f 292/4/4 293/4/4 298/4/4
f 291/2/4 292/2/4 298/2/4
f 293/2/4 294/2/4 299/2/4
f 298/4/4 293/4/4 299/4/4
f 299/2/4 294/2/4 300/2/4
f 300/2/4 294/2/4 301/2/4
f 301/2/4 294/2/4 302/2/4
f 294/6/4 295/6/4 303/6/4
f 296/5/4 297/5/4 304/5/4
f 304/5/4 297/5/4 305/5/4
f 291/2/4 298/2/4 307/2/4
f 298/2/4 299/2/4 307/2/4
f 299/2/4 300/2/4 307/2/4
f 300/5/4 301/5/4 308/5/4
f 307/2/4 300/2/4 308/2/4
f 301/4/4 302/4/4 309/4/4
f 308/5/4 301/5/4 309/5/4
f 302/2/4 294/2/4 310/2/4
f 309/4/4 302/4/4 310/4/4
f 294/6/4 303/6/4 311/6/4
f 310/2/4 294/2/4 311/2/4
f 305/3/4 306/3/4 312/3/4
f 309/2/4 310/2/4 313/2/4
f 310/5/4 311/5/4 314/5/4
f 313/2/4 310/2/4 314/2/4
f 311/6/4 303/6/4 315/6/4
f 314/5/4 311/5/4 315/5/4
f 315/6/4 303/6/4 316/6/4
f 312/3/4 306/3/4 317/3/4
f 317/3/4 306/3/4 318/3/4
f 319/2/4 320/2/4 321/2/4
f 321/2/4 320/2/4 322/2/4
f 321/4/4 322/4/4 324/4/4
f 322/5/4 323/5/4 324/5/4
f 324/5/4 323/5/4 325/5/4
f 321/4/4 324/4/4 326/4/4
f 324/2/4 325/2/4 327/2/4
f 326/4/4 324/4/4 327/4/4
f 327/2/4 325/2/4 328/2/4
f 332/1/5 330/1/5 329/1/5
f 333/1/5 330/1/5 332/1/5
f 334/1/5 332/1/5 331/1/5
f 335/1/5 332/1/5 334/1/5
f 338/1/5 337/1/5 336/1/5
f 339/1/5 337/1/5 338/1/5
f 342/2/5 341/2/5 340/2/5
f 343/2/5 341/2/5 342/2/5
f 346/2/5 345/2/5 344/2/5
f 347/2/5 345/2/5 346/2/5
f 350/6/5 349/6/5 348/6/5
f 351/6/5 349/6/5 350/6/5
f 352/2/5 351/2/5 350/2/5
f 353/2/5 351/2/5 352/2/5
f 354/2/5 351/2/5 353/2/5
f 355/2/5 351/2/5 354/2/5
f 358/2/5 357/2/5 356/2/5
f 359/2/5 357/2/5 358/2/5
f 363/4/5 361/4/5 360/4/5
f 364/4/5 361/4/5 363/4/5
f 365/2/5 363/2/5 362/2/5
f 366/2/5 363/2/5 365/2/5
f 369/2/5 368/2/5 367/2/5
f 370/2/5 368/2/5 369/2/5
f 373/6/5 372/6/5 371/6/5
f 374/6/5 372/6/5 373/6/5
f 378/2/5 376/2/5 375/2/5
f 379/4/5 377/4/5 376/4/5
f 379/2/5 376/2/5 378/2/5
f 380/4/5 377/4/5 379/4/5
f 381/2/6 382/2/6 383/2/6
f 383/2/6 382/2/6 384/2/6
f 385/2/6 386/2/6 388/2/6
f 388/2/6 386/2/6 389/2/6
f 387/4/6 388/4/6 390/4/6
f 390/4/6 388/4/6 391/4/6
f 392/2/6 393/2/6 394/2/6
f 394/2/6 393/2/6 395/2/6
f 395/2/6 396/2/6 397/2/6
f 397/2/6 396/2/6 398/2/6
f 399/2/6 400/2/6 402/2/6
f 402/2/6 400/2/6 403/2/6
f 401/2/6 402/2/6 405/2/6
f 405/2/6 402/2/6 406/2/6
f 404/4/6 405/4/6 407/4/6
f 407/4/6 405/4/6 408/4/6
f 407/2/6 408/2/6 409/2/6
f 409/2/6 408/2/6 410/2/6
f 410/5/6 411/5/6 412/5/6
f 412/5/6 411/5/6 413/5/6
f 413/5/6 414/5/6 416/5/6
f 414/2/6 415/2/6 417/2/6
f 416/5/6 414/5/6 417/5/6
f 417/2/6 415/2/6 418/2/6
f 419/3/6 420/3/6 422/3/6
f 422/3/6 420/3/6 423/3/6
f 421/3/6 422/3/6 424/3/6
f 422/2/6 423/2/6 425/2/6
f 424/3/6 422/3/6 425/3/6
f 425/2/6 423/2/6 426/2/6
f 425/3/6 426/3/6 427/3/6
f 427/3/6 426/3/6 428/3/6
