# MagicaVoxel @ Ephtracy

# group
o 

# material
mtllib oso.mtl
usemtl palette

# normals
vn -1 0 0
vn 1 0 0
vn 0 0 1
vn 0 0 -1
vn 0 -1 0
vn 0 1 0

# texcoords
vt 0.0136719 0.5
vt 0.0449219 0.5
vt 0.533203 0.5
vt 0.560547 0.5
vt 0.841797 0.5
vt 0.869141 0.5
vt 0.873047 0.5
vt 0.958984 0.5

# verts
v -1.2 0.7 -1.8
v -1.2 0.7 -1.9
v -1.2 0.8 -1.8
v -1.2 0.8 -1.9
v -1.2 0.8 -2
v -1.2 0.9 -1.8
v -1.2 0.9 -1.9
v -1.2 1 -1.8
v -1.2 1 -1.9
v -1.2 1.1 -1.8
v -1.2 1.1 -1.9
v -1.2 1.2 -1.8
v -1.2 1.2 -1.9
v -1.2 1.3 -1.8
v -1.2 1.3 -1.9
v -1.2 1.4 -1.8
v -1.2 1.4 -1.9
v -1.2 1.5 -1.8
v -1.2 1.5 -1.9
v -1.2 1.6 -1.8
v -1.2 1.6 -1.9
v -1.2 1.7 -1.8
v -1.2 1.7 -1.9
v -1.2 1.8 -1.8
v -1.2 1.8 -1.9
v -1.2 1.9 -1.8
v -1.2 1.9 -1.9
v -1.2 2 -1.8
v -1.2 2 -1.9
v -1.2 2.1 -1.8
v -1.2 2.1 -1.9
v -1.2 2.2 -1.8
v -1.2 2.2 -1.9
v -1.2 2.3 -1.8
v -1.2 2.3 -1.9
v -1.2 2.4 -1.8
v -1.2 2.4 -1.9
v -1.2 2.5 -1.8
v -1.2 2.5 -1.9
v -1.2 2.6 -1.8
v -1.2 2.6 -1.9
v -1.2 2.7 -1.8
v -1.2 2.7 -1.9
v -1.2 2.8 -1.8
v -1.2 2.8 -1.9
v -1.2 2.9 -1.8
v -1.2 2.9 -1.9
v -1.2 3 -1.8
v -1.2 3 -1.9
v -1.2 3.1 -1.8
v -1.2 3.1 -1.9
v -1.2 3.2 -1.8
v -1.2 3.2 -1.9
v -1.2 3.3 -1.8
v -1.2 3.3 -1.9
v -1.2 3.3 -2
v -1.1 0.7 -1.9
v -1.1 0.7 -2
v -1.1 0.8 -1.9
v -1.1 0.8 -2
v -1.1 3.3 -1.8
v -1.1 3.3 -1.9
v -1.1 3.3 -2
v -1.1 3.4 -1.8
v -1.1 3.4 -1.9
v -1.1 3.5 -1.8
v -1.1 3.5 -1.9
v -1.1 3.5 -2
v -1.1 3.6 -1.8
v -1.1 3.6 -1.9
v -1.1 3.6 -2
v -1 0.6 -1.8
v -1 0.6 -2
v -1 0.7 -1.8
v -1 0.7 -1.9
v -1 0.7 -2
v -0.9 1 -1.8
v -0.9 1 -1.9
v -0.9 3.1 -1
v -0.9 3.1 -1.4
v -0.9 3.2 -1.8
v -0.9 3.2 -1.9
v -0.9 3.3 -1
v -0.9 3.3 -1.4
v -0.8 2.1 -1.1
v -0.8 2.1 -1.5
v -0.8 2.2 -1.4
v -0.8 2.2 -1.5
v -0.8 2.3 -1.4
v -0.8 2.3 -1.7
v -0.8 2.4 -1.1
v -0.8 2.4 -1.3
v -0.8 2.4 -1.4
v -0.8 2.4 -1.7
v -0.8 2.5 -1.3
v -0.8 2.5 -1.4
v -0.8 2.8 -1.1
v -0.8 2.8 -1.8
v -0.8 3 -1.1
v -0.8 3 -1.3
v -0.8 3 -1.8
v -0.8 3.1 -1.1
v -0.8 3.1 -1.3
v -0.7 0.9 -1.8
v -0.7 0.9 -1.9
v -0.7 1 -1.8
v -0.7 1 -1.9
v -0.7 1.2 -1
v -0.7 1.2 -1.8
v -0.7 1.4 -1.1
v -0.7 1.4 -1.2
v -0.7 1.4 -1.3
v -0.7 1.4 -1.7
v -0.7 1.5 -1.3
v -0.7 1.5 -1.4
v -0.7 1.7 -1.1
v -0.7 1.7 -1.2
v -0.7 1.7 -1.4
v -0.7 1.7 -1.7
v -0.7 1.8 -1.1
v -0.7 1.8 -1.7
v -0.7 2 -1.1
v -0.7 2 -1.6
v -0.7 2.1 -1.1
v -0.7 2.1 -1.5
v -0.7 2.2 -1.4
v -0.7 2.2 -1.5
v -0.7 2.2 -1.6
v -0.7 2.2 -1.7
v -0.7 2.3 -1.4
v -0.7 2.3 -1.7
v -0.7 2.4 -1.1
v -0.7 2.4 -1.3
v -0.7 2.4 -1.4
v -0.7 2.4 -1.7
v -0.7 2.5 -1
v -0.7 2.5 -1.3
v -0.7 2.5 -1.4
v -0.7 2.5 -1.7
v -0.7 2.6 -0.9
v -0.7 2.6 -1
v -0.7 2.6 -1.2
v -0.7 2.7 -0.9
v -0.7 2.7 -1.2
v -0.7 2.7 -1.3
v -0.7 2.8 -1.2
v -0.7 2.8 -1.3
v -0.7 2.8 -1.7
v -0.7 2.8 -1.8
v -0.7 2.9 -0.9
v -0.7 2.9 -1.1
v -0.7 3 -0.9
v -0.7 3 -1.1
v -0.6 1.4 -1.1
v -0.6 1.4 -1.2
v -0.6 1.4 -1.3
v -0.6 1.4 -1.7
v -0.6 1.5 -1.3
v -0.6 1.5 -1.4
v -0.6 1.7 -0.5
v -0.6 1.7 -1
v -0.6 1.7 -1.1
v -0.6 1.7 -1.2
v -0.6 1.7 -1.4
v -0.6 1.7 -1.7
v -0.6 1.8 -0.5
v -0.6 1.8 -0.6
v -0.6 1.8 -1.1
v -0.6 1.8 -1.7
v -0.6 2 -1.1
v -0.6 2 -1.6
v -0.6 2.2 -1.6
v -0.6 2.2 -1.7
v -0.6 2.5 -1
v -0.6 2.6 -0.6
v -0.6 2.6 -0.9
v -0.6 2.6 -1
v -0.6 2.7 -0.9
v -0.6 2.7 -1.1
v -0.6 2.7 -1.2
v -0.6 2.8 -1.1
v -0.6 2.8 -1.2
v -0.6 2.9 -0.9
v -0.6 2.9 -1.1
v -0.6 3 -1.3
v -0.6 3 -1.4
v -0.6 3.1 -1.3
v -0.6 3.1 -1.4
v -0.5 1.1 -1.1
v -0.5 1.1 -1.8
v -0.5 1.2 -1.1
v -0.5 1.2 -1.8
v -0.5 1.5 -0.6
v -0.5 1.5 -0.8
v -0.5 1.5 -0.9
v -0.5 1.5 -1
v -0.5 1.6 -0.8
v -0.5 1.6 -0.9
v -0.5 1.7 -0.6
v -0.5 1.7 -0.8
v -0.5 1.7 -1
v -0.4 1.1 -0.5
v -0.4 1.1 -1
v -0.4 1.2 -1
v -0.4 1.3 -0.5
v -0.4 1.3 -1
v -0.4 1.4 -0.5
v -0.4 1.4 -1
v -0.4 1.5 -0.8
v -0.4 1.5 -0.9
v -0.4 1.6 -0.5
v -0.4 1.6 -0.6
v -0.4 1.6 -0.8
v -0.4 1.6 -0.9
v -0.4 1.7 -0.5
v -0.4 1.7 -0.6
v -0.3 1.4 -0.5
v -0.3 1.4 -0.6
v -0.3 1.4 -0.9
v -0.3 1.4 -1
v -0.3 1.5 -0.5
v -0.3 1.5 -0.6
v -0.3 1.5 -0.9
v -0.3 1.5 -1
v -0.3 1.6 -0.4
v -0.3 1.6 -0.5
v -0.3 1.7 -0.4
v -0.3 1.7 -0.5
v -0.3 2.1 -0.3
v -0.3 2.1 -0.6
v -0.3 2.2 -0.6
v -0.3 2.5 -0.3
v -0.3 2.5 -0.5
v -0.3 2.5 -0.6
v -0.3 2.6 -0.5
v -0.3 2.6 -0.6
v -0.3 2.6 -0.9
v -0.3 2.7 -0.6
v -0.3 2.7 -0.9
v -0.2 2 -0.3
v -0.2 2 -0.6
v -0.2 2.1 -0.3
v -0.2 2.1 -0.6
v -0.0999999 1.6 -0.5
v -0.0999999 1.6 -0.6
v -0.0999999 2 -0.5
v -0.0999999 2 -0.6
v 0.2 1.4 -0.5
v 0.2 1.4 -0.6
v 0.2 1.4 -0.9
v 0.2 1.4 -1
v 0.2 1.5 -0.5
v 0.2 1.5 -0.6
v 0.2 1.5 -0.9
v 0.2 1.5 -1
v 0.2 1.6 -0.4
v 0.2 1.6 -0.6
v 0.2 1.7 -0.4
v 0.2 1.7 -0.6
v 0.2 2.5 -0.5
v 0.2 2.5 -0.6
v 0.2 2.6 -0.5
v 0.2 2.6 -0.6
v 0.2 2.6 -0.9
v 0.2 2.7 -0.6
v 0.2 2.7 -0.9
v 0.3 1.5 -0.6
v 0.3 1.5 -0.7
v 0.3 1.6 -0.6
v 0.3 1.6 -0.7
v 0.3 1.7 -0.5
v 0.3 1.7 -0.6
v 0.3 1.8 -0.5
v 0.3 1.8 -0.6
v 0.3 2.9 -0.9
v 0.3 2.9 -1
v 0.3 3 -0.9
v 0.3 3 -1
v 0.3 3 -1.1
v 0.3 3 -1.3
v 0.3 3 -1.4
v 0.3 3.1 -1
v 0.3 3.1 -1.1
v 0.3 3.2 -1.3
v 0.3 3.2 -1.4
v 0.3 3.3 -1
v 0.3 3.3 -1.1
v 0.3 3.3 -1.3
v 0.4 2.7 -0.9
v 0.4 2.7 -1
v 0.4 2.9 -0.9
v 0.4 2.9 -1
v 0.6 3.2 -1.3
v 0.6 3.2 -1.4
v 0.6 3.3 -1.3
v 0.6 3.3 -1.4
v 0.9 0.6 -1.8
v 0.9 0.6 -1.9
v 0.9 0.7 -1.9
v 0.9 0.8 -1.8
v 0.9 0.8 -1.9
v 0.9 0.9 -1.8
v 0.9 0.9 -1.9
v 0.9 1 -1.8
v 0.9 1 -1.9
v 0.9 3.2 -1.8
v 0.9 3.2 -1.9
v 0.9 3.4 -1.8
v 0.9 3.4 -1.9
v 0.9 3.5 -1.8
v 0.9 3.5 -1.9
v 0.9 3.6 -1.8
v 0.9 3.6 -1.9
v 1 1 -1.8
v 1 1 -1.9
v 1 1.1 -1.8
v 1 1.1 -1.9
v 1 1.2 -1.8
v 1 1.2 -1.9
v 1 1.3 -1.8
v 1 1.3 -1.9
v 1 1.4 -1.8
v 1 1.4 -1.9
v 1 1.5 -1.8
v 1 1.5 -1.9
v 1 1.6 -1.8
v 1 1.6 -1.9
v 1 1.7 -1.8
v 1 1.7 -1.9
v 1 1.8 -1.8
v 1 1.8 -1.9
v 1 1.9 -1.8
v 1 1.9 -1.9
v 1 2 -1.8
v 1 2 -1.9
v 1 2.1 -1.8
v 1 2.1 -1.9
v 1 2.2 -1.8
v 1 2.2 -1.9
v 1 2.3 -1.8
v 1 2.3 -1.9
v 1 2.4 -1.8
v 1 2.4 -1.9
v 1 2.5 -1.8
v 1 2.5 -1.9
v 1 2.6 -1.8
v 1 2.6 -1.9
v 1 2.7 -1.8
v 1 2.7 -1.9
v 1 2.8 -1.8
v 1 2.8 -1.9
v 1 2.9 -1.8
v 1 2.9 -1.9
v 1 3 -1.8
v 1 3 -1.9
v 1 3.1 -1.8
v 1 3.1 -1.9
v 1 3.2 -1.8
v 1 3.2 -1.9
v -1 1 -1.8
v -1 1 -1.9
v -1 1.1 -1.8
v -1 1.1 -1.9
v -1 1.2 -1.8
v -1 1.2 -1.9
v -1 1.3 -1.8
v -1 1.3 -1.9
v -1 1.4 -1.8
v -1 1.4 -1.9
v -1 1.5 -1.8
v -1 1.5 -1.9
v -1 1.6 -1.8
v -1 1.6 -1.9
v -1 1.7 -1.8
v -1 1.7 -1.9
v -1 1.8 -1.8
v -1 1.8 -1.9
v -1 1.9 -1.8
v -1 1.9 -1.9
v -1 2 -1.8
v -1 2 -1.9
v -1 2.1 -1.8
v -1 2.1 -1.9
v -1 2.2 -1.8
v -1 2.2 -1.9
v -1 2.3 -1.8
v -1 2.3 -1.9
v -1 2.4 -1.8
v -1 2.4 -1.9
v -1 2.5 -1.8
v -1 2.5 -1.9
v -1 2.6 -1.8
v -1 2.6 -1.9
v -1 2.7 -1.8
v -1 2.7 -1.9
v -1 2.8 -1.8
v -1 2.8 -1.9
v -1 2.9 -1.8
v -1 2.9 -1.9
v -1 3 -1.8
v -1 3 -1.9
v -1 3.1 -1.8
v -1 3.1 -1.9
v -1 3.2 -1.8
v -1 3.2 -1.9
v -0.9 0.6 -1.8
v -0.9 0.6 -1.9
v -0.9 0.7 -1.9
v -0.9 0.8 -1.8
v -0.9 0.8 -1.9
v -0.9 0.9 -1.8
v -0.9 0.9 -1.9
v -0.9 1 -1.8
v -0.9 1 -1.9
v -0.9 3.2 -1.8
v -0.9 3.2 -1.9
v -0.9 3.4 -1.8
v -0.9 3.4 -1.9
v -0.9 3.5 -1.8
v -0.9 3.5 -1.9
v -0.9 3.6 -1.8
v -0.9 3.6 -1.9
v -0.6 3.2 -1.3
v -0.6 3.2 -1.4
v -0.6 3.3 -1.3
v -0.6 3.3 -1.4
v -0.4 2.7 -0.9
v -0.4 2.7 -1
v -0.4 2.9 -0.9
v -0.4 2.9 -1
v -0.3 1.5 -0.6
v -0.3 1.5 -0.7
v -0.3 1.6 -0.6
v -0.3 1.6 -0.7
v -0.3 1.7 -0.5
v -0.3 1.7 -0.6
v -0.3 1.8 -0.5
v -0.3 1.8 -0.6
v -0.3 2.9 -0.9
v -0.3 2.9 -1
v -0.3 3 -0.9
v -0.3 3 -1
v -0.3 3 -1.1
v -0.3 3 -1.3
v -0.3 3 -1.4
v -0.3 3.1 -1
v -0.3 3.1 -1.1
v -0.3 3.2 -1.3
v -0.3 3.2 -1.4
v -0.3 3.3 -1
v -0.3 3.3 -1.1
v -0.3 3.3 -1.3
v -0.2 1.4 -0.5
v -0.2 1.4 -0.6
v -0.2 1.4 -0.9
v -0.2 1.4 -1
v -0.2 1.5 -0.5
v -0.2 1.5 -0.6
v -0.2 1.5 -0.9
v -0.2 1.5 -1
v -0.2 1.6 -0.4
v -0.2 1.6 -0.6
v -0.2 1.7 -0.4
v -0.2 1.7 -0.6
v -0.2 2.5 -0.5
v -0.2 2.5 -0.6
v -0.2 2.6 -0.5
v -0.2 2.6 -0.6
v -0.2 2.6 -0.9
v -0.2 2.7 -0.6
v -0.2 2.7 -0.9
v 0.1 1.6 -0.5
v 0.1 1.6 -0.6
v 0.1 2 -0.5
v 0.1 2 -0.6
v 0.2 2 -0.3
v 0.2 2 -0.6
v 0.2 2.1 -0.3
v 0.2 2.1 -0.6
v 0.3 1.4 -0.5
v 0.3 1.4 -0.6
v 0.3 1.4 -0.9
v 0.3 1.4 -1
v 0.3 1.5 -0.5
v 0.3 1.5 -0.6
v 0.3 1.5 -0.9
v 0.3 1.5 -1
v 0.3 1.6 -0.4
v 0.3 1.6 -0.5
v 0.3 1.7 -0.4
v 0.3 1.7 -0.5
v 0.3 2.1 -0.3
v 0.3 2.1 -0.6
v 0.3 2.2 -0.6
v 0.3 2.5 -0.3
v 0.3 2.5 -0.5
v 0.3 2.5 -0.6
v 0.3 2.6 -0.5
v 0.3 2.6 -0.6
v 0.3 2.6 -0.9
v 0.3 2.7 -0.6
v 0.3 2.7 -0.9
v 0.4 1.1 -0.5
v 0.4 1.1 -1
v 0.4 1.2 -1
v 0.4 1.3 -0.5
v 0.4 1.3 -1
v 0.4 1.4 -0.5
v 0.4 1.4 -1
v 0.4 1.5 -0.8
v 0.4 1.5 -0.9
v 0.4 1.6 -0.5
v 0.4 1.6 -0.6
v 0.4 1.6 -0.8
v 0.4 1.6 -0.9
v 0.4 1.7 -0.5
v 0.4 1.7 -0.6
v 0.5 1.1 -1.1
v 0.5 1.1 -1.8
v 0.5 1.2 -1.1
v 0.5 1.2 -1.8
v 0.5 1.5 -0.6
v 0.5 1.5 -0.8
v 0.5 1.5 -0.9
v 0.5 1.5 -1
v 0.5 1.6 -0.8
v 0.5 1.6 -0.9
v 0.5 1.7 -0.6
v 0.5 1.7 -0.8
v 0.5 1.7 -1
v 0.6 1.4 -1.1
v 0.6 1.4 -1.2
v 0.6 1.4 -1.3
v 0.6 1.4 -1.7
v 0.6 1.5 -1.3
v 0.6 1.5 -1.4
v 0.6 1.7 -0.5
v 0.6 1.7 -1
v 0.6 1.7 -1.1
v 0.6 1.7 -1.2
v 0.6 1.7 -1.4
v 0.6 1.7 -1.7
v 0.6 1.8 -0.5
v 0.6 1.8 -0.6
v 0.6 1.8 -1.1
v 0.6 1.8 -1.7
v 0.6 2 -1.1
v 0.6 2 -1.6
v 0.6 2.2 -1.6
v 0.6 2.2 -1.7
v 0.6 2.5 -1
v 0.6 2.6 -0.6
v 0.6 2.6 -0.9
v 0.6 2.6 -1
v 0.6 2.7 -0.9
v 0.6 2.7 -1.1
v 0.6 2.7 -1.2
v 0.6 2.8 -1.1
v 0.6 2.8 -1.2
v 0.6 2.9 -0.9
v 0.6 2.9 -1.1
v 0.6 3 -1.3
v 0.6 3 -1.4
v 0.6 3.1 -1.3
v 0.6 3.1 -1.4
v 0.7 0.9 -1.8
v 0.7 0.9 -1.9
v 0.7 1 -1.8
v 0.7 1 -1.9
v 0.7 1.2 -1
v 0.7 1.2 -1.8
v 0.7 1.4 -1.1
v 0.7 1.4 -1.2
v 0.7 1.4 -1.3
v 0.7 1.4 -1.7
v 0.7 1.5 -1.3
v 0.7 1.5 -1.4
v 0.7 1.7 -1.1
v 0.7 1.7 -1.2
v 0.7 1.7 -1.4
v 0.7 1.7 -1.7
v 0.7 1.8 -1.1
v 0.7 1.8 -1.7
v 0.7 2 -1.1
v 0.7 2 -1.6
v 0.7 2.1 -1.1
v 0.7 2.1 -1.5
v 0.7 2.2 -1.4
v 0.7 2.2 -1.5
v 0.7 2.2 -1.6
v 0.7 2.2 -1.7
v 0.7 2.3 -1.4
v 0.7 2.3 -1.7
v 0.7 2.4 -1.1
v 0.7 2.4 -1.3
v 0.7 2.4 -1.4
v 0.7 2.4 -1.7
v 0.7 2.5 -1
v 0.7 2.5 -1.3
v 0.7 2.5 -1.4
v 0.7 2.5 -1.7
v 0.7 2.6 -0.9
v 0.7 2.6 -1
v 0.7 2.6 -1.2
v 0.7 2.7 -0.9
v 0.7 2.7 -1.2
v 0.7 2.7 -1.3
v 0.7 2.8 -1.2
v 0.7 2.8 -1.3
v 0.7 2.8 -1.7
v 0.7 2.8 -1.8
v 0.7 2.9 -0.9
v 0.7 2.9 -1.1
v 0.7 3 -0.9
v 0.7 3 -1.1
v 0.8 2.1 -1.1
v 0.8 2.1 -1.5
v 0.8 2.2 -1.4
v 0.8 2.2 -1.5
v 0.8 2.3 -1.4
v 0.8 2.3 -1.7
v 0.8 2.4 -1.1
v 0.8 2.4 -1.3
v 0.8 2.4 -1.4
v 0.8 2.4 -1.7
v 0.8 2.5 -1.3
v 0.8 2.5 -1.4
v 0.8 2.8 -1.1
v 0.8 2.8 -1.8
v 0.8 3 -1.1
v 0.8 3 -1.3
v 0.8 3 -1.8
v 0.8 3.1 -1.1
v 0.8 3.1 -1.3
v 0.9 1 -1.8
v 0.9 1 -1.9
v 0.9 3.1 -1
v 0.9 3.1 -1.4
v 0.9 3.2 -1.8
v 0.9 3.2 -1.9
v 0.9 3.3 -1
v 0.9 3.3 -1.4
v 1 0.6 -1.8
v 1 0.6 -2
v 1 0.7 -1.8
v 1 0.7 -1.9
v 1 0.7 -2
v 1.1 0.7 -1.9
v 1.1 0.7 -2
v 1.1 0.8 -1.9
v 1.1 0.8 -2
v 1.1 3.3 -1.8
v 1.1 3.3 -1.9
v 1.1 3.3 -2
v 1.1 3.4 -1.8
v 1.1 3.4 -1.9
v 1.1 3.5 -1.8
v 1.1 3.5 -1.9
v 1.1 3.5 -2
v 1.1 3.6 -1.8
v 1.1 3.6 -1.9
v 1.1 3.6 -2
v 1.2 0.7 -1.8
v 1.2 0.7 -1.9
v 1.2 0.8 -1.8
v 1.2 0.8 -1.9
v 1.2 0.8 -2
v 1.2 0.9 -1.8
v 1.2 0.9 -1.9
v 1.2 1 -1.8
v 1.2 1 -1.9
v 1.2 1.1 -1.8
v 1.2 1.1 -1.9
v 1.2 1.2 -1.8
v 1.2 1.2 -1.9
v 1.2 1.3 -1.8
v 1.2 1.3 -1.9
v 1.2 1.4 -1.8
v 1.2 1.4 -1.9
v 1.2 1.5 -1.8
v 1.2 1.5 -1.9
v 1.2 1.6 -1.8
v 1.2 1.6 -1.9
v 1.2 1.7 -1.8
v 1.2 1.7 -1.9
v 1.2 1.8 -1.8
v 1.2 1.8 -1.9
v 1.2 1.9 -1.8
v 1.2 1.9 -1.9
v 1.2 2 -1.8
v 1.2 2 -1.9
v 1.2 2.1 -1.8
v 1.2 2.1 -1.9
v 1.2 2.2 -1.8
v 1.2 2.2 -1.9
v 1.2 2.3 -1.8
v 1.2 2.3 -1.9
v 1.2 2.4 -1.8
v 1.2 2.4 -1.9
v 1.2 2.5 -1.8
v 1.2 2.5 -1.9
v 1.2 2.6 -1.8
v 1.2 2.6 -1.9
v 1.2 2.7 -1.8
v 1.2 2.7 -1.9
v 1.2 2.8 -1.8
v 1.2 2.8 -1.9
v 1.2 2.9 -1.8
v 1.2 2.9 -1.9
v 1.2 3 -1.8
v 1.2 3 -1.9
v 1.2 3.1 -1.8
v 1.2 3.1 -1.9
v 1.2 3.2 -1.8
v 1.2 3.2 -1.9
v 1.2 3.3 -1.8
v 1.2 3.3 -1.9
v 1.2 3.3 -2
v -0.3 2.1 -0.3
v -0.3 2.5 -0.3
v -0.2 2 -0.3
v -0.2 2.1 -0.3
v -0.0999999 2.1 -0.3
v -0.0999999 2.4 -0.3
v 0.1 2.1 -0.3
v 0.1 2.4 -0.3
v 0.2 2 -0.3
v 0.2 2.1 -0.3
v 0.3 2.1 -0.3
v 0.3 2.5 -0.3
v -0.3 1.6 -0.4
v -0.3 1.7 -0.4
v -0.2 1.6 -0.4
v -0.2 1.7 -0.4
v 0.2 1.6 -0.4
v 0.2 1.7 -0.4
v 0.3 1.6 -0.4
v 0.3 1.7 -0.4
v -0.6 1.7 -0.5
v -0.6 1.8 -0.5
v -0.4 1.1 -0.5
v -0.4 1.3 -0.5
v -0.4 1.4 -0.5
v -0.4 1.6 -0.5
v -0.4 1.7 -0.5
v -0.3 1.4 -0.5
v -0.3 1.5 -0.5
v -0.3 1.6 -0.5
v -0.3 1.7 -0.5
v -0.3 1.8 -0.5
v -0.3 2.5 -0.5
v -0.3 2.6 -0.5
v -0.2 1.4 -0.5
v -0.2 1.5 -0.5
v -0.2 2.5 -0.5
v -0.2 2.6 -0.5
v -0.0999999 1.6 -0.5
v -0.0999999 2 -0.5
v 0.1 1.6 -0.5
v 0.1 2 -0.5
v 0.2 1.4 -0.5
v 0.2 1.5 -0.5
v 0.2 2.5 -0.5
v 0.2 2.6 -0.5
v 0.3 1.4 -0.5
v 0.3 1.5 -0.5
v 0.3 1.6 -0.5
v 0.3 1.7 -0.5
v 0.3 1.8 -0.5
v 0.3 2.5 -0.5
v 0.3 2.6 -0.5
v 0.4 1.1 -0.5
v 0.4 1.3 -0.5
v 0.4 1.4 -0.5
v 0.4 1.6 -0.5
v 0.4 1.7 -0.5
v 0.6 1.7 -0.5
v 0.6 1.8 -0.5
v -0.6 1.8 -0.6
v -0.6 2.6 -0.6
v -0.5 1.5 -0.6
v -0.5 1.7 -0.6
v -0.5 1.8 -0.6
v -0.5 2.2 -0.6
v -0.5 2.5 -0.6
v -0.5 2.6 -0.6
v -0.4 1.6 -0.6
v -0.4 1.7 -0.6
v -0.3 1.5 -0.6
v -0.3 1.6 -0.6
v -0.3 1.7 -0.6
v -0.3 1.8 -0.6
v -0.3 2.1 -0.6
v -0.3 2.2 -0.6
v -0.3 2.5 -0.6
v -0.3 2.6 -0.6
v -0.3 2.7 -0.6
v -0.2 1.6 -0.6
v -0.2 1.7 -0.6
v -0.2 2 -0.6
v -0.2 2.1 -0.6
v -0.2 2.5 -0.6
v -0.2 2.6 -0.6
v -0.2 2.7 -0.6
v -0.0999999 1.6 -0.6
v -0.0999999 2 -0.6
v 0.1 1.6 -0.6
v 0.1 2 -0.6
v 0.2 1.6 -0.6
v 0.2 1.7 -0.6
v 0.2 2 -0.6
v 0.2 2.1 -0.6
v 0.2 2.5 -0.6
v 0.2 2.6 -0.6
v 0.2 2.7 -0.6
v 0.3 1.5 -0.6
v 0.3 1.6 -0.6
v 0.3 1.7 -0.6
v 0.3 1.8 -0.6
v 0.3 2.1 -0.6
v 0.3 2.2 -0.6
v 0.3 2.5 -0.6
v 0.3 2.6 -0.6
v 0.3 2.7 -0.6
v 0.4 1.6 -0.6
v 0.4 1.7 -0.6
v 0.5 1.5 -0.6
v 0.5 1.7 -0.6
v 0.5 1.8 -0.6
v 0.5 2.2 -0.6
v 0.5 2.5 -0.6
v 0.5 2.6 -0.6
v 0.6 1.8 -0.6
v 0.6 2.6 -0.6
v -0.3 1.5 -0.7
v -0.3 1.6 -0.7
v 0.3 1.5 -0.7
v 0.3 1.6 -0.7
v -0.7 2.6 -0.9
v -0.7 2.7 -0.9
v -0.7 2.9 -0.9
v -0.7 3 -0.9
v -0.6 2.6 -0.9
v -0.6 2.7 -0.9
v -0.6 2.9 -0.9
v -0.5 1.5 -0.9
v -0.5 1.6 -0.9
v -0.5 2.6 -0.9
v -0.4 1.5 -0.9
v -0.4 1.6 -0.9
v -0.4 2.7 -0.9
v -0.4 2.9 -0.9
v -0.3 1.4 -0.9
v -0.3 1.5 -0.9
v -0.3 2.6 -0.9
v -0.3 2.7 -0.9
v -0.3 2.9 -0.9
v -0.3 3 -0.9
v -0.2 1.4 -0.9
v -0.2 1.5 -0.9
v -0.2 2.6 -0.9
v -0.2 2.7 -0.9
v 0.2 1.4 -0.9
v 0.2 1.5 -0.9
v 0.2 2.6 -0.9
v 0.2 2.7 -0.9
v 0.3 1.4 -0.9
v 0.3 1.5 -0.9
v 0.3 2.6 -0.9
v 0.3 2.7 -0.9
v 0.3 2.9 -0.9
v 0.3 3 -0.9
v 0.4 1.5 -0.9
v 0.4 1.6 -0.9
v 0.4 2.7 -0.9
v 0.4 2.9 -0.9
v 0.5 1.5 -0.9
v 0.5 1.6 -0.9
v 0.5 2.6 -0.9
v 0.6 2.6 -0.9
v 0.6 2.7 -0.9
v 0.6 2.9 -0.9
v 0.7 2.6 -0.9
v 0.7 2.7 -0.9
v 0.7 2.9 -0.9
v 0.7 3 -0.9
v -0.9 3.1 -1
v -0.9 3.3 -1
v -0.7 1.2 -1
v -0.7 2.5 -1
v -0.7 2.6 -1
v -0.6 1.3 -1
v -0.6 1.7 -1
v -0.6 2.5 -1
v -0.6 2.6 -1
v -0.5 1.5 -1
v -0.5 1.7 -1
v -0.4 1.2 -1
v -0.4 1.3 -1
v -0.4 1.4 -1
v -0.4 1.5 -1
v -0.4 2.7 -1
v -0.4 2.9 -1
v -0.3 1.4 -1
v -0.3 1.5 -1
v -0.3 2.8 -1
v -0.3 2.9 -1
v -0.3 3 -1
v -0.3 3.1 -1
v -0.3 3.3 -1
v -0.2 1.4 -1
v -0.2 1.5 -1
v -0.2 2.8 -1
v -0.2 2.9 -1
v -0.0999999 2.7 -1
v -0.0999999 2.9 -1
v -0.0999999 3 -1
v 0.1 2.7 -1
v 0.1 2.9 -1
v 0.1 3 -1
v 0.2 1.4 -1
v 0.2 1.5 -1
v 0.2 2.8 -1
v 0.2 2.9 -1
v 0.3 1.4 -1
v 0.3 1.5 -1
v 0.3 2.8 -1
v 0.3 2.9 -1
v 0.3 3 -1
v 0.3 3.1 -1
v 0.3 3.3 -1
v 0.4 1.2 -1
v 0.4 1.3 -1
v 0.4 1.4 -1
v 0.4 1.5 -1
v 0.4 2.7 -1
v 0.4 2.9 -1
v 0.5 1.5 -1
v 0.5 1.7 -1
v 0.6 1.3 -1
v 0.6 1.7 -1
v 0.6 2.5 -1
v 0.6 2.6 -1
v 0.7 1.2 -1
v 0.7 2.5 -1
v 0.7 2.6 -1
v 0.9 3.1 -1
v 0.9 3.3 -1
v -0.8 2.1 -1.1
v -0.8 2.4 -1.1
v -0.8 2.8 -1.1
v -0.8 3 -1.1
v -0.8 3.1 -1.1
v -0.7 2.1 -1.1
v -0.7 2.4 -1.1
v -0.7 2.9 -1.1
v -0.7 3 -1.1
v -0.6 2.8 -1.1
v -0.6 2.9 -1.1
v -0.6 3 -1.1
v -0.5 1.1 -1.1
v -0.5 1.2 -1.1
v -0.3 3 -1.1
v -0.3 3.1 -1.1
v 0.3 3 -1.1
v 0.3 3.1 -1.1
v 0.5 1.1 -1.1
v 0.5 1.2 -1.1
v 0.6 2.8 -1.1
v 0.6 2.9 -1.1
v 0.6 3 -1.1
v 0.7 2.1 -1.1
v 0.7 2.4 -1.1
v 0.7 2.9 -1.1
v 0.7 3 -1.1
v 0.8 2.1 -1.1
v 0.8 2.4 -1.1
v 0.8 2.8 -1.1
v 0.8 3 -1.1
v 0.8 3.1 -1.1
v -0.7 1.4 -1.2
v -0.7 1.7 -1.2
v -0.7 2.7 -1.2
v -0.7 2.8 -1.2
v -0.6 1.4 -1.2
v -0.6 1.7 -1.2
v -0.6 2.7 -1.2
v -0.6 2.8 -1.2
v 0.6 1.4 -1.2
v 0.6 1.7 -1.2
v 0.6 2.7 -1.2
v 0.6 2.8 -1.2
v 0.7 1.4 -1.2
v 0.7 1.7 -1.2
v 0.7 2.7 -1.2
v 0.7 2.8 -1.2
v -0.8 2.4 -1.3
v -0.8 2.5 -1.3
v -0.7 2.4 -1.3
v -0.7 2.5 -1.3
v 0.7 2.4 -1.3
v 0.7 2.5 -1.3
v 0.8 2.4 -1.3
v 0.8 2.5 -1.3
v -0.7 1.4 -1.7
v -0.7 1.7 -1.7
v -0.7 1.8 -1.7
v -0.7 2.2 -1.7
v -0.6 1.4 -1.7
v -0.6 1.7 -1.7
v -0.6 1.8 -1.7
v -0.6 2.2 -1.7
v 0.6 1.4 -1.7
v 0.6 1.7 -1.7
v 0.6 1.8 -1.7
v 0.6 2.2 -1.7
v 0.7 1.4 -1.7
v 0.7 1.7 -1.7
v 0.7 1.8 -1.7
v 0.7 2.2 -1.7
v -1.2 0.7 -1.8
v -1.2 0.8 -1.8
v -1.2 0.9 -1.8
v -1.2 1 -1.8
v -1.2 1.1 -1.8
v -1.2 1.2 -1.8
v -1.2 1.3 -1.8
v -1.2 1.4 -1.8
v -1.2 1.5 -1.8
v -1.2 1.6 -1.8
v -1.2 1.7 -1.8
v -1.2 1.8 -1.8
v -1.2 1.9 -1.8
v -1.2 2 -1.8
v -1.2 2.1 -1.8
v -1.2 2.2 -1.8
v -1.2 2.3 -1.8
v -1.2 2.4 -1.8
v -1.2 2.5 -1.8
v -1.2 2.6 -1.8
v -1.2 2.7 -1.8
v -1.2 2.8 -1.8
v -1.2 2.9 -1.8
v -1.2 3 -1.8
v -1.2 3.1 -1.8
v -1.2 3.2 -1.8
v -1.2 3.3 -1.8
v -1.1 0.7 -1.8
v -1.1 0.8 -1.8
v -1.1 0.9 -1.8
v -1.1 1 -1.8
v -1.1 1.1 -1.8
v -1.1 1.2 -1.8
v -1.1 1.3 -1.8
v -1.1 1.4 -1.8
v -1.1 1.5 -1.8
v -1.1 1.6 -1.8
v -1.1 1.7 -1.8
v -1.1 1.8 -1.8
v -1.1 1.9 -1.8
v -1.1 2 -1.8
v -1.1 2.1 -1.8
v -1.1 2.2 -1.8
v -1.1 2.3 -1.8
v -1.1 2.4 -1.8
v -1.1 2.5 -1.8
v -1.1 2.6 -1.8
v -1.1 2.7 -1.8
v -1.1 2.8 -1.8
v -1.1 2.9 -1.8
v -1.1 3 -1.8
v -1.1 3.1 -1.8
v -1.1 3.2 -1.8
v -1.1 3.3 -1.8
v -1.1 3.4 -1.8
v -1.1 3.5 -1.8
v -1.1 3.6 -1.8
v -1 0.6 -1.8
v -1 0.7 -1.8
v -1 0.8 -1.8
v -1 0.9 -1.8
v -1 1 -1.8
v -1 1.1 -1.8
v -1 1.2 -1.8
v -1 1.3 -1.8
v -1 1.4 -1.8
v -1 1.5 -1.8
v -1 1.6 -1.8
v -1 1.7 -1.8
v -1 1.8 -1.8
v -1 1.9 -1.8
v -1 2 -1.8
v -1 2.1 -1.8
v -1 2.2 -1.8
v -1 2.3 -1.8
v -1 2.4 -1.8
v -1 2.5 -1.8
v -1 2.6 -1.8
v -1 2.7 -1.8
v -1 2.8 -1.8
v -1 2.9 -1.8
v -1 3 -1.8
v -1 3.1 -1.8
v -1 3.2 -1.8
v -1 3.3 -1.8
v -1 3.4 -1.8
v -1 3.5 -1.8
v -1 3.6 -1.8
v -0.9 0.6 -1.8
v -0.9 0.8 -1.8
v -0.9 0.9 -1.8
v -0.9 1 -1.8
v -0.9 3.2 -1.8
v -0.9 3.4 -1.8
v -0.9 3.5 -1.8
v -0.9 3.6 -1.8
v -0.8 1.1 -1.8
v -0.8 2.8 -1.8
v -0.8 3 -1.8
v -0.8 3.1 -1.8
v -0.7 0.9 -1.8
v -0.7 1 -1.8
v -0.7 1.2 -1.8
v -0.7 2.8 -1.8
v -0.6 3 -1.8
v -0.5 1.1 -1.8
v -0.5 1.2 -1.8
v 0.5 1.1 -1.8
v 0.5 1.2 -1.8
v 0.6 3 -1.8
v 0.7 0.9 -1.8
v 0.7 1 -1.8
v 0.7 1.2 -1.8
v 0.7 2.8 -1.8
v 0.8 1.1 -1.8
v 0.8 2.8 -1.8
v 0.8 3 -1.8
v 0.8 3.1 -1.8
v 0.9 0.6 -1.8
v 0.9 0.8 -1.8
v 0.9 0.9 -1.8
v 0.9 1 -1.8
v 0.9 3.2 -1.8
v 0.9 3.4 -1.8
v 0.9 3.5 -1.8
v 0.9 3.6 -1.8
v 1 0.6 -1.8
v 1 0.7 -1.8
v 1 0.8 -1.8
v 1 0.9 -1.8
v 1 1 -1.8
v 1 1.1 -1.8
v 1 1.2 -1.8
v 1 1.3 -1.8
v 1 1.4 -1.8
v 1 1.5 -1.8
v 1 1.6 -1.8
v 1 1.7 -1.8
v 1 1.8 -1.8
v 1 1.9 -1.8
v 1 2 -1.8
v 1 2.1 -1.8
v 1 2.2 -1.8
v 1 2.3 -1.8
v 1 2.4 -1.8
v 1 2.5 -1.8
v 1 2.6 -1.8
v 1 2.7 -1.8
v 1 2.8 -1.8
v 1 2.9 -1.8
v 1 3 -1.8
v 1 3.1 -1.8
v 1 3.2 -1.8
v 1 3.3 -1.8
v 1 3.4 -1.8
v 1 3.5 -1.8
v 1 3.6 -1.8
v 1.1 0.7 -1.8
v 1.1 0.8 -1.8
v 1.1 0.9 -1.8
v 1.1 1 -1.8
v 1.1 1.1 -1.8
v 1.1 1.2 -1.8
v 1.1 1.3 -1.8
v 1.1 1.4 -1.8
v 1.1 1.5 -1.8
v 1.1 1.6 -1.8
v 1.1 1.7 -1.8
v 1.1 1.8 -1.8
v 1.1 1.9 -1.8
v 1.1 2 -1.8
v 1.1 2.1 -1.8
v 1.1 2.2 -1.8
v 1.1 2.3 -1.8
v 1.1 2.4 -1.8
v 1.1 2.5 -1.8
v 1.1 2.6 -1.8
v 1.1 2.7 -1.8
v 1.1 2.8 -1.8
v 1.1 2.9 -1.8
v 1.1 3 -1.8
v 1.1 3.1 -1.8
v 1.1 3.2 -1.8
v 1.1 3.3 -1.8
v 1.1 3.4 -1.8
v 1.1 3.5 -1.8
v 1.1 3.6 -1.8
v 1.2 0.7 -1.8
v 1.2 0.8 -1.8
v 1.2 0.9 -1.8
v 1.2 1 -1.8
v 1.2 1.1 -1.8
v 1.2 1.2 -1.8
v 1.2 1.3 -1.8
v 1.2 1.4 -1.8
v 1.2 1.5 -1.8
v 1.2 1.6 -1.8
v 1.2 1.7 -1.8
v 1.2 1.8 -1.8
v 1.2 1.9 -1.8
v 1.2 2 -1.8
v 1.2 2.1 -1.8
v 1.2 2.2 -1.8
v 1.2 2.3 -1.8
v 1.2 2.4 -1.8
v 1.2 2.5 -1.8
v 1.2 2.6 -1.8
v 1.2 2.7 -1.8
v 1.2 2.8 -1.8
v 1.2 2.9 -1.8
v 1.2 3 -1.8
v 1.2 3.1 -1.8
v 1.2 3.2 -1.8
v 1.2 3.3 -1.8
v -1 1 -1.9
v -1 1.1 -1.9
v -1 1.2 -1.9
v -1 1.3 -1.9
v -1 1.4 -1.9
v -1 1.5 -1.9
v -1 1.6 -1.9
v -1 1.7 -1.9
v -1 1.8 -1.9
v -1 1.9 -1.9
v -1 2 -1.9
v -1 2.1 -1.9
v -1 2.2 -1.9
v -1 2.3 -1.9
v -1 2.4 -1.9
v -1 2.5 -1.9
v -1 2.6 -1.9
v -1 2.7 -1.9
v -1 2.8 -1.9
v -1 2.9 -1.9
v -1 3 -1.9
v -1 3.1 -1.9
v -1 3.2 -1.9
v -0.9 0.6 -1.9
v -0.9 0.7 -1.9
v -0.9 0.8 -1.9
v -0.9 0.9 -1.9
v -0.9 1 -1.9
v -0.9 3.2 -1.9
v -0.9 3.4 -1.9
v -0.9 3.5 -1.9
v -0.9 3.6 -1.9
v -0.7 0.9 -1.9
v -0.7 1 -1.9
v 0.7 0.9 -1.9
v 0.7 1 -1.9
v 0.9 0.6 -1.9
v 0.9 0.7 -1.9
v 0.9 0.8 -1.9
v 0.9 0.9 -1.9
v 0.9 1 -1.9
v 0.9 3.2 -1.9
v 0.9 3.4 -1.9
v 0.9 3.5 -1.9
v 0.9 3.6 -1.9
v 1 1 -1.9
v 1 1.1 -1.9
v 1 1.2 -1.9
v 1 1.3 -1.9
v 1 1.4 -1.9
v 1 1.5 -1.9
v 1 1.6 -1.9
v 1 1.7 -1.9
v 1 1.8 -1.9
v 1 1.9 -1.9
v 1 2 -1.9
v 1 2.1 -1.9
v 1 2.2 -1.9
v 1 2.3 -1.9
v 1 2.4 -1.9
v 1 2.5 -1.9
v 1 2.6 -1.9
v 1 2.7 -1.9
v 1 2.8 -1.9
v 1 2.9 -1.9
v 1 3 -1.9
v 1 3.1 -1.9
v 1 3.2 -1.9
v -0.3 1.4 -0.6
v -0.3 1.5 -0.6
v -0.2 1.4 -0.6
v -0.2 1.5 -0.6
v 0.2 1.4 -0.6
v 0.2 1.5 -0.6
v 0.3 1.4 -0.6
v 0.3 1.5 -0.6
v -0.5 1.5 -0.8
v -0.5 1.6 -0.8
v -0.4 1.5 -0.8
v -0.4 1.6 -0.8
v 0.4 1.5 -0.8
v 0.4 1.6 -0.8
v 0.5 1.5 -0.8
v 0.5 1.6 -0.8
v -0.4 1.1 -1
v -0.4 1.2 -1
v 0.4 1.1 -1
v 0.4 1.2 -1
v -0.7 1.4 -1.1
v -0.7 1.7 -1.1
v -0.7 1.8 -1.1
v -0.7 2 -1.1
v -0.6 1.4 -1.1
v -0.6 1.7 -1.1
v -0.6 1.8 -1.1
v -0.6 2 -1.1
v 0.6 1.4 -1.1
v 0.6 1.7 -1.1
v 0.6 1.8 -1.1
v 0.6 2 -1.1
v 0.7 1.4 -1.1
v 0.7 1.7 -1.1
v 0.7 1.8 -1.1
v 0.7 2 -1.1
v -0.8 3 -1.3
v -0.8 3.1 -1.3
v -0.7 1.4 -1.3
v -0.7 1.5 -1.3
v -0.6 1.4 -1.3
v -0.6 1.5 -1.3
v -0.6 3 -1.3
v -0.6 3.1 -1.3
v -0.6 3.2 -1.3
v -0.6 3.3 -1.3
v -0.3 3.2 -1.3
v -0.3 3.3 -1.3
v 0.3 3.2 -1.3
v 0.3 3.3 -1.3
v 0.6 1.4 -1.3
v 0.6 1.5 -1.3
v 0.6 3 -1.3
v 0.6 3.1 -1.3
v 0.6 3.2 -1.3
v 0.6 3.3 -1.3
v 0.7 1.4 -1.3
v 0.7 1.5 -1.3
v 0.8 3 -1.3
v 0.8 3.1 -1.3
v -0.9 3.1 -1.4
v -0.9 3.3 -1.4
v -0.8 2.2 -1.4
v -0.8 2.3 -1.4
v -0.8 2.4 -1.4
v -0.8 2.5 -1.4
v -0.7 1.5 -1.4
v -0.7 1.7 -1.4
v -0.7 2.2 -1.4
v -0.7 2.3 -1.4
v -0.7 2.4 -1.4
v -0.7 2.5 -1.4
v -0.6 1.5 -1.4
v -0.6 1.7 -1.4
v -0.6 3 -1.4
v -0.6 3.1 -1.4
v -0.6 3.2 -1.4
v -0.6 3.3 -1.4
v -0.3 3 -1.4
v -0.3 3.2 -1.4
v 0.3 3 -1.4
v 0.3 3.2 -1.4
v 0.6 1.5 -1.4
v 0.6 1.7 -1.4
v 0.6 3 -1.4
v 0.6 3.1 -1.4
v 0.6 3.2 -1.4
v 0.6 3.3 -1.4
v 0.7 1.5 -1.4
v 0.7 1.7 -1.4
v 0.7 2.2 -1.4
v 0.7 2.3 -1.4
v 0.7 2.4 -1.4
v 0.7 2.5 -1.4
v 0.8 2.2 -1.4
v 0.8 2.3 -1.4
v 0.8 2.4 -1.4
v 0.8 2.5 -1.4
v 0.9 3.1 -1.4
v 0.9 3.3 -1.4
v -0.8 2.1 -1.5
v -0.8 2.2 -1.5
v -0.7 2.1 -1.5
v -0.7 2.2 -1.5
v 0.7 2.1 -1.5
v 0.7 2.2 -1.5
v 0.8 2.1 -1.5
v 0.8 2.2 -1.5
v -0.7 2 -1.6
v -0.7 2.2 -1.6
v -0.6 2 -1.6
v -0.6 2.2 -1.6
v 0.6 2 -1.6
v 0.6 2.2 -1.6
v 0.7 2 -1.6
v 0.7 2.2 -1.6
v -0.8 2.3 -1.7
v -0.8 2.4 -1.7
v -0.7 2.3 -1.7
v -0.7 2.4 -1.7
v 0.7 2.3 -1.7
v 0.7 2.4 -1.7
v 0.8 2.3 -1.7
v 0.8 2.4 -1.7
v -1.2 0.7 -1.9
v -1.2 0.8 -1.9
v -1.1 0.7 -1.9
v -1.1 0.8 -1.9
v 1.1 0.7 -1.9
v 1.1 0.8 -1.9
v 1.2 0.7 -1.9
v 1.2 0.8 -1.9
v -1.2 0.8 -2
v -1.2 3.3 -2
v -1.1 0.7 -2
v -1.1 0.8 -2
v -1.1 3.3 -2
v -1.1 3.5 -2
v -1.1 3.6 -2
v -1 0.6 -2
v -1 0.7 -2
v -0.9 0.6 -2
v -0.9 0.7 -2
v -0.9 3.5 -2
v -0.9 3.6 -2
v -0.8 1.1 -2
v -0.8 3.1 -2
v 0.8 1.1 -2
v 0.8 3.1 -2
v 0.9 0.6 -2
v 0.9 0.7 -2
v 0.9 3.5 -2
v 0.9 3.6 -2
v 1 0.6 -2
v 1 0.7 -2
v 1.1 0.7 -2
v 1.1 0.8 -2
v 1.1 3.3 -2
v 1.1 3.5 -2
v 1.1 3.6 -2
v 1.2 0.8 -2
v 1.2 3.3 -2
v -1 0.6 -1.8
v -0.9 0.6 -1.8
v 0.9 0.6 -1.8
v 1 0.6 -1.8
v -0.9 0.6 -1.9
v 0.9 0.6 -1.9
v -1 0.6 -2
v -0.9 0.6 -2
v 0.9 0.6 -2
v 1 0.6 -2
v -1.2 0.7 -1.8
v -1.1 0.7 -1.8
v -1 0.7 -1.8
v 1 0.7 -1.8
v 1.1 0.7 -1.8
v 1.2 0.7 -1.8
v -1.2 0.7 -1.9
v -1.1 0.7 -1.9
v -1 0.7 -1.9
v 1 0.7 -1.9
v 1.1 0.7 -1.9
v 1.2 0.7 -1.9
v -1.1 0.7 -2
v -1 0.7 -2
v 1 0.7 -2
v 1.1 0.7 -2
v -1.2 0.8 -1.9
v -1.1 0.8 -1.9
v 1.1 0.8 -1.9
v 1.2 0.8 -1.9
v -1.2 0.8 -2
v -1.1 0.8 -2
v 1.1 0.8 -2
v 1.2 0.8 -2
v -0.7 0.9 -1.8
v 0.7 0.9 -1.8
v -0.7 0.9 -1.9
v 0.7 0.9 -1.9
v -0.9 1 -1.8
v -0.7 1 -1.8
v 0.7 1 -1.8
v 0.9 1 -1.8
v -0.9 1 -1.9
v -0.7 1 -1.9
v 0.7 1 -1.9
v 0.9 1 -1.9
v -0.4 1.1 -0.5
v 0.4 1.1 -0.5
v -0.4 1.1 -1
v 0.4 1.1 -1
v -0.5 1.1 -1.1
v 0.5 1.1 -1.1
v -0.5 1.1 -1.8
v 0.5 1.1 -1.8
v -0.7 1.2 -1
v -0.4 1.2 -1
v 0.4 1.2 -1
v 0.7 1.2 -1
v -0.5 1.2 -1.1
v 0.5 1.2 -1.1
v -0.7 1.2 -1.8
v -0.5 1.2 -1.8
v 0.5 1.2 -1.8
v 0.7 1.2 -1.8
v -0.5 1.5 -0.6
v -0.3 1.5 -0.6
v 0.3 1.5 -0.6
v 0.5 1.5 -0.6
v -0.3 1.5 -0.7
v 0.3 1.5 -0.7
v -0.5 1.5 -0.8
v -0.4 1.5 -0.8
v 0.4 1.5 -0.8
v 0.5 1.5 -0.8
v -0.5 1.5 -0.9
v -0.4 1.5 -0.9
v -0.3 1.5 -0.9
v -0.2 1.5 -0.9
v 0.2 1.5 -0.9
v 0.3 1.5 -0.9
v 0.4 1.5 -0.9
v 0.5 1.5 -0.9
v -0.5 1.5 -1
v -0.4 1.5 -1
v -0.3 1.5 -1
v -0.2 1.5 -1
v 0.2 1.5 -1
v 0.3 1.5 -1
v 0.4 1.5 -1
v 0.5 1.5 -1
v -0.7 1.5 -1.3
v -0.6 1.5 -1.3
v 0.6 1.5 -1.3
v 0.7 1.5 -1.3
v -0.7 1.5 -1.4
v -0.6 1.5 -1.4
v 0.6 1.5 -1.4
v 0.7 1.5 -1.4
v -0.3 1.6 -0.4
v -0.2 1.6 -0.4
v 0.2 1.6 -0.4
v 0.3 1.6 -0.4
v -0.4 1.6 -0.5
v -0.3 1.6 -0.5
v -0.0999999 1.6 -0.5
v 0.1 1.6 -0.5
v 0.3 1.6 -0.5
v 0.4 1.6 -0.5
v -0.4 1.6 -0.6
v -0.3 1.6 -0.6
v -0.2 1.6 -0.6
v -0.0999999 1.6 -0.6
v 0.1 1.6 -0.6
v 0.2 1.6 -0.6
v 0.3 1.6 -0.6
v 0.4 1.6 -0.6
v -0.3 1.6 -0.7
v 0.3 1.6 -0.7
v -0.5 1.6 -0.8
v -0.4 1.6 -0.8
v 0.4 1.6 -0.8
v 0.5 1.6 -0.8
v -0.5 1.6 -0.9
v -0.4 1.6 -0.9
v 0.4 1.6 -0.9
v 0.5 1.6 -0.9
v -0.6 1.7 -0.5
v -0.4 1.7 -0.5
v 0.4 1.7 -0.5
v 0.6 1.7 -0.5
v -0.5 1.7 -0.6
v -0.4 1.7 -0.6
v 0.4 1.7 -0.6
v 0.5 1.7 -0.6
v -0.5 1.7 -0.8
v 0.5 1.7 -0.8
v -0.6 1.7 -1
v -0.5 1.7 -1
v 0.5 1.7 -1
v 0.6 1.7 -1
v -0.7 1.7 -1.1
v -0.6 1.7 -1.1
v 0.6 1.7 -1.1
v 0.7 1.7 -1.1
v -0.7 1.7 -1.2
v -0.6 1.7 -1.2
v 0.6 1.7 -1.2
v 0.7 1.7 -1.2
v -0.7 1.7 -1.4
v -0.6 1.7 -1.4
v 0.6 1.7 -1.4
v 0.7 1.7 -1.4
v -0.7 1.7 -1.7
v -0.6 1.7 -1.7
v 0.6 1.7 -1.7
v 0.7 1.7 -1.7
v -0.2 2 -0.3
v 0.2 2 -0.3
v -0.0999999 2 -0.5
v 0.1 2 -0.5
v -0.2 2 -0.6
v -0.0999999 2 -0.6
v 0.1 2 -0.6
v 0.2 2 -0.6
v -0.7 2 -1.1
v -0.6 2 -1.1
v 0.6 2 -1.1
v 0.7 2 -1.1
v -0.7 2 -1.6
v -0.6 2 -1.6
v 0.6 2 -1.6
v 0.7 2 -1.6
v -0.3 2.1 -0.3
v -0.2 2.1 -0.3
v 0.2 2.1 -0.3
v 0.3 2.1 -0.3
v -0.3 2.1 -0.6
v -0.2 2.1 -0.6
v 0.2 2.1 -0.6
v 0.3 2.1 -0.6
v -0.8 2.1 -1.1
v -0.7 2.1 -1.1
v 0.7 2.1 -1.1
v 0.8 2.1 -1.1
v -0.8 2.1 -1.5
v -0.7 2.1 -1.5
v 0.7 2.1 -1.5
v 0.8 2.1 -1.5
v -0.7 2.2 -1.6
v -0.6 2.2 -1.6
v 0.6 2.2 -1.6
v 0.7 2.2 -1.6
v -0.7 2.2 -1.7
v -0.6 2.2 -1.7
v 0.6 2.2 -1.7
v 0.7 2.2 -1.7
v -0.8 2.3 -1.4
v -0.7 2.3 -1.4
v 0.7 2.3 -1.4
v 0.8 2.3 -1.4
v -0.8 2.3 -1.7
v -0.7 2.3 -1.7
v 0.7 2.3 -1.7
v 0.8 2.3 -1.7
v -0.7 2.6 -0.9
v -0.6 2.6 -0.9
v 0.6 2.6 -0.9
v 0.7 2.6 -0.9
v -0.7 2.6 -1
v -0.6 2.6 -1
v 0.6 2.6 -1
v 0.7 2.6 -1
v -0.8 2.8 -1.1
v -0.6 2.8 -1.1
v 0.6 2.8 -1.1
v 0.8 2.8 -1.1
v -0.7 2.8 -1.2
v -0.6 2.8 -1.2
v 0.6 2.8 -1.2
v 0.7 2.8 -1.2
v -0.7 2.8 -1.3
v 0.7 2.8 -1.3
v -0.7 2.8 -1.7
v 0.7 2.8 -1.7
v -0.8 2.8 -1.8
v -0.7 2.8 -1.8
v 0.7 2.8 -1.8
v 0.8 2.8 -1.8
v -0.7 2.9 -0.9
v -0.6 2.9 -0.9
v -0.4 2.9 -0.9
v -0.3 2.9 -0.9
v 0.3 2.9 -0.9
v 0.4 2.9 -0.9
v 0.6 2.9 -0.9
v 0.7 2.9 -0.9
v -0.4 2.9 -1
v -0.3 2.9 -1
v 0.3 2.9 -1
v 0.4 2.9 -1
v -0.7 2.9 -1.1
v -0.6 2.9 -1.1
v 0.6 2.9 -1.1
v 0.7 2.9 -1.1
v -0.9 3.1 -1
v -0.3 3.1 -1
v 0.3 3.1 -1
v 0.9 3.1 -1
v -0.8 3.1 -1.1
v -0.3 3.1 -1.1
v 0.3 3.1 -1.1
v 0.8 3.1 -1.1
v -0.8 3.1 -1.3
v -0.6 3.1 -1.3
v 0.6 3.1 -1.3
v 0.8 3.1 -1.3
v -0.9 3.1 -1.4
v -0.6 3.1 -1.4
v 0.6 3.1 -1.4
v 0.9 3.1 -1.4
v -1 3.2 -1.8
v -0.9 3.2 -1.8
v 0.9 3.2 -1.8
v 1 3.2 -1.8
v -1 3.2 -1.9
v -0.9 3.2 -1.9
v 0.9 3.2 -1.9
v 1 3.2 -1.9
v -1 1 -1.8
v -0.9 1 -1.8
v 0.9 1 -1.8
v 1 1 -1.8
v -1 1 -1.9
v -0.9 1 -1.9
v 0.9 1 -1.9
v 1 1 -1.9
v -0.4 1.4 -0.5
v -0.3 1.4 -0.5
v -0.2 1.4 -0.5
v 0.2 1.4 -0.5
v 0.3 1.4 -0.5
v 0.4 1.4 -0.5
v -0.3 1.4 -0.6
v -0.2 1.4 -0.6
v 0.2 1.4 -0.6
v 0.3 1.4 -0.6
v -0.3 1.4 -0.9
v -0.2 1.4 -0.9
v 0.2 1.4 -0.9
v 0.3 1.4 -0.9
v -0.4 1.4 -1
v -0.3 1.4 -1
v -0.2 1.4 -1
v 0.2 1.4 -1
v 0.3 1.4 -1
v 0.4 1.4 -1
v -0.7 1.4 -1.1
v -0.6 1.4 -1.1
v 0.6 1.4 -1.1
v 0.7 1.4 -1.1
v -0.7 1.4 -1.2
v -0.6 1.4 -1.2
v 0.6 1.4 -1.2
v 0.7 1.4 -1.2
v -0.7 1.4 -1.3
v -0.6 1.4 -1.3
v 0.6 1.4 -1.3
v 0.7 1.4 -1.3
v -0.7 1.4 -1.7
v -0.6 1.4 -1.7
v 0.6 1.4 -1.7
v 0.7 1.4 -1.7
v -0.3 1.5 -0.5
v -0.2 1.5 -0.5
v 0.2 1.5 -0.5
v 0.3 1.5 -0.5
v -0.3 1.5 -0.6
v -0.2 1.5 -0.6
v 0.2 1.5 -0.6
v 0.3 1.5 -0.6
v -0.3 1.7 -0.4
v -0.2 1.7 -0.4
v 0.2 1.7 -0.4
v 0.3 1.7 -0.4
v -0.3 1.7 -0.5
v 0.3 1.7 -0.5
v -0.3 1.7 -0.6
v -0.2 1.7 -0.6
v 0.2 1.7 -0.6
v 0.3 1.7 -0.6
v -0.6 1.8 -0.5
v -0.3 1.8 -0.5
v 0.3 1.8 -0.5
v 0.6 1.8 -0.5
v -0.6 1.8 -0.6
v -0.5 1.8 -0.6
v -0.3 1.8 -0.6
v 0.3 1.8 -0.6
v 0.5 1.8 -0.6
v 0.6 1.8 -0.6
v -0.7 1.8 -1.1
v -0.6 1.8 -1.1
v 0.6 1.8 -1.1
v 0.7 1.8 -1.1
v -0.7 1.8 -1.7
v -0.6 1.8 -1.7
v 0.6 1.8 -1.7
v 0.7 1.8 -1.7
v -0.8 2.2 -1.4
v -0.7 2.2 -1.4
v 0.7 2.2 -1.4
v 0.8 2.2 -1.4
v -0.8 2.2 -1.5
v -0.7 2.2 -1.5
v 0.7 2.2 -1.5
v 0.8 2.2 -1.5
v -0.8 2.4 -1.1
v -0.7 2.4 -1.1
v 0.7 2.4 -1.1
v 0.8 2.4 -1.1
v -0.8 2.4 -1.3
v -0.7 2.4 -1.3
v 0.7 2.4 -1.3
v 0.8 2.4 -1.3
v -0.8 2.4 -1.4
v -0.7 2.4 -1.4
v 0.7 2.4 -1.4
v 0.8 2.4 -1.4
v -0.8 2.4 -1.7
v -0.7 2.4 -1.7
v 0.7 2.4 -1.7
v 0.8 2.4 -1.7
v -0.3 2.5 -0.3
v 0.3 2.5 -0.3
v -0.3 2.5 -0.5
v -0.2 2.5 -0.5
v 0.2 2.5 -0.5
v 0.3 2.5 -0.5
v -0.2 2.5 -0.6
v 0.2 2.5 -0.6
v -0.8 2.5 -1.3
v -0.7 2.5 -1.3
v 0.7 2.5 -1.3
v 0.8 2.5 -1.3
v -0.8 2.5 -1.4
v -0.7 2.5 -1.4
v 0.7 2.5 -1.4
v 0.8 2.5 -1.4
v -0.3 2.6 -0.5
v -0.2 2.6 -0.5
v 0.2 2.6 -0.5
v 0.3 2.6 -0.5
v -0.6 2.6 -0.6
v -0.5 2.6 -0.6
v -0.3 2.6 -0.6
v -0.2 2.6 -0.6
v 0.2 2.6 -0.6
v 0.3 2.6 -0.6
v 0.5 2.6 -0.6
v 0.6 2.6 -0.6
v -0.6 2.6 -0.9
v -0.5 2.6 -0.9
v -0.3 2.6 -0.9
v -0.2 2.6 -0.9
v 0.2 2.6 -0.9
v 0.3 2.6 -0.9
v 0.5 2.6 -0.9
v 0.6 2.6 -0.9
v -0.3 2.7 -0.6
v -0.2 2.7 -0.6
v 0.2 2.7 -0.6
v 0.3 2.7 -0.6
v -0.7 2.7 -0.9
v -0.6 2.7 -0.9
v -0.4 2.7 -0.9
v -0.3 2.7 -0.9
v -0.2 2.7 -0.9
v 0.2 2.7 -0.9
v 0.3 2.7 -0.9
v 0.4 2.7 -0.9
v 0.6 2.7 -0.9
v 0.7 2.7 -0.9
v -0.4 2.7 -1
v -0.0999999 2.7 -1
v 0.1 2.7 -1
v 0.4 2.7 -1
v -0.6 2.7 -1.1
v 0.6 2.7 -1.1
v -0.7 2.7 -1.2
v -0.6 2.7 -1.2
v 0.6 2.7 -1.2
v 0.7 2.7 -1.2
v -0.7 3 -0.9
v -0.3 3 -0.9
v 0.3 3 -0.9
v 0.7 3 -0.9
v -0.6 3 -1
v -0.3 3 -1
v -0.0999999 3 -1
v 0.1 3 -1
v 0.3 3 -1
v 0.6 3 -1
v -0.7 3 -1.1
v -0.6 3 -1.1
v -0.3 3 -1.1
v -0.0999999 3 -1.1
v 0.1 3 -1.1
v 0.3 3 -1.1
v 0.6 3 -1.1
v 0.7 3 -1.1
v -0.8 3 -1.3
v -0.6 3 -1.3
v -0.3 3 -1.3
v 0.3 3 -1.3
v 0.6 3 -1.3
v 0.8 3 -1.3
v -0.6 3 -1.4
v -0.3 3 -1.4
v 0.3 3 -1.4
v 0.6 3 -1.4
v -0.8 3 -1.8
v -0.6 3 -1.8
v 0.6 3 -1.8
v 0.8 3 -1.8
v -0.6 3.2 -1.3
v -0.3 3.2 -1.3
v 0.3 3.2 -1.3
v 0.6 3.2 -1.3
v -0.6 3.2 -1.4
v -0.3 3.2 -1.4
v 0.3 3.2 -1.4
v 0.6 3.2 -1.4
v -0.9 3.2 -1.8
v 0.9 3.2 -1.8
v -0.9 3.2 -1.9
v 0.9 3.2 -1.9
v -0.9 3.3 -1
v -0.3 3.3 -1
v 0.3 3.3 -1
v 0.9 3.3 -1
v -0.6 3.3 -1.1
v -0.3 3.3 -1.1
v 0.3 3.3 -1.1
v 0.6 3.3 -1.1
v -0.6 3.3 -1.3
v -0.3 3.3 -1.3
v 0.3 3.3 -1.3
v 0.6 3.3 -1.3
v -0.9 3.3 -1.4
v -0.6 3.3 -1.4
v 0.6 3.3 -1.4
v 0.9 3.3 -1.4
v -1.2 3.3 -1.8
v -1.1 3.3 -1.8
v 1.1 3.3 -1.8
v 1.2 3.3 -1.8
v -1.2 3.3 -1.9
v -1.1 3.3 -1.9
v 1.1 3.3 -1.9
v 1.2 3.3 -1.9
v -1.2 3.3 -2
v -1.1 3.3 -2
v 1.1 3.3 -2
v 1.2 3.3 -2
v -1.1 3.6 -1.8
v -1 3.6 -1.8
v -0.9 3.6 -1.8
v 0.9 3.6 -1.8
v 1 3.6 -1.8
v 1.1 3.6 -1.8
v -1.1 3.6 -1.9
v -1 3.6 -1.9
v -0.9 3.6 -1.9
v 0.9 3.6 -1.9
v 1 3.6 -1.9
v 1.1 3.6 -1.9
v -1.1 3.6 -2
v -0.9 3.6 -2
v 0.9 3.6 -2
v 1.1 3.6 -2

# faces
f 3/2/1 2/2/1 1/2/1
f 4/2/1 2/2/1 3/2/1
f 6/1/1 4/1/1 3/1/1
f 7/2/1 5/2/1 4/2/1
f 7/1/1 4/1/1 6/1/1
f 8/2/1 7/2/1 6/2/1
f 9/2/1 5/2/1 7/2/1
f 9/2/1 7/2/1 8/2/1
f 10/1/1 9/1/1 8/1/1
f 11/2/1 5/2/1 9/2/1
f 11/1/1 9/1/1 10/1/1
f 12/2/1 11/2/1 10/2/1
f 13/2/1 5/2/1 11/2/1
f 13/2/1 11/2/1 12/2/1
f 14/1/1 13/1/1 12/1/1
f 15/2/1 5/2/1 13/2/1
f 15/1/1 13/1/1 14/1/1
f 16/2/1 15/2/1 14/2/1
f 17/2/1 5/2/1 15/2/1
f 17/2/1 15/2/1 16/2/1
f 18/1/1 17/1/1 16/1/1
f 19/2/1 5/2/1 17/2/1
f 19/1/1 17/1/1 18/1/1
f 20/2/1 19/2/1 18/2/1
f 21/2/1 5/2/1 19/2/1
f 21/2/1 19/2/1 20/2/1
f 22/1/1 21/1/1 20/1/1
f 23/2/1 5/2/1 21/2/1
f 23/1/1 21/1/1 22/1/1
f 24/2/1 23/2/1 22/2/1
f 25/2/1 5/2/1 23/2/1
f 25/2/1 23/2/1 24/2/1
f 26/1/1 25/1/1 24/1/1
f 27/2/1 5/2/1 25/2/1
f 27/1/1 25/1/1 26/1/1
f 28/2/1 27/2/1 26/2/1
f 29/2/1 5/2/1 27/2/1
f 29/2/1 27/2/1 28/2/1
f 30/1/1 29/1/1 28/1/1
f 31/2/1 5/2/1 29/2/1
f 31/1/1 29/1/1 30/1/1
f 32/2/1 31/2/1 30/2/1
f 33/2/1 5/2/1 31/2/1
f 33/2/1 31/2/1 32/2/1
f 34/1/1 33/1/1 32/1/1
f 35/2/1 5/2/1 33/2/1
f 35/1/1 33/1/1 34/1/1
f 36/2/1 35/2/1 34/2/1
f 37/2/1 5/2/1 35/2/1
f 37/2/1 35/2/1 36/2/1
f 38/1/1 37/1/1 36/1/1
f 39/2/1 5/2/1 37/2/1
f 39/1/1 37/1/1 38/1/1
f 40/2/1 39/2/1 38/2/1
f 41/2/1 5/2/1 39/2/1
f 41/2/1 39/2/1 40/2/1
f 42/1/1 41/1/1 40/1/1
f 43/2/1 5/2/1 41/2/1
f 43/1/1 41/1/1 42/1/1
f 44/2/1 43/2/1 42/2/1
f 45/2/1 5/2/1 43/2/1
f 45/2/1 43/2/1 44/2/1
f 46/1/1 45/1/1 44/1/1
f 47/2/1 5/2/1 45/2/1
f 47/1/1 45/1/1 46/1/1
f 48/2/1 47/2/1 46/2/1
f 49/2/1 5/2/1 47/2/1
f 49/2/1 47/2/1 48/2/1
f 50/1/1 49/1/1 48/1/1
f 51/2/1 5/2/1 49/2/1
f 51/1/1 49/1/1 50/1/1
f 52/2/1 51/2/1 50/2/1
f 53/2/1 5/2/1 51/2/1
f 53/2/1 51/2/1 52/2/1
f 54/1/1 53/1/1 52/1/1
f 55/2/1 5/2/1 53/2/1
f 55/1/1 53/1/1 54/1/1
f 56/2/1 5/2/1 55/2/1
f 59/3/1 58/3/1 57/3/1
f 60/3/1 58/3/1 59/3/1
f 64/1/1 62/1/1 61/1/1
f 65/3/1 63/3/1 62/3/1
f 65/1/1 62/1/1 64/1/1
f 66/2/1 65/2/1 64/2/1
f 67/3/1 63/3/1 65/3/1
f 67/2/1 65/2/1 66/2/1
f 68/3/1 63/3/1 67/3/1
f 69/1/1 67/1/1 66/1/1
f 70/2/1 68/2/1 67/2/1
f 70/1/1 67/1/1 69/1/1
f 71/2/1 68/2/1 70/2/1
f 74/2/1 73/2/1 72/2/1
f 75/2/1 73/2/1 74/2/1
f 76/2/1 73/2/1 75/2/1
f 81/7/1 78/7/1 77/7/1
f 82/7/1 78/7/1 81/7/1
f 83/7/1 80/7/1 79/7/1
f 84/7/1 80/7/1 83/7/1
f 87/6/1 86/6/1 85/6/1
f 88/6/1 86/6/1 87/6/1
f 89/6/1 87/6/1 85/6/1
f 91/6/1 89/6/1 85/6/1
f 91/6/1 90/6/1 89/6/1
f 92/6/1 90/6/1 91/6/1
f 93/6/1 90/6/1 92/6/1
f 94/6/1 90/6/1 93/6/1
f 95/7/1 93/7/1 92/7/1
f 96/7/1 93/7/1 95/7/1
f 99/7/1 98/7/1 97/7/1
f 100/7/1 98/7/1 99/7/1
f 101/7/1 98/7/1 100/7/1
f 102/6/1 100/6/1 99/6/1
f 103/6/1 100/6/1 102/6/1
f 106/7/1 105/7/1 104/7/1
f 107/7/1 105/7/1 106/7/1
f 110/7/1 109/7/1 108/7/1
f 111/7/1 109/7/1 110/7/1
f 112/7/1 109/7/1 111/7/1
f 113/7/1 109/7/1 112/7/1
f 114/7/1 112/7/1 111/7/1
f 116/7/1 110/7/1 108/7/1
f 117/7/1 115/7/1 114/7/1
f 117/7/1 114/7/1 111/7/1
f 118/7/1 115/7/1 117/7/1
f 119/7/1 109/7/1 113/7/1
f 120/7/1 116/7/1 108/7/1
f 120/7/1 119/7/1 118/7/1
f 120/7/1 118/7/1 117/7/1
f 120/7/1 117/7/1 116/7/1
f 121/7/1 109/7/1 119/7/1
f 121/7/1 119/7/1 120/7/1
f 122/7/1 120/7/1 108/7/1
f 124/7/1 122/7/1 108/7/1
f 124/7/1 123/7/1 122/7/1
f 125/7/1 123/7/1 124/7/1
f 127/7/1 123/7/1 125/7/1
f 128/7/1 123/7/1 127/7/1
f 129/7/1 109/7/1 121/7/1
f 130/7/1 128/7/1 127/7/1
f 130/7/1 129/7/1 128/7/1
f 130/7/1 127/7/1 126/7/1
f 131/7/1 109/7/1 129/7/1
f 131/7/1 129/7/1 130/7/1
f 132/7/1 124/7/1 108/7/1
f 135/7/1 109/7/1 131/7/1
f 136/7/1 133/7/1 132/7/1
f 136/7/1 132/7/1 108/7/1
f 137/7/1 133/7/1 136/7/1
f 138/7/1 135/7/1 134/7/1
f 139/7/1 109/7/1 135/7/1
f 139/7/1 135/7/1 138/7/1
f 141/6/1 137/6/1 136/6/1
f 141/6/1 138/6/1 137/6/1
f 141/6/1 139/6/1 138/6/1
f 142/6/1 139/6/1 141/6/1
f 143/7/1 141/7/1 140/7/1
f 143/7/1 142/7/1 141/7/1
f 144/6/1 139/6/1 142/6/1
f 144/7/1 142/7/1 143/7/1
f 145/6/1 139/6/1 144/6/1
f 146/7/1 145/7/1 144/7/1
f 147/6/1 139/6/1 145/6/1
f 147/7/1 145/7/1 146/7/1
f 148/7/1 109/7/1 139/7/1
f 148/6/1 139/6/1 147/6/1
f 149/7/1 109/7/1 148/7/1
f 152/7/1 151/7/1 150/7/1
f 153/7/1 151/7/1 152/7/1
f 158/6/1 157/6/1 156/6/1
f 159/6/1 157/6/1 158/6/1
f 162/6/1 155/6/1 154/6/1
f 163/6/1 155/6/1 162/6/1
f 164/6/1 157/6/1 159/6/1
f 165/6/1 157/6/1 164/6/1
f 166/7/1 161/7/1 160/7/1
f 167/7/1 161/7/1 166/7/1
f 170/6/1 169/6/1 168/6/1
f 171/6/1 169/6/1 170/6/1
f 172/6/1 169/6/1 171/6/1
f 173/6/1 169/6/1 172/6/1
f 174/7/1 161/7/1 167/7/1
f 175/7/1 174/7/1 167/7/1
f 176/7/1 174/7/1 175/7/1
f 177/7/1 174/7/1 176/7/1
f 181/8/1 179/8/1 178/8/1
f 181/6/1 180/6/1 179/6/1
f 182/6/1 180/6/1 181/6/1
f 183/8/1 181/8/1 178/8/1
f 184/8/1 181/8/1 183/8/1
f 187/7/1 186/7/1 185/7/1
f 188/7/1 186/7/1 187/7/1
f 191/6/1 190/6/1 189/6/1
f 192/6/1 190/6/1 191/6/1
f 197/8/1 194/8/1 193/8/1
f 198/6/1 196/6/1 195/6/1
f 199/8/1 197/8/1 193/8/1
f 200/6/1 198/6/1 197/6/1
f 200/8/1 197/8/1 199/8/1
f 201/6/1 196/6/1 198/6/1
f 201/6/1 198/6/1 200/6/1
f 204/7/1 203/7/1 202/7/1
f 205/7/1 204/7/1 202/7/1
f 206/7/1 204/7/1 205/7/1
f 207/6/1 206/6/1 205/6/1
f 208/6/1 206/6/1 207/6/1
f 213/8/1 210/8/1 209/8/1
f 214/8/1 210/8/1 213/8/1
f 215/7/1 212/7/1 211/7/1
f 216/7/1 212/7/1 215/7/1
f 221/8/1 218/8/1 217/8/1
f 222/8/1 218/8/1 221/8/1
f 223/7/1 220/7/1 219/7/1
f 224/7/1 220/7/1 223/7/1
f 227/7/1 226/7/1 225/7/1
f 228/7/1 226/7/1 227/7/1
f 231/7/1 230/7/1 229/7/1
f 232/7/1 231/7/1 229/7/1
f 233/7/1 231/7/1 232/7/1
f 234/7/1 231/7/1 233/7/1
f 235/7/1 234/7/1 233/7/1
f 236/7/1 234/7/1 235/7/1
f 238/7/1 237/7/1 236/7/1
f 239/7/1 237/7/1 238/7/1
f 242/7/1 241/7/1 240/7/1
f 243/7/1 241/7/1 242/7/1
f 246/7/1 245/7/1 244/7/1
f 247/7/1 245/7/1 246/7/1
f 252/8/1 249/8/1 248/8/1
f 253/8/1 249/8/1 252/8/1
f 254/7/1 251/7/1 250/7/1
f 255/7/1 251/7/1 254/7/1
f 258/7/1 257/7/1 256/7/1
f 259/7/1 257/7/1 258/7/1
f 262/7/1 261/7/1 260/7/1
f 263/7/1 261/7/1 262/7/1
f 265/7/1 264/7/1 263/7/1
f 266/7/1 264/7/1 265/7/1
f 269/8/1 268/8/1 267/8/1
f 270/8/1 268/8/1 269/8/1
f 273/7/1 272/7/1 271/7/1
f 274/7/1 272/7/1 273/7/1
f 277/7/1 276/7/1 275/7/1
f 278/7/1 276/7/1 277/7/1
f 283/6/1 280/6/1 279/6/1
f 284/7/1 281/7/1 280/7/1
f 284/6/1 280/6/1 283/6/1
f 285/7/1 281/7/1 284/7/1
f 286/7/1 283/7/1 282/7/1
f 287/6/1 284/6/1 283/6/1
f 287/7/1 283/7/1 286/7/1
f 288/6/1 284/6/1 287/6/1
f 291/8/1 290/8/1 289/8/1
f 292/8/1 290/8/1 291/8/1
f 295/7/1 294/7/1 293/7/1
f 296/7/1 294/7/1 295/7/1
f 299/2/1 298/2/1 297/2/1
f 300/2/1 299/2/1 297/2/1
f 301/2/1 299/2/1 300/2/1
f 302/1/1 301/1/1 300/1/1
f 303/1/1 301/1/1 302/1/1
f 304/2/1 303/2/1 302/2/1
f 305/2/1 303/2/1 304/2/1
f 308/2/1 307/2/1 306/2/1
f 309/2/1 307/2/1 308/2/1
f 310/1/1 309/1/1 308/1/1
f 311/1/1 309/1/1 310/1/1
f 312/2/1 311/2/1 310/2/1
f 313/2/1 311/2/1 312/2/1
f 316/2/1 315/2/1 314/2/1
f 317/2/1 315/2/1 316/2/1
f 318/1/1 317/1/1 316/1/1
f 319/1/1 317/1/1 318/1/1
f 320/2/1 319/2/1 318/2/1
f 321/2/1 319/2/1 320/2/1
f 322/1/1 321/1/1 320/1/1
f 323/1/1 321/1/1 322/1/1
f 324/2/1 323/2/1 322/2/1
f 325/2/1 323/2/1 324/2/1
f 326/1/1 325/1/1 324/1/1
f 327/1/1 325/1/1 326/1/1
f 328/2/1 327/2/1 326/2/1
f 329/2/1 327/2/1 328/2/1
f 330/1/1 329/1/1 328/1/1
f 331/1/1 329/1/1 330/1/1
f 332/2/1 331/2/1 330/2/1
f 333/2/1 331/2/1 332/2/1
f 334/1/1 333/1/1 332/1/1
f 335/1/1 333/1/1 334/1/1
f 336/2/1 335/2/1 334/2/1
f 337/2/1 335/2/1 336/2/1
f 338/1/1 337/1/1 336/1/1
f 339/1/1 337/1/1 338/1/1
f 340/2/1 339/2/1 338/2/1
f 341/2/1 339/2/1 340/2/1
f 342/1/1 341/1/1 340/1/1
f 343/1/1 341/1/1 342/1/1
f 344/2/1 343/2/1 342/2/1
f 345/2/1 343/2/1 344/2/1
f 346/1/1 345/1/1 344/1/1
f 347/1/1 345/1/1 346/1/1
f 348/2/1 347/2/1 346/2/1
f 349/2/1 347/2/1 348/2/1
f 350/1/1 349/1/1 348/1/1
f 351/1/1 349/1/1 350/1/1
f 352/2/1 351/2/1 350/2/1
f 353/2/1 351/2/1 352/2/1
f 354/1/1 353/1/1 352/1/1
f 355/1/1 353/1/1 354/1/1
f 356/2/1 355/2/1 354/2/1
f 357/2/1 355/2/1 356/2/1
f 358/1/1 357/1/1 356/1/1
f 359/1/1 357/1/1 358/1/1
f 360/2/2 361/2/2 362/2/2
f 362/2/2 361/2/2 363/2/2
f 362/1/2 363/1/2 364/1/2
f 364/1/2 363/1/2 365/1/2
f 364/2/2 365/2/2 366/2/2
f 366/2/2 365/2/2 367/2/2
f 366/1/2 367/1/2 368/1/2
f 368/1/2 367/1/2 369/1/2
f 368/2/2 369/2/2 370/2/2
f 370/2/2 369/2/2 371/2/2
f 370/1/2 371/1/2 372/1/2
f 372/1/2 371/1/2 373/1/2
f 372/2/2 373/2/2 374/2/2
f 374/2/2 373/2/2 375/2/2
f 374/1/2 375/1/2 376/1/2
f 376/1/2 375/1/2 377/1/2
f 376/2/2 377/2/2 378/2/2
f 378/2/2 377/2/2 379/2/2
f 378/1/2 379/1/2 380/1/2
f 380/1/2 379/1/2 381/1/2
f 380/2/2 381/2/2 382/2/2
f 382/2/2 381/2/2 383/2/2
f 382/1/2 383/1/2 384/1/2
f 384/1/2 383/1/2 385/1/2
f 384/2/2 385/2/2 386/2/2
f 386/2/2 385/2/2 387/2/2
f 386/1/2 387/1/2 388/1/2
f 388/1/2 387/1/2 389/1/2
f 388/2/2 389/2/2 390/2/2
f 390/2/2 389/2/2 391/2/2
f 390/1/2 391/1/2 392/1/2
f 392/1/2 391/1/2 393/1/2
f 392/2/2 393/2/2 394/2/2
f 394/2/2 393/2/2 395/2/2
f 394/1/2 395/1/2 396/1/2
f 396/1/2 395/1/2 397/1/2
f 396/2/2 397/2/2 398/2/2
f 398/2/2 397/2/2 399/2/2
f 398/1/2 399/1/2 400/1/2
f 400/1/2 399/1/2 401/1/2
f 400/2/2 401/2/2 402/2/2
f 402/2/2 401/2/2 403/2/2
f 402/1/2 403/1/2 404/1/2
f 404/1/2 403/1/2 405/1/2
f 406/2/2 407/2/2 408/2/2
f 406/2/2 408/2/2 409/2/2
f 409/2/2 408/2/2 410/2/2
f 409/1/2 410/1/2 411/1/2
f 411/1/2 410/1/2 412/1/2
f 411/2/2 412/2/2 413/2/2
f 413/2/2 412/2/2 414/2/2
f 415/2/2 416/2/2 417/2/2
f 417/2/2 416/2/2 418/2/2
f 417/1/2 418/1/2 419/1/2
f 419/1/2 418/1/2 420/1/2
f 419/2/2 420/2/2 421/2/2
f 421/2/2 420/2/2 422/2/2
f 423/7/2 424/7/2 425/7/2
f 425/7/2 424/7/2 426/7/2
f 427/8/2 428/8/2 429/8/2
f 429/8/2 428/8/2 430/8/2
f 431/8/2 432/8/2 433/8/2
f 433/8/2 432/8/2 434/8/2
f 435/7/2 436/7/2 437/7/2
f 437/7/2 436/7/2 438/7/2
f 439/7/2 440/7/2 441/7/2
f 441/7/2 440/7/2 442/7/2
f 443/6/2 444/6/2 447/6/2
f 444/7/2 445/7/2 448/7/2
f 447/6/2 444/6/2 448/6/2
f 448/7/2 445/7/2 449/7/2
f 446/7/2 447/7/2 450/7/2
f 447/6/2 448/6/2 451/6/2
f 450/7/2 447/7/2 451/7/2
f 451/6/2 448/6/2 452/6/2
f 453/8/2 454/8/2 457/8/2
f 457/8/2 454/8/2 458/8/2
f 455/7/2 456/7/2 459/7/2
f 459/7/2 456/7/2 460/7/2
f 461/7/2 462/7/2 463/7/2
f 463/7/2 462/7/2 464/7/2
f 465/7/2 466/7/2 467/7/2
f 467/7/2 466/7/2 468/7/2
f 468/7/2 469/7/2 470/7/2
f 470/7/2 469/7/2 471/7/2
f 472/7/2 473/7/2 474/7/2
f 474/7/2 473/7/2 475/7/2
f 476/7/2 477/7/2 478/7/2
f 478/7/2 477/7/2 479/7/2
f 480/8/2 481/8/2 484/8/2
f 484/8/2 481/8/2 485/8/2
f 482/7/2 483/7/2 486/7/2
f 486/7/2 483/7/2 487/7/2
f 488/7/2 489/7/2 490/7/2
f 490/7/2 489/7/2 491/7/2
f 492/7/2 493/7/2 494/7/2
f 492/7/2 494/7/2 495/7/2
f 495/7/2 494/7/2 496/7/2
f 496/7/2 494/7/2 497/7/2
f 496/7/2 497/7/2 498/7/2
f 498/7/2 497/7/2 499/7/2
f 499/7/2 500/7/2 501/7/2
f 501/7/2 500/7/2 502/7/2
f 503/7/2 504/7/2 505/7/2
f 503/7/2 505/7/2 506/7/2
f 506/7/2 505/7/2 507/7/2
f 506/6/2 507/6/2 508/6/2
f 508/6/2 507/6/2 509/6/2
f 510/8/2 511/8/2 514/8/2
f 514/8/2 511/8/2 515/8/2
f 512/7/2 513/7/2 516/7/2
f 516/7/2 513/7/2 517/7/2
f 518/6/2 519/6/2 520/6/2
f 520/6/2 519/6/2 521/6/2
f 522/8/2 523/8/2 526/8/2
f 524/6/2 525/6/2 527/6/2
f 522/8/2 526/8/2 528/8/2
f 526/6/2 527/6/2 529/6/2
f 528/8/2 526/8/2 529/8/2
f 527/6/2 525/6/2 530/6/2
f 529/6/2 527/6/2 530/6/2
f 533/6/2 534/6/2 535/6/2
f 535/6/2 534/6/2 536/6/2
f 531/6/2 532/6/2 539/6/2
f 539/6/2 532/6/2 540/6/2
f 536/6/2 534/6/2 541/6/2
f 541/6/2 534/6/2 542/6/2
f 537/7/2 538/7/2 543/7/2
f 543/7/2 538/7/2 544/7/2
f 545/6/2 546/6/2 547/6/2
f 547/6/2 546/6/2 548/6/2
f 548/6/2 546/6/2 549/6/2
f 549/6/2 546/6/2 550/6/2
f 544/7/2 538/7/2 551/7/2
f 544/7/2 551/7/2 552/7/2
f 552/7/2 551/7/2 553/7/2
f 553/7/2 551/7/2 554/7/2
f 555/8/2 556/8/2 558/8/2
f 556/6/2 557/6/2 558/6/2
f 558/6/2 557/6/2 559/6/2
f 555/8/2 558/8/2 560/8/2
f 560/8/2 558/8/2 561/8/2
f 562/7/2 563/7/2 564/7/2
f 564/7/2 563/7/2 565/7/2
f 566/7/2 567/7/2 568/7/2
f 568/7/2 567/7/2 569/7/2
f 570/7/2 571/7/2 572/7/2
f 572/7/2 571/7/2 573/7/2
f 573/7/2 571/7/2 574/7/2
f 574/7/2 571/7/2 575/7/2
f 573/7/2 574/7/2 576/7/2
f 570/7/2 572/7/2 578/7/2
f 576/7/2 577/7/2 579/7/2
f 573/7/2 576/7/2 579/7/2
f 579/7/2 577/7/2 580/7/2
f 575/7/2 571/7/2 581/7/2
f 570/7/2 578/7/2 582/7/2
f 580/7/2 581/7/2 582/7/2
f 579/7/2 580/7/2 582/7/2
f 578/7/2 579/7/2 582/7/2
f 581/7/2 571/7/2 583/7/2
f 582/7/2 581/7/2 583/7/2
f 570/7/2 582/7/2 584/7/2
f 570/7/2 584/7/2 586/7/2
f 584/7/2 585/7/2 586/7/2
f 586/7/2 585/7/2 587/7/2
f 587/7/2 585/7/2 589/7/2
f 589/7/2 585/7/2 590/7/2
f 583/7/2 571/7/2 591/7/2
f 589/7/2 590/7/2 592/7/2
f 590/7/2 591/7/2 592/7/2
f 588/7/2 589/7/2 592/7/2
f 591/7/2 571/7/2 593/7/2
f 592/7/2 591/7/2 593/7/2
f 570/7/2 586/7/2 594/7/2
f 593/7/2 571/7/2 597/7/2
f 594/7/2 595/7/2 598/7/2
f 570/7/2 594/7/2 598/7/2
f 598/7/2 595/7/2 599/7/2
f 596/7/2 597/7/2 600/7/2
f 597/7/2 571/7/2 601/7/2
f 600/7/2 597/7/2 601/7/2
f 598/6/2 599/6/2 603/6/2
f 599/6/2 600/6/2 603/6/2
f 600/6/2 601/6/2 603/6/2
f 603/6/2 601/6/2 604/6/2
f 602/7/2 603/7/2 605/7/2
f 603/7/2 604/7/2 605/7/2
f 604/6/2 601/6/2 606/6/2
f 605/7/2 604/7/2 606/7/2
f 606/6/2 601/6/2 607/6/2
f 606/7/2 607/7/2 608/7/2
f 607/6/2 601/6/2 609/6/2
f 608/7/2 607/7/2 609/7/2
f 601/7/2 571/7/2 610/7/2
f 609/6/2 601/6/2 610/6/2
f 610/7/2 571/7/2 611/7/2
f 612/7/2 613/7/2 614/7/2
f 614/7/2 613/7/2 615/7/2
f 616/6/2 617/6/2 618/6/2
f 618/6/2 617/6/2 619/6/2
f 616/6/2 618/6/2 620/6/2
f 616/6/2 620/6/2 622/6/2
f 620/6/2 621/6/2 622/6/2
f 622/6/2 621/6/2 623/6/2
f 623/6/2 621/6/2 624/6/2
f 624/6/2 621/6/2 625/6/2
f 623/7/2 624/7/2 626/7/2
f 626/7/2 624/7/2 627/7/2
f 628/7/2 629/7/2 630/7/2
f 630/7/2 629/7/2 631/7/2
f 631/7/2 629/7/2 632/7/2
f 630/6/2 631/6/2 633/6/2
f 633/6/2 631/6/2 634/6/2
f 635/7/2 636/7/2 639/7/2
f 639/7/2 636/7/2 640/7/2
f 637/7/2 638/7/2 641/7/2
f 641/7/2 638/7/2 642/7/2
f 643/2/2 644/2/2 645/2/2
f 645/2/2 644/2/2 646/2/2
f 646/2/2 644/2/2 647/2/2
f 648/3/2 649/3/2 650/3/2
f 650/3/2 649/3/2 651/3/2
f 652/1/2 653/1/2 655/1/2
f 653/3/2 654/3/2 656/3/2
f 655/1/2 653/1/2 656/1/2
f 655/2/2 656/2/2 657/2/2
f 656/3/2 654/3/2 658/3/2
f 657/2/2 656/2/2 658/2/2
f 658/3/2 654/3/2 659/3/2
f 657/1/2 658/1/2 660/1/2
f 658/2/2 659/2/2 661/2/2
f 660/1/2 658/1/2 661/1/2
f 661/2/2 659/2/2 662/2/2
f 663/2/2 664/2/2 665/2/2
f 665/2/2 664/2/2 666/2/2
f 665/1/2 666/1/2 668/1/2
f 666/2/2 667/2/2 669/2/2
f 668/1/2 666/1/2 669/1/2
f 668/2/2 669/2/2 670/2/2
f 669/2/2 667/2/2 671/2/2
f 670/2/2 669/2/2 671/2/2
f 670/1/2 671/1/2 672/1/2
f 671/2/2 667/2/2 673/2/2
f 672/1/2 671/1/2 673/1/2
f 672/2/2 673/2/2 674/2/2
f 673/2/2 667/2/2 675/2/2
f 674/2/2 673/2/2 675/2/2
f 674/1/2 675/1/2 676/1/2
f 675/2/2 667/2/2 677/2/2
f 676/1/2 675/1/2 677/1/2
f 676/2/2 677/2/2 678/2/2
f 677/2/2 667/2/2 679/2/2
f 678/2/2 677/2/2 679/2/2
f 678/1/2 679/1/2 680/1/2
f 679/2/2 667/2/2 681/2/2
f 680/1/2 679/1/2 681/1/2
f 680/2/2 681/2/2 682/2/2
f 681/2/2 667/2/2 683/2/2
f 682/2/2 681/2/2 683/2/2
f 682/1/2 683/1/2 684/1/2
f 683/2/2 667/2/2 685/2/2
f 684/1/2 683/1/2 685/1/2
f 684/2/2 685/2/2 686/2/2
f 685/2/2 667/2/2 687/2/2
f 686/2/2 685/2/2 687/2/2
f 686/1/2 687/1/2 688/1/2
f 687/2/2 667/2/2 689/2/2
f 688/1/2 687/1/2 689/1/2
f 688/2/2 689/2/2 690/2/2
f 689/2/2 667/2/2 691/2/2
f 690/2/2 689/2/2 691/2/2
f 690/1/2 691/1/2 692/1/2
f 691/2/2 667/2/2 693/2/2
f 692/1/2 691/1/2 693/1/2
f 692/2/2 693/2/2 694/2/2
f 693/2/2 667/2/2 695/2/2
f 694/2/2 693/2/2 695/2/2
f 694/1/2 695/1/2 696/1/2
f 695/2/2 667/2/2 697/2/2
f 696/1/2 695/1/2 697/1/2
f 696/2/2 697/2/2 698/2/2
f 697/2/2 667/2/2 699/2/2
f 698/2/2 697/2/2 699/2/2
f 698/1/2 699/1/2 700/1/2
f 699/2/2 667/2/2 701/2/2
f 700/1/2 699/1/2 701/1/2
f 700/2/2 701/2/2 702/2/2
f 701/2/2 667/2/2 703/2/2
f 702/2/2 701/2/2 703/2/2
f 702/1/2 703/1/2 704/1/2
f 703/2/2 667/2/2 705/2/2
f 704/1/2 703/1/2 705/1/2
f 704/2/2 705/2/2 706/2/2
f 705/2/2 667/2/2 707/2/2
f 706/2/2 705/2/2 707/2/2
f 706/1/2 707/1/2 708/1/2
f 707/2/2 667/2/2 709/2/2
f 708/1/2 707/1/2 709/1/2
f 708/2/2 709/2/2 710/2/2
f 709/2/2 667/2/2 711/2/2
f 710/2/2 709/2/2 711/2/2
f 710/1/2 711/1/2 712/1/2
f 711/2/2 667/2/2 713/2/2
f 712/1/2 711/1/2 713/1/2
f 712/2/2 713/2/2 714/2/2
f 713/2/2 667/2/2 715/2/2
f 714/2/2 713/2/2 715/2/2
f 714/1/2 715/1/2 716/1/2
f 715/2/2 667/2/2 717/2/2
f 716/1/2 715/1/2 717/1/2
f 717/2/2 667/2/2 718/2/2
f 722/7/3 720/7/3 719/7/3
f 723/7/3 720/7/3 722/7/3
f 723/7/3 722/7/3 721/7/3
f 724/7/3 720/7/3 723/7/3
f 725/7/3 723/7/3 721/7/3
f 725/6/3 724/6/3 723/6/3
f 726/7/3 720/7/3 724/7/3
f 726/6/3 724/6/3 725/6/3
f 727/7/3 725/7/3 721/7/3
f 727/7/3 726/7/3 725/7/3
f 728/7/3 726/7/3 727/7/3
f 729/7/3 726/7/3 728/7/3
f 730/7/3 720/7/3 726/7/3
f 730/7/3 726/7/3 729/7/3
f 733/7/3 732/7/3 731/7/3
f 734/7/3 732/7/3 733/7/3
f 737/7/3 736/7/3 735/7/3
f 738/7/3 736/7/3 737/7/3
f 745/7/3 740/7/3 739/7/3
f 746/6/3 743/6/3 742/6/3
f 748/7/3 745/7/3 744/7/3
f 749/7/3 740/7/3 745/7/3
f 749/7/3 745/7/3 748/7/3
f 750/7/3 740/7/3 749/7/3
f 753/8/3 747/8/3 746/8/3
f 753/6/3 746/6/3 742/6/3
f 754/8/3 747/8/3 753/8/3
f 755/7/3 752/7/3 751/7/3
f 756/7/3 752/7/3 755/7/3
f 759/7/3 758/7/3 757/7/3
f 760/7/3 758/7/3 759/7/3
f 761/6/3 753/6/3 742/6/3
f 765/8/3 762/8/3 761/8/3
f 765/6/3 761/6/3 742/6/3
f 766/8/3 762/8/3 765/8/3
f 770/7/3 764/7/3 763/7/3
f 771/7/3 764/7/3 770/7/3
f 772/7/3 742/7/3 741/7/3
f 773/6/3 765/6/3 742/6/3
f 773/7/3 742/7/3 772/7/3
f 774/6/3 765/6/3 773/6/3
f 775/7/3 769/7/3 768/7/3
f 775/7/3 768/7/3 767/7/3
f 776/7/3 769/7/3 775/7/3
f 777/7/3 769/7/3 776/7/3
f 778/7/3 769/7/3 777/7/3
f 783/7/3 780/7/3 779/7/3
f 784/7/3 780/7/3 783/7/3
f 785/7/3 780/7/3 784/7/3
f 786/7/3 780/7/3 785/7/3
f 787/8/3 782/8/3 781/8/3
f 788/8/3 782/8/3 787/8/3
f 789/8/3 787/8/3 781/8/3
f 790/8/3 787/8/3 789/8/3
f 792/6/3 784/6/3 783/6/3
f 793/6/3 784/6/3 792/6/3
f 794/7/3 785/7/3 784/7/3
f 794/6/3 784/6/3 793/6/3
f 795/6/3 786/6/3 785/6/3
f 795/7/3 785/7/3 794/7/3
f 796/6/3 786/6/3 795/6/3
f 799/6/3 792/6/3 791/6/3
f 799/6/3 793/6/3 792/6/3
f 800/6/3 793/6/3 799/6/3
f 801/6/3 793/6/3 800/6/3
f 803/7/3 797/7/3 796/7/3
f 804/7/3 797/7/3 803/7/3
f 805/6/3 799/6/3 798/6/3
f 805/6/3 800/6/3 799/6/3
f 806/6/3 800/6/3 805/6/3
f 809/6/3 808/6/3 807/6/3
f 810/6/3 808/6/3 809/6/3
f 811/6/3 808/6/3 810/6/3
f 813/6/3 803/6/3 802/6/3
f 814/6/3 803/6/3 813/6/3
f 818/6/3 812/6/3 811/6/3
f 818/6/3 811/6/3 810/6/3
f 819/6/3 812/6/3 818/6/3
f 820/6/3 812/6/3 819/6/3
f 823/7/3 815/7/3 814/7/3
f 824/7/3 815/7/3 823/7/3
f 825/8/3 817/8/3 816/8/3
f 827/8/3 825/8/3 816/8/3
f 827/8/3 826/8/3 825/8/3
f 828/8/3 826/8/3 827/8/3
f 829/6/3 820/6/3 819/6/3
f 829/6/3 821/6/3 820/6/3
f 830/7/3 822/7/3 821/7/3
f 830/6/3 821/6/3 829/6/3
f 831/6/3 823/6/3 822/6/3
f 831/7/3 822/7/3 830/7/3
f 832/6/3 823/6/3 831/6/3
f 833/7/3 830/7/3 829/7/3
f 833/7/3 832/7/3 831/7/3
f 833/7/3 831/7/3 830/7/3
f 834/7/3 832/7/3 833/7/3
f 837/7/3 836/7/3 835/7/3
f 838/7/3 836/7/3 837/7/3
f 843/7/3 840/7/3 839/7/3
f 844/7/3 840/7/3 843/7/3
f 845/7/3 842/7/3 841/7/3
f 848/7/3 844/7/3 843/7/3
f 849/6/3 847/6/3 846/6/3
f 850/6/3 847/6/3 849/6/3
f 851/7/3 844/7/3 848/7/3
f 851/8/3 845/8/3 844/8/3
f 852/7/3 842/7/3 845/7/3
f 852/8/3 845/8/3 851/8/3
f 855/7/3 851/7/3 848/7/3
f 856/7/3 851/7/3 855/7/3
f 857/7/3 842/7/3 852/7/3
f 858/7/3 842/7/3 857/7/3
f 859/7/3 854/7/3 853/7/3
f 860/7/3 854/7/3 859/7/3
f 865/7/3 862/7/3 861/7/3
f 866/7/3 862/7/3 865/7/3
f 867/7/3 864/7/3 863/7/3
f 868/7/3 864/7/3 867/7/3
f 875/7/3 870/7/3 869/7/3
f 876/7/3 872/7/3 871/7/3
f 877/6/3 874/6/3 873/6/3
f 878/6/3 874/6/3 877/6/3
f 879/7/3 875/7/3 869/7/3
f 880/7/3 875/7/3 879/7/3
f 881/8/3 876/8/3 875/8/3
f 881/7/3 875/7/3 880/7/3
f 882/7/3 872/7/3 876/7/3
f 882/8/3 876/8/3 881/8/3
f 883/7/3 881/7/3 880/7/3
f 884/7/3 881/7/3 883/7/3
f 885/7/3 872/7/3 882/7/3
f 886/7/3 872/7/3 885/7/3
f 892/7/3 890/7/3 889/7/3
f 893/7/3 890/7/3 892/7/3
f 894/6/3 891/6/3 890/6/3
f 894/7/3 890/7/3 893/7/3
f 895/6/3 891/6/3 894/6/3
f 896/6/3 893/6/3 892/6/3
f 897/6/3 893/6/3 896/6/3
f 898/7/3 892/7/3 889/7/3
f 899/6/3 896/6/3 892/6/3
f 899/7/3 892/7/3 898/7/3
f 900/6/3 896/6/3 899/6/3
f 901/6/3 896/6/3 900/6/3
f 904/6/3 901/6/3 900/6/3
f 905/6/3 901/6/3 904/6/3
f 906/6/3 903/6/3 902/6/3
f 907/6/3 903/6/3 906/6/3
f 909/7/3 888/7/3 887/7/3
f 910/7/3 888/7/3 909/7/3
f 913/7/3 908/7/3 907/7/3
f 913/6/3 906/6/3 902/6/3
f 913/7/3 907/7/3 906/7/3
f 914/7/3 908/7/3 913/7/3
f 915/6/3 913/6/3 902/6/3
f 915/6/3 914/6/3 913/6/3
f 916/7/3 908/7/3 914/7/3
f 916/6/3 914/6/3 915/6/3
f 917/7/3 908/7/3 916/7/3
f 918/7/3 916/7/3 915/7/3
f 919/6/3 917/6/3 916/6/3
f 919/7/3 916/7/3 918/7/3
f 920/6/3 917/6/3 919/6/3
f 921/5/3 912/5/3 911/5/3
f 922/5/3 912/5/3 921/5/3
f 923/6/3 919/6/3 918/6/3
f 924/7/3 920/7/3 919/7/3
f 924/6/3 919/6/3 923/6/3
f 927/6/3 923/6/3 918/6/3
f 927/7/3 924/7/3 923/7/3
f 928/7/3 920/7/3 924/7/3
f 928/7/3 924/7/3 927/7/3
f 929/7/3 920/7/3 928/7/3
f 934/6/3 926/6/3 925/6/3
f 935/6/3 926/6/3 934/6/3
f 936/6/3 928/6/3 927/6/3
f 936/6/3 927/6/3 918/6/3
f 937/6/3 928/6/3 936/6/3
f 938/6/3 935/6/3 934/6/3
f 938/6/3 934/6/3 933/6/3
f 940/7/3 933/7/3 932/7/3
f 940/6/3 939/6/3 938/6/3
f 940/6/3 938/6/3 933/6/3
f 941/6/3 939/6/3 940/6/3
f 944/7/3 940/7/3 932/7/3
f 944/7/3 941/7/3 940/7/3
f 944/7/3 942/7/3 941/7/3
f 945/6/3 943/6/3 942/6/3
f 945/7/3 942/7/3 944/7/3
f 946/6/3 943/6/3 945/6/3
f 947/7/3 931/7/3 930/7/3
f 948/7/3 931/7/3 947/7/3
f 954/6/3 950/6/3 949/6/3
f 955/6/3 950/6/3 954/6/3
f 956/7/3 952/7/3 951/7/3
f 957/6/3 953/6/3 952/6/3
f 957/7/3 952/7/3 956/7/3
f 958/7/3 956/7/3 951/7/3
f 959/7/3 956/7/3 958/7/3
f 960/6/3 953/6/3 957/6/3
f 963/6/3 953/6/3 960/6/3
f 964/6/3 953/6/3 963/6/3
f 967/6/3 962/6/3 961/6/3
f 968/6/3 962/6/3 967/6/3
f 971/6/3 966/6/3 965/6/3
f 974/7/3 970/7/3 969/7/3
f 975/6/3 966/6/3 971/6/3
f 976/6/3 973/6/3 972/6/3
f 977/6/3 973/6/3 976/6/3
f 978/7/3 975/7/3 974/7/3
f 978/7/3 974/7/3 969/7/3
f 979/6/3 966/6/3 975/6/3
f 979/7/3 975/7/3 978/7/3
f 980/6/3 966/6/3 979/6/3
f 985/7/3 982/7/3 981/7/3
f 986/7/3 982/7/3 985/7/3
f 987/7/3 984/7/3 983/7/3
f 988/7/3 984/7/3 987/7/3
f 993/7/3 990/7/3 989/7/3
f 994/7/3 990/7/3 993/7/3
f 995/7/3 992/7/3 991/7/3
f 996/7/3 992/7/3 995/7/3
f 999/7/3 998/7/3 997/7/3
f 1000/7/3 998/7/3 999/7/3
f 1003/7/3 1002/7/3 1001/7/3
f 1004/7/3 1002/7/3 1003/7/3
f 1009/7/3 1006/7/3 1005/7/3
f 1010/7/3 1006/7/3 1009/7/3
f 1011/7/3 1008/7/3 1007/7/3
f 1012/7/3 1008/7/3 1011/7/3
f 1017/7/3 1014/7/3 1013/7/3
f 1018/7/3 1014/7/3 1017/7/3
f 1019/7/3 1016/7/3 1015/7/3
f 1020/7/3 1016/7/3 1019/7/3
f 1048/2/3 1022/2/3 1021/2/3
f 1049/1/3 1023/1/3 1022/1/3
f 1049/2/3 1022/2/3 1048/2/3
f 1050/2/3 1024/2/3 1023/2/3
f 1050/1/3 1023/1/3 1049/1/3
f 1051/1/3 1025/1/3 1024/1/3
f 1051/2/3 1024/2/3 1050/2/3
f 1052/2/3 1026/2/3 1025/2/3
f 1052/1/3 1025/1/3 1051/1/3
f 1053/1/3 1027/1/3 1026/1/3
f 1053/2/3 1026/2/3 1052/2/3
f 1054/2/3 1028/2/3 1027/2/3
f 1054/1/3 1027/1/3 1053/1/3
f 1055/1/3 1029/1/3 1028/1/3
f 1055/2/3 1028/2/3 1054/2/3
f 1056/2/3 1030/2/3 1029/2/3
f 1056/1/3 1029/1/3 1055/1/3
f 1057/1/3 1031/1/3 1030/1/3
f 1057/2/3 1030/2/3 1056/2/3
f 1058/2/3 1032/2/3 1031/2/3
f 1058/1/3 1031/1/3 1057/1/3
f 1059/1/3 1033/1/3 1032/1/3
f 1059/2/3 1032/2/3 1058/2/3
f 1060/2/3 1034/2/3 1033/2/3
f 1060/1/3 1033/1/3 1059/1/3
f 1061/1/3 1035/1/3 1034/1/3
f 1061/2/3 1034/2/3 1060/2/3
f 1062/2/3 1036/2/3 1035/2/3
f 1062/1/3 1035/1/3 1061/1/3
f 1063/1/3 1037/1/3 1036/1/3
f 1063/2/3 1036/2/3 1062/2/3
f 1064/2/3 1038/2/3 1037/2/3
f 1064/1/3 1037/1/3 1063/1/3
f 1065/1/3 1039/1/3 1038/1/3
f 1065/2/3 1038/2/3 1064/2/3
f 1066/2/3 1040/2/3 1039/2/3
f 1066/1/3 1039/1/3 1065/1/3
f 1067/1/3 1041/1/3 1040/1/3
f 1067/2/3 1040/2/3 1066/2/3
f 1068/2/3 1042/2/3 1041/2/3
f 1068/1/3 1041/1/3 1067/1/3
f 1069/1/3 1043/1/3 1042/1/3
f 1069/2/3 1042/2/3 1068/2/3
f 1070/2/3 1044/2/3 1043/2/3
f 1070/1/3 1043/1/3 1069/1/3
f 1071/1/3 1045/1/3 1044/1/3
f 1071/2/3 1044/2/3 1070/2/3
f 1072/2/3 1046/2/3 1045/2/3
f 1072/1/3 1045/1/3 1071/1/3
f 1073/1/3 1047/1/3 1046/1/3
f 1073/2/3 1046/2/3 1072/2/3
f 1074/1/3 1047/1/3 1073/1/3
f 1079/1/3 1049/1/3 1048/1/3
f 1080/2/3 1050/2/3 1049/2/3
f 1080/1/3 1049/1/3 1079/1/3
f 1081/1/3 1051/1/3 1050/1/3
f 1081/2/3 1050/2/3 1080/2/3
f 1082/2/3 1052/2/3 1051/2/3
f 1082/1/3 1051/1/3 1081/1/3
f 1083/1/3 1053/1/3 1052/1/3
f 1083/2/3 1052/2/3 1082/2/3
f 1084/2/3 1054/2/3 1053/2/3
f 1084/1/3 1053/1/3 1083/1/3
f 1085/1/3 1055/1/3 1054/1/3
f 1085/2/3 1054/2/3 1084/2/3
f 1086/2/3 1056/2/3 1055/2/3
f 1086/1/3 1055/1/3 1085/1/3
f 1087/1/3 1057/1/3 1056/1/3
f 1087/2/3 1056/2/3 1086/2/3
f 1088/2/3 1058/2/3 1057/2/3
f 1088/1/3 1057/1/3 1087/1/3
f 1089/1/3 1059/1/3 1058/1/3
f 1089/2/3 1058/2/3 1088/2/3
f 1090/2/3 1060/2/3 1059/2/3
f 1090/1/3 1059/1/3 1089/1/3
f 1091/1/3 1061/1/3 1060/1/3
f 1091/2/3 1060/2/3 1090/2/3
f 1092/2/3 1062/2/3 1061/2/3
f 1092/1/3 1061/1/3 1091/1/3
f 1093/1/3 1063/1/3 1062/1/3
f 1093/2/3 1062/2/3 1092/2/3
f 1094/2/3 1064/2/3 1063/2/3
f 1094/1/3 1063/1/3 1093/1/3
f 1095/1/3 1065/1/3 1064/1/3
f 1095/2/3 1064/2/3 1094/2/3
f 1096/2/3 1066/2/3 1065/2/3
f 1096/1/3 1065/1/3 1095/1/3
f 1097/1/3 1067/1/3 1066/1/3
f 1097/2/3 1066/2/3 1096/2/3
f 1098/2/3 1068/2/3 1067/2/3
f 1098/1/3 1067/1/3 1097/1/3
f 1099/1/3 1069/1/3 1068/1/3
f 1099/2/3 1068/2/3 1098/2/3
f 1100/2/3 1070/2/3 1069/2/3
f 1100/1/3 1069/1/3 1099/1/3
f 1101/1/3 1071/1/3 1070/1/3
f 1101/2/3 1070/2/3 1100/2/3
f 1102/2/3 1072/2/3 1071/2/3
f 1102/1/3 1071/1/3 1101/1/3
f 1103/1/3 1073/1/3 1072/1/3
f 1103/2/3 1072/2/3 1102/2/3
f 1104/2/3 1074/2/3 1073/2/3
f 1104/1/3 1073/1/3 1103/1/3
f 1105/1/3 1075/1/3 1074/1/3
f 1105/2/3 1074/2/3 1104/2/3
f 1106/2/3 1076/2/3 1075/2/3
f 1106/1/3 1075/1/3 1105/1/3
f 1107/1/3 1077/1/3 1076/1/3
f 1107/2/3 1076/2/3 1106/2/3
f 1108/1/3 1077/1/3 1107/1/3
f 1109/2/3 1079/2/3 1078/2/3
f 1109/2/3 1080/2/3 1079/2/3
f 1110/1/3 1081/1/3 1080/1/3
f 1110/2/3 1080/2/3 1109/2/3
f 1111/2/3 1082/2/3 1081/2/3
f 1111/1/3 1081/1/3 1110/1/3
f 1112/2/3 1082/2/3 1111/2/3
f 1113/2/3 1106/2/3 1105/2/3
f 1113/2/3 1105/2/3 1104/2/3
f 1114/1/3 1107/1/3 1106/1/3
f 1114/2/3 1106/2/3 1113/2/3
f 1115/2/3 1108/2/3 1107/2/3
f 1115/1/3 1107/1/3 1114/1/3
f 1116/2/3 1108/2/3 1115/2/3
f 1117/7/3 1113/7/3 1112/7/3
f 1118/7/3 1113/7/3 1117/7/3
f 1119/7/3 1113/7/3 1118/7/3
f 1120/7/3 1113/7/3 1119/7/3
f 1122/7/3 1117/7/3 1112/7/3
f 1123/3/3 1118/3/3 1117/3/3
f 1124/3/3 1118/3/3 1123/3/3
f 1125/3/3 1120/3/3 1119/3/3
f 1126/3/3 1123/3/3 1117/3/3
f 1126/7/3 1122/7/3 1121/7/3
f 1126/7/3 1117/7/3 1122/7/3
f 1127/3/3 1123/3/3 1126/3/3
f 1128/7/3 1126/7/3 1121/7/3
f 1130/3/3 1120/3/3 1125/3/3
f 1131/7/3 1128/7/3 1121/7/3
f 1132/7/3 1128/7/3 1131/7/3
f 1133/3/3 1129/3/3 1128/3/3
f 1135/7/3 1128/7/3 1132/7/3
f 1135/3/3 1134/3/3 1133/3/3
f 1135/3/3 1133/3/3 1128/3/3
f 1136/3/3 1134/3/3 1135/3/3
f 1137/3/3 1120/3/3 1130/3/3
f 1138/7/3 1113/7/3 1120/7/3
f 1138/3/3 1120/3/3 1137/3/3
f 1142/7/3 1137/7/3 1136/7/3
f 1142/7/3 1136/7/3 1135/7/3
f 1142/7/3 1135/7/3 1132/7/3
f 1142/7/3 1138/7/3 1137/7/3
f 1143/7/3 1113/7/3 1138/7/3
f 1143/7/3 1138/7/3 1142/7/3
f 1147/2/3 1140/2/3 1139/2/3
f 1148/2/3 1140/2/3 1147/2/3
f 1149/1/3 1141/1/3 1140/1/3
f 1149/2/3 1140/2/3 1148/2/3
f 1150/2/3 1142/2/3 1141/2/3
f 1150/1/3 1141/1/3 1149/1/3
f 1151/2/3 1142/2/3 1150/2/3
f 1173/2/3 1144/2/3 1143/2/3
f 1174/2/3 1144/2/3 1173/2/3
f 1175/1/3 1145/1/3 1144/1/3
f 1175/2/3 1144/2/3 1174/2/3
f 1176/2/3 1146/2/3 1145/2/3
f 1176/1/3 1145/1/3 1175/1/3
f 1177/2/3 1146/2/3 1176/2/3
f 1178/1/3 1149/1/3 1148/1/3
f 1179/2/3 1150/2/3 1149/2/3
f 1179/1/3 1149/1/3 1178/1/3
f 1180/1/3 1151/1/3 1150/1/3
f 1180/2/3 1150/2/3 1179/2/3
f 1181/2/3 1152/2/3 1151/2/3
f 1181/1/3 1151/1/3 1180/1/3
f 1182/1/3 1153/1/3 1152/1/3
f 1182/2/3 1152/2/3 1181/2/3
f 1183/2/3 1154/2/3 1153/2/3
f 1183/1/3 1153/1/3 1182/1/3
f 1184/1/3 1155/1/3 1154/1/3
f 1184/2/3 1154/2/3 1183/2/3
f 1185/2/3 1156/2/3 1155/2/3
f 1185/1/3 1155/1/3 1184/1/3
f 1186/1/3 1157/1/3 1156/1/3
f 1186/2/3 1156/2/3 1185/2/3
f 1187/2/3 1158/2/3 1157/2/3
f 1187/1/3 1157/1/3 1186/1/3
f 1188/1/3 1159/1/3 1158/1/3
f 1188/2/3 1158/2/3 1187/2/3
f 1189/2/3 1160/2/3 1159/2/3
f 1189/1/3 1159/1/3 1188/1/3
f 1190/1/3 1161/1/3 1160/1/3
f 1190/2/3 1160/2/3 1189/2/3
f 1191/2/3 1162/2/3 1161/2/3
f 1191/1/3 1161/1/3 1190/1/3
f 1192/1/3 1163/1/3 1162/1/3
f 1192/2/3 1162/2/3 1191/2/3
f 1193/2/3 1164/2/3 1163/2/3
f 1193/1/3 1163/1/3 1192/1/3
f 1194/1/3 1165/1/3 1164/1/3
f 1194/2/3 1164/2/3 1193/2/3
f 1195/2/3 1166/2/3 1165/2/3
f 1195/1/3 1165/1/3 1194/1/3
f 1196/1/3 1167/1/3 1166/1/3
f 1196/2/3 1166/2/3 1195/2/3
f 1197/2/3 1168/2/3 1167/2/3
f 1197/1/3 1167/1/3 1196/1/3
f 1198/1/3 1169/1/3 1168/1/3
f 1198/2/3 1168/2/3 1197/2/3
f 1199/2/3 1170/2/3 1169/2/3
f 1199/1/3 1169/1/3 1198/1/3
f 1200/1/3 1171/1/3 1170/1/3
f 1200/2/3 1170/2/3 1199/2/3
f 1201/2/3 1172/2/3 1171/2/3
f 1201/1/3 1171/1/3 1200/1/3
f 1202/1/3 1173/1/3 1172/1/3
f 1202/2/3 1172/2/3 1201/2/3
f 1203/2/3 1174/2/3 1173/2/3
f 1203/1/3 1173/1/3 1202/1/3
f 1204/1/3 1175/1/3 1174/1/3
f 1204/2/3 1174/2/3 1203/2/3
f 1205/2/3 1176/2/3 1175/2/3
f 1205/1/3 1175/1/3 1204/1/3
f 1206/1/3 1177/1/3 1176/1/3
f 1206/2/3 1176/2/3 1205/2/3
f 1207/1/3 1177/1/3 1206/1/3
f 1208/2/3 1179/2/3 1178/2/3
f 1209/1/3 1180/1/3 1179/1/3
f 1209/2/3 1179/2/3 1208/2/3
f 1210/2/3 1181/2/3 1180/2/3
f 1210/1/3 1180/1/3 1209/1/3
f 1211/1/3 1182/1/3 1181/1/3
f 1211/2/3 1181/2/3 1210/2/3
f 1212/2/3 1183/2/3 1182/2/3
f 1212/1/3 1182/1/3 1211/1/3
f 1213/1/3 1184/1/3 1183/1/3
f 1213/2/3 1183/2/3 1212/2/3
f 1214/2/3 1185/2/3 1184/2/3
f 1214/1/3 1184/1/3 1213/1/3
f 1215/1/3 1186/1/3 1185/1/3
f 1215/2/3 1185/2/3 1214/2/3
f 1216/2/3 1187/2/3 1186/2/3
f 1216/1/3 1186/1/3 1215/1/3
f 1217/1/3 1188/1/3 1187/1/3
f 1217/2/3 1187/2/3 1216/2/3
f 1218/2/3 1189/2/3 1188/2/3
f 1218/1/3 1188/1/3 1217/1/3
f 1219/1/3 1190/1/3 1189/1/3
f 1219/2/3 1189/2/3 1218/2/3
f 1220/2/3 1191/2/3 1190/2/3
f 1220/1/3 1190/1/3 1219/1/3
f 1221/1/3 1192/1/3 1191/1/3
f 1221/2/3 1191/2/3 1220/2/3
f 1222/2/3 1193/2/3 1192/2/3
f 1222/1/3 1192/1/3 1221/1/3
f 1223/1/3 1194/1/3 1193/1/3
f 1223/2/3 1193/2/3 1222/2/3
f 1224/2/3 1195/2/3 1194/2/3
f 1224/1/3 1194/1/3 1223/1/3
f 1225/1/3 1196/1/3 1195/1/3
f 1225/2/3 1195/2/3 1224/2/3
f 1226/2/3 1197/2/3 1196/2/3
f 1226/1/3 1196/1/3 1225/1/3
f 1227/1/3 1198/1/3 1197/1/3
f 1227/2/3 1197/2/3 1226/2/3
f 1228/2/3 1199/2/3 1198/2/3
f 1228/1/3 1198/1/3 1227/1/3
f 1229/1/3 1200/1/3 1199/1/3
f 1229/2/3 1199/2/3 1228/2/3
f 1230/2/3 1201/2/3 1200/2/3
f 1230/1/3 1200/1/3 1229/1/3
f 1231/1/3 1202/1/3 1201/1/3
f 1231/2/3 1201/2/3 1230/2/3
f 1232/2/3 1203/2/3 1202/2/3
f 1232/1/3 1202/1/3 1231/1/3
f 1233/1/3 1204/1/3 1203/1/3
f 1233/2/3 1203/2/3 1232/2/3
f 1234/1/3 1204/1/3 1233/1/3
f 1262/3/3 1236/3/3 1235/3/3
f 1262/3/3 1237/3/3 1236/3/3
f 1262/3/3 1238/3/3 1237/3/3
f 1262/3/3 1239/3/3 1238/3/3
f 1262/3/3 1257/3/3 1256/3/3
f 1262/3/3 1256/3/3 1255/3/3
f 1262/3/3 1255/3/3 1254/3/3
f 1262/3/3 1254/3/3 1253/3/3
f 1262/3/3 1253/3/3 1252/3/3
f 1262/3/3 1252/3/3 1251/3/3
f 1262/3/3 1251/3/3 1250/3/3
f 1262/3/3 1250/3/3 1249/3/3
f 1262/3/3 1249/3/3 1248/3/3
f 1262/3/3 1248/3/3 1247/3/3
f 1262/3/3 1247/3/3 1246/3/3
f 1262/3/3 1246/3/3 1245/3/3
f 1262/3/3 1245/3/3 1244/3/3
f 1262/3/3 1244/3/3 1243/3/3
f 1262/3/3 1243/3/3 1242/3/3
f 1262/3/3 1242/3/3 1241/3/3
f 1262/3/3 1241/3/3 1240/3/3
f 1262/3/3 1240/3/3 1239/3/3
f 1263/3/3 1257/3/3 1262/3/3
f 1267/3/3 1261/3/3 1260/3/3
f 1267/3/3 1260/3/3 1259/3/3
f 1267/3/3 1262/3/3 1261/3/3
f 1268/3/3 1262/3/3 1267/3/3
f 1269/3/3 1267/3/3 1259/3/3
f 1271/1/3 1259/1/3 1258/1/3
f 1272/3/3 1270/3/3 1269/3/3
f 1272/1/3 1259/1/3 1271/1/3
f 1272/3/3 1269/3/3 1259/3/3
f 1273/3/3 1270/3/3 1272/3/3
f 1274/3/3 1270/3/3 1273/3/3
f 1275/3/3 1270/3/3 1274/3/3
f 1276/3/3 1265/3/3 1264/3/3
f 1276/3/3 1264/3/3 1263/3/3
f 1277/3/3 1265/3/3 1276/3/3
f 1278/1/3 1266/1/3 1265/1/3
f 1278/3/3 1265/3/3 1277/3/3
f 1279/1/3 1266/1/3 1278/1/3
f 1280/3/3 1276/3/3 1275/3/3
f 1281/3/3 1276/3/3 1280/3/3
f 1282/3/3 1276/3/3 1281/3/3
f 1283/3/3 1276/3/3 1282/3/3
f 1284/3/3 1276/3/3 1283/3/3
f 1285/3/3 1276/3/3 1284/3/3
f 1286/3/3 1276/3/3 1285/3/3
f 1287/3/3 1276/3/3 1286/3/3
f 1288/3/3 1276/3/3 1287/3/3
f 1289/3/3 1276/3/3 1288/3/3
f 1290/3/3 1276/3/3 1289/3/3
f 1291/3/3 1276/3/3 1290/3/3
f 1292/3/3 1276/3/3 1291/3/3
f 1293/3/3 1276/3/3 1292/3/3
f 1294/3/3 1276/3/3 1293/3/3
f 1295/3/3 1276/3/3 1294/3/3
f 1296/3/3 1276/3/3 1295/3/3
f 1297/3/3 1276/3/3 1296/3/3
f 1298/3/3 1276/3/3 1297/3/3
f 1299/3/3 1276/3/3 1298/3/3
f 1300/3/3 1276/3/3 1299/3/3
f 1301/3/3 1276/3/3 1300/3/3
f 1302/3/3 1276/3/3 1301/3/3
f 1303/8/4 1304/8/4 1305/8/4
f 1305/8/4 1304/8/4 1306/8/4
f 1307/8/4 1308/8/4 1309/8/4
f 1309/8/4 1308/8/4 1310/8/4
f 1311/8/4 1312/8/4 1313/8/4
f 1313/8/4 1312/8/4 1314/8/4
f 1315/8/4 1316/8/4 1317/8/4
f 1317/8/4 1316/8/4 1318/8/4
f 1319/7/4 1320/7/4 1321/7/4
f 1321/7/4 1320/7/4 1322/7/4
f 1323/7/4 1324/7/4 1327/7/4
f 1327/7/4 1324/7/4 1328/7/4
f 1325/7/4 1326/7/4 1329/7/4
f 1329/7/4 1326/7/4 1330/7/4
f 1331/7/4 1332/7/4 1335/7/4
f 1335/7/4 1332/7/4 1336/7/4
f 1333/7/4 1334/7/4 1337/7/4
f 1337/7/4 1334/7/4 1338/7/4
f 1341/7/4 1342/7/4 1343/7/4
f 1343/7/4 1342/7/4 1344/7/4
f 1339/6/4 1340/6/4 1345/6/4
f 1345/6/4 1340/6/4 1346/6/4
f 1347/6/4 1348/6/4 1349/6/4
f 1349/6/4 1348/6/4 1350/6/4
f 1351/6/4 1352/6/4 1357/6/4
f 1357/6/4 1352/6/4 1358/6/4
f 1353/7/4 1354/7/4 1359/7/4
f 1359/7/4 1354/7/4 1360/7/4
f 1355/6/4 1356/6/4 1361/6/4
f 1361/6/4 1356/6/4 1362/6/4
f 1365/6/4 1366/6/4 1371/6/4
f 1371/6/4 1366/6/4 1372/6/4
f 1367/7/4 1368/7/4 1373/7/4
f 1373/7/4 1368/7/4 1374/7/4
f 1369/7/4 1370/7/4 1375/7/4
f 1375/7/4 1370/7/4 1376/7/4
f 1363/7/4 1364/7/4 1378/7/4
f 1378/7/4 1364/7/4 1379/7/4
f 1379/7/4 1364/7/4 1380/7/4
f 1377/7/4 1378/7/4 1381/7/4
f 1378/7/4 1379/7/4 1381/7/4
f 1381/7/4 1379/7/4 1382/7/4
f 1383/7/4 1384/7/4 1387/7/4
f 1387/7/4 1384/7/4 1388/7/4
f 1388/7/4 1384/7/4 1389/7/4
f 1385/7/4 1386/7/4 1391/7/4
f 1391/7/4 1386/7/4 1392/7/4
f 1393/6/4 1394/6/4 1397/6/4
f 1397/6/4 1394/6/4 1398/6/4
f 1395/7/4 1396/7/4 1399/7/4
f 1399/7/4 1396/7/4 1400/7/4
f 1388/7/4 1389/7/4 1401/7/4
f 1389/7/4 1390/7/4 1401/7/4
f 1401/7/4 1390/7/4 1402/7/4
f 1403/6/4 1404/6/4 1405/6/4
f 1405/6/4 1404/6/4 1406/6/4
f 1407/6/4 1408/6/4 1409/6/4
f 1409/6/4 1408/6/4 1410/6/4
f 1411/7/4 1412/7/4 1413/7/4
f 1413/7/4 1412/7/4 1414/7/4
f 1415/7/4 1416/7/4 1417/7/4
f 1417/7/4 1416/7/4 1418/7/4
f 1419/6/4 1420/6/4 1421/6/4
f 1421/6/4 1420/6/4 1422/6/4
f 1423/6/4 1424/6/4 1425/6/4
f 1425/6/4 1424/6/4 1426/6/4
f 1427/2/4 1428/2/4 1429/2/4
f 1429/2/4 1428/2/4 1430/2/4
f 1431/2/4 1432/2/4 1433/2/4
f 1433/2/4 1432/2/4 1434/2/4
f 1435/2/4 1436/2/4 1438/2/4
f 1438/2/4 1436/2/4 1439/2/4
f 1437/3/4 1438/3/4 1443/3/4
f 1438/3/4 1439/3/4 1443/3/4
f 1439/3/4 1440/3/4 1443/3/4
f 1442/2/4 1443/2/4 1444/2/4
f 1443/3/4 1440/3/4 1445/3/4
f 1444/2/4 1443/2/4 1445/2/4
f 1440/2/4 1441/2/4 1446/2/4
f 1445/3/4 1440/3/4 1446/3/4
f 1446/2/4 1441/2/4 1447/2/4
f 1445/3/4 1446/3/4 1448/3/4
f 1448/3/4 1446/3/4 1449/3/4
f 1445/3/4 1448/3/4 1450/3/4
f 1448/4/4 1449/4/4 1450/4/4
f 1449/3/4 1446/3/4 1451/3/4
f 1450/4/4 1449/4/4 1451/4/4
f 1444/1/4 1445/1/4 1452/1/4
f 1445/3/4 1450/3/4 1453/3/4
f 1452/1/4 1445/1/4 1453/1/4
f 1450/3/4 1451/3/4 1453/3/4
f 1451/3/4 1446/3/4 1454/3/4
f 1453/3/4 1451/3/4 1454/3/4
f 1446/1/4 1447/1/4 1454/1/4
f 1454/1/4 1447/1/4 1455/1/4
f 1452/2/4 1453/2/4 1456/2/4
f 1453/3/4 1454/3/4 1457/3/4
f 1456/2/4 1453/2/4 1457/2/4
f 1457/3/4 1454/3/4 1458/3/4
f 1458/3/4 1454/3/4 1459/3/4
f 1459/3/4 1454/3/4 1460/3/4
f 1454/2/4 1455/2/4 1461/2/4
f 1460/3/4 1454/3/4 1461/3/4
f 1461/2/4 1455/2/4 1462/2/4
f 1459/2/4 1460/2/4 1463/2/4
f 1463/2/4 1460/2/4 1464/2/4
f 1469/2/5 1466/2/5 1465/2/5
f 1470/2/5 1468/2/5 1467/2/5
f 1471/2/5 1469/2/5 1465/2/5
f 1472/1/5 1470/1/5 1469/1/5
f 1472/2/5 1469/2/5 1471/2/5
f 1473/2/5 1468/2/5 1470/2/5
f 1473/1/5 1470/1/5 1472/1/5
f 1474/2/5 1468/2/5 1473/2/5
f 1481/2/5 1476/2/5 1475/2/5
f 1482/1/5 1477/1/5 1476/1/5
f 1482/2/5 1476/2/5 1481/2/5
f 1483/1/5 1477/1/5 1482/1/5
f 1484/1/5 1479/1/5 1478/1/5
f 1485/2/5 1480/2/5 1479/2/5
f 1485/1/5 1479/1/5 1484/1/5
f 1486/2/5 1480/2/5 1485/2/5
f 1487/3/5 1483/3/5 1482/3/5
f 1488/3/5 1483/3/5 1487/3/5
f 1489/3/5 1485/3/5 1484/3/5
f 1490/3/5 1485/3/5 1489/3/5
f 1495/2/5 1492/2/5 1491/2/5
f 1496/2/5 1492/2/5 1495/2/5
f 1497/2/5 1494/2/5 1493/2/5
f 1498/2/5 1494/2/5 1497/2/5
f 1501/7/5 1500/7/5 1499/7/5
f 1502/7/5 1500/7/5 1501/7/5
f 1507/7/5 1504/7/5 1503/7/5
f 1508/7/5 1504/7/5 1507/7/5
f 1509/7/5 1506/7/5 1505/7/5
f 1510/7/5 1506/7/5 1509/7/5
f 1513/7/5 1512/7/5 1511/7/5
f 1514/7/5 1512/7/5 1513/7/5
f 1517/6/5 1516/6/5 1515/6/5
f 1518/6/5 1516/6/5 1517/6/5
f 1523/7/5 1520/7/5 1519/7/5
f 1523/7/5 1522/7/5 1521/7/5
f 1523/7/5 1521/7/5 1520/7/5
f 1524/7/5 1522/7/5 1523/7/5
f 1525/7/5 1523/7/5 1519/7/5
f 1526/7/5 1523/7/5 1525/7/5
f 1527/7/5 1522/7/5 1524/7/5
f 1528/7/5 1522/7/5 1527/7/5
f 1533/8/5 1530/8/5 1529/8/5
f 1534/8/5 1532/8/5 1531/8/5
f 1535/8/5 1533/8/5 1529/8/5
f 1536/8/5 1533/8/5 1535/8/5
f 1537/8/5 1532/8/5 1534/8/5
f 1538/8/5 1532/8/5 1537/8/5
f 1540/8/5 1533/8/5 1536/8/5
f 1541/7/5 1534/7/5 1533/7/5
f 1541/8/5 1533/8/5 1540/8/5
f 1542/7/5 1534/7/5 1541/7/5
f 1543/7/5 1534/7/5 1542/7/5
f 1544/8/5 1537/8/5 1534/8/5
f 1544/7/5 1534/7/5 1543/7/5
f 1545/8/5 1537/8/5 1544/8/5
f 1547/6/5 1540/6/5 1539/6/5
f 1548/8/5 1541/8/5 1540/8/5
f 1548/6/5 1540/6/5 1547/6/5
f 1549/8/5 1541/8/5 1548/8/5
f 1550/5/5 1543/5/5 1542/5/5
f 1551/5/5 1543/5/5 1550/5/5
f 1552/8/5 1545/8/5 1544/8/5
f 1553/6/5 1546/6/5 1545/6/5
f 1553/8/5 1545/8/5 1552/8/5
f 1554/6/5 1546/6/5 1553/6/5
f 1559/7/5 1556/7/5 1555/7/5
f 1560/7/5 1556/7/5 1559/7/5
f 1561/7/5 1558/7/5 1557/7/5
f 1562/7/5 1558/7/5 1561/7/5
f 1568/7/5 1564/7/5 1563/7/5
f 1571/7/5 1566/7/5 1565/7/5
f 1573/7/5 1568/7/5 1567/7/5
f 1574/7/5 1564/7/5 1568/7/5
f 1574/7/5 1568/7/5 1573/7/5
f 1575/7/5 1564/7/5 1574/7/5
f 1576/7/5 1570/7/5 1569/7/5
f 1577/7/5 1570/7/5 1576/7/5
f 1578/7/5 1572/7/5 1571/7/5
f 1578/7/5 1571/7/5 1565/7/5
f 1579/7/5 1572/7/5 1578/7/5
f 1580/7/5 1572/7/5 1579/7/5
f 1581/6/5 1575/6/5 1574/6/5
f 1581/6/5 1577/6/5 1576/6/5
f 1581/6/5 1579/6/5 1578/6/5
f 1581/6/5 1578/6/5 1577/6/5
f 1581/6/5 1576/6/5 1575/6/5
f 1582/6/5 1579/6/5 1581/6/5
f 1587/6/5 1584/6/5 1583/6/5
f 1588/6/5 1584/6/5 1587/6/5
f 1589/6/5 1586/6/5 1585/6/5
f 1590/6/5 1586/6/5 1589/6/5
f 1595/7/5 1592/7/5 1591/7/5
f 1596/7/5 1592/7/5 1595/7/5
f 1597/7/5 1594/7/5 1593/7/5
f 1598/7/5 1594/7/5 1597/7/5
f 1599/7/5 1595/7/5 1591/7/5
f 1600/7/5 1594/7/5 1598/7/5
f 1601/7/5 1599/7/5 1591/7/5
f 1602/7/5 1599/7/5 1601/7/5
f 1603/7/5 1594/7/5 1600/7/5
f 1604/7/5 1594/7/5 1603/7/5
f 1609/7/5 1606/7/5 1605/7/5
f 1610/7/5 1606/7/5 1609/7/5
f 1611/7/5 1608/7/5 1607/7/5
f 1612/7/5 1608/7/5 1611/7/5
f 1617/7/5 1614/7/5 1613/7/5
f 1618/7/5 1614/7/5 1617/7/5
f 1619/7/5 1616/7/5 1615/7/5
f 1620/7/5 1616/7/5 1619/7/5
f 1623/7/5 1622/7/5 1621/7/5
f 1624/7/5 1622/7/5 1623/7/5
f 1625/7/5 1623/7/5 1621/7/5
f 1626/7/5 1623/7/5 1625/7/5
f 1627/7/5 1622/7/5 1624/7/5
f 1628/7/5 1622/7/5 1627/7/5
f 1633/7/5 1630/7/5 1629/7/5
f 1634/7/5 1630/7/5 1633/7/5
f 1635/7/5 1632/7/5 1631/7/5
f 1636/7/5 1632/7/5 1635/7/5
f 1641/7/5 1638/7/5 1637/7/5
f 1642/7/5 1638/7/5 1641/7/5
f 1643/7/5 1640/7/5 1639/7/5
f 1644/7/5 1640/7/5 1643/7/5
f 1649/6/5 1646/6/5 1645/6/5
f 1650/6/5 1646/6/5 1649/6/5
f 1651/6/5 1648/6/5 1647/6/5
f 1652/6/5 1648/6/5 1651/6/5
f 1657/7/5 1654/7/5 1653/7/5
f 1658/7/5 1654/7/5 1657/7/5
f 1659/7/5 1656/7/5 1655/7/5
f 1660/7/5 1656/7/5 1659/7/5
f 1665/6/5 1662/6/5 1661/6/5
f 1666/6/5 1662/6/5 1665/6/5
f 1667/6/5 1664/6/5 1663/6/5
f 1668/6/5 1664/6/5 1667/6/5
f 1673/7/5 1670/7/5 1669/7/5
f 1674/7/5 1670/7/5 1673/7/5
f 1675/7/5 1672/7/5 1671/7/5
f 1676/7/5 1672/7/5 1675/7/5
f 1681/7/5 1678/7/5 1677/7/5
f 1682/7/5 1678/7/5 1681/7/5
f 1683/7/5 1680/7/5 1679/7/5
f 1684/7/5 1680/7/5 1683/7/5
f 1685/7/5 1681/7/5 1677/7/5
f 1686/7/5 1680/7/5 1684/7/5
f 1687/7/5 1685/7/5 1677/7/5
f 1688/7/5 1680/7/5 1686/7/5
f 1689/7/5 1687/7/5 1677/7/5
f 1690/7/5 1687/7/5 1689/7/5
f 1691/7/5 1680/7/5 1688/7/5
f 1692/7/5 1680/7/5 1691/7/5
f 1701/7/5 1696/7/5 1695/7/5
f 1702/7/5 1696/7/5 1701/7/5
f 1703/7/5 1698/7/5 1697/7/5
f 1704/7/5 1698/7/5 1703/7/5
f 1705/7/5 1694/7/5 1693/7/5
f 1706/7/5 1694/7/5 1705/7/5
f 1707/7/5 1700/7/5 1699/7/5
f 1708/7/5 1700/7/5 1707/7/5
f 1713/7/5 1710/7/5 1709/7/5
f 1714/7/5 1710/7/5 1713/7/5
f 1715/7/5 1712/7/5 1711/7/5
f 1716/7/5 1712/7/5 1715/7/5
f 1717/7/5 1713/7/5 1709/7/5
f 1720/7/5 1712/7/5 1716/7/5
f 1721/7/5 1718/7/5 1717/7/5
f 1721/7/5 1717/7/5 1709/7/5
f 1722/7/5 1718/7/5 1721/7/5
f 1723/7/5 1720/7/5 1719/7/5
f 1724/7/5 1712/7/5 1720/7/5
f 1724/7/5 1720/7/5 1723/7/5
f 1729/2/5 1726/2/5 1725/2/5
f 1730/2/5 1726/2/5 1729/2/5
f 1731/2/5 1728/2/5 1727/2/5
f 1732/2/5 1728/2/5 1731/2/5
f 1733/2/6 1734/2/6 1737/2/6
f 1737/2/6 1734/2/6 1738/2/6
f 1735/2/6 1736/2/6 1739/2/6
f 1739/2/6 1736/2/6 1740/2/6
f 1741/6/6 1742/6/6 1747/6/6
f 1743/6/6 1744/6/6 1748/6/6
f 1748/6/6 1744/6/6 1749/6/6
f 1745/6/6 1746/6/6 1750/6/6
f 1741/6/6 1747/6/6 1751/6/6
f 1747/6/6 1748/6/6 1751/6/6
f 1748/5/6 1749/5/6 1752/5/6
f 1751/6/6 1748/6/6 1752/6/6
f 1749/6/6 1750/6/6 1753/6/6
f 1752/5/6 1749/5/6 1753/5/6
f 1750/6/6 1746/6/6 1754/6/6
f 1753/6/6 1750/6/6 1754/6/6
f 1741/6/6 1751/6/6 1755/6/6
f 1755/6/6 1751/6/6 1756/6/6
f 1752/5/6 1753/5/6 1757/5/6
f 1757/5/6 1753/5/6 1758/5/6
f 1754/6/6 1746/6/6 1759/6/6
f 1759/6/6 1746/6/6 1760/6/6
f 1761/7/6 1762/7/6 1765/7/6
f 1765/7/6 1762/7/6 1766/7/6
f 1763/7/6 1764/7/6 1767/7/6
f 1767/7/6 1764/7/6 1768/7/6
f 1769/7/6 1770/7/6 1773/7/6
f 1773/7/6 1770/7/6 1774/7/6
f 1771/7/6 1772/7/6 1775/7/6
f 1775/7/6 1772/7/6 1776/7/6
f 1777/8/6 1778/8/6 1781/8/6
f 1781/8/6 1778/8/6 1782/8/6
f 1779/8/6 1780/8/6 1783/8/6
f 1783/8/6 1780/8/6 1784/8/6
f 1785/7/6 1786/7/6 1789/7/6
f 1787/7/6 1788/7/6 1790/7/6
f 1789/7/6 1786/7/6 1791/7/6
f 1791/7/6 1786/7/6 1792/7/6
f 1787/7/6 1790/7/6 1793/7/6
f 1793/7/6 1790/7/6 1794/7/6
f 1795/7/6 1796/7/6 1799/7/6
f 1799/7/6 1796/7/6 1800/7/6
f 1800/7/6 1796/7/6 1801/7/6
f 1797/7/6 1798/7/6 1802/7/6
f 1802/7/6 1798/7/6 1803/7/6
f 1803/7/6 1798/7/6 1804/7/6
f 1805/7/6 1806/7/6 1809/7/6
f 1809/7/6 1806/7/6 1810/7/6
f 1807/7/6 1808/7/6 1811/7/6
f 1811/7/6 1808/7/6 1812/7/6
f 1813/6/6 1814/6/6 1817/6/6
f 1817/6/6 1814/6/6 1818/6/6
f 1815/6/6 1816/6/6 1819/6/6
f 1819/6/6 1816/6/6 1820/6/6
f 1821/6/6 1822/6/6 1825/6/6
f 1825/6/6 1822/6/6 1826/6/6
f 1823/6/6 1824/6/6 1827/6/6
f 1827/6/6 1824/6/6 1828/6/6
f 1829/6/6 1830/6/6 1833/6/6
f 1833/6/6 1830/6/6 1834/6/6
f 1831/6/6 1832/6/6 1835/6/6
f 1835/6/6 1832/6/6 1836/6/6
f 1837/7/6 1838/7/6 1839/7/6
f 1839/7/6 1838/7/6 1840/7/6
f 1840/7/6 1838/7/6 1841/7/6
f 1841/7/6 1838/7/6 1842/7/6
f 1840/7/6 1841/7/6 1843/7/6
f 1843/7/6 1841/7/6 1844/7/6
f 1845/7/6 1846/7/6 1849/7/6
f 1849/7/6 1846/7/6 1850/7/6
f 1847/7/6 1848/7/6 1851/7/6
f 1851/7/6 1848/7/6 1852/7/6
f 1853/7/6 1854/7/6 1859/7/6
f 1859/7/6 1854/7/6 1860/7/6
f 1855/7/6 1856/7/6 1861/7/6
f 1861/7/6 1856/7/6 1862/7/6
f 1857/7/6 1858/7/6 1865/7/6
f 1858/6/6 1859/6/6 1866/6/6
f 1865/7/6 1858/7/6 1866/7/6
f 1866/6/6 1859/6/6 1867/6/6
f 1860/6/6 1861/6/6 1868/6/6
f 1868/6/6 1861/6/6 1869/6/6
f 1862/6/6 1863/6/6 1870/6/6
f 1863/7/6 1864/7/6 1871/7/6
f 1870/6/6 1863/6/6 1871/6/6
f 1871/7/6 1864/7/6 1872/7/6
f 1873/7/6 1874/7/6 1880/7/6
f 1880/7/6 1874/7/6 1881/7/6
f 1875/7/6 1876/7/6 1882/7/6
f 1882/7/6 1876/7/6 1883/7/6
f 1880/7/6 1881/7/6 1887/7/6
f 1879/7/6 1880/7/6 1887/7/6
f 1883/7/6 1884/7/6 1887/7/6
f 1882/7/6 1883/7/6 1887/7/6
f 1881/7/6 1882/7/6 1887/7/6
f 1887/7/6 1884/7/6 1888/7/6
f 1888/7/6 1884/7/6 1889/7/6
f 1889/7/6 1884/7/6 1890/7/6
f 1877/7/6 1878/7/6 1891/7/6
f 1885/7/6 1886/7/6 1892/7/6
f 1877/7/6 1891/7/6 1893/7/6
f 1893/7/6 1891/7/6 1894/7/6
f 1892/7/6 1886/7/6 1895/7/6
f 1895/7/6 1886/7/6 1896/7/6
f 1897/7/6 1898/7/6 1901/7/6
f 1901/7/6 1898/7/6 1902/7/6
f 1899/7/6 1900/7/6 1905/7/6
f 1905/7/6 1900/7/6 1906/7/6
f 1897/7/6 1901/7/6 1907/7/6
f 1901/6/6 1902/6/6 1908/6/6
f 1907/7/6 1901/7/6 1908/7/6
f 1902/7/6 1903/7/6 1909/7/6
f 1908/6/6 1902/6/6 1909/6/6
f 1903/6/6 1904/6/6 1910/6/6
f 1909/7/6 1903/7/6 1910/7/6
f 1904/7/6 1905/7/6 1911/7/6
f 1910/6/6 1904/6/6 1911/6/6
f 1905/6/6 1906/6/6 1912/6/6
f 1911/7/6 1905/7/6 1912/7/6
f 1906/7/6 1900/7/6 1913/7/6
f 1912/6/6 1906/6/6 1913/6/6
f 1913/7/6 1900/7/6 1914/7/6
f 1911/6/6 1912/6/6 1917/6/6
f 1910/6/6 1911/6/6 1917/6/6
f 1909/6/6 1910/6/6 1917/6/6
f 1917/6/6 1912/6/6 1918/6/6
f 1915/7/6 1916/7/6 1921/7/6
f 1917/6/6 1918/6/6 1922/6/6
f 1922/6/6 1918/6/6 1923/6/6
f 1919/7/6 1920/7/6 1924/7/6
f 1915/7/6 1921/7/6 1925/7/6
f 1923/6/6 1924/6/6 1926/6/6
f 1925/7/6 1921/7/6 1926/7/6
f 1922/6/6 1923/6/6 1926/6/6
f 1921/6/6 1922/6/6 1926/6/6
f 1924/7/6 1920/7/6 1927/7/6
f 1926/6/6 1924/6/6 1927/6/6
f 1927/7/6 1920/7/6 1928/7/6
f 1929/7/6 1930/7/6 1933/7/6
f 1933/7/6 1930/7/6 1934/7/6
f 1931/7/6 1932/7/6 1935/7/6
f 1935/7/6 1932/7/6 1936/7/6
f 1937/7/6 1938/7/6 1939/7/6
f 1939/7/6 1938/7/6 1940/7/6
f 1941/7/6 1942/7/6 1945/7/6
f 1945/7/6 1942/7/6 1946/7/6
f 1943/7/6 1944/7/6 1947/7/6
f 1947/7/6 1944/7/6 1948/7/6
f 1945/6/6 1946/6/6 1949/6/6
f 1941/7/6 1945/7/6 1949/7/6
f 1949/6/6 1946/6/6 1950/6/6
f 1947/6/6 1948/6/6 1951/6/6
f 1948/7/6 1944/7/6 1952/7/6
f 1951/6/6 1948/6/6 1952/6/6
f 1941/7/6 1949/7/6 1953/7/6
f 1953/7/6 1949/7/6 1954/7/6
f 1952/7/6 1944/7/6 1955/7/6
f 1955/7/6 1944/7/6 1956/7/6
f 1957/1/6 1958/1/6 1961/1/6
f 1961/1/6 1958/1/6 1962/1/6
f 1959/1/6 1960/1/6 1963/1/6
f 1963/1/6 1960/1/6 1964/1/6
f 1961/2/6 1962/2/6 1965/2/6
f 1965/2/6 1962/2/6 1966/2/6
f 1963/2/6 1964/2/6 1967/2/6
f 1967/2/6 1964/2/6 1968/2/6
f 1969/1/6 1970/1/6 1975/1/6
f 1970/2/6 1971/2/6 1976/2/6
f 1975/1/6 1970/1/6 1976/1/6
f 1976/2/6 1971/2/6 1977/2/6
f 1972/2/6 1973/2/6 1978/2/6
f 1973/1/6 1974/1/6 1979/1/6
f 1978/2/6 1973/2/6 1979/2/6
f 1979/1/6 1974/1/6 1980/1/6
f 1976/2/6 1977/2/6 1981/2/6
f 1975/2/6 1976/2/6 1981/2/6
f 1977/1/6 1978/1/6 1982/1/6
f 1981/2/6 1977/2/6 1982/2/6
f 1979/2/6 1980/2/6 1983/2/6
f 1982/1/6 1978/1/6 1983/1/6
f 1978/2/6 1979/2/6 1983/2/6
f 1983/2/6 1980/2/6 1984/2/6
