# MagicaVoxel @ Ephtracy

# group
o 

# material
mtllib vallaPiedraRecta.mtl
usemtl palette

# normals
vn -1 0 0
vn 1 0 0
vn 0 0 1
vn 0 0 -1
vn 0 -1 0
vn 0 1 0

# texcoords
vt 0.982422 0.5
vt 0.986328 0.5
vt 0.990234 0.5

# verts
v -1.3 0 0.1
v -1.3 0 0
v -1.3 0 -0.4
v -1.3 0 -0.5
v -1.3 0.1 0.1
v -1.3 0.1 0
v -1.3 0.1 -0.1
v -1.3 0.1 -0.3
v -1.3 0.1 -0.4
v -1.3 0.1 -0.5
v -1.3 0.2 0
v -1.3 0.2 -0.1
v -1.3 0.2 -0.2
v -1.3 0.2 -0.3
v -1.3 0.2 -0.4
v -1.3 0.3 -0.2
v -1.3 0.3 -0.3
v -1.3 0.4 -0.1
v -1.3 0.4 -0.2
v -1.3 0.6 -0.1
v -1.3 0.6 -0.2
v -1.3 0.6 -0.3
v -1.3 0.7 -0.2
v -1.3 0.7 -0.3
v -1.3 0.9 -0.2
v -1.3 0.9 -0.3
v -1.3 1 -0.2
v -1.3 1 -0.3
v -1.3 1.2 0
v -1.3 1.2 -0.1
v -1.3 1.2 -0.3
v -1.3 1.2 -0.4
v -1.3 1.3 0
v -1.3 1.3 -0.1
v -1.3 1.3 -0.2
v -1.3 1.3 -0.3
v -1.3 1.3 -0.4
v -1.3 1.4 -0.1
v -1.3 1.4 -0.2
v -1.3 1.4 -0.3
v -0.8 0 0.1
v -0.8 0 0
v -0.8 0 -0.4
v -0.8 0 -0.5
v -0.8 0.1 0.1
v -0.8 0.1 0
v -0.8 0.1 -0.1
v -0.8 0.1 -0.3
v -0.8 0.1 -0.4
v -0.8 0.1 -0.5
v -0.8 0.2 0
v -0.8 0.2 -0.1
v -0.8 0.2 -0.2
v -0.8 0.2 -0.3
v -0.8 0.2 -0.4
v -0.8 0.3 -0.1
v -0.8 0.3 -0.2
v -0.8 0.4 -0.2
v -0.8 0.4 -0.3
v -0.8 0.5 -0.1
v -0.8 0.5 -0.3
v -0.8 0.6 -0.2
v -0.8 0.6 -0.3
v -0.8 0.7 -0.2
v -0.8 0.7 -0.3
v -0.8 0.8 -0.2
v -0.8 0.8 -0.3
v -0.8 0.9 -0.1
v -0.8 0.9 -0.2
v -0.8 0.9 -0.3
v -0.8 1.1 -0.1
v -0.8 1.1 -0.2
v -0.8 1.2 -0.1
v -0.8 1.2 -0.3
v -0.3 0 0.1
v -0.3 0 0
v -0.3 0 -0.4
v -0.3 0 -0.5
v -0.3 0.1 0.1
v -0.3 0.1 0
v -0.3 0.1 -0.1
v -0.3 0.1 -0.3
v -0.3 0.1 -0.4
v -0.3 0.1 -0.5
v -0.3 0.2 0
v -0.3 0.2 -0.1
v -0.3 0.2 -0.3
v -0.3 0.2 -0.4
v -0.3 0.3 -0.1
v -0.3 0.3 -0.3
v -0.3 0.4 -0.2
v -0.3 0.4 -0.3
v -0.3 0.6 -0.1
v -0.3 0.6 -0.2
v -0.3 0.7 -0.2
v -0.3 0.7 -0.3
v -0.3 0.9 -0.2
v -0.3 0.9 -0.3
v -0.3 1 -0.1
v -0.3 1 -0.2
v -0.3 1.1 -0.1
v -0.3 1.1 -0.2
v -0.3 1.2 -0.1
v -0.3 1.2 -0.3
v 0.2 0 0.1
v 0.2 0 0
v 0.2 0 -0.4
v 0.2 0 -0.5
v 0.2 0.1 0.1
v 0.2 0.1 0
v 0.2 0.1 -0.1
v 0.2 0.1 -0.3
v 0.2 0.1 -0.4
v 0.2 0.1 -0.5
v 0.2 0.2 0
v 0.2 0.2 -0.1
v 0.2 0.2 -0.2
v 0.2 0.2 -0.3
v 0.2 0.2 -0.4
v 0.2 0.3 -0.2
v 0.2 0.3 -0.3
v 0.2 0.4 -0.1
v 0.2 0.4 -0.3
v 0.2 0.5 -0.2
v 0.2 0.5 -0.3
v 0.2 0.7 -0.1
v 0.2 0.7 -0.2
v 0.2 0.7 -0.3
v 0.2 0.8 -0.2
v 0.2 0.8 -0.3
v 0.2 0.9 -0.1
v 0.2 0.9 -0.2
v 0.2 1 -0.1
v 0.2 1 -0.2
v 0.2 1.2 -0.1
v 0.2 1.2 -0.3
v 0.7 0 0.1
v 0.7 0 0
v 0.7 0 -0.4
v 0.7 0 -0.5
v 0.7 0.1 0.1
v 0.7 0.1 0
v 0.7 0.1 -0.1
v 0.7 0.1 -0.3
v 0.7 0.1 -0.4
v 0.7 0.1 -0.5
v 0.7 0.2 0
v 0.7 0.2 -0.1
v 0.7 0.2 -0.2
v 0.7 0.2 -0.3
v 0.7 0.2 -0.4
v 0.7 0.3 -0.2
v 0.7 0.3 -0.3
v 0.7 0.4 -0.2
v 0.7 0.4 -0.3
v 0.7 0.5 -0.1
v 0.7 0.5 -0.2
v 0.7 0.6 -0.1
v 0.7 0.6 -0.2
v 0.7 0.7 -0.1
v 0.7 0.7 -0.2
v 0.7 0.8 -0.1
v 0.7 0.8 -0.2
v 0.7 0.9 -0.2
v 0.7 0.9 -0.3
v 0.7 1 -0.2
v 0.7 1 -0.3
v 0.7 1.1 -0.1
v 0.7 1.1 -0.3
v 0.7 1.2 -0.1
v 0.7 1.2 -0.3
v 1.2 0 -0.4
v 1.2 0 -0.5
v 1.2 0.1 0
v 1.2 0.1 -0.1
v 1.2 0.1 -0.3
v 1.2 0.1 -0.4
v 1.2 0.1 -0.5
v 1.2 0.2 0
v 1.2 0.2 -0.1
v 1.2 0.2 -0.2
v 1.2 0.2 -0.3
v 1.2 0.2 -0.4
v 1.2 0.3 -0.1
v 1.2 0.3 -0.3
v 1.2 0.4 -0.2
v 1.2 0.4 -0.3
v 1.2 0.5 -0.1
v 1.2 0.5 -0.2
v 1.2 0.7 -0.2
v 1.2 0.7 -0.3
v 1.2 0.8 -0.1
v 1.2 0.8 -0.2
v 1.2 0.8 -0.3
v 1.2 0.9 -0.1
v 1.2 0.9 -0.2
v 1.2 1.1 -0.1
v 1.2 1.1 -0.2
v 1.2 1.2 -0.1
v 1.2 1.2 -0.2
v 1.2 1.2 -0.3
v 1.3 0 0.1
v 1.3 0 0
v 1.3 0.1 0.1
v 1.3 0.1 0
v -1.1 0 0.1
v -1.1 0 0
v -1.1 0 -0.4
v -1.1 0 -0.5
v -1.1 0.1 0.1
v -1.1 0.1 0
v -1.1 0.1 -0.1
v -1.1 0.1 -0.3
v -1.1 0.1 -0.4
v -1.1 0.1 -0.5
v -1.1 0.2 0
v -1.1 0.2 -0.1
v -1.1 0.2 -0.2
v -1.1 0.2 -0.3
v -1.1 0.2 -0.4
v -1.1 0.3 -0.1
v -1.1 0.3 -0.3
v -1.1 0.4 -0.1
v -1.1 0.4 -0.3
v -1.1 0.6 -0.1
v -1.1 0.6 -0.2
v -1.1 0.7 -0.1
v -1.1 0.7 -0.2
v -1.1 0.8 -0.1
v -1.1 0.8 -0.3
v -1.1 0.9 -0.2
v -1.1 0.9 -0.3
v -1.1 1.1 -0.1
v -1.1 1.1 -0.2
v -1.1 1.1 -0.3
v -1.1 1.2 -0.1
v -1.1 1.2 -0.2
v -1.1 1.2 -0.3
v -0.6 0 0.1
v -0.6 0 0
v -0.6 0 -0.4
v -0.6 0 -0.5
v -0.6 0.1 0.1
v -0.6 0.1 0
v -0.6 0.1 -0.1
v -0.6 0.1 -0.3
v -0.6 0.1 -0.4
v -0.6 0.1 -0.5
v -0.6 0.2 0
v -0.6 0.2 -0.1
v -0.6 0.2 -0.2
v -0.6 0.2 -0.3
v -0.6 0.2 -0.4
v -0.6 0.3 -0.2
v -0.6 0.3 -0.3
v -0.6 0.5 -0.2
v -0.6 0.5 -0.3
v -0.6 0.6 -0.1
v -0.6 0.6 -0.2
v -0.6 0.6 -0.3
v -0.6 0.8 -0.1
v -0.6 0.8 -0.2
v -0.6 1 -0.2
v -0.6 1 -0.3
v -0.6 1.1 -0.2
v -0.6 1.1 -0.3
v -0.6 1.2 -0.1
v -0.6 1.2 -0.3
v -0.1 0 0.1
v -0.1 0 0
v -0.1 0 -0.4
v -0.1 0 -0.5
v -0.1 0.1 0.1
v -0.1 0.1 0
v -0.1 0.1 -0.1
v -0.1 0.1 -0.3
v -0.1 0.1 -0.4
v -0.1 0.1 -0.5
v -0.1 0.2 0
v -0.1 0.2 -0.1
v -0.1 0.2 -0.2
v -0.1 0.2 -0.3
v -0.1 0.2 -0.4
v -0.1 0.5 -0.2
v -0.1 0.5 -0.3
v -0.1 0.6 -0.2
v -0.1 0.6 -0.3
v -0.1 0.7 -0.1
v -0.1 0.7 -0.2
v -0.1 0.9 -0.1
v -0.1 0.9 -0.2
v -0.1 1 -0.2
v -0.1 1 -0.3
v -0.1 1.1 -0.2
v -0.1 1.1 -0.3
v -0.1 1.2 -0.1
v -0.1 1.2 -0.3
v 0.4 0 0.1
v 0.4 0 0
v 0.4 0 -0.4
v 0.4 0 -0.5
v 0.4 0.1 0.1
v 0.4 0.1 0
v 0.4 0.1 -0.1
v 0.4 0.1 -0.3
v 0.4 0.1 -0.4
v 0.4 0.1 -0.5
v 0.4 0.2 0
v 0.4 0.2 -0.1
v 0.4 0.2 -0.2
v 0.4 0.2 -0.3
v 0.4 0.2 -0.4
v 0.4 0.4 -0.1
v 0.4 0.4 -0.2
v 0.4 0.4 -0.3
v 0.4 0.6 -0.2
v 0.4 0.6 -0.3
v 0.4 0.7 -0.1
v 0.4 0.7 -0.2
v 0.4 0.8 -0.1
v 0.4 0.8 -0.2
v 0.4 1 -0.1
v 0.4 1 -0.3
v 0.4 1.1 -0.2
v 0.4 1.1 -0.3
v 0.4 1.2 -0.1
v 0.4 1.2 -0.2
v 0.4 1.2 -0.3
v 0.9 0 0.1
v 0.9 0 0
v 0.9 0 -0.4
v 0.9 0 -0.5
v 0.9 0.1 0.1
v 0.9 0.1 0
v 0.9 0.1 -0.1
v 0.9 0.1 -0.3
v 0.9 0.1 -0.4
v 0.9 0.1 -0.5
v 0.9 0.2 0
v 0.9 0.2 -0.1
v 0.9 0.2 -0.2
v 0.9 0.2 -0.3
v 0.9 0.2 -0.4
v 0.9 0.3 -0.2
v 0.9 0.3 -0.3
v 0.9 0.4 -0.1
v 0.9 0.4 -0.2
v 0.9 0.5 -0.2
v 0.9 0.5 -0.3
v 0.9 0.6 -0.2
v 0.9 0.6 -0.3
v 0.9 0.7 -0.2
v 0.9 0.7 -0.3
v 0.9 0.8 -0.1
v 0.9 0.8 -0.3
v 0.9 0.9 -0.2
v 0.9 0.9 -0.3
v 0.9 1 -0.1
v 0.9 1 -0.2
v 0.9 1.2 -0.1
v 0.9 1.2 -0.3
v 1.4 0 0.1
v 1.4 0 0
v 1.4 0 -0.4
v 1.4 0 -0.5
v 1.4 0.1 0.1
v 1.4 0.1 0
v 1.4 0.1 -0.1
v 1.4 0.1 -0.3
v 1.4 0.1 -0.4
v 1.4 0.1 -0.5
v 1.4 0.2 0
v 1.4 0.2 -0.1
v 1.4 0.2 -0.2
v 1.4 0.2 -0.3
v 1.4 0.2 -0.4
v 1.4 0.3 -0.1
v 1.4 0.3 -0.2
v 1.4 0.5 -0.2
v 1.4 0.5 -0.3
v 1.4 0.6 -0.1
v 1.4 0.6 -0.2
v 1.4 0.6 -0.3
v 1.4 0.7 -0.1
v 1.4 0.7 -0.2
v 1.4 0.8 -0.2
v 1.4 0.8 -0.3
v 1.4 0.9 -0.1
v 1.4 0.9 -0.2
v 1.4 0.9 -0.3
v 1.4 1 -0.1
v 1.4 1 -0.2
v 1.4 1 -0.3
v 1.4 1.1 -0.1
v 1.4 1.1 -0.2
v 1.4 1.1 -0.3
v 1.4 1.2 0
v 1.4 1.2 -0.1
v 1.4 1.2 -0.2
v 1.4 1.2 -0.3
v 1.4 1.2 -0.4
v 1.4 1.3 0
v 1.4 1.3 -0.1
v 1.4 1.3 -0.2
v 1.4 1.3 -0.3
v 1.4 1.3 -0.4
v 1.4 1.4 -0.1
v 1.4 1.4 -0.2
v 1.4 1.4 -0.3
v -1.3 0 0.1
v -1.3 0.1 0.1
v -1.1 0 0.1
v -1.1 0.1 0.1
v -0.8 0 0.1
v -0.8 0.1 0.1
v -0.6 0 0.1
v -0.6 0.1 0.1
v -0.3 0 0.1
v -0.3 0.1 0.1
v -0.1 0 0.1
v -0.1 0.1 0.1
v 0.2 0 0.1
v 0.2 0.1 0.1
v 0.4 0 0.1
v 0.4 0.1 0.1
v 0.7 0 0.1
v 0.7 0.1 0.1
v 0.9 0 0.1
v 0.9 0.1 0.1
v 1.3 0 0.1
v 1.3 0.1 0.1
v 1.4 0 0.1
v 1.4 0.1 0.1
v -1.3 0.1 0
v -1.3 0.2 0
v -1.3 1.2 0
v -1.3 1.3 0
v -1.1 0 0
v -1.1 0.1 0
v -1.1 0.2 0
v -1.1 1.2 0
v -1.1 1.3 0
v -1 0 0
v -1 0.1 0
v -0.9 0 0
v -0.9 0.1 0
v -0.9 1.2 0
v -0.9 1.3 0
v -0.8 0 0
v -0.8 0.1 0
v -0.8 0.2 0
v -0.6 0 0
v -0.6 0.1 0
v -0.6 0.2 0
v -0.4 0 0
v -0.4 0.1 0
v -0.4 1.2 0
v -0.4 1.3 0
v -0.3 0 0
v -0.3 0.1 0
v -0.3 0.2 0
v -0.2 1.2 0
v -0.2 1.3 0
v -0.1 0 0
v -0.1 0.1 0
v -0.1 0.2 0
v -1.19209e-07 0 0
v -1.19209e-07 0.1 0
v 0.0999999 0 0
v 0.0999999 0.1 0
v 0.2 0 0
v 0.2 0.1 0
v 0.2 0.2 0
v 0.2 1.2 0
v 0.2 1.3 0
v 0.4 0 0
v 0.4 0.1 0
v 0.4 0.2 0
v 0.4 1.2 0
v 0.4 1.3 0
v 0.5 0 0
v 0.5 0.1 0
v 0.6 0 0
v 0.6 0.1 0
v 0.7 0 0
v 0.7 0.1 0
v 0.7 0.2 0
v 0.9 0 0
v 0.9 0.1 0
v 0.9 0.2 0
v 1 0 0
v 1 0.1 0
v 1.1 0 0
v 1.1 0.1 0
v 1.1 1.2 0
v 1.1 1.3 0
v 1.2 0 0
v 1.2 0.1 0
v 1.2 0.2 0
v 1.3 0 0
v 1.3 0.1 0
v 1.4 0.1 0
v 1.4 0.2 0
v 1.4 1.2 0
v 1.4 1.3 0
v -1.3 0.2 -0.1
v -1.3 0.4 -0.1
v -1.3 0.6 -0.1
v -1.3 1.2 -0.1
v -1.3 1.3 -0.1
v -1.3 1.4 -0.1
v -1.2 0.3 -0.1
v -1.2 0.4 -0.1
v -1.2 0.6 -0.1
v -1.2 0.7 -0.1
v -1.2 0.8 -0.1
v -1.2 1.1 -0.1
v -1.1 0.1 -0.1
v -1.1 0.2 -0.1
v -1.1 0.3 -0.1
v -1.1 0.4 -0.1
v -1.1 0.6 -0.1
v -1.1 0.7 -0.1
v -1.1 0.8 -0.1
v -1.1 1.1 -0.1
v -1.1 1.2 -0.1
v -1.1 1.3 -0.1
v -1.1 1.4 -0.1
v -1 0.1 -0.1
v -1 0.2 -0.1
v -0.9 0.1 -0.1
v -0.9 0.2 -0.1
v -0.9 1.3 -0.1
v -0.9 1.4 -0.1
v -0.8 0.1 -0.1
v -0.8 0.2 -0.1
v -0.8 0.3 -0.1
v -0.8 0.5 -0.1
v -0.8 0.9 -0.1
v -0.8 1.1 -0.1
v -0.8 1.2 -0.1
v -0.7 0.3 -0.1
v -0.7 0.5 -0.1
v -0.7 0.6 -0.1
v -0.7 0.8 -0.1
v -0.7 0.9 -0.1
v -0.7 1.1 -0.1
v -0.6 0.1 -0.1
v -0.6 0.2 -0.1
v -0.6 0.6 -0.1
v -0.6 0.8 -0.1
v -0.6 1.2 -0.1
v -0.5 0.1 -0.1
v -0.5 0.2 -0.1
v -0.5 1.3 -0.1
v -0.5 1.4 -0.1
v -0.4 0.1 -0.1
v -0.4 0.2 -0.1
v -0.4 1.3 -0.1
v -0.3 0.1 -0.1
v -0.3 0.2 -0.1
v -0.3 0.3 -0.1
v -0.3 0.6 -0.1
v -0.3 1 -0.1
v -0.3 1.1 -0.1
v -0.3 1.2 -0.1
v -0.2 0.3 -0.1
v -0.2 0.6 -0.1
v -0.2 0.7 -0.1
v -0.2 0.9 -0.1
v -0.2 1 -0.1
v -0.2 1.1 -0.1
v -0.2 1.2 -0.1
v -0.2 1.3 -0.1
v -0.1 0.1 -0.1
v -0.1 0.2 -0.1
v -0.1 0.7 -0.1
v -0.1 0.9 -0.1
v -0.1 1.2 -0.1
v -1.19209e-07 0.1 -0.1
v -1.19209e-07 0.2 -0.1
v -1.19209e-07 1.3 -0.1
v -1.19209e-07 1.4 -0.1
v 0.0999999 0.1 -0.1
v 0.2 0.1 -0.1
v 0.2 0.2 -0.1
v 0.2 0.4 -0.1
v 0.2 0.7 -0.1
v 0.2 0.9 -0.1
v 0.2 1 -0.1
v 0.2 1.2 -0.1
v 0.2 1.3 -0.1
v 0.2 1.4 -0.1
v 0.3 0.2 -0.1
v 0.3 0.4 -0.1
v 0.3 0.7 -0.1
v 0.3 0.8 -0.1
v 0.3 0.9 -0.1
v 0.3 1 -0.1
v 0.3 1.2 -0.1
v 0.4 0.1 -0.1
v 0.4 0.2 -0.1
v 0.4 0.4 -0.1
v 0.4 0.7 -0.1
v 0.4 0.8 -0.1
v 0.4 1 -0.1
v 0.4 1.2 -0.1
v 0.4 1.3 -0.1
v 0.5 0.1 -0.1
v 0.5 0.2 -0.1
v 0.5 1.3 -0.1
v 0.5 1.4 -0.1
v 0.6 0.1 -0.1
v 0.6 0.2 -0.1
v 0.7 0.1 -0.1
v 0.7 0.2 -0.1
v 0.7 0.5 -0.1
v 0.7 0.6 -0.1
v 0.7 0.7 -0.1
v 0.7 0.8 -0.1
v 0.7 1.1 -0.1
v 0.7 1.2 -0.1
v 0.8 0.2 -0.1
v 0.8 0.4 -0.1
v 0.8 0.5 -0.1
v 0.8 0.6 -0.1
v 0.8 0.7 -0.1
v 0.8 0.8 -0.1
v 0.8 1 -0.1
v 0.8 1.1 -0.1
v 0.8 1.2 -0.1
v 0.8 1.3 -0.1
v 0.8 1.4 -0.1
v 0.9 0.1 -0.1
v 0.9 0.2 -0.1
v 0.9 0.4 -0.1
v 0.9 0.8 -0.1
v 0.9 1 -0.1
v 0.9 1.2 -0.1
v 0.9 1.3 -0.1
v 0.9 1.4 -0.1
v 1 0.1 -0.1
v 1 0.2 -0.1
v 1.1 0.1 -0.1
v 1.1 1.3 -0.1
v 1.2 0.1 -0.1
v 1.2 0.2 -0.1
v 1.2 0.3 -0.1
v 1.2 0.5 -0.1
v 1.2 0.8 -0.1
v 1.2 0.9 -0.1
v 1.2 1.1 -0.1
v 1.2 1.2 -0.1
v 1.2 1.3 -0.1
v 1.2 1.4 -0.1
v 1.3 0.2 -0.1
v 1.3 0.3 -0.1
v 1.3 0.5 -0.1
v 1.3 0.6 -0.1
v 1.3 0.7 -0.1
v 1.3 0.8 -0.1
v 1.3 0.9 -0.1
v 1.3 1 -0.1
v 1.4 0.2 -0.1
v 1.4 0.3 -0.1
v 1.4 0.6 -0.1
v 1.4 0.7 -0.1
v 1.4 0.9 -0.1
v 1.4 1 -0.1
v 1.4 1.1 -0.1
v 1.4 1.2 -0.1
v 1.4 1.3 -0.1
v 1.4 1.4 -0.1
v -1.3 0.2 -0.3
v -1.3 0.3 -0.3
v -1.3 0.6 -0.3
v -1.3 0.7 -0.3
v -1.3 0.9 -0.3
v -1.3 1 -0.3
v -1.3 1.2 -0.3
v -1.3 1.3 -0.3
v -1.3 1.4 -0.3
v -1.2 0.2 -0.3
v -1.2 0.3 -0.3
v -1.2 0.4 -0.3
v -1.2 0.6 -0.3
v -1.2 0.7 -0.3
v -1.2 0.8 -0.3
v -1.2 0.9 -0.3
v -1.2 1 -0.3
v -1.2 1.1 -0.3
v -1.2 1.2 -0.3
v -1.2 1.3 -0.3
v -1.2 1.4 -0.3
v -1.1 0.1 -0.3
v -1.1 0.2 -0.3
v -1.1 0.3 -0.3
v -1.1 0.4 -0.3
v -1.1 0.8 -0.3
v -1.1 0.9 -0.3
v -1.1 1.1 -0.3
v -1.1 1.2 -0.3
v -1 0.1 -0.3
v -1 1.3 -0.3
v -1 1.4 -0.3
v -0.9 0.1 -0.3
v -0.9 1.3 -0.3
v -0.8 0.1 -0.3
v -0.8 0.2 -0.3
v -0.8 0.4 -0.3
v -0.8 0.5 -0.3
v -0.8 0.6 -0.3
v -0.8 0.7 -0.3
v -0.8 0.8 -0.3
v -0.8 0.9 -0.3
v -0.8 1.2 -0.3
v -0.7 0.2 -0.3
v -0.7 0.3 -0.3
v -0.7 0.4 -0.3
v -0.7 0.5 -0.3
v -0.7 0.6 -0.3
v -0.7 0.7 -0.3
v -0.7 0.8 -0.3
v -0.7 0.9 -0.3
v -0.7 1 -0.3
v -0.7 1.1 -0.3
v -0.6 0.1 -0.3
v -0.6 0.2 -0.3
v -0.6 0.3 -0.3
v -0.6 0.5 -0.3
v -0.6 0.6 -0.3
v -0.6 1 -0.3
v -0.6 1.1 -0.3
v -0.6 1.2 -0.3
v -0.5 0.1 -0.3
v -0.5 1.3 -0.3
v -0.4 0.1 -0.3
v -0.3 0.1 -0.3
v -0.3 0.2 -0.3
v -0.3 0.3 -0.3
v -0.3 0.4 -0.3
v -0.3 0.7 -0.3
v -0.3 0.9 -0.3
v -0.3 1.2 -0.3
v -0.3 1.3 -0.3
v -0.3 1.4 -0.3
v -0.2 0.3 -0.3
v -0.2 0.4 -0.3
v -0.2 0.5 -0.3
v -0.2 0.6 -0.3
v -0.2 0.7 -0.3
v -0.2 0.9 -0.3
v -0.2 1 -0.3
v -0.2 1.1 -0.3
v -0.1 0.1 -0.3
v -0.1 0.2 -0.3
v -0.1 0.5 -0.3
v -0.1 0.6 -0.3
v -0.1 1 -0.3
v -0.1 1.1 -0.3
v -0.1 1.2 -0.3
v -0.1 1.3 -0.3
v -1.19209e-07 0.1 -0.3
v -1.19209e-07 1.3 -0.3
v -1.19209e-07 1.4 -0.3
v 0.0999999 0.1 -0.3
v 0.0999999 0.2 -0.3
v 0.0999999 1.3 -0.3
v 0.2 0.1 -0.3
v 0.2 0.2 -0.3
v 0.2 0.3 -0.3
v 0.2 0.4 -0.3
v 0.2 0.5 -0.3
v 0.2 0.7 -0.3
v 0.2 0.8 -0.3
v 0.2 1.2 -0.3
v 0.2 1.3 -0.3
v 0.2 1.4 -0.3
v 0.3 0.2 -0.3
v 0.3 0.3 -0.3
v 0.3 0.5 -0.3
v 0.3 0.6 -0.3
v 0.3 0.7 -0.3
v 0.3 0.8 -0.3
v 0.3 1 -0.3
v 0.3 1.1 -0.3
v 0.4 0.1 -0.3
v 0.4 0.2 -0.3
v 0.4 0.4 -0.3
v 0.4 0.6 -0.3
v 0.4 1 -0.3
v 0.4 1.1 -0.3
v 0.4 1.2 -0.3
v 0.5 0.1 -0.3
v 0.5 0.2 -0.3
v 0.5 1.3 -0.3
v 0.5 1.4 -0.3
v 0.6 0.1 -0.3
v 0.6 0.2 -0.3
v 0.7 0.1 -0.3
v 0.7 0.2 -0.3
v 0.7 0.3 -0.3
v 0.7 0.4 -0.3
v 0.7 0.9 -0.3
v 0.7 1 -0.3
v 0.7 1.1 -0.3
v 0.7 1.2 -0.3
v 0.8 0.4 -0.3
v 0.8 0.5 -0.3
v 0.8 0.6 -0.3
v 0.8 0.7 -0.3
v 0.8 0.8 -0.3
v 0.8 0.9 -0.3
v 0.8 1 -0.3
v 0.8 1.1 -0.3
v 0.8 1.2 -0.3
v 0.8 1.3 -0.3
v 0.9 0.1 -0.3
v 0.9 0.2 -0.3
v 0.9 0.3 -0.3
v 0.9 0.5 -0.3
v 0.9 0.6 -0.3
v 0.9 0.7 -0.3
v 0.9 0.8 -0.3
v 0.9 0.9 -0.3
v 0.9 1.2 -0.3
v 1 0.1 -0.3
v 1 0.2 -0.3
v 1 1.3 -0.3
v 1.1 0.1 -0.3
v 1.2 0.1 -0.3
v 1.2 0.2 -0.3
v 1.2 0.3 -0.3
v 1.2 0.4 -0.3
v 1.2 0.7 -0.3
v 1.2 0.8 -0.3
v 1.2 1.2 -0.3
v 1.2 1.3 -0.3
v 1.2 1.4 -0.3
v 1.3 0.3 -0.3
v 1.3 0.4 -0.3
v 1.3 0.5 -0.3
v 1.3 0.6 -0.3
v 1.3 0.7 -0.3
v 1.3 0.8 -0.3
v 1.3 0.9 -0.3
v 1.3 1 -0.3
v 1.3 1.1 -0.3
v 1.3 1.2 -0.3
v 1.3 1.3 -0.3
v 1.4 0.2 -0.3
v 1.4 0.5 -0.3
v 1.4 0.6 -0.3
v 1.4 0.8 -0.3
v 1.4 0.9 -0.3
v 1.4 1 -0.3
v 1.4 1.1 -0.3
v 1.4 1.2 -0.3
v 1.4 1.3 -0.3
v 1.4 1.4 -0.3
v -1.3 0.1 -0.4
v -1.3 0.2 -0.4
v -1.3 1.2 -0.4
v -1.3 1.3 -0.4
v -1.1 0 -0.4
v -1.1 0.1 -0.4
v -1.1 0.2 -0.4
v -1 0 -0.4
v -1 0.1 -0.4
v -0.9 0 -0.4
v -0.9 0.1 -0.4
v -0.9 1.2 -0.4
v -0.9 1.3 -0.4
v -0.8 0 -0.4
v -0.8 0.1 -0.4
v -0.8 0.2 -0.4
v -0.6 0 -0.4
v -0.6 0.1 -0.4
v -0.6 0.2 -0.4
v -0.5 0 -0.4
v -0.5 0.1 -0.4
v -0.5 1.2 -0.4
v -0.5 1.3 -0.4
v -0.4 0 -0.4
v -0.4 0.1 -0.4
v -0.3 0 -0.4
v -0.3 0.1 -0.4
v -0.3 0.2 -0.4
v -0.1 0 -0.4
v -0.1 0.1 -0.4
v -0.1 0.2 -0.4
v -0.1 1.2 -0.4
v -0.1 1.3 -0.4
v -1.19209e-07 0 -0.4
v -1.19209e-07 0.1 -0.4
v 0.0999999 0 -0.4
v 0.0999999 0.1 -0.4
v 0.0999999 1.2 -0.4
v 0.0999999 1.3 -0.4
v 0.2 0 -0.4
v 0.2 0.1 -0.4
v 0.2 0.2 -0.4
v 0.4 0 -0.4
v 0.4 0.1 -0.4
v 0.4 0.2 -0.4
v 0.5 0 -0.4
v 0.5 0.1 -0.4
v 0.5 1.2 -0.4
v 0.5 1.3 -0.4
v 0.7 0 -0.4
v 0.7 0.1 -0.4
v 0.7 0.2 -0.4
v 0.8 1.2 -0.4
v 0.8 1.3 -0.4
v 0.9 0 -0.4
v 0.9 0.1 -0.4
v 0.9 0.2 -0.4
v 1 0 -0.4
v 1 0.1 -0.4
v 1 1.2 -0.4
v 1 1.3 -0.4
v 1.1 0 -0.4
v 1.1 0.1 -0.4
v 1.2 0 -0.4
v 1.2 0.1 -0.4
v 1.2 0.2 -0.4
v 1.3 1.2 -0.4
v 1.3 1.3 -0.4
v 1.4 0.1 -0.4
v 1.4 0.2 -0.4
v 1.4 1.2 -0.4
v 1.4 1.3 -0.4
v -1.3 0 -0.5
v -1.3 0.1 -0.5
v -1.1 0 -0.5
v -1.1 0.1 -0.5
v -0.8 0 -0.5
v -0.8 0.1 -0.5
v -0.6 0 -0.5
v -0.6 0.1 -0.5
v -0.3 0 -0.5
v -0.3 0.1 -0.5
v -0.1 0 -0.5
v -0.1 0.1 -0.5
v 0.2 0 -0.5
v 0.2 0.1 -0.5
v 0.4 0 -0.5
v 0.4 0.1 -0.5
v 0.7 0 -0.5
v 0.7 0.1 -0.5
v 0.9 0 -0.5
v 0.9 0.1 -0.5
v 1.2 0 -0.5
v 1.2 0.1 -0.5
v 1.4 0 -0.5
v 1.4 0.1 -0.5
v -1.3 0 0.1
v -1.1 0 0.1
v -0.8 0 0.1
v -0.6 0 0.1
v -0.3 0 0.1
v -0.1 0 0.1
v 0.2 0 0.1
v 0.4 0 0.1
v 0.7 0 0.1
v 0.9 0 0.1
v 1.3 0 0.1
v 1.4 0 0.1
v -1.3 0 0
v -1.1 0 0
v -1 0 0
v -0.9 0 0
v -0.8 0 0
v -0.6 0 0
v -0.4 0 0
v -0.3 0 0
v -0.1 0 0
v -1.19209e-07 0 0
v 0.0999999 0 0
v 0.2 0 0
v 0.4 0 0
v 0.5 0 0
v 0.6 0 0
v 0.7 0 0
v 0.9 0 0
v 1 0 0
v 1.1 0 0
v 1.2 0 0
v 1.3 0 0
v 1.4 0 0
v -1 0 -0.1
v -0.9 0 -0.1
v -0.4 0 -0.1
v -0.3 0 -0.1
v -0.1 0 -0.1
v -1.19209e-07 0 -0.1
v 0.0999999 0 -0.1
v 0.2 0 -0.1
v 0.5 0 -0.1
v 0.6 0 -0.1
v 0.9 0 -0.1
v 1 0 -0.1
v 1.1 0 -0.1
v 1.2 0 -0.1
v -1 0 -0.3
v -0.9 0 -0.3
v -0.6 0 -0.3
v -0.5 0 -0.3
v -0.4 0 -0.3
v -0.3 0 -0.3
v -1.19209e-07 0 -0.3
v 0.0999999 0 -0.3
v 0.4 0 -0.3
v 0.5 0 -0.3
v 1 0 -0.3
v 1.1 0 -0.3
v -1.3 0 -0.4
v -1.1 0 -0.4
v -1 0 -0.4
v -0.9 0 -0.4
v -0.8 0 -0.4
v -0.6 0 -0.4
v -0.5 0 -0.4
v -0.4 0 -0.4
v -0.3 0 -0.4
v -0.1 0 -0.4
v -1.19209e-07 0 -0.4
v 0.0999999 0 -0.4
v 0.2 0 -0.4
v 0.4 0 -0.4
v 0.5 0 -0.4
v 0.7 0 -0.4
v 0.9 0 -0.4
v 1 0 -0.4
v 1.1 0 -0.4
v 1.2 0 -0.4
v 1.4 0 -0.4
v -1.3 0 -0.5
v -1.1 0 -0.5
v -0.8 0 -0.5
v -0.6 0 -0.5
v -0.3 0 -0.5
v -0.1 0 -0.5
v 0.2 0 -0.5
v 0.4 0 -0.5
v 0.7 0 -0.5
v 0.9 0 -0.5
v 1.2 0 -0.5
v 1.4 0 -0.5
v -1.3 1.2 0
v -1.1 1.2 0
v -0.9 1.2 0
v -0.4 1.2 0
v -0.2 1.2 0
v 0.2 1.2 0
v 0.4 1.2 0
v 1.1 1.2 0
v 1.4 1.2 0
v -1.3 1.2 -0.1
v -1.1 1.2 -0.1
v -0.9 1.2 -0.1
v -0.8 1.2 -0.1
v -0.6 1.2 -0.1
v -0.4 1.2 -0.1
v -0.3 1.2 -0.1
v -0.2 1.2 -0.1
v -0.1 1.2 -0.1
v 0.2 1.2 -0.1
v 0.3 1.2 -0.1
v 0.4 1.2 -0.1
v 0.7 1.2 -0.1
v 0.8 1.2 -0.1
v 0.9 1.2 -0.1
v 1.1 1.2 -0.1
v 1.2 1.2 -0.1
v 1.4 1.2 -0.1
v -1.1 1.2 -0.2
v 0.4 1.2 -0.2
v 1.2 1.2 -0.2
v -1.3 1.2 -0.3
v -1.2 1.2 -0.3
v -1.1 1.2 -0.3
v -0.9 1.2 -0.3
v -0.8 1.2 -0.3
v -0.6 1.2 -0.3
v -0.5 1.2 -0.3
v -0.3 1.2 -0.3
v -0.1 1.2 -0.3
v 0.0999999 1.2 -0.3
v 0.2 1.2 -0.3
v 0.4 1.2 -0.3
v 0.5 1.2 -0.3
v 0.7 1.2 -0.3
v 0.8 1.2 -0.3
v 0.9 1.2 -0.3
v 1 1.2 -0.3
v 1.2 1.2 -0.3
v 1.3 1.2 -0.3
v 1.4 1.2 -0.3
v -1.3 1.2 -0.4
v -0.9 1.2 -0.4
v -0.5 1.2 -0.4
v -0.1 1.2 -0.4
v 0.0999999 1.2 -0.4
v 0.5 1.2 -0.4
v 0.8 1.2 -0.4
v 1 1.2 -0.4
v 1.3 1.2 -0.4
v 1.4 1.2 -0.4
v -1.3 0.1 0.1
v -1.1 0.1 0.1
v -0.8 0.1 0.1
v -0.6 0.1 0.1
v -0.3 0.1 0.1
v -0.1 0.1 0.1
v 0.2 0.1 0.1
v 0.4 0.1 0.1
v 0.7 0.1 0.1
v 0.9 0.1 0.1
v 1.3 0.1 0.1
v 1.4 0.1 0.1
v -1.3 0.1 0
v -1.1 0.1 0
v -1 0.1 0
v -0.9 0.1 0
v -0.8 0.1 0
v -0.6 0.1 0
v -0.4 0.1 0
v -0.3 0.1 0
v -0.1 0.1 0
v -1.19209e-07 0.1 0
v 0.0999999 0.1 0
v 0.2 0.1 0
v 0.4 0.1 0
v 0.5 0.1 0
v 0.6 0.1 0
v 0.7 0.1 0
v 0.9 0.1 0
v 1 0.1 0
v 1.1 0.1 0
v 1.2 0.1 0
v 1.3 0.1 0
v 1.4 0.1 0
v -1.1 0.1 -0.1
v -1 0.1 -0.1
v -0.9 0.1 -0.1
v -0.8 0.1 -0.1
v -0.6 0.1 -0.1
v -0.5 0.1 -0.1
v -0.4 0.1 -0.1
v -0.3 0.1 -0.1
v -0.1 0.1 -0.1
v -1.19209e-07 0.1 -0.1
v 0.0999999 0.1 -0.1
v 0.2 0.1 -0.1
v 0.4 0.1 -0.1
v 0.5 0.1 -0.1
v 0.6 0.1 -0.1
v 0.7 0.1 -0.1
v 0.9 0.1 -0.1
v 1 0.1 -0.1
v 1.1 0.1 -0.1
v 1.2 0.1 -0.1
v -1.1 0.1 -0.3
v -1 0.1 -0.3
v -0.9 0.1 -0.3
v -0.8 0.1 -0.3
v -0.6 0.1 -0.3
v -0.5 0.1 -0.3
v -0.4 0.1 -0.3
v -0.3 0.1 -0.3
v -0.1 0.1 -0.3
v -1.19209e-07 0.1 -0.3
v 0.0999999 0.1 -0.3
v 0.2 0.1 -0.3
v 0.4 0.1 -0.3
v 0.5 0.1 -0.3
v 0.6 0.1 -0.3
v 0.7 0.1 -0.3
v 0.9 0.1 -0.3
v 1 0.1 -0.3
v 1.1 0.1 -0.3
v 1.2 0.1 -0.3
v -1.3 0.1 -0.4
v -1.1 0.1 -0.4
v -1 0.1 -0.4
v -0.9 0.1 -0.4
v -0.8 0.1 -0.4
v -0.6 0.1 -0.4
v -0.5 0.1 -0.4
v -0.4 0.1 -0.4
v -0.3 0.1 -0.4
v -0.1 0.1 -0.4
v -1.19209e-07 0.1 -0.4
v 0.0999999 0.1 -0.4
v 0.2 0.1 -0.4
v 0.4 0.1 -0.4
v 0.5 0.1 -0.4
v 0.7 0.1 -0.4
v 0.9 0.1 -0.4
v 1 0.1 -0.4
v 1.1 0.1 -0.4
v 1.2 0.1 -0.4
v 1.4 0.1 -0.4
v -1.3 0.1 -0.5
v -1.1 0.1 -0.5
v -0.8 0.1 -0.5
v -0.6 0.1 -0.5
v -0.3 0.1 -0.5
v -0.1 0.1 -0.5
v 0.2 0.1 -0.5
v 0.4 0.1 -0.5
v 0.7 0.1 -0.5
v 0.9 0.1 -0.5
v 1.2 0.1 -0.5
v 1.4 0.1 -0.5
v -1.3 0.2 0
v -1.1 0.2 0
v -0.8 0.2 0
v -0.6 0.2 0
v -0.3 0.2 0
v -0.1 0.2 0
v 0.2 0.2 0
v 0.4 0.2 0
v 0.7 0.2 0
v 0.9 0.2 0
v 1.2 0.2 0
v 1.4 0.2 0
v -1.3 0.2 -0.1
v -1.1 0.2 -0.1
v -1 0.2 -0.1
v -0.9 0.2 -0.1
v -0.8 0.2 -0.1
v -0.6 0.2 -0.1
v -0.5 0.2 -0.1
v -0.4 0.2 -0.1
v -0.3 0.2 -0.1
v -0.1 0.2 -0.1
v -1.19209e-07 0.2 -0.1
v 0.2 0.2 -0.1
v 0.3 0.2 -0.1
v 0.4 0.2 -0.1
v 0.5 0.2 -0.1
v 0.6 0.2 -0.1
v 0.7 0.2 -0.1
v 0.8 0.2 -0.1
v 0.9 0.2 -0.1
v 1 0.2 -0.1
v 1.2 0.2 -0.1
v 1.3 0.2 -0.1
v 1.4 0.2 -0.1
v -1.1 0.2 -0.2
v -1 0.2 -0.2
v -0.9 0.2 -0.2
v -0.8 0.2 -0.2
v -0.6 0.2 -0.2
v -0.5 0.2 -0.2
v -0.4 0.2 -0.2
v -0.1 0.2 -0.2
v -1.19209e-07 0.2 -0.2
v 0.0999999 0.2 -0.2
v 0.2 0.2 -0.2
v 0.4 0.2 -0.2
v 0.5 0.2 -0.2
v 0.6 0.2 -0.2
v 0.7 0.2 -0.2
v 0.9 0.2 -0.2
v 1 0.2 -0.2
v 1.2 0.2 -0.2
v -1.3 0.2 -0.3
v -1.2 0.2 -0.3
v -1.1 0.2 -0.3
v -0.8 0.2 -0.3
v -0.7 0.2 -0.3
v -0.6 0.2 -0.3
v -0.3 0.2 -0.3
v -0.1 0.2 -0.3
v 0.0999999 0.2 -0.3
v 0.2 0.2 -0.3
v 0.3 0.2 -0.3
v 0.4 0.2 -0.3
v 0.5 0.2 -0.3
v 0.6 0.2 -0.3
v 0.7 0.2 -0.3
v 0.9 0.2 -0.3
v 1 0.2 -0.3
v 1.2 0.2 -0.3
v 1.4 0.2 -0.3
v -1.3 0.2 -0.4
v -1.1 0.2 -0.4
v -0.8 0.2 -0.4
v -0.6 0.2 -0.4
v -0.3 0.2 -0.4
v -0.1 0.2 -0.4
v 0.2 0.2 -0.4
v 0.4 0.2 -0.4
v 0.7 0.2 -0.4
v 0.9 0.2 -0.4
v 1.2 0.2 -0.4
v 1.4 0.2 -0.4
v -1.3 1.3 0
v -1.1 1.3 0
v -0.9 1.3 0
v -0.4 1.3 0
v -0.2 1.3 0
v 0.2 1.3 0
v 0.4 1.3 0
v 1.1 1.3 0
v 1.4 1.3 0
v -1.3 1.3 -0.1
v -1.1 1.3 -0.1
v -0.9 1.3 -0.1
v -0.5 1.3 -0.1
v -0.4 1.3 -0.1
v -0.2 1.3 -0.1
v -1.19209e-07 1.3 -0.1
v 0.2 1.3 -0.1
v 0.4 1.3 -0.1
v 0.5 1.3 -0.1
v 0.8 1.3 -0.1
v 0.9 1.3 -0.1
v 1.1 1.3 -0.1
v 1.2 1.3 -0.1
v 1.4 1.3 -0.1
v -1.3 1.3 -0.3
v -1.2 1.3 -0.3
v -1 1.3 -0.3
v -0.9 1.3 -0.3
v -0.5 1.3 -0.3
v -0.3 1.3 -0.3
v -0.1 1.3 -0.3
v -1.19209e-07 1.3 -0.3
v 0.0999999 1.3 -0.3
v 0.2 1.3 -0.3
v 0.5 1.3 -0.3
v 0.8 1.3 -0.3
v 1 1.3 -0.3
v 1.2 1.3 -0.3
v 1.3 1.3 -0.3
v 1.4 1.3 -0.3
v -1.3 1.3 -0.4
v -0.9 1.3 -0.4
v -0.5 1.3 -0.4
v -0.1 1.3 -0.4
v 0.0999999 1.3 -0.4
v 0.5 1.3 -0.4
v 0.8 1.3 -0.4
v 1 1.3 -0.4
v 1.3 1.3 -0.4
v 1.4 1.3 -0.4
v -1.3 1.4 -0.1
v -1.1 1.4 -0.1
v -0.9 1.4 -0.1
v -0.5 1.4 -0.1
v -1.19209e-07 1.4 -0.1
v 0.2 1.4 -0.1
v 0.5 1.4 -0.1
v 0.8 1.4 -0.1
v 0.9 1.4 -0.1
v 1.2 1.4 -0.1
v 1.4 1.4 -0.1
v -1.3 1.4 -0.2
v -1.2 1.4 -0.2
v -1.1 1.4 -0.2
v -1 1.4 -0.2
v -0.9 1.4 -0.2
v -0.5 1.4 -0.2
v -0.3 1.4 -0.2
v -1.19209e-07 1.4 -0.2
v 0.2 1.4 -0.2
v 0.5 1.4 -0.2
v 0.8 1.4 -0.2
v 0.9 1.4 -0.2
v 1.2 1.4 -0.2
v 1.4 1.4 -0.2
v -1.3 1.4 -0.3
v -1.2 1.4 -0.3
v -1 1.4 -0.3
v -0.3 1.4 -0.3
v -1.19209e-07 1.4 -0.3
v 0.2 1.4 -0.3
v 0.5 1.4 -0.3
v 1.2 1.4 -0.3
v 1.4 1.4 -0.3

# faces
f 5/2/1 2/2/1 1/2/1
f 6/1/1 3/1/1 2/1/1
f 6/2/1 2/2/1 5/2/1
f 7/1/1 3/1/1 6/1/1
f 8/1/1 3/1/1 7/1/1
f 9/2/1 4/2/1 3/2/1
f 9/1/1 3/1/1 8/1/1
f 10/2/1 4/2/1 9/2/1
f 11/2/1 7/2/1 6/2/1
f 12/1/1 8/1/1 7/1/1
f 12/2/1 7/2/1 11/2/1
f 13/1/1 8/1/1 12/1/1
f 14/2/1 9/2/1 8/2/1
f 14/1/1 8/1/1 13/1/1
f 15/2/1 9/2/1 14/2/1
f 16/1/1 13/1/1 12/1/1
f 16/2/1 14/2/1 13/2/1
f 17/2/1 14/2/1 16/2/1
f 18/1/1 16/1/1 12/1/1
f 18/1/1 17/1/1 16/1/1
f 19/1/1 17/1/1 18/1/1
f 20/2/1 19/2/1 18/2/1
f 21/1/1 17/1/1 19/1/1
f 21/2/1 19/2/1 20/2/1
f 22/1/1 17/1/1 21/1/1
f 23/1/1 21/1/1 20/1/1
f 23/2/1 22/2/1 21/2/1
f 24/2/1 22/2/1 23/2/1
f 25/1/1 23/1/1 20/1/1
f 25/1/1 24/1/1 23/1/1
f 26/1/1 24/1/1 25/1/1
f 27/1/1 25/1/1 20/1/1
f 27/2/1 26/2/1 25/2/1
f 28/2/1 26/2/1 27/2/1
f 30/1/1 27/1/1 20/1/1
f 30/1/1 28/1/1 27/1/1
f 31/1/1 28/1/1 30/1/1
f 33/2/1 31/2/1 30/2/1
f 33/2/1 32/2/1 31/2/1
f 33/2/1 30/2/1 29/2/1
f 34/2/1 32/2/1 33/2/1
f 35/2/1 32/2/1 34/2/1
f 36/2/1 32/2/1 35/2/1
f 37/2/1 32/2/1 36/2/1
f 38/3/1 35/3/1 34/3/1
f 39/2/1 36/2/1 35/2/1
f 39/3/1 35/3/1 38/3/1
f 40/2/1 36/2/1 39/2/1
f 45/2/1 42/2/1 41/2/1
f 46/2/1 42/2/1 45/2/1
f 49/2/1 44/2/1 43/2/1
f 50/2/1 44/2/1 49/2/1
f 51/2/1 47/2/1 46/2/1
f 52/2/1 47/2/1 51/2/1
f 54/2/1 49/2/1 48/2/1
f 55/2/1 49/2/1 54/2/1
f 56/1/1 53/1/1 52/1/1
f 56/1/1 54/1/1 53/1/1
f 57/1/1 54/1/1 56/1/1
f 58/2/1 57/2/1 56/2/1
f 58/1/1 54/1/1 57/1/1
f 59/1/1 54/1/1 58/1/1
f 60/2/1 58/2/1 56/2/1
f 60/2/1 59/2/1 58/2/1
f 61/2/1 59/2/1 60/2/1
f 62/1/1 61/1/1 60/1/1
f 63/1/1 61/1/1 62/1/1
f 64/1/1 62/1/1 60/1/1
f 64/2/1 63/2/1 62/2/1
f 65/2/1 63/2/1 64/2/1
f 66/1/1 64/1/1 60/1/1
f 66/1/1 65/1/1 64/1/1
f 67/1/1 65/1/1 66/1/1
f 68/1/1 66/1/1 60/1/1
f 69/2/1 67/2/1 66/2/1
f 69/1/1 66/1/1 68/1/1
f 70/2/1 67/2/1 69/2/1
f 71/2/1 69/2/1 68/2/1
f 72/1/1 70/1/1 69/1/1
f 72/2/1 69/2/1 71/2/1
f 73/1/1 72/1/1 71/1/1
f 74/1/1 70/1/1 72/1/1
f 74/1/1 72/1/1 73/1/1
f 79/2/1 76/2/1 75/2/1
f 80/2/1 76/2/1 79/2/1
f 83/2/1 78/2/1 77/2/1
f 84/2/1 78/2/1 83/2/1
f 85/2/1 81/2/1 80/2/1
f 86/2/1 81/2/1 85/2/1
f 87/2/1 83/2/1 82/2/1
f 88/2/1 83/2/1 87/2/1
f 89/1/1 87/1/1 86/1/1
f 90/1/1 87/1/1 89/1/1
f 91/2/1 90/2/1 89/2/1
f 92/2/1 90/2/1 91/2/1
f 93/2/1 91/2/1 89/2/1
f 94/1/1 92/1/1 91/1/1
f 94/2/1 91/2/1 93/2/1
f 95/1/1 94/1/1 93/1/1
f 95/1/1 92/1/1 94/1/1
f 96/1/1 92/1/1 95/1/1
f 97/1/1 95/1/1 93/1/1
f 97/2/1 96/2/1 95/2/1
f 98/2/1 96/2/1 97/2/1
f 99/1/1 97/1/1 93/1/1
f 99/1/1 98/1/1 97/1/1
f 100/1/1 98/1/1 99/1/1
f 101/2/1 100/2/1 99/2/1
f 102/1/1 98/1/1 100/1/1
f 102/2/1 100/2/1 101/2/1
f 103/1/1 102/1/1 101/1/1
f 104/1/1 98/1/1 102/1/1
f 104/1/1 102/1/1 103/1/1
f 109/2/1 106/2/1 105/2/1
f 110/2/1 106/2/1 109/2/1
f 113/2/1 108/2/1 107/2/1
f 114/2/1 108/2/1 113/2/1
f 115/2/1 111/2/1 110/2/1
f 116/2/1 111/2/1 115/2/1
f 118/2/1 113/2/1 112/2/1
f 119/2/1 113/2/1 118/2/1
f 120/1/1 117/1/1 116/1/1
f 120/2/1 118/2/1 117/2/1
f 121/2/1 118/2/1 120/2/1
f 122/1/1 120/1/1 116/1/1
f 122/1/1 121/1/1 120/1/1
f 123/1/1 121/1/1 122/1/1
f 124/2/1 123/2/1 122/2/1
f 125/2/1 123/2/1 124/2/1
f 126/2/1 124/2/1 122/2/1
f 127/1/1 125/1/1 124/1/1
f 127/2/1 124/2/1 126/2/1
f 128/1/1 125/1/1 127/1/1
f 129/1/1 127/1/1 126/1/1
f 129/2/1 128/2/1 127/2/1
f 130/2/1 128/2/1 129/2/1
f 131/1/1 129/1/1 126/1/1
f 131/1/1 130/1/1 129/1/1
f 132/1/1 130/1/1 131/1/1
f 133/2/1 132/2/1 131/2/1
f 134/1/1 130/1/1 132/1/1
f 134/2/1 132/2/1 133/2/1
f 135/1/1 134/1/1 133/1/1
f 136/1/1 130/1/1 134/1/1
f 136/1/1 134/1/1 135/1/1
f 141/2/1 138/2/1 137/2/1
f 142/2/1 138/2/1 141/2/1
f 145/2/1 140/2/1 139/2/1
f 146/2/1 140/2/1 145/2/1
f 147/2/1 143/2/1 142/2/1
f 148/2/1 143/2/1 147/2/1
f 150/2/1 145/2/1 144/2/1
f 151/2/1 145/2/1 150/2/1
f 152/1/1 149/1/1 148/1/1
f 152/1/1 150/1/1 149/1/1
f 153/1/1 150/1/1 152/1/1
f 154/1/1 152/1/1 148/1/1
f 154/2/1 153/2/1 152/2/1
f 155/2/1 153/2/1 154/2/1
f 156/1/1 154/1/1 148/1/1
f 156/1/1 155/1/1 154/1/1
f 157/1/1 155/1/1 156/1/1
f 158/2/1 157/2/1 156/2/1
f 159/1/1 155/1/1 157/1/1
f 159/2/1 157/2/1 158/2/1
f 160/1/1 159/1/1 158/1/1
f 161/1/1 155/1/1 159/1/1
f 161/1/1 159/1/1 160/1/1
f 162/2/1 161/2/1 160/2/1
f 163/1/1 155/1/1 161/1/1
f 163/2/1 161/2/1 162/2/1
f 164/1/1 163/1/1 162/1/1
f 164/1/1 155/1/1 163/1/1
f 165/1/1 155/1/1 164/1/1
f 166/1/1 164/1/1 162/1/1
f 166/2/1 165/2/1 164/2/1
f 167/2/1 165/2/1 166/2/1
f 168/1/1 166/1/1 162/1/1
f 168/1/1 167/1/1 166/1/1
f 169/1/1 167/1/1 168/1/1
f 170/2/1 169/2/1 168/2/1
f 171/2/1 169/2/1 170/2/1
f 177/2/1 173/2/1 172/2/1
f 178/2/1 173/2/1 177/2/1
f 179/2/1 175/2/1 174/2/1
f 180/2/1 175/2/1 179/2/1
f 182/2/1 177/2/1 176/2/1
f 183/2/1 177/2/1 182/2/1
f 184/1/1 181/1/1 180/1/1
f 184/1/1 182/1/1 181/1/1
f 185/1/1 182/1/1 184/1/1
f 186/2/1 185/2/1 184/2/1
f 187/2/1 185/2/1 186/2/1
f 188/2/1 186/2/1 184/2/1
f 189/1/1 187/1/1 186/1/1
f 189/2/1 186/2/1 188/2/1
f 190/1/1 189/1/1 188/1/1
f 190/1/1 187/1/1 189/1/1
f 191/1/1 187/1/1 190/1/1
f 192/1/1 190/1/1 188/1/1
f 193/2/1 191/2/1 190/2/1
f 193/1/1 190/1/1 192/1/1
f 194/2/1 191/2/1 193/2/1
f 195/2/1 193/2/1 192/2/1
f 196/1/1 194/1/1 193/1/1
f 196/2/1 193/2/1 195/2/1
f 197/1/1 196/1/1 195/1/1
f 198/1/1 194/1/1 196/1/1
f 198/1/1 196/1/1 197/1/1
f 199/2/1 198/2/1 197/2/1
f 200/1/1 194/1/1 198/1/1
f 200/2/1 198/2/1 199/2/1
f 201/1/1 194/1/1 200/1/1
f 204/2/1 203/2/1 202/2/1
f 205/2/1 203/2/1 204/2/1
f 206/2/2 207/2/2 210/2/2
f 210/2/2 207/2/2 211/2/2
f 208/2/2 209/2/2 214/2/2
f 214/2/2 209/2/2 215/2/2
f 211/2/2 212/2/2 216/2/2
f 216/2/2 212/2/2 217/2/2
f 213/2/2 214/2/2 219/2/2
f 219/2/2 214/2/2 220/2/2
f 217/1/2 218/1/2 221/1/2
f 218/1/2 219/1/2 221/1/2
f 221/1/2 219/1/2 222/1/2
f 221/2/2 222/2/2 223/2/2
f 223/2/2 222/2/2 224/2/2
f 223/1/2 224/1/2 225/1/2
f 225/1/2 224/1/2 226/1/2
f 225/2/2 226/2/2 227/2/2
f 226/1/2 224/1/2 228/1/2
f 227/2/2 226/2/2 228/2/2
f 227/1/2 228/1/2 229/1/2
f 228/1/2 224/1/2 230/1/2
f 229/1/2 228/1/2 230/1/2
f 229/2/2 230/2/2 231/2/2
f 231/2/2 230/2/2 232/2/2
f 229/2/2 231/2/2 233/2/2
f 231/1/2 232/1/2 234/1/2
f 233/2/2 231/2/2 234/2/2
f 234/1/2 232/1/2 235/1/2
f 233/1/2 234/1/2 236/1/2
f 234/2/2 235/2/2 237/2/2
f 236/1/2 234/1/2 237/1/2
f 237/2/2 235/2/2 238/2/2
f 239/2/2 240/2/2 243/2/2
f 243/2/2 240/2/2 244/2/2
f 241/2/2 242/2/2 247/2/2
f 247/2/2 242/2/2 248/2/2
f 244/2/2 245/2/2 249/2/2
f 249/2/2 245/2/2 250/2/2
f 246/2/2 247/2/2 252/2/2
f 252/2/2 247/2/2 253/2/2
f 250/1/2 251/1/2 254/1/2
f 251/2/2 252/2/2 254/2/2
f 254/2/2 252/2/2 255/2/2
f 250/1/2 254/1/2 256/1/2
f 254/1/2 255/1/2 256/1/2
f 256/1/2 255/1/2 257/1/2
f 250/1/2 256/1/2 258/1/2
f 256/2/2 257/2/2 259/2/2
f 258/1/2 256/1/2 259/1/2
f 259/2/2 257/2/2 260/2/2
f 258/2/2 259/2/2 261/2/2
f 259/1/2 260/1/2 262/1/2
f 261/2/2 259/2/2 262/2/2
f 261/1/2 262/1/2 263/1/2
f 262/1/2 260/1/2 263/1/2
f 263/1/2 260/1/2 264/1/2
f 261/1/2 263/1/2 265/1/2
f 263/2/2 264/2/2 265/2/2
f 265/2/2 264/2/2 266/2/2
f 261/1/2 265/1/2 267/1/2
f 265/1/2 266/1/2 267/1/2
f 267/1/2 266/1/2 268/1/2
f 269/2/2 270/2/2 273/2/2
f 273/2/2 270/2/2 274/2/2
f 271/2/2 272/2/2 277/2/2
f 277/2/2 272/2/2 278/2/2
f 274/2/2 275/2/2 279/2/2
f 279/2/2 275/2/2 280/2/2
f 276/2/2 277/2/2 282/2/2
f 282/2/2 277/2/2 283/2/2
f 280/1/2 281/1/2 284/1/2
f 281/1/2 282/1/2 284/1/2
f 284/1/2 282/1/2 285/1/2
f 280/1/2 284/1/2 286/1/2
f 284/2/2 285/2/2 286/2/2
f 286/2/2 285/2/2 287/2/2
f 280/1/2 286/1/2 288/1/2
f 286/1/2 287/1/2 288/1/2
f 288/1/2 287/1/2 289/1/2
f 288/2/2 289/2/2 290/2/2
f 289/1/2 287/1/2 291/1/2
f 290/2/2 289/2/2 291/2/2
f 290/1/2 291/1/2 292/1/2
f 291/1/2 287/1/2 292/1/2
f 292/1/2 287/1/2 293/1/2
f 290/1/2 292/1/2 294/1/2
f 292/2/2 293/2/2 294/2/2
f 294/2/2 293/2/2 295/2/2
f 290/1/2 294/1/2 296/1/2
f 294/1/2 295/1/2 296/1/2
f 296/1/2 295/1/2 297/1/2
f 298/2/2 299/2/2 302/2/2
f 302/2/2 299/2/2 303/2/2
f 300/2/2 301/2/2 306/2/2
f 306/2/2 301/2/2 307/2/2
f 303/2/2 304/2/2 308/2/2
f 308/2/2 304/2/2 309/2/2
f 305/2/2 306/2/2 311/2/2
f 311/2/2 306/2/2 312/2/2
f 309/2/2 310/2/2 313/2/2
f 310/1/2 311/1/2 314/1/2
f 313/2/2 310/2/2 314/2/2
f 314/1/2 311/1/2 315/1/2
f 313/1/2 314/1/2 316/1/2
f 314/2/2 315/2/2 316/2/2
f 316/2/2 315/2/2 317/2/2
f 313/1/2 316/1/2 318/1/2
f 316/1/2 317/1/2 318/1/2
f 318/1/2 317/1/2 319/1/2
f 318/2/2 319/2/2 320/2/2
f 319/1/2 317/1/2 321/1/2
f 320/2/2 319/2/2 321/2/2
f 320/1/2 321/1/2 322/1/2
f 321/1/2 317/1/2 323/1/2
f 322/1/2 321/1/2 323/1/2
f 322/2/2 323/2/2 324/2/2
f 324/2/2 323/2/2 325/2/2
f 322/2/2 324/2/2 326/2/2
f 324/1/2 325/1/2 327/1/2
f 326/2/2 324/2/2 327/2/2
f 327/1/2 325/1/2 328/1/2
f 329/2/2 330/2/2 333/2/2
f 333/2/2 330/2/2 334/2/2
f 331/2/2 332/2/2 337/2/2
f 337/2/2 332/2/2 338/2/2
f 334/2/2 335/2/2 339/2/2
f 339/2/2 335/2/2 340/2/2
f 336/2/2 337/2/2 342/2/2
f 342/2/2 337/2/2 343/2/2
f 340/2/2 341/2/2 344/2/2
f 341/1/2 342/1/2 344/1/2
f 344/1/2 342/1/2 345/1/2
f 340/2/2 344/2/2 346/2/2
f 344/2/2 345/2/2 346/2/2
f 346/2/2 345/2/2 347/2/2
f 346/1/2 347/1/2 348/1/2
f 347/2/2 345/2/2 348/2/2
f 348/2/2 345/2/2 349/2/2
f 346/1/2 348/1/2 350/1/2
f 348/1/2 349/1/2 350/1/2
f 350/1/2 349/1/2 351/1/2
f 346/1/2 350/1/2 352/1/2
f 350/2/2 351/2/2 352/2/2
f 352/2/2 351/2/2 353/2/2
f 346/1/2 352/1/2 354/1/2
f 352/1/2 353/1/2 354/1/2
f 354/1/2 353/1/2 355/1/2
f 354/2/2 355/2/2 356/2/2
f 356/2/2 355/2/2 357/2/2
f 354/2/2 356/2/2 358/2/2
f 356/1/2 357/1/2 359/1/2
f 358/2/2 356/2/2 359/2/2
f 358/1/2 359/1/2 360/1/2
f 359/1/2 357/1/2 361/1/2
f 360/1/2 359/1/2 361/1/2
f 362/2/2 363/2/2 366/2/2
f 363/1/2 364/1/2 367/1/2
f 366/2/2 363/2/2 367/2/2
f 367/1/2 364/1/2 368/1/2
f 368/1/2 364/1/2 369/1/2
f 364/2/2 365/2/2 370/2/2
f 369/1/2 364/1/2 370/1/2
f 370/2/2 365/2/2 371/2/2
f 367/2/2 368/2/2 372/2/2
f 368/1/2 369/1/2 373/1/2
f 372/2/2 368/2/2 373/2/2
f 373/1/2 369/1/2 374/1/2
f 369/2/2 370/2/2 375/2/2
f 374/1/2 369/1/2 375/1/2
f 375/2/2 370/2/2 376/2/2
f 373/2/2 374/2/2 377/2/2
f 374/1/2 375/1/2 378/1/2
f 377/2/2 374/2/2 378/2/2
f 377/1/2 378/1/2 379/1/2
f 378/1/2 375/1/2 379/1/2
f 379/1/2 375/1/2 380/1/2
f 377/1/2 379/1/2 381/1/2
f 379/2/2 380/2/2 382/2/2
f 381/1/2 379/1/2 382/1/2
f 382/2/2 380/2/2 383/2/2
f 381/2/2 382/2/2 384/2/2
f 382/1/2 383/1/2 385/1/2
f 384/2/2 382/2/2 385/2/2
f 384/1/2 385/1/2 386/1/2
f 385/1/2 383/1/2 386/1/2
f 386/1/2 383/1/2 387/1/2
f 384/1/2 386/1/2 388/1/2
f 386/2/2 387/2/2 389/2/2
f 388/1/2 386/1/2 389/1/2
f 389/2/2 387/2/2 390/2/2
f 388/2/2 389/2/2 391/2/2
f 389/1/2 390/1/2 392/1/2
f 391/2/2 389/2/2 392/2/2
f 392/1/2 390/1/2 393/1/2
f 391/1/2 392/1/2 394/1/2
f 392/2/2 393/2/2 395/2/2
f 394/1/2 392/1/2 395/1/2
f 395/2/2 393/2/2 396/2/2
f 394/2/2 395/2/2 398/2/2
f 395/1/2 396/1/2 399/1/2
f 398/2/2 395/2/2 399/2/2
f 399/1/2 396/1/2 400/1/2
f 397/3/2 398/3/2 402/3/2
f 399/2/2 400/2/2 403/2/2
f 402/3/2 398/3/2 403/3/2
f 398/2/2 399/2/2 403/2/2
f 400/2/2 401/2/2 403/2/2
f 403/2/2 401/2/2 404/2/2
f 404/2/2 401/2/2 405/2/2
f 405/2/2 401/2/2 406/2/2
f 403/2/2 404/2/2 407/2/2
f 404/3/2 405/3/2 408/3/2
f 407/2/2 404/2/2 408/2/2
f 408/3/2 405/3/2 409/3/2
f 412/2/3 411/2/3 410/2/3
f 413/2/3 411/2/3 412/2/3
f 416/2/3 415/2/3 414/2/3
f 417/2/3 415/2/3 416/2/3
f 420/2/3 419/2/3 418/2/3
f 421/2/3 419/2/3 420/2/3
f 424/2/3 423/2/3 422/2/3
f 425/2/3 423/2/3 424/2/3
f 428/2/3 427/2/3 426/2/3
f 429/2/3 427/2/3 428/2/3
f 432/2/3 431/2/3 430/2/3
f 433/2/3 431/2/3 432/2/3
f 439/2/3 435/2/3 434/2/3
f 440/2/3 435/2/3 439/2/3
f 441/2/3 437/2/3 436/2/3
f 442/2/3 437/2/3 441/2/3
f 443/1/3 439/1/3 438/1/3
f 444/1/3 439/1/3 443/1/3
f 445/2/3 444/2/3 443/2/3
f 446/2/3 444/2/3 445/2/3
f 447/3/3 442/3/3 441/3/3
f 448/3/3 442/3/3 447/3/3
f 449/1/3 446/1/3 445/1/3
f 450/1/3 446/1/3 449/1/3
f 453/2/3 451/2/3 450/2/3
f 454/2/3 451/2/3 453/2/3
f 455/1/3 453/1/3 452/1/3
f 456/1/3 453/1/3 455/1/3
f 457/2/3 448/2/3 447/2/3
f 458/2/3 448/2/3 457/2/3
f 459/2/3 456/2/3 455/2/3
f 460/2/3 456/2/3 459/2/3
f 462/3/3 458/3/3 457/3/3
f 463/3/3 458/3/3 462/3/3
f 465/2/3 461/2/3 460/2/3
f 466/2/3 461/2/3 465/2/3
f 467/2/3 465/2/3 464/2/3
f 468/2/3 465/2/3 467/2/3
f 469/1/3 468/1/3 467/1/3
f 470/1/3 468/1/3 469/1/3
f 471/2/3 470/2/3 469/2/3
f 472/2/3 470/2/3 471/2/3
f 474/2/3 463/2/3 462/2/3
f 475/2/3 463/2/3 474/2/3
f 477/2/3 473/2/3 472/2/3
f 478/2/3 473/2/3 477/2/3
f 479/3/3 475/3/3 474/3/3
f 480/3/3 475/3/3 479/3/3
f 481/1/3 477/1/3 476/1/3
f 482/1/3 477/1/3 481/1/3
f 483/2/3 482/2/3 481/2/3
f 484/2/3 482/2/3 483/2/3
f 485/1/3 484/1/3 483/1/3
f 486/1/3 484/1/3 485/1/3
f 489/2/3 487/2/3 486/2/3
f 490/2/3 487/2/3 489/2/3
f 491/2/3 489/2/3 488/2/3
f 492/2/3 489/2/3 491/2/3
f 493/1/3 492/1/3 491/1/3
f 494/1/3 492/1/3 493/1/3
f 495/2/3 480/2/3 479/2/3
f 496/2/3 480/2/3 495/2/3
f 497/2/3 494/2/3 493/2/3
f 498/2/3 494/2/3 497/2/3
f 500/1/3 498/1/3 497/1/3
f 501/2/3 499/2/3 498/2/3
f 501/1/3 498/1/3 500/1/3
f 502/2/3 499/2/3 501/2/3
f 503/2/3 499/2/3 502/2/3
f 504/3/3 496/3/3 495/3/3
f 505/3/3 496/3/3 504/3/3
f 512/1/3 507/1/3 506/1/3
f 513/2/3 508/2/3 507/2/3
f 513/1/3 507/1/3 512/1/3
f 514/1/3 509/1/3 508/1/3
f 514/2/3 508/2/3 513/2/3
f 515/1/3 509/1/3 514/1/3
f 516/1/3 509/1/3 515/1/3
f 517/1/3 509/1/3 516/1/3
f 519/1/3 512/1/3 506/1/3
f 520/2/3 513/2/3 512/2/3
f 520/1/3 512/1/3 519/1/3
f 521/1/3 514/1/3 513/1/3
f 521/2/3 513/2/3 520/2/3
f 522/2/3 515/2/3 514/2/3
f 522/1/3 514/1/3 521/1/3
f 523/1/3 516/1/3 515/1/3
f 523/2/3 515/2/3 522/2/3
f 524/2/3 517/2/3 516/2/3
f 524/1/3 516/1/3 523/1/3
f 525/1/3 509/1/3 517/1/3
f 525/2/3 517/2/3 524/2/3
f 526/1/3 509/1/3 525/1/3
f 527/3/3 511/3/3 510/3/3
f 528/3/3 511/3/3 527/3/3
f 529/2/3 519/2/3 518/2/3
f 530/2/3 519/2/3 529/2/3
f 531/1/3 530/1/3 529/1/3
f 532/1/3 530/1/3 531/1/3
f 533/2/3 528/2/3 527/2/3
f 534/2/3 528/2/3 533/2/3
f 535/2/3 532/2/3 531/2/3
f 536/2/3 532/2/3 535/2/3
f 542/1/3 537/1/3 536/1/3
f 542/2/3 538/2/3 537/2/3
f 543/1/3 539/1/3 538/1/3
f 543/2/3 538/2/3 542/2/3
f 544/1/3 539/1/3 543/1/3
f 545/1/3 539/1/3 544/1/3
f 546/2/3 540/2/3 539/2/3
f 546/1/3 539/1/3 545/1/3
f 547/1/3 541/1/3 540/1/3
f 547/2/3 540/2/3 546/2/3
f 549/1/3 542/1/3 536/1/3
f 549/1/3 543/1/3 542/1/3
f 549/1/3 544/1/3 543/1/3
f 550/2/3 545/2/3 544/2/3
f 550/1/3 544/1/3 549/1/3
f 551/1/3 546/1/3 545/1/3
f 551/2/3 545/2/3 550/2/3
f 551/1/3 547/1/3 546/1/3
f 552/1/3 541/1/3 547/1/3
f 552/1/3 547/1/3 551/1/3
f 553/1/3 549/1/3 548/1/3
f 554/1/3 549/1/3 553/1/3
f 555/3/3 534/3/3 533/3/3
f 556/3/3 534/3/3 555/3/3
f 557/2/3 554/2/3 553/2/3
f 558/2/3 554/2/3 557/2/3
f 559/2/3 556/2/3 555/2/3
f 560/1/3 558/1/3 557/1/3
f 561/1/3 558/1/3 560/1/3
f 567/1/3 562/1/3 561/1/3
f 567/2/3 563/2/3 562/2/3
f 568/1/3 564/1/3 563/1/3
f 568/2/3 563/2/3 567/2/3
f 569/1/3 564/1/3 568/1/3
f 570/1/3 564/1/3 569/1/3
f 571/2/3 565/2/3 564/2/3
f 571/1/3 564/1/3 570/1/3
f 572/1/3 566/1/3 565/1/3
f 572/2/3 565/2/3 571/2/3
f 573/1/3 566/1/3 572/1/3
f 574/2/3 556/2/3 559/2/3
f 576/1/3 567/1/3 561/1/3
f 576/1/3 568/1/3 567/1/3
f 576/1/3 569/1/3 568/1/3
f 577/2/3 570/2/3 569/2/3
f 577/1/3 569/1/3 576/1/3
f 578/1/3 573/1/3 572/1/3
f 578/2/3 570/2/3 577/2/3
f 578/1/3 571/1/3 570/1/3
f 578/1/3 572/1/3 571/1/3
f 579/1/3 573/1/3 578/1/3
f 580/2/3 576/2/3 575/2/3
f 581/2/3 576/2/3 580/2/3
f 582/2/3 556/2/3 574/2/3
f 583/2/3 556/2/3 582/2/3
f 584/1/3 581/1/3 580/1/3
f 585/1/3 581/1/3 584/1/3
f 586/1/3 581/1/3 585/1/3
f 592/3/3 583/3/3 582/3/3
f 593/3/3 583/3/3 592/3/3
f 594/1/3 587/1/3 586/1/3
f 595/2/3 588/2/3 587/2/3
f 595/1/3 587/1/3 594/1/3
f 596/1/3 589/1/3 588/1/3
f 596/2/3 588/2/3 595/2/3
f 597/1/3 589/1/3 596/1/3
f 598/2/3 590/2/3 589/2/3
f 598/1/3 589/1/3 597/1/3
f 599/1/3 591/1/3 590/1/3
f 599/2/3 590/2/3 598/2/3
f 600/1/3 591/1/3 599/1/3
f 602/2/3 595/2/3 594/2/3
f 603/1/3 596/1/3 595/1/3
f 603/2/3 595/2/3 602/2/3
f 604/2/3 597/2/3 596/2/3
f 604/1/3 596/1/3 603/1/3
f 605/1/3 598/1/3 597/1/3
f 605/2/3 597/2/3 604/2/3
f 605/1/3 599/1/3 598/1/3
f 606/2/3 600/2/3 599/2/3
f 606/1/3 599/1/3 605/1/3
f 607/2/3 600/2/3 606/2/3
f 608/2/3 593/2/3 592/2/3
f 609/2/3 602/2/3 601/2/3
f 610/2/3 602/2/3 609/2/3
f 611/2/3 593/2/3 608/2/3
f 612/2/3 593/2/3 611/2/3
f 613/1/3 610/1/3 609/1/3
f 614/1/3 610/1/3 613/1/3
f 615/2/3 614/2/3 613/2/3
f 616/2/3 614/2/3 615/2/3
f 623/1/3 617/1/3 616/1/3
f 624/1/3 617/1/3 623/1/3
f 625/2/3 618/2/3 617/2/3
f 625/1/3 617/1/3 624/1/3
f 626/1/3 619/1/3 618/1/3
f 626/2/3 618/2/3 625/2/3
f 627/2/3 620/2/3 619/2/3
f 627/1/3 619/1/3 626/1/3
f 628/1/3 621/1/3 620/1/3
f 628/2/3 620/2/3 627/2/3
f 629/1/3 621/1/3 628/1/3
f 630/2/3 622/2/3 621/2/3
f 630/1/3 621/1/3 629/1/3
f 631/2/3 622/2/3 630/2/3
f 632/3/3 612/3/3 611/3/3
f 633/3/3 612/3/3 632/3/3
f 635/2/3 624/2/3 623/2/3
f 636/1/3 627/1/3 626/1/3
f 636/1/3 625/1/3 624/1/3
f 636/2/3 624/2/3 635/2/3
f 636/1/3 626/1/3 625/1/3
f 636/1/3 628/1/3 627/1/3
f 637/2/3 629/2/3 628/2/3
f 637/1/3 628/1/3 636/1/3
f 638/1/3 631/1/3 630/1/3
f 638/2/3 629/2/3 637/2/3
f 638/1/3 630/1/3 629/1/3
f 639/1/3 631/1/3 638/1/3
f 640/2/3 633/2/3 632/2/3
f 641/2/3 633/2/3 640/2/3
f 642/1/3 635/1/3 634/1/3
f 643/1/3 635/1/3 642/1/3
f 644/2/3 643/2/3 642/2/3
f 645/3/3 641/3/3 640/3/3
f 646/2/3 643/2/3 644/2/3
f 647/2/3 643/2/3 646/2/3
f 654/3/3 641/3/3 645/3/3
f 655/3/3 641/3/3 654/3/3
f 656/1/3 648/1/3 647/1/3
f 657/2/3 649/2/3 648/2/3
f 657/1/3 648/1/3 656/1/3
f 658/1/3 650/1/3 649/1/3
f 658/2/3 649/2/3 657/2/3
f 659/1/3 650/1/3 658/1/3
f 660/1/3 650/1/3 659/1/3
f 661/2/3 651/2/3 650/2/3
f 661/1/3 650/1/3 660/1/3
f 662/1/3 652/1/3 651/1/3
f 662/2/3 651/2/3 661/2/3
f 663/1/3 652/1/3 662/1/3
f 664/2/3 657/2/3 656/2/3
f 665/1/3 658/1/3 657/1/3
f 665/2/3 657/2/3 664/2/3
f 665/1/3 659/1/3 658/1/3
f 666/2/3 660/2/3 659/2/3
f 666/1/3 659/1/3 665/1/3
f 667/1/3 661/1/3 660/1/3
f 667/2/3 660/2/3 666/2/3
f 667/1/3 662/1/3 661/1/3
f 668/2/3 663/2/3 662/2/3
f 668/1/3 662/1/3 667/1/3
f 669/1/3 652/1/3 663/1/3
f 669/2/3 663/2/3 668/2/3
f 670/2/3 653/2/3 652/2/3
f 670/1/3 652/1/3 669/1/3
f 671/2/3 653/2/3 670/2/3
f 672/2/3 655/2/3 654/2/3
f 673/2/3 655/2/3 672/2/3
f 674/2/4 675/2/4 683/2/4
f 675/1/4 676/1/4 684/1/4
f 683/2/4 675/2/4 684/2/4
f 684/1/4 676/1/4 685/1/4
f 676/2/4 677/2/4 686/2/4
f 685/1/4 676/1/4 686/1/4
f 677/1/4 678/1/4 687/1/4
f 686/2/4 677/2/4 687/2/4
f 687/1/4 678/1/4 688/1/4
f 678/2/4 679/2/4 689/2/4
f 688/1/4 678/1/4 689/1/4
f 679/1/4 680/1/4 690/1/4
f 689/2/4 679/2/4 690/2/4
f 690/1/4 680/1/4 691/1/4
f 691/1/4 680/1/4 692/1/4
f 681/2/4 682/2/4 693/2/4
f 693/2/4 682/2/4 694/2/4
f 683/1/4 684/1/4 696/1/4
f 684/2/4 685/2/4 697/2/4
f 696/1/4 684/1/4 697/1/4
f 685/1/4 686/1/4 698/1/4
f 697/2/4 685/2/4 698/2/4
f 687/1/4 688/1/4 698/1/4
f 686/1/4 687/1/4 698/1/4
f 688/2/4 689/2/4 699/2/4
f 698/1/4 688/1/4 699/1/4
f 689/1/4 690/1/4 700/1/4
f 699/2/4 689/2/4 700/2/4
f 690/1/4 691/1/4 700/1/4
f 691/2/4 692/2/4 701/2/4
f 700/1/4 691/1/4 701/1/4
f 701/2/4 692/2/4 702/2/4
f 695/1/4 696/1/4 703/1/4
f 693/3/4 694/3/4 704/3/4
f 704/3/4 694/3/4 705/3/4
f 703/1/4 696/1/4 706/1/4
f 704/2/4 705/2/4 707/2/4
f 706/1/4 696/1/4 708/1/4
f 708/1/4 696/1/4 709/1/4
f 709/1/4 710/1/4 717/1/4
f 717/1/4 710/1/4 718/1/4
f 710/2/4 711/2/4 719/2/4
f 718/1/4 710/1/4 719/1/4
f 711/1/4 712/1/4 720/1/4
f 719/2/4 711/2/4 720/2/4
f 712/2/4 713/2/4 721/2/4
f 720/1/4 712/1/4 721/1/4
f 713/1/4 714/1/4 722/1/4
f 721/2/4 713/2/4 722/2/4
f 714/2/4 715/2/4 723/2/4
f 722/1/4 714/1/4 723/1/4
f 715/1/4 716/1/4 724/1/4
f 723/2/4 715/2/4 724/2/4
f 724/1/4 716/1/4 725/1/4
f 725/1/4 716/1/4 726/1/4
f 717/2/4 718/2/4 728/2/4
f 718/1/4 719/1/4 729/1/4
f 719/1/4 720/1/4 729/1/4
f 728/2/4 718/2/4 729/2/4
f 720/2/4 721/2/4 730/2/4
f 729/1/4 720/1/4 730/1/4
f 722/1/4 723/1/4 731/1/4
f 730/2/4 721/2/4 731/2/4
f 721/1/4 722/1/4 731/1/4
f 723/1/4 724/1/4 731/1/4
f 724/1/4 725/1/4 731/1/4
f 725/2/4 726/2/4 732/2/4
f 731/1/4 725/1/4 732/1/4
f 726/1/4 716/1/4 733/1/4
f 732/2/4 726/2/4 733/2/4
f 733/1/4 716/1/4 734/1/4
f 727/1/4 728/1/4 735/1/4
f 707/2/4 705/2/4 736/2/4
f 735/1/4 728/1/4 737/1/4
f 737/1/4 728/1/4 738/1/4
f 738/1/4 728/1/4 739/1/4
f 736/2/4 705/2/4 745/2/4
f 745/2/4 705/2/4 746/2/4
f 739/1/4 740/1/4 747/1/4
f 740/2/4 741/2/4 747/2/4
f 741/1/4 742/1/4 748/1/4
f 747/2/4 741/2/4 748/2/4
f 748/1/4 742/1/4 749/1/4
f 749/1/4 742/1/4 750/1/4
f 742/2/4 743/2/4 751/2/4
f 750/1/4 742/1/4 751/1/4
f 743/1/4 744/1/4 752/1/4
f 751/2/4 743/2/4 752/2/4
f 752/1/4 744/1/4 753/1/4
f 753/1/4 744/1/4 754/1/4
f 739/1/4 747/1/4 756/1/4
f 747/1/4 748/1/4 756/1/4
f 748/1/4 749/1/4 756/1/4
f 749/2/4 750/2/4 757/2/4
f 756/1/4 749/1/4 757/1/4
f 750/1/4 751/1/4 758/1/4
f 757/2/4 750/2/4 758/2/4
f 752/1/4 753/1/4 758/1/4
f 751/1/4 752/1/4 758/1/4
f 753/2/4 754/2/4 759/2/4
f 758/1/4 753/1/4 759/1/4
f 754/1/4 744/1/4 760/1/4
f 759/2/4 754/2/4 760/2/4
f 760/1/4 744/1/4 761/1/4
f 745/3/4 746/3/4 762/3/4
f 755/1/4 756/1/4 763/1/4
f 762/3/4 746/3/4 764/3/4
f 764/3/4 746/3/4 765/3/4
f 763/1/4 756/1/4 766/1/4
f 766/1/4 756/1/4 767/1/4
f 764/2/4 765/2/4 768/2/4
f 766/2/4 767/2/4 769/2/4
f 769/2/4 767/2/4 770/2/4
f 768/2/4 765/2/4 777/2/4
f 777/2/4 765/2/4 778/2/4
f 770/2/4 771/2/4 779/2/4
f 771/1/4 772/1/4 780/1/4
f 779/2/4 771/2/4 780/2/4
f 772/2/4 773/2/4 781/2/4
f 773/1/4 774/1/4 781/1/4
f 781/1/4 774/1/4 782/1/4
f 774/2/4 775/2/4 783/2/4
f 782/1/4 774/1/4 783/1/4
f 775/1/4 776/1/4 784/1/4
f 783/2/4 775/2/4 784/2/4
f 784/1/4 776/1/4 785/1/4
f 785/1/4 776/1/4 786/1/4
f 779/1/4 780/1/4 788/1/4
f 780/1/4 772/1/4 789/1/4
f 781/2/4 782/2/4 789/2/4
f 788/1/4 780/1/4 789/1/4
f 772/2/4 781/2/4 789/2/4
f 782/1/4 783/1/4 790/1/4
f 789/2/4 782/2/4 790/2/4
f 783/1/4 784/1/4 790/1/4
f 784/1/4 785/1/4 790/1/4
f 785/2/4 786/2/4 791/2/4
f 790/1/4 785/1/4 791/1/4
f 786/1/4 776/1/4 792/1/4
f 791/2/4 786/2/4 792/2/4
f 792/1/4 776/1/4 793/1/4
f 787/1/4 788/1/4 794/1/4
f 794/1/4 788/1/4 795/1/4
f 777/3/4 778/3/4 796/3/4
f 796/3/4 778/3/4 797/3/4
f 794/2/4 795/2/4 798/2/4
f 798/2/4 795/2/4 799/2/4
f 798/1/4 799/1/4 800/1/4
f 800/1/4 799/1/4 801/1/4
f 802/2/4 803/2/4 808/2/4
f 803/1/4 804/1/4 808/1/4
f 808/1/4 804/1/4 809/1/4
f 809/1/4 804/1/4 810/1/4
f 810/1/4 804/1/4 811/1/4
f 811/1/4 804/1/4 812/1/4
f 804/2/4 805/2/4 813/2/4
f 812/1/4 804/1/4 813/1/4
f 805/1/4 806/1/4 814/1/4
f 813/2/4 805/2/4 814/2/4
f 806/2/4 807/2/4 815/2/4
f 814/1/4 806/1/4 815/1/4
f 815/2/4 807/2/4 816/2/4
f 796/2/4 797/2/4 817/2/4
f 801/1/4 802/1/4 819/1/4
f 802/2/4 808/2/4 820/2/4
f 808/2/4 809/2/4 820/2/4
f 819/1/4 802/1/4 820/1/4
f 809/1/4 810/1/4 821/1/4
f 820/2/4 809/2/4 821/2/4
f 810/2/4 811/2/4 822/2/4
f 821/1/4 810/1/4 822/1/4
f 811/1/4 812/1/4 823/1/4
f 822/2/4 811/2/4 823/2/4
f 812/2/4 813/2/4 824/2/4
f 823/1/4 812/1/4 824/1/4
f 815/1/4 816/1/4 825/1/4
f 824/2/4 813/2/4 825/2/4
f 813/1/4 814/1/4 825/1/4
f 814/1/4 815/1/4 825/1/4
f 825/1/4 816/1/4 826/1/4
f 818/2/4 819/2/4 827/2/4
f 827/2/4 819/2/4 828/2/4
f 817/2/4 797/2/4 829/2/4
f 827/1/4 828/1/4 830/1/4
f 830/1/4 828/1/4 831/1/4
f 831/1/4 828/1/4 832/1/4
f 829/2/4 797/2/4 838/2/4
f 838/2/4 797/2/4 839/2/4
f 832/1/4 833/1/4 840/1/4
f 833/2/4 834/2/4 840/2/4
f 834/1/4 835/1/4 841/1/4
f 840/2/4 834/2/4 841/2/4
f 841/1/4 835/1/4 842/1/4
f 842/1/4 835/1/4 843/1/4
f 835/2/4 836/2/4 844/2/4
f 843/1/4 835/1/4 844/1/4
f 836/1/4 837/1/4 845/1/4
f 844/2/4 836/2/4 845/2/4
f 845/1/4 837/1/4 846/1/4
f 846/1/4 837/1/4 847/1/4
f 847/1/4 837/1/4 848/1/4
f 848/1/4 837/1/4 849/1/4
f 838/3/4 839/3/4 850/3/4
f 832/1/4 840/1/4 851/1/4
f 840/1/4 841/1/4 851/1/4
f 841/1/4 842/1/4 851/1/4
f 842/2/4 843/2/4 852/2/4
f 851/1/4 842/1/4 852/1/4
f 843/1/4 844/1/4 853/1/4
f 852/2/4 843/2/4 853/2/4
f 844/1/4 845/1/4 853/1/4
f 845/2/4 846/2/4 854/2/4
f 853/1/4 845/1/4 854/1/4
f 846/1/4 847/1/4 855/1/4
f 854/2/4 846/2/4 855/2/4
f 847/2/4 848/2/4 856/2/4
f 855/1/4 847/1/4 856/1/4
f 848/1/4 849/1/4 857/1/4
f 856/2/4 848/2/4 857/2/4
f 857/1/4 849/1/4 858/1/4
f 850/3/4 839/3/4 859/3/4
f 859/3/4 839/3/4 860/3/4
f 861/2/4 862/2/4 866/2/4
f 866/2/4 862/2/4 867/2/4
f 865/1/4 866/1/4 868/1/4
f 868/1/4 866/1/4 869/1/4
f 868/2/4 869/2/4 870/2/4
f 870/2/4 869/2/4 871/2/4
f 863/2/4 864/2/4 872/2/4
f 872/2/4 864/2/4 873/2/4
f 870/1/4 871/1/4 874/1/4
f 874/1/4 871/1/4 875/1/4
f 875/2/4 876/2/4 878/2/4
f 878/2/4 876/2/4 879/2/4
f 877/2/4 878/2/4 880/2/4
f 880/2/4 878/2/4 881/2/4
f 872/3/4 873/3/4 882/3/4
f 882/3/4 873/3/4 883/3/4
f 880/1/4 881/1/4 884/1/4
f 884/1/4 881/1/4 885/1/4
f 884/2/4 885/2/4 886/2/4
f 886/2/4 885/2/4 887/2/4
f 887/2/4 888/2/4 890/2/4
f 890/2/4 888/2/4 891/2/4
f 882/2/4 883/2/4 892/2/4
f 892/2/4 883/2/4 893/2/4
f 889/1/4 890/1/4 894/1/4
f 894/1/4 890/1/4 895/1/4
f 894/2/4 895/2/4 896/2/4
f 896/2/4 895/2/4 897/2/4
f 892/3/4 893/3/4 898/3/4
f 898/3/4 893/3/4 899/3/4
f 896/1/4 897/1/4 900/1/4
f 900/1/4 897/1/4 901/1/4
f 901/2/4 902/2/4 904/2/4
f 904/2/4 902/2/4 905/2/4
f 903/2/4 904/2/4 906/2/4
f 906/2/4 904/2/4 907/2/4
f 898/2/4 899/2/4 908/2/4
f 908/2/4 899/2/4 909/2/4
f 906/1/4 907/1/4 910/1/4
f 910/1/4 907/1/4 911/1/4
f 908/3/4 909/3/4 913/3/4
f 913/3/4 909/3/4 914/3/4
f 911/2/4 912/2/4 916/2/4
f 916/2/4 912/2/4 917/2/4
f 915/1/4 916/1/4 918/1/4
f 918/1/4 916/1/4 919/1/4
f 913/2/4 914/2/4 920/2/4
f 920/2/4 914/2/4 921/2/4
f 918/2/4 919/2/4 922/2/4
f 922/2/4 919/2/4 923/2/4
f 922/1/4 923/1/4 924/1/4
f 924/1/4 923/1/4 925/1/4
f 920/3/4 921/3/4 927/3/4
f 927/3/4 921/3/4 928/3/4
f 925/2/4 926/2/4 929/2/4
f 929/2/4 926/2/4 930/2/4
f 927/2/4 928/2/4 931/2/4
f 931/2/4 928/2/4 932/2/4
f 933/2/4 934/2/4 935/2/4
f 935/2/4 934/2/4 936/2/4
f 937/2/4 938/2/4 939/2/4
f 939/2/4 938/2/4 940/2/4
f 941/2/4 942/2/4 943/2/4
f 943/2/4 942/2/4 944/2/4
f 945/2/4 946/2/4 947/2/4
f 947/2/4 946/2/4 948/2/4
f 949/2/4 950/2/4 951/2/4
f 951/2/4 950/2/4 952/2/4
f 953/2/4 954/2/4 955/2/4
f 955/2/4 954/2/4 956/2/4
f 969/2/5 958/2/5 957/2/5
f 970/2/5 958/2/5 969/2/5
f 973/2/5 960/2/5 959/2/5
f 974/2/5 960/2/5 973/2/5
f 976/2/5 962/2/5 961/2/5
f 977/2/5 962/2/5 976/2/5
f 980/2/5 964/2/5 963/2/5
f 981/2/5 964/2/5 980/2/5
f 984/2/5 966/2/5 965/2/5
f 985/2/5 966/2/5 984/2/5
f 989/2/5 968/2/5 967/2/5
f 990/2/5 968/2/5 989/2/5
f 991/2/5 972/2/5 971/2/5
f 991/1/5 970/1/5 969/1/5
f 991/1/5 971/1/5 970/1/5
f 992/1/5 975/1/5 974/1/5
f 992/2/5 972/2/5 991/2/5
f 992/1/5 973/1/5 972/1/5
f 992/1/5 974/1/5 973/1/5
f 993/2/5 976/2/5 975/2/5
f 993/1/5 975/1/5 992/1/5
f 994/1/5 977/1/5 976/1/5
f 994/2/5 976/2/5 993/2/5
f 995/2/5 978/2/5 977/2/5
f 995/1/5 977/1/5 994/1/5
f 996/1/5 979/1/5 978/1/5
f 996/2/5 978/2/5 995/2/5
f 997/2/5 980/2/5 979/2/5
f 997/1/5 979/1/5 996/1/5
f 998/1/5 981/1/5 980/1/5
f 998/2/5 980/2/5 997/2/5
f 998/1/5 982/1/5 981/1/5
f 999/2/5 983/2/5 982/2/5
f 999/1/5 982/1/5 998/1/5
f 1000/1/5 984/1/5 983/1/5
f 1000/2/5 983/2/5 999/2/5
f 1000/1/5 985/1/5 984/1/5
f 1001/2/5 986/2/5 985/2/5
f 1001/1/5 985/1/5 1000/1/5
f 1002/1/5 987/1/5 986/1/5
f 1002/2/5 986/2/5 1001/2/5
f 1003/2/5 988/2/5 987/2/5
f 1003/1/5 987/1/5 1002/1/5
f 1004/1/5 990/1/5 989/1/5
f 1004/2/5 988/2/5 1003/2/5
f 1004/1/5 989/1/5 988/1/5
f 1005/1/5 1002/1/5 1001/1/5
f 1005/1/5 991/1/5 969/1/5
f 1005/1/5 1004/1/5 1003/1/5
f 1005/1/5 995/1/5 994/1/5
f 1005/1/5 1000/1/5 999/1/5
f 1005/1/5 997/1/5 996/1/5
f 1005/1/5 996/1/5 995/1/5
f 1005/1/5 998/1/5 997/1/5
f 1005/1/5 994/1/5 993/1/5
f 1005/1/5 993/1/5 992/1/5
f 1005/1/5 992/1/5 991/1/5
f 1005/1/5 1003/1/5 1002/1/5
f 1005/1/5 1001/1/5 1000/1/5
f 1005/1/5 999/1/5 998/1/5
f 1006/1/5 1004/1/5 1005/1/5
f 1007/1/5 1004/1/5 1006/1/5
f 1008/1/5 1004/1/5 1007/1/5
f 1009/1/5 1004/1/5 1008/1/5
f 1010/1/5 1004/1/5 1009/1/5
f 1011/1/5 1004/1/5 1010/1/5
f 1012/1/5 1004/1/5 1011/1/5
f 1013/1/5 1004/1/5 1012/1/5
f 1014/1/5 1004/1/5 1013/1/5
f 1015/1/5 1004/1/5 1014/1/5
f 1016/1/5 1004/1/5 1015/1/5
f 1017/1/5 1005/1/5 969/1/5
f 1018/1/5 1005/1/5 1017/1/5
f 1019/2/5 1006/2/5 1005/2/5
f 1019/1/5 1005/1/5 1018/1/5
f 1020/1/5 1007/1/5 1006/1/5
f 1020/2/5 1006/2/5 1019/2/5
f 1021/1/5 1007/1/5 1020/1/5
f 1022/2/5 1008/2/5 1007/2/5
f 1022/1/5 1007/1/5 1021/1/5
f 1023/1/5 1009/1/5 1008/1/5
f 1023/2/5 1008/2/5 1022/2/5
f 1024/2/5 1010/2/5 1009/2/5
f 1024/1/5 1009/1/5 1023/1/5
f 1025/1/5 1011/1/5 1010/1/5
f 1025/2/5 1010/2/5 1024/2/5
f 1026/1/5 1011/1/5 1025/1/5
f 1027/2/5 1012/2/5 1011/2/5
f 1027/1/5 1011/1/5 1026/1/5
f 1028/1/5 1013/1/5 1012/1/5
f 1028/2/5 1012/2/5 1027/2/5
f 1029/1/5 1013/1/5 1028/1/5
f 1030/2/5 1014/2/5 1013/2/5
f 1030/1/5 1013/1/5 1029/1/5
f 1031/1/5 1015/1/5 1014/1/5
f 1031/2/5 1014/2/5 1030/2/5
f 1032/1/5 1015/1/5 1031/1/5
f 1033/1/5 1015/1/5 1032/1/5
f 1034/2/5 1016/2/5 1015/2/5
f 1034/1/5 1015/1/5 1033/1/5
f 1035/1/5 1004/1/5 1016/1/5
f 1035/2/5 1016/2/5 1034/2/5
f 1036/1/5 990/1/5 1004/1/5
f 1036/1/5 1004/1/5 1035/1/5
f 1037/1/5 990/1/5 1036/1/5
f 1038/2/5 1018/2/5 1017/2/5
f 1039/2/5 1018/2/5 1038/2/5
f 1040/2/5 1022/2/5 1021/2/5
f 1041/2/5 1022/2/5 1040/2/5
f 1042/2/5 1026/2/5 1025/2/5
f 1043/2/5 1026/2/5 1042/2/5
f 1044/2/5 1030/2/5 1029/2/5
f 1045/2/5 1030/2/5 1044/2/5
f 1046/2/5 1033/2/5 1032/2/5
f 1047/2/5 1033/2/5 1046/2/5
f 1048/2/5 1037/2/5 1036/2/5
f 1049/2/5 1037/2/5 1048/2/5
f 1059/2/5 1051/2/5 1050/2/5
f 1060/3/5 1052/3/5 1051/3/5
f 1060/2/5 1051/2/5 1059/2/5
f 1061/2/5 1053/2/5 1052/2/5
f 1061/3/5 1052/3/5 1060/3/5
f 1062/2/5 1053/2/5 1061/2/5
f 1063/2/5 1053/2/5 1062/2/5
f 1064/3/5 1054/3/5 1053/3/5
f 1064/2/5 1053/2/5 1063/2/5
f 1065/3/5 1054/3/5 1064/3/5
f 1066/2/5 1055/2/5 1054/2/5
f 1066/3/5 1054/3/5 1065/3/5
f 1067/2/5 1055/2/5 1066/2/5
f 1068/3/5 1056/3/5 1055/3/5
f 1068/2/5 1055/2/5 1067/2/5
f 1069/3/5 1056/3/5 1068/3/5
f 1070/2/5 1057/2/5 1056/2/5
f 1070/3/5 1056/3/5 1069/3/5
f 1071/2/5 1057/2/5 1070/2/5
f 1072/2/5 1057/2/5 1071/2/5
f 1073/2/5 1057/2/5 1072/2/5
f 1074/3/5 1058/3/5 1057/3/5
f 1074/2/5 1057/2/5 1073/2/5
f 1075/3/5 1058/3/5 1074/3/5
f 1076/3/5 1058/3/5 1075/3/5
f 1077/2/5 1061/2/5 1060/2/5
f 1077/2/5 1062/2/5 1061/2/5
f 1078/2/5 1071/2/5 1070/2/5
f 1079/2/5 1075/2/5 1074/2/5
f 1079/2/5 1074/2/5 1073/2/5
f 1082/2/5 1062/2/5 1077/2/5
f 1083/2/5 1062/2/5 1082/2/5
f 1084/2/5 1062/2/5 1083/2/5
f 1085/2/5 1065/2/5 1064/2/5
f 1085/2/5 1064/2/5 1063/2/5
f 1086/2/5 1065/2/5 1085/2/5
f 1087/2/5 1065/2/5 1086/2/5
f 1088/2/5 1068/2/5 1067/2/5
f 1089/2/5 1068/2/5 1088/2/5
f 1090/2/5 1068/2/5 1089/2/5
f 1091/2/5 1071/2/5 1078/2/5
f 1092/2/5 1071/2/5 1091/2/5
f 1093/2/5 1071/2/5 1092/2/5
f 1095/2/5 1079/2/5 1073/2/5
f 1096/2/5 1079/2/5 1095/2/5
f 1097/2/5 1079/2/5 1096/2/5
f 1100/2/5 1081/2/5 1080/2/5
f 1100/2/5 1083/2/5 1082/2/5
f 1100/2/5 1082/2/5 1081/2/5
f 1101/3/5 1084/3/5 1083/3/5
f 1101/2/5 1083/2/5 1100/2/5
f 1101/3/5 1085/3/5 1084/3/5
f 1101/3/5 1086/3/5 1085/3/5
f 1102/2/5 1087/2/5 1086/2/5
f 1102/3/5 1086/3/5 1101/3/5
f 1102/2/5 1088/2/5 1087/2/5
f 1103/3/5 1089/3/5 1088/3/5
f 1103/2/5 1088/2/5 1102/2/5
f 1104/2/5 1090/2/5 1089/2/5
f 1104/3/5 1089/3/5 1103/3/5
f 1104/2/5 1091/2/5 1090/2/5
f 1104/2/5 1092/2/5 1091/2/5
f 1105/3/5 1094/3/5 1093/3/5
f 1105/2/5 1092/2/5 1104/2/5
f 1105/3/5 1093/3/5 1092/3/5
f 1106/2/5 1096/2/5 1095/2/5
f 1106/3/5 1094/3/5 1105/3/5
f 1106/2/5 1095/2/5 1094/2/5
f 1107/3/5 1098/3/5 1097/3/5
f 1107/2/5 1096/2/5 1106/2/5
f 1107/3/5 1097/3/5 1096/3/5
f 1108/2/5 1099/2/5 1098/2/5
f 1108/3/5 1098/3/5 1107/3/5
f 1109/2/5 1099/2/5 1108/2/5
f 1110/2/6 1111/2/6 1122/2/6
f 1122/2/6 1111/2/6 1123/2/6
f 1112/2/6 1113/2/6 1126/2/6
f 1126/2/6 1113/2/6 1127/2/6
f 1114/2/6 1115/2/6 1129/2/6
f 1129/2/6 1115/2/6 1130/2/6
f 1116/2/6 1117/2/6 1133/2/6
f 1133/2/6 1117/2/6 1134/2/6
f 1118/2/6 1119/2/6 1137/2/6
f 1137/2/6 1119/2/6 1138/2/6
f 1120/2/6 1121/2/6 1142/2/6
f 1142/2/6 1121/2/6 1143/2/6
f 1123/1/6 1124/1/6 1144/1/6
f 1124/2/6 1125/2/6 1145/2/6
f 1144/1/6 1124/1/6 1145/1/6
f 1125/1/6 1126/1/6 1146/1/6
f 1145/2/6 1125/2/6 1146/2/6
f 1146/1/6 1126/1/6 1147/1/6
f 1127/1/6 1128/1/6 1148/1/6
f 1148/1/6 1128/1/6 1149/1/6
f 1128/2/6 1129/2/6 1150/2/6
f 1149/1/6 1128/1/6 1150/1/6
f 1150/2/6 1129/2/6 1151/2/6
f 1130/2/6 1131/2/6 1152/2/6
f 1131/1/6 1132/1/6 1153/1/6
f 1152/2/6 1131/2/6 1153/2/6
f 1132/2/6 1133/2/6 1154/2/6
f 1153/1/6 1132/1/6 1154/1/6
f 1154/2/6 1133/2/6 1155/2/6
f 1134/1/6 1135/1/6 1156/1/6
f 1135/2/6 1136/2/6 1157/2/6
f 1156/1/6 1135/1/6 1157/1/6
f 1136/1/6 1137/1/6 1158/1/6
f 1157/2/6 1136/2/6 1158/2/6
f 1158/1/6 1137/1/6 1159/1/6
f 1138/2/6 1139/2/6 1160/2/6
f 1139/1/6 1140/1/6 1161/1/6
f 1160/2/6 1139/2/6 1161/2/6
f 1140/2/6 1141/2/6 1162/2/6
f 1161/1/6 1140/1/6 1162/1/6
f 1162/2/6 1141/2/6 1163/2/6
f 1164/1/6 1165/1/6 1185/1/6
f 1165/2/6 1166/2/6 1186/2/6
f 1185/1/6 1165/1/6 1186/1/6
f 1166/1/6 1167/1/6 1187/1/6
f 1186/2/6 1166/2/6 1187/2/6
f 1187/1/6 1167/1/6 1188/1/6
f 1168/2/6 1169/2/6 1189/2/6
f 1169/1/6 1170/1/6 1190/1/6
f 1189/2/6 1169/2/6 1190/2/6
f 1170/2/6 1171/2/6 1191/2/6
f 1190/1/6 1170/1/6 1191/1/6
f 1191/2/6 1171/2/6 1192/2/6
f 1172/1/6 1173/1/6 1193/1/6
f 1173/2/6 1174/2/6 1194/2/6
f 1193/1/6 1173/1/6 1194/1/6
f 1174/1/6 1175/1/6 1195/1/6
f 1194/2/6 1174/2/6 1195/2/6
f 1195/1/6 1175/1/6 1196/1/6
f 1176/2/6 1177/2/6 1197/2/6
f 1177/1/6 1178/1/6 1198/1/6
f 1178/1/6 1179/1/6 1198/1/6
f 1197/2/6 1177/2/6 1198/2/6
f 1198/1/6 1179/1/6 1199/1/6
f 1180/1/6 1181/1/6 1200/1/6
f 1181/2/6 1182/2/6 1201/2/6
f 1200/1/6 1181/1/6 1201/1/6
f 1182/1/6 1183/1/6 1202/1/6
f 1201/2/6 1182/2/6 1202/2/6
f 1202/1/6 1183/1/6 1203/1/6
f 1184/2/6 1185/2/6 1205/2/6
f 1205/2/6 1185/2/6 1206/2/6
f 1188/2/6 1189/2/6 1207/2/6
f 1207/2/6 1189/2/6 1208/2/6
f 1192/2/6 1193/2/6 1209/2/6
f 1209/2/6 1193/2/6 1210/2/6
f 1196/2/6 1197/2/6 1211/2/6
f 1211/2/6 1197/2/6 1212/2/6
f 1199/2/6 1200/2/6 1213/2/6
f 1213/2/6 1200/2/6 1214/2/6
f 1203/2/6 1204/2/6 1215/2/6
f 1215/2/6 1204/2/6 1216/2/6
f 1217/2/6 1218/2/6 1229/2/6
f 1229/2/6 1218/2/6 1230/2/6
f 1219/2/6 1220/2/6 1233/2/6
f 1233/2/6 1220/2/6 1234/2/6
f 1221/2/6 1222/2/6 1237/2/6
f 1237/2/6 1222/2/6 1238/2/6
f 1223/2/6 1224/2/6 1240/2/6
f 1240/2/6 1224/2/6 1241/2/6
f 1241/2/6 1224/2/6 1242/2/6
f 1225/2/6 1226/2/6 1245/2/6
f 1245/2/6 1226/2/6 1246/2/6
f 1246/2/6 1226/2/6 1247/2/6
f 1227/2/6 1228/2/6 1249/2/6
f 1249/2/6 1228/2/6 1250/2/6
f 1250/2/6 1228/2/6 1251/2/6
f 1230/2/6 1231/2/6 1252/2/6
f 1231/1/6 1232/1/6 1253/1/6
f 1252/2/6 1231/2/6 1253/2/6
f 1232/2/6 1233/2/6 1254/2/6
f 1253/1/6 1232/1/6 1254/1/6
f 1254/2/6 1233/2/6 1255/2/6
f 1234/1/6 1235/1/6 1256/1/6
f 1235/2/6 1236/2/6 1257/2/6
f 1256/1/6 1235/1/6 1257/1/6
f 1236/1/6 1237/1/6 1258/1/6
f 1257/2/6 1236/2/6 1258/2/6
f 1238/2/6 1239/2/6 1259/2/6
f 1239/1/6 1240/1/6 1260/1/6
f 1259/2/6 1239/2/6 1260/2/6
f 1260/1/6 1240/1/6 1261/1/6
f 1261/1/6 1240/1/6 1262/1/6
f 1242/2/6 1243/2/6 1263/2/6
f 1243/1/6 1244/1/6 1264/1/6
f 1263/2/6 1243/2/6 1264/2/6
f 1244/2/6 1245/2/6 1265/2/6
f 1264/1/6 1244/1/6 1265/1/6
f 1265/2/6 1245/2/6 1266/2/6
f 1247/1/6 1248/1/6 1267/1/6
f 1248/2/6 1249/2/6 1268/2/6
f 1267/1/6 1248/1/6 1268/1/6
f 1268/2/6 1249/2/6 1269/2/6
f 1252/1/6 1253/1/6 1272/1/6
f 1254/1/6 1255/1/6 1272/1/6
f 1253/1/6 1254/1/6 1272/1/6
f 1272/1/6 1255/1/6 1273/1/6
f 1256/1/6 1257/1/6 1275/1/6
f 1257/1/6 1258/1/6 1275/1/6
f 1258/1/6 1237/1/6 1276/1/6
f 1275/1/6 1258/1/6 1276/1/6
f 1259/1/6 1260/1/6 1277/1/6
f 1260/1/6 1261/1/6 1277/1/6
f 1261/2/6 1262/2/6 1278/2/6
f 1277/1/6 1261/1/6 1278/1/6
f 1278/2/6 1262/2/6 1279/2/6
f 1263/1/6 1264/1/6 1281/1/6
f 1264/2/6 1265/2/6 1282/2/6
f 1281/1/6 1264/1/6 1282/1/6
f 1265/1/6 1266/1/6 1283/1/6
f 1282/2/6 1265/2/6 1283/2/6
f 1283/1/6 1266/1/6 1284/1/6
f 1267/2/6 1268/2/6 1285/2/6
f 1268/1/6 1269/1/6 1286/1/6
f 1285/2/6 1268/2/6 1286/2/6
f 1286/1/6 1269/1/6 1287/1/6
f 1270/2/6 1271/2/6 1289/2/6
f 1271/2/6 1272/2/6 1289/2/6
f 1289/2/6 1272/2/6 1290/2/6
f 1274/2/6 1275/2/6 1291/2/6
f 1273/2/6 1274/2/6 1291/2/6
f 1291/2/6 1275/2/6 1292/2/6
f 1276/2/6 1277/2/6 1293/2/6
f 1293/2/6 1277/2/6 1294/2/6
f 1279/2/6 1280/2/6 1295/2/6
f 1280/2/6 1281/2/6 1295/2/6
f 1295/2/6 1281/2/6 1296/2/6
f 1284/2/6 1285/2/6 1297/2/6
f 1297/2/6 1285/2/6 1298/2/6
f 1287/2/6 1288/2/6 1299/2/6
f 1299/2/6 1288/2/6 1300/2/6
f 1301/2/6 1302/2/6 1310/2/6
f 1302/3/6 1303/3/6 1311/3/6
f 1310/2/6 1302/2/6 1311/2/6
f 1303/2/6 1304/2/6 1312/2/6
f 1311/3/6 1303/3/6 1312/3/6
f 1312/2/6 1304/2/6 1313/2/6
f 1304/3/6 1305/3/6 1314/3/6
f 1313/2/6 1304/2/6 1314/2/6
f 1305/2/6 1306/2/6 1315/2/6
f 1314/3/6 1305/3/6 1315/3/6
f 1315/2/6 1306/2/6 1316/2/6
f 1306/3/6 1307/3/6 1317/3/6
f 1316/2/6 1306/2/6 1317/2/6
f 1307/2/6 1308/2/6 1318/2/6
f 1317/3/6 1307/3/6 1318/3/6
f 1318/2/6 1308/2/6 1319/2/6
f 1319/2/6 1308/2/6 1320/2/6
f 1320/2/6 1308/2/6 1321/2/6
f 1308/3/6 1309/3/6 1322/3/6
f 1321/2/6 1308/2/6 1322/2/6
f 1322/3/6 1309/3/6 1323/3/6
f 1323/3/6 1309/3/6 1324/3/6
f 1325/2/6 1326/2/6 1341/2/6
f 1326/2/6 1327/2/6 1341/2/6
f 1327/2/6 1328/2/6 1341/2/6
f 1328/3/6 1329/3/6 1342/3/6
f 1341/2/6 1328/2/6 1342/2/6
f 1329/2/6 1330/2/6 1343/2/6
f 1342/3/6 1329/3/6 1343/3/6
f 1330/2/6 1331/2/6 1343/2/6
f 1331/3/6 1332/3/6 1344/3/6
f 1343/2/6 1331/2/6 1344/2/6
f 1332/3/6 1333/3/6 1344/3/6
f 1333/2/6 1334/2/6 1345/2/6
f 1344/3/6 1333/3/6 1345/3/6
f 1334/2/6 1335/2/6 1345/2/6
f 1335/3/6 1336/3/6 1346/3/6
f 1345/2/6 1335/2/6 1346/2/6
f 1336/2/6 1337/2/6 1347/2/6
f 1346/3/6 1336/3/6 1347/3/6
f 1338/3/6 1339/3/6 1348/3/6
f 1347/2/6 1337/2/6 1348/2/6
f 1337/3/6 1338/3/6 1348/3/6
f 1339/2/6 1340/2/6 1349/2/6
f 1348/3/6 1339/3/6 1349/3/6
f 1349/2/6 1340/2/6 1350/2/6
f 1351/3/6 1352/3/6 1362/3/6
f 1362/3/6 1352/3/6 1363/3/6
f 1352/2/6 1353/2/6 1364/2/6
f 1363/3/6 1352/3/6 1364/3/6
f 1364/2/6 1353/2/6 1365/2/6
f 1353/3/6 1354/3/6 1366/3/6
f 1365/2/6 1353/2/6 1366/2/6
f 1354/2/6 1355/2/6 1367/2/6
f 1366/3/6 1354/3/6 1367/3/6
f 1367/2/6 1355/2/6 1368/2/6
f 1355/3/6 1356/3/6 1369/3/6
f 1368/2/6 1355/2/6 1369/2/6
f 1356/2/6 1357/2/6 1370/2/6
f 1369/3/6 1356/3/6 1370/3/6
f 1357/3/6 1358/3/6 1371/3/6
f 1370/2/6 1357/2/6 1371/2/6
f 1358/2/6 1359/2/6 1372/2/6
f 1371/3/6 1358/3/6 1372/3/6
f 1359/3/6 1360/3/6 1373/3/6
f 1372/2/6 1359/2/6 1373/2/6
f 1360/2/6 1361/2/6 1374/2/6
f 1373/3/6 1360/3/6 1374/3/6
f 1374/2/6 1361/2/6 1375/2/6
f 1362/2/6 1363/2/6 1376/2/6
f 1364/3/6 1365/3/6 1377/3/6
f 1376/2/6 1363/2/6 1377/2/6
f 1363/3/6 1364/3/6 1377/3/6
f 1365/2/6 1366/2/6 1378/2/6
f 1377/3/6 1365/3/6 1378/3/6
f 1367/2/6 1368/2/6 1378/2/6
f 1366/2/6 1367/2/6 1378/2/6
f 1368/3/6 1369/3/6 1379/3/6
f 1378/2/6 1368/2/6 1379/2/6
f 1369/2/6 1370/2/6 1380/2/6
f 1379/3/6 1369/3/6 1380/3/6
f 1370/3/6 1371/3/6 1381/3/6
f 1380/2/6 1370/2/6 1381/2/6
f 1372/2/6 1373/2/6 1382/2/6
f 1381/3/6 1371/3/6 1382/3/6
f 1373/2/6 1374/2/6 1382/2/6
f 1371/2/6 1372/2/6 1382/2/6
f 1374/3/6 1375/3/6 1383/3/6
f 1382/2/6 1374/2/6 1383/2/6
f 1383/3/6 1375/3/6 1384/3/6
