# MagicaVoxel @ Ephtracy

# group
o 

# material
mtllib Hoguera.mtl
usemtl palette

# normals
vn -1 0 0
vn 1 0 0
vn 0 0 1
vn 0 0 -1
vn 0 -1 0
vn 0 1 0

# texcoords
vt 0.0449219 0.5
vt 0.142578 0.5
vt 0.208984 0.5
vt 0.232422 0.5
vt 0.533203 0.5
vt 0.537109 0.5
vt 0.869141 0.5
vt 0.958984 0.5
vt 0.970703 0.5
vt 0.978516 0.5
vt 0.986328 0.5
vt 0.994141 0.5

# verts
v -2 0 0
v -2 0 -1.9
v -2 0 -2
v -2 0.1 0
v -2 0.1 -1.9
v -2 0.1 -2
v -2 4 -1.9
v -2 4 -2
v -1.9 0.1 -1.1
v -1.9 0.1 -1.9
v -1.9 0.2 -1.1
v -1.9 0.2 -1.9
v -1.9 2.3 -1.1
v -1.9 2.3 -1.9
v -1.9 2.4 -1.1
v -1.9 2.4 -1.9
v -1.8 0.2 -1.2
v -1.8 0.2 -1.9
v -1.8 0.3 -1.2
v -1.8 0.3 -1.9
v -1.8 2.1 -1.2
v -1.8 2.1 -1.9
v -1.8 2.2 -1.2
v -1.8 2.2 -1.9
v -1.7 0.3 -1.3
v -1.7 0.3 -1.9
v -1.7 2.1 -1.3
v -1.7 2.1 -1.9
v -1.7 2.2 -1.3
v -1.7 2.2 -1.9
v -1.7 2.3 -1.3
v -1.7 2.3 -1.9
v -1.5 2.4 -1.5
v -1.5 2.4 -1.6
v -1.5 2.8 -1.5
v -1.5 2.8 -1.6
v -1.4 2.4 -1.7
v -1.4 2.4 -1.8
v -1.4 2.5 -1.6
v -1.4 2.5 -1.7
v -1.4 2.5 -1.8
v -1.4 2.6 -1.6
v -1.4 2.6 -1.7
v -0.6 2.4 -1.4
v -0.6 2.4 -1.5
v -0.6 3.1 -1.4
v -0.6 3.1 -1.5
v -0.3 0.2 -1.7
v -0.3 0.2 -1.9
v -0.3 0.3 -1.7
v -0.3 0.3 -1.9
v -0.2 0.2 -1.6
v -0.2 0.2 -1.7
v -0.2 0.3 -1.6
v -0.2 0.3 -1.7
v -0.2 0.3 -1.8
v -0.2 0.4 -1.7
v -0.2 0.4 -1.8
v -0.0999999 0.3 -1.8
v -0.0999999 0.3 -1.9
v -0.0999999 0.4 -1.8
v -0.0999999 0.4 -1.9
v 2.38419e-07 0.3 -1.7
v 2.38419e-07 0.3 -1.8
v 2.38419e-07 0.4 -1.7
v 2.38419e-07 0.4 -1.8
v 0.1 0.3 -1.8
v 0.1 0.3 -1.9
v 0.1 0.4 -1.8
v 0.1 0.4 -1.9
v 0.9 0.2 -1.6
v 0.9 0.2 -1.9
v 0.9 1.5 -1.6
v 0.9 1.5 -1.9
v 1.1 0.1 -1.1
v 1.1 0.1 -1.6
v 1.1 0.2 -1.1
v 1.1 0.2 -1.6
v 1.2 0.2 -1.2
v 1.2 0.2 -1.6
v 1.2 0.3 -1.2
v 1.2 0.3 -1.6
v 1.3 0.3 -1.3
v 1.3 0.3 -1.6
v 1.3 1.9 -1.3
v 1.3 1.9 -1.6
v 1.3 2.4 -1.3
v 1.3 2.4 -1.6
v 1.3 2.5 -1.3
v 1.3 2.5 -1.6
v 1.3 2.7 -1.3
v 1.3 2.7 -1.6
v 1.3 2.9 -1.3
v 1.3 2.9 -1.6
v 1.4 2.5 -1.4
v 1.4 2.5 -1.5
v 1.4 2.7 -1.4
v 1.4 2.7 -1.5
v 1.5 2.8 -1.4
v 1.5 2.8 -1.5
v 1.5 2.9 -1.4
v 1.5 2.9 -1.5
v -1.3 0.3 -1.3
v -1.3 0.3 -1.6
v -1.3 1.9 -1.3
v -1.3 1.9 -1.6
v -1.3 2.4 -1.7
v -1.3 2.4 -1.8
v -1.3 2.5 -1.6
v -1.3 2.5 -1.7
v -1.3 2.5 -1.8
v -1.3 2.6 -1.6
v -1.3 2.6 -1.7
v -1.2 0.2 -1.2
v -1.2 0.2 -1.6
v -1.2 0.3 -1.2
v -1.2 0.3 -1.6
v -1.2 2.4 -1.5
v -1.2 2.4 -1.6
v -1.2 2.8 -1.5
v -1.2 2.8 -1.6
v -1.1 0.1 -1.1
v -1.1 0.1 -1.6
v -1.1 0.2 -1.1
v -1.1 0.2 -1.6
v -0.9 0.2 -1.6
v -0.9 0.2 -1.9
v -0.9 1.5 -1.6
v -0.9 1.5 -1.9
v -0.0999999 0.3 -1.7
v -0.0999999 0.3 -1.8
v -0.0999999 0.4 -1.7
v -0.0999999 0.4 -1.8
v 2.38419e-07 0.3 -1.8
v 2.38419e-07 0.3 -1.9
v 2.38419e-07 0.4 -1.8
v 2.38419e-07 0.4 -1.9
v 0.2 0.2 -1.6
v 0.2 0.2 -1.7
v 0.2 0.3 -1.6
v 0.2 0.3 -1.7
v 0.2 0.3 -1.8
v 0.2 0.3 -1.9
v 0.2 0.4 -1.7
v 0.2 0.4 -1.8
v 0.2 0.4 -1.9
v 0.3 0.2 -1.7
v 0.3 0.2 -1.9
v 0.3 0.3 -1.7
v 0.3 0.3 -1.9
v 0.5 2.4 -1.4
v 0.5 2.4 -1.5
v 0.5 3.1 -1.4
v 0.5 3.1 -1.5
v 1.4 2.8 -1.4
v 1.4 2.8 -1.5
v 1.4 2.9 -1.4
v 1.4 2.9 -1.5
v 1.5 2.5 -1.4
v 1.5 2.5 -1.5
v 1.5 2.7 -1.4
v 1.5 2.7 -1.5
v 1.6 2.4 -1.3
v 1.6 2.4 -1.6
v 1.6 2.5 -1.3
v 1.6 2.5 -1.6
v 1.6 2.7 -1.3
v 1.6 2.7 -1.6
v 1.6 2.9 -1.3
v 1.6 2.9 -1.6
v 1.7 0.3 -1.3
v 1.7 0.3 -1.9
v 1.7 2.1 -1.3
v 1.7 2.1 -1.9
v 1.7 2.2 -1.3
v 1.7 2.2 -1.9
v 1.7 2.3 -1.3
v 1.7 2.3 -1.9
v 1.8 0.2 -1.2
v 1.8 0.2 -1.9
v 1.8 0.3 -1.2
v 1.8 0.3 -1.9
v 1.8 2.1 -1.2
v 1.8 2.1 -1.9
v 1.8 2.2 -1.2
v 1.8 2.2 -1.9
v 1.9 0.1 -1.1
v 1.9 0.1 -1.9
v 1.9 0.2 -1.1
v 1.9 0.2 -1.9
v 1.9 2.3 -1.1
v 1.9 2.3 -1.9
v 1.9 2.4 -1.1
v 1.9 2.4 -1.9
v 2 0 0
v 2 0 -1.9
v 2 0 -2
v 2 0.1 0
v 2 0.1 -1.9
v 2 0.1 -2
v 2 4 -1.9
v 2 4 -2
v -2 0 0
v -2 0.1 0
v 2 0 0
v 2 0.1 0
v -1.9 0.1 -1.1
v -1.9 0.2 -1.1
v -1.9 2.3 -1.1
v -1.9 2.4 -1.1
v -1.1 0.1 -1.1
v -1.1 0.2 -1.1
v 1.1 0.1 -1.1
v 1.1 0.2 -1.1
v 1.9 0.1 -1.1
v 1.9 0.2 -1.1
v 1.9 2.3 -1.1
v 1.9 2.4 -1.1
v -1.8 0.2 -1.2
v -1.8 0.3 -1.2
v -1.8 2.1 -1.2
v -1.8 2.2 -1.2
v -1.2 0.2 -1.2
v -1.2 0.3 -1.2
v 1.2 0.2 -1.2
v 1.2 0.3 -1.2
v 1.8 0.2 -1.2
v 1.8 0.3 -1.2
v 1.8 2.1 -1.2
v 1.8 2.2 -1.2
v -1.7 0.3 -1.3
v -1.7 2.1 -1.3
v -1.7 2.2 -1.3
v -1.7 2.3 -1.3
v -1.3 0.3 -1.3
v -1.3 1.9 -1.3
v 1.3 0.3 -1.3
v 1.3 1.9 -1.3
v 1.3 2.4 -1.3
v 1.3 2.5 -1.3
v 1.3 2.7 -1.3
v 1.3 2.9 -1.3
v 1.6 2.4 -1.3
v 1.6 2.5 -1.3
v 1.6 2.7 -1.3
v 1.6 2.9 -1.3
v 1.7 0.3 -1.3
v 1.7 2.1 -1.3
v 1.7 2.2 -1.3
v 1.7 2.3 -1.3
v -0.6 2.4 -1.4
v -0.6 3.1 -1.4
v -0.5 2.5 -1.4
v -0.5 2.6 -1.4
v -0.5 2.7 -1.4
v -0.5 2.8 -1.4
v -0.5 2.9 -1.4
v -0.5 3 -1.4
v -0.4 2.8 -1.4
v -0.4 2.9 -1.4
v -0.3 2.6 -1.4
v -0.3 2.7 -1.4
v -0.3 2.8 -1.4
v -0.3 2.9 -1.4
v -0.2 2.5 -1.4
v -0.2 2.8 -1.4
v -0.2 2.9 -1.4
v -0.2 3 -1.4
v -0.0999999 2.4 -1.4
v -0.0999999 3.1 -1.4
v 2.38419e-07 2.4 -1.4
v 2.38419e-07 3.1 -1.4
v 0.1 2.5 -1.4
v 0.1 2.8 -1.4
v 0.1 2.9 -1.4
v 0.1 3 -1.4
v 0.2 2.6 -1.4
v 0.2 2.7 -1.4
v 0.2 2.8 -1.4
v 0.2 2.9 -1.4
v 0.3 2.8 -1.4
v 0.3 2.9 -1.4
v 0.4 2.5 -1.4
v 0.4 2.6 -1.4
v 0.4 2.7 -1.4
v 0.4 2.8 -1.4
v 0.4 2.9 -1.4
v 0.4 3 -1.4
v 0.5 2.4 -1.4
v 0.5 3.1 -1.4
v 1.4 2.5 -1.4
v 1.4 2.7 -1.4
v 1.5 2.5 -1.4
v 1.5 2.7 -1.4
v -1.5 2.4 -1.5
v -1.5 2.8 -1.5
v -1.4 2.5 -1.5
v -1.4 2.7 -1.5
v -1.3 2.5 -1.5
v -1.3 2.7 -1.5
v -1.2 2.4 -1.5
v -1.2 2.8 -1.5
v 1.4 2.8 -1.5
v 1.4 2.9 -1.5
v 1.5 2.8 -1.5
v 1.5 2.9 -1.5
v -1.3 0.3 -1.6
v -1.3 1.9 -1.6
v -1.2 0.2 -1.6
v -1.2 0.3 -1.6
v -1.1 0.1 -1.6
v -1.1 0.2 -1.6
v -0.9 0.2 -1.6
v -0.9 1.5 -1.6
v -0.2 0.2 -1.6
v -0.2 0.3 -1.6
v 0.2 0.2 -1.6
v 0.2 0.3 -1.6
v 0.9 0.2 -1.6
v 0.9 1.5 -1.6
v 1.1 0.1 -1.6
v 1.1 0.2 -1.6
v 1.2 0.2 -1.6
v 1.2 0.3 -1.6
v 1.3 0.3 -1.6
v 1.3 1.9 -1.6
v -1.4 2.4 -1.7
v -1.4 2.5 -1.7
v -1.3 2.4 -1.7
v -1.3 2.5 -1.7
v -0.3 0.2 -1.7
v -0.3 0.3 -1.7
v -0.2 0.2 -1.7
v -0.2 0.3 -1.7
v -0.2 0.4 -1.7
v -0.0999999 0.3 -1.7
v -0.0999999 0.4 -1.7
v 2.38419e-07 0.3 -1.7
v 2.38419e-07 0.4 -1.7
v 0.1 0.3 -1.7
v 0.1 0.4 -1.7
v 0.2 0.2 -1.7
v 0.2 0.3 -1.7
v 0.2 0.4 -1.7
v 0.3 0.2 -1.7
v 0.3 0.3 -1.7
v -0.0999999 0.3 -1.8
v -0.0999999 0.4 -1.8
v 2.38419e-07 0.3 -1.8
v 2.38419e-07 0.4 -1.8
v -2 0.1 -1.9
v -2 4 -1.9
v -1.9 0.1 -1.9
v -1.9 0.2 -1.9
v -1.9 2.3 -1.9
v -1.9 2.4 -1.9
v -1.8 0.2 -1.9
v -1.8 0.3 -1.9
v -1.8 2.1 -1.9
v -1.8 2.2 -1.9
v -1.7 0.3 -1.9
v -1.7 2.1 -1.9
v -1.7 2.2 -1.9
v -1.7 2.3 -1.9
v -0.9 0.2 -1.9
v -0.9 1.5 -1.9
v -0.3 0.2 -1.9
v -0.3 0.3 -1.9
v -0.2 0.3 -1.9
v -0.0999999 0.3 -1.9
v -0.0999999 0.4 -1.9
v 2.38419e-07 0.3 -1.9
v 2.38419e-07 0.4 -1.9
v 0.1 0.3 -1.9
v 0.1 0.4 -1.9
v 0.2 0.3 -1.9
v 0.2 0.4 -1.9
v 0.3 0.2 -1.9
v 0.3 0.3 -1.9
v 0.9 0.2 -1.9
v 0.9 1.5 -1.9
v 1.7 0.3 -1.9
v 1.7 2.1 -1.9
v 1.7 2.2 -1.9
v 1.7 2.3 -1.9
v 1.8 0.2 -1.9
v 1.8 0.3 -1.9
v 1.8 2.1 -1.9
v 1.8 2.2 -1.9
v 1.9 0.1 -1.9
v 1.9 0.2 -1.9
v 1.9 2.3 -1.9
v 1.9 2.4 -1.9
v 2 0.1 -1.9
v 2 4 -1.9
v 1.4 2.8 -1.4
v 1.4 2.9 -1.4
v 1.5 2.8 -1.4
v 1.5 2.9 -1.4
v -0.6 2.4 -1.5
v -0.6 3.1 -1.5
v -0.5 2.5 -1.5
v -0.5 2.6 -1.5
v -0.5 2.7 -1.5
v -0.5 2.8 -1.5
v -0.5 2.9 -1.5
v -0.5 3 -1.5
v -0.4 2.8 -1.5
v -0.4 2.9 -1.5
v -0.3 2.6 -1.5
v -0.3 2.7 -1.5
v -0.3 2.8 -1.5
v -0.3 2.9 -1.5
v -0.2 2.5 -1.5
v -0.2 2.8 -1.5
v -0.2 2.9 -1.5
v -0.2 3 -1.5
v -0.0999999 2.4 -1.5
v -0.0999999 3.1 -1.5
v 2.38419e-07 2.4 -1.5
v 2.38419e-07 3.1 -1.5
v 0.1 2.5 -1.5
v 0.1 2.8 -1.5
v 0.1 2.9 -1.5
v 0.1 3 -1.5
v 0.2 2.6 -1.5
v 0.2 2.7 -1.5
v 0.2 2.8 -1.5
v 0.2 2.9 -1.5
v 0.3 2.8 -1.5
v 0.3 2.9 -1.5
v 0.4 2.5 -1.5
v 0.4 2.6 -1.5
v 0.4 2.7 -1.5
v 0.4 2.8 -1.5
v 0.4 2.9 -1.5
v 0.4 3 -1.5
v 0.5 2.4 -1.5
v 0.5 3.1 -1.5
v 1.4 2.5 -1.5
v 1.4 2.7 -1.5
v 1.5 2.5 -1.5
v 1.5 2.7 -1.5
v -1.5 2.4 -1.6
v -1.5 2.8 -1.6
v -1.4 2.5 -1.6
v -1.4 2.6 -1.6
v -1.4 2.7 -1.6
v -1.3 2.5 -1.6
v -1.3 2.6 -1.6
v -1.3 2.7 -1.6
v -1.2 2.4 -1.6
v -1.2 2.8 -1.6
v 1.3 2.4 -1.6
v 1.3 2.5 -1.6
v 1.3 2.7 -1.6
v 1.3 2.9 -1.6
v 1.6 2.4 -1.6
v 1.6 2.5 -1.6
v 1.6 2.7 -1.6
v 1.6 2.9 -1.6
v -1.4 2.5 -1.7
v -1.4 2.6 -1.7
v -1.3 2.5 -1.7
v -1.3 2.6 -1.7
v -1.4 2.4 -1.8
v -1.4 2.5 -1.8
v -1.3 2.4 -1.8
v -1.3 2.5 -1.8
v -0.2 0.3 -1.8
v -0.2 0.4 -1.8
v -0.0999999 0.3 -1.8
v -0.0999999 0.4 -1.8
v 2.38419e-07 0.3 -1.8
v 2.38419e-07 0.4 -1.8
v 0.1 0.3 -1.8
v 0.1 0.4 -1.8
v -2 0 -2
v -2 0.1 -2
v -2 4 -2
v -1.9 0.1 -2
v -1.9 0.2 -2
v -1.9 2.3 -2
v -1.9 2.4 -2
v -1.8 0.2 -2
v -1.8 0.3 -2
v -1.8 2.1 -2
v -1.8 2.2 -2
v -1.7 0.3 -2
v -1.7 2.1 -2
v -1.7 2.2 -2
v -1.7 2.3 -2
v -0.9 0.2 -2
v -0.9 1.5 -2
v 0.9 0.2 -2
v 0.9 1.5 -2
v 1.7 0.3 -2
v 1.7 2.1 -2
v 1.7 2.2 -2
v 1.7 2.3 -2
v 1.8 0.2 -2
v 1.8 0.3 -2
v 1.8 2.1 -2
v 1.8 2.2 -2
v 1.9 0.1 -2
v 1.9 0.2 -2
v 1.9 2.3 -2
v 1.9 2.4 -2
v 2 0 -2
v 2 0.1 -2
v 2 4 -2
v -2 0 0
v 2 0 0
v -1.9 0 -1.1
v -1.1 0 -1.1
v 1.1 0 -1.1
v 1.9 0 -1.1
v -1.1 0 -1.6
v 1.1 0 -1.6
v -2 0 -1.9
v -1.9 0 -1.9
v 1.9 0 -1.9
v 2 0 -1.9
v -2 0 -2
v 2 0 -2
v -0.9 1.5 -1.6
v 0.9 1.5 -1.6
v -0.9 1.5 -1.9
v 0.9 1.5 -1.9
v -1.3 1.9 -1.3
v 1.3 1.9 -1.3
v -1.3 1.9 -1.6
v 1.3 1.9 -1.6
v -1.8 2.1 -1.2
v 1.8 2.1 -1.2
v -1.7 2.1 -1.3
v 1.7 2.1 -1.3
v -1.8 2.1 -1.9
v -1.7 2.1 -1.9
v 1.7 2.1 -1.9
v 1.8 2.1 -1.9
v -1.9 2.3 -1.1
v 1.9 2.3 -1.1
v -1.7 2.3 -1.3
v 1.7 2.3 -1.3
v -1.9 2.3 -1.9
v -1.7 2.3 -1.9
v 1.7 2.3 -1.9
v 1.9 2.3 -1.9
v -1.4 2.5 -1.6
v -1.3 2.5 -1.6
v -1.4 2.5 -1.7
v -1.3 2.5 -1.7
v 1.3 2.7 -1.3
v 1.6 2.7 -1.3
v 1.4 2.7 -1.4
v 1.5 2.7 -1.4
v 1.4 2.7 -1.5
v 1.5 2.7 -1.5
v 1.3 2.7 -1.6
v 1.6 2.7 -1.6
v -2 0.1 0
v 2 0.1 0
v -1.9 0.1 -1.1
v -1.1 0.1 -1.1
v 1.1 0.1 -1.1
v 1.9 0.1 -1.1
v -1.1 0.1 -1.6
v 1.1 0.1 -1.6
v -2 0.1 -1.9
v -1.9 0.1 -1.9
v 1.9 0.1 -1.9
v 2 0.1 -1.9
v -1.9 0.2 -1.1
v -1.1 0.2 -1.1
v 1.1 0.2 -1.1
v 1.9 0.2 -1.1
v -1.8 0.2 -1.2
v -1.2 0.2 -1.2
v 1.2 0.2 -1.2
v 1.8 0.2 -1.2
v -1.2 0.2 -1.6
v -1.1 0.2 -1.6
v -0.9 0.2 -1.6
v -0.2 0.2 -1.6
v 0.2 0.2 -1.6
v 0.9 0.2 -1.6
v 1.1 0.2 -1.6
v 1.2 0.2 -1.6
v -0.3 0.2 -1.7
v -0.2 0.2 -1.7
v 0.2 0.2 -1.7
v 0.3 0.2 -1.7
v -1.9 0.2 -1.9
v -1.8 0.2 -1.9
v -0.9 0.2 -1.9
v -0.3 0.2 -1.9
v 0.3 0.2 -1.9
v 0.9 0.2 -1.9
v 1.8 0.2 -1.9
v 1.9 0.2 -1.9
v -1.8 0.3 -1.2
v -1.2 0.3 -1.2
v 1.2 0.3 -1.2
v 1.8 0.3 -1.2
v -1.7 0.3 -1.3
v -1.3 0.3 -1.3
v 1.3 0.3 -1.3
v 1.7 0.3 -1.3
v -1.3 0.3 -1.6
v -1.2 0.3 -1.6
v -0.2 0.3 -1.6
v 0.2 0.3 -1.6
v 1.2 0.3 -1.6
v 1.3 0.3 -1.6
v -0.3 0.3 -1.7
v -0.2 0.3 -1.7
v -0.0999999 0.3 -1.7
v 2.38419e-07 0.3 -1.7
v 0.1 0.3 -1.7
v 0.2 0.3 -1.7
v 0.3 0.3 -1.7
v -0.2 0.3 -1.8
v -0.0999999 0.3 -1.8
v 2.38419e-07 0.3 -1.8
v 0.1 0.3 -1.8
v 0.2 0.3 -1.8
v -1.8 0.3 -1.9
v -1.7 0.3 -1.9
v -0.3 0.3 -1.9
v -0.2 0.3 -1.9
v -0.0999999 0.3 -1.9
v 2.38419e-07 0.3 -1.9
v 0.1 0.3 -1.9
v 0.2 0.3 -1.9
v 0.3 0.3 -1.9
v 1.7 0.3 -1.9
v 1.8 0.3 -1.9
v -0.2 0.4 -1.7
v -0.0999999 0.4 -1.7
v 2.38419e-07 0.4 -1.7
v 0.1 0.4 -1.7
v 0.2 0.4 -1.7
v -0.2 0.4 -1.8
v -0.0999999 0.4 -1.8
v 2.38419e-07 0.4 -1.8
v 0.1 0.4 -1.8
v 0.2 0.4 -1.8
v -0.0999999 0.4 -1.9
v 2.38419e-07 0.4 -1.9
v 0.1 0.4 -1.9
v 0.2 0.4 -1.9
v -1.8 2.2 -1.2
v 1.8 2.2 -1.2
v -1.7 2.2 -1.3
v 1.7 2.2 -1.3
v -1.8 2.2 -1.9
v -1.7 2.2 -1.9
v 1.7 2.2 -1.9
v 1.8 2.2 -1.9
v -1.9 2.4 -1.1
v 1.9 2.4 -1.1
v 1.3 2.4 -1.3
v 1.6 2.4 -1.3
v -0.6 2.4 -1.4
v -0.0999999 2.4 -1.4
v 2.38419e-07 2.4 -1.4
v 0.5 2.4 -1.4
v -1.5 2.4 -1.5
v -1.2 2.4 -1.5
v -0.6 2.4 -1.5
v -0.0999999 2.4 -1.5
v 2.38419e-07 2.4 -1.5
v 0.5 2.4 -1.5
v -1.5 2.4 -1.6
v -1.2 2.4 -1.6
v 1.3 2.4 -1.6
v 1.6 2.4 -1.6
v -1.4 2.4 -1.7
v -1.3 2.4 -1.7
v -1.4 2.4 -1.8
v -1.3 2.4 -1.8
v -1.9 2.4 -1.9
v 1.9 2.4 -1.9
v 1.3 2.5 -1.3
v 1.6 2.5 -1.3
v 1.4 2.5 -1.4
v 1.5 2.5 -1.4
v 1.4 2.5 -1.5
v 1.5 2.5 -1.5
v 1.3 2.5 -1.6
v 1.6 2.5 -1.6
v -1.4 2.5 -1.7
v -1.3 2.5 -1.7
v -1.4 2.5 -1.8
v -1.3 2.5 -1.8
v -1.4 2.6 -1.6
v -1.3 2.6 -1.6
v -1.4 2.6 -1.7
v -1.3 2.6 -1.7
v 1.4 2.8 -1.4
v 1.5 2.8 -1.4
v -1.5 2.8 -1.5
v -1.2 2.8 -1.5
v 1.4 2.8 -1.5
v 1.5 2.8 -1.5
v -1.5 2.8 -1.6
v -1.2 2.8 -1.6
v 1.3 2.9 -1.3
v 1.6 2.9 -1.3
v 1.4 2.9 -1.4
v 1.5 2.9 -1.4
v 1.4 2.9 -1.5
v 1.5 2.9 -1.5
v 1.3 2.9 -1.6
v 1.6 2.9 -1.6
v -0.6 3.1 -1.4
v -0.0999999 3.1 -1.4
v 2.38419e-07 3.1 -1.4
v 0.5 3.1 -1.4
v -0.6 3.1 -1.5
v -0.0999999 3.1 -1.5
v 2.38419e-07 3.1 -1.5
v 0.5 3.1 -1.5
v -2 4 -1.9
v 2 4 -1.9
v -2 4 -2
v 2 4 -2

# faces
f 4/9/1 2/9/1 1/9/1
f 5/10/1 3/10/1 2/10/1
f 5/9/1 2/9/1 4/9/1
f 6/10/1 3/10/1 5/10/1
f 7/9/1 6/9/1 5/9/1
f 8/9/1 6/9/1 7/9/1
f 11/6/1 10/6/1 9/6/1
f 12/6/1 10/6/1 11/6/1
f 15/6/1 14/6/1 13/6/1
f 16/6/1 14/6/1 15/6/1
f 19/6/1 18/6/1 17/6/1
f 20/6/1 18/6/1 19/6/1
f 23/6/1 22/6/1 21/6/1
f 24/6/1 22/6/1 23/6/1
f 27/6/1 26/6/1 25/6/1
f 28/6/1 26/6/1 27/6/1
f 31/6/1 30/6/1 29/6/1
f 32/6/1 30/6/1 31/6/1
f 35/7/1 34/7/1 33/7/1
f 36/7/1 34/7/1 35/7/1
f 40/7/1 38/7/1 37/7/1
f 41/7/1 38/7/1 40/7/1
f 42/7/1 40/7/1 39/7/1
f 43/7/1 40/7/1 42/7/1
f 46/8/1 45/8/1 44/8/1
f 47/8/1 45/8/1 46/8/1
f 50/5/1 49/5/1 48/5/1
f 51/5/1 49/5/1 50/5/1
f 54/5/1 53/5/1 52/5/1
f 55/5/1 53/5/1 54/5/1
f 57/4/1 56/4/1 55/4/1
f 58/4/1 56/4/1 57/4/1
f 61/3/1 60/3/1 59/3/1
f 62/3/1 60/3/1 61/3/1
f 65/4/1 64/4/1 63/4/1
f 66/4/1 64/4/1 65/4/1
f 69/4/1 68/4/1 67/4/1
f 70/4/1 68/4/1 69/4/1
f 73/9/1 72/9/1 71/9/1
f 74/9/1 72/9/1 73/9/1
f 77/6/1 76/6/1 75/6/1
f 78/6/1 76/6/1 77/6/1
f 81/6/1 80/6/1 79/6/1
f 82/6/1 80/6/1 81/6/1
f 85/6/1 84/6/1 83/6/1
f 86/6/1 84/6/1 85/6/1
f 89/2/1 88/2/1 87/2/1
f 90/2/1 88/2/1 89/2/1
f 93/2/1 92/2/1 91/2/1
f 94/2/1 92/2/1 93/2/1
f 97/2/1 96/2/1 95/2/1
f 98/2/1 96/2/1 97/2/1
f 101/2/1 100/2/1 99/2/1
f 102/2/1 100/2/1 101/2/1
f 103/6/2 104/6/2 105/6/2
f 105/6/2 104/6/2 106/6/2
f 107/7/2 108/7/2 110/7/2
f 110/7/2 108/7/2 111/7/2
f 109/7/2 110/7/2 112/7/2
f 112/7/2 110/7/2 113/7/2
f 114/6/2 115/6/2 116/6/2
f 116/6/2 115/6/2 117/6/2
f 118/7/2 119/7/2 120/7/2
f 120/7/2 119/7/2 121/7/2
f 122/6/2 123/6/2 124/6/2
f 124/6/2 123/6/2 125/6/2
f 126/9/2 127/9/2 128/9/2
f 128/9/2 127/9/2 129/9/2
f 130/4/2 131/4/2 132/4/2
f 132/4/2 131/4/2 133/4/2
f 134/3/2 135/3/2 136/3/2
f 136/3/2 135/3/2 137/3/2
f 138/5/2 139/5/2 140/5/2
f 140/5/2 139/5/2 141/5/2
f 141/3/2 142/3/2 144/3/2
f 142/4/2 143/4/2 145/4/2
f 144/3/2 142/3/2 145/3/2
f 145/4/2 143/4/2 146/4/2
f 147/5/2 148/5/2 149/5/2
f 149/5/2 148/5/2 150/5/2
f 151/8/2 152/8/2 153/8/2
f 153/8/2 152/8/2 154/8/2
f 155/2/2 156/2/2 157/2/2
f 157/2/2 156/2/2 158/2/2
f 159/2/2 160/2/2 161/2/2
f 161/2/2 160/2/2 162/2/2
f 163/2/2 164/2/2 165/2/2
f 165/2/2 164/2/2 166/2/2
f 167/2/2 168/2/2 169/2/2
f 169/2/2 168/2/2 170/2/2
f 171/6/2 172/6/2 173/6/2
f 173/6/2 172/6/2 174/6/2
f 175/6/2 176/6/2 177/6/2
f 177/6/2 176/6/2 178/6/2
f 179/6/2 180/6/2 181/6/2
f 181/6/2 180/6/2 182/6/2
f 183/6/2 184/6/2 185/6/2
f 185/6/2 184/6/2 186/6/2
f 187/6/2 188/6/2 189/6/2
f 189/6/2 188/6/2 190/6/2
f 191/6/2 192/6/2 193/6/2
f 193/6/2 192/6/2 194/6/2
f 195/9/2 196/9/2 198/9/2
f 196/10/2 197/10/2 199/10/2
f 198/9/2 196/9/2 199/9/2
f 199/10/2 197/10/2 200/10/2
f 199/9/2 200/9/2 201/9/2
f 201/9/2 200/9/2 202/9/2
f 205/9/3 204/9/3 203/9/3
f 206/9/3 204/9/3 205/9/3
f 211/6/3 208/6/3 207/6/3
f 212/6/3 208/6/3 211/6/3
f 215/6/3 214/6/3 213/6/3
f 216/6/3 214/6/3 215/6/3
f 217/6/3 210/6/3 209/6/3
f 218/6/3 210/6/3 217/6/3
f 223/6/3 220/6/3 219/6/3
f 224/6/3 220/6/3 223/6/3
f 227/6/3 226/6/3 225/6/3
f 228/6/3 226/6/3 227/6/3
f 229/6/3 222/6/3 221/6/3
f 230/6/3 222/6/3 229/6/3
f 235/6/3 232/6/3 231/6/3
f 236/6/3 232/6/3 235/6/3
f 238/6/3 232/6/3 236/6/3
f 243/2/3 240/2/3 239/2/3
f 244/2/3 240/2/3 243/2/3
f 245/2/3 242/2/3 241/2/3
f 246/2/3 242/2/3 245/2/3
f 247/6/3 238/6/3 237/6/3
f 248/6/3 232/6/3 238/6/3
f 248/6/3 238/6/3 247/6/3
f 249/6/3 234/6/3 233/6/3
f 250/6/3 234/6/3 249/6/3
f 253/8/3 252/8/3 251/8/3
f 254/8/3 252/8/3 253/8/3
f 255/8/3 252/8/3 254/8/3
f 256/8/3 252/8/3 255/8/3
f 257/8/3 252/8/3 256/8/3
f 258/8/3 252/8/3 257/8/3
f 259/12/3 256/12/3 255/12/3
f 259/8/3 257/8/3 256/8/3
f 260/12/3 258/12/3 257/12/3
f 260/8/3 257/8/3 259/8/3
f 261/12/3 254/12/3 253/12/3
f 261/8/3 255/8/3 254/8/3
f 262/12/3 260/12/3 259/12/3
f 262/8/3 255/8/3 261/8/3
f 262/12/3 259/12/3 255/12/3
f 263/12/3 260/12/3 262/12/3
f 264/12/3 258/12/3 260/12/3
f 264/12/3 260/12/3 263/12/3
f 265/8/3 253/8/3 251/8/3
f 265/12/3 263/12/3 262/12/3
f 265/12/3 261/12/3 253/12/3
f 265/12/3 262/12/3 261/12/3
f 266/8/3 264/8/3 263/8/3
f 266/12/3 263/12/3 265/12/3
f 267/12/3 258/12/3 264/12/3
f 267/8/3 264/8/3 266/8/3
f 268/8/3 252/8/3 258/8/3
f 268/12/3 258/12/3 267/12/3
f 269/8/3 266/8/3 265/8/3
f 269/8/3 265/8/3 251/8/3
f 269/8/3 268/8/3 267/8/3
f 269/8/3 267/8/3 266/8/3
f 270/8/3 252/8/3 268/8/3
f 270/8/3 268/8/3 269/8/3
f 271/12/3 270/12/3 269/12/3
f 272/12/3 270/12/3 271/12/3
f 273/8/3 272/8/3 271/8/3
f 274/8/3 272/8/3 273/8/3
f 275/8/3 272/8/3 274/8/3
f 276/8/3 272/8/3 275/8/3
f 277/12/3 274/12/3 273/12/3
f 278/12/3 274/12/3 277/12/3
f 279/8/3 275/8/3 274/8/3
f 279/12/3 274/12/3 278/12/3
f 280/12/3 276/12/3 275/12/3
f 280/8/3 275/8/3 279/8/3
f 281/12/3 279/12/3 278/12/3
f 281/12/3 280/12/3 279/12/3
f 282/12/3 276/12/3 280/12/3
f 282/12/3 280/12/3 281/12/3
f 283/8/3 273/8/3 271/8/3
f 283/12/3 277/12/3 273/12/3
f 284/8/3 278/8/3 277/8/3
f 284/12/3 277/12/3 283/12/3
f 285/12/3 281/12/3 278/12/3
f 285/8/3 278/8/3 284/8/3
f 286/8/3 282/8/3 281/8/3
f 286/12/3 281/12/3 285/12/3
f 287/12/3 276/12/3 282/12/3
f 287/8/3 282/8/3 286/8/3
f 288/8/3 272/8/3 276/8/3
f 288/12/3 276/12/3 287/12/3
f 289/8/3 286/8/3 285/8/3
f 289/8/3 287/8/3 286/8/3
f 289/8/3 288/8/3 287/8/3
f 289/8/3 285/8/3 284/8/3
f 289/8/3 284/8/3 283/8/3
f 289/8/3 283/8/3 271/8/3
f 290/8/3 272/8/3 288/8/3
f 290/8/3 288/8/3 289/8/3
f 293/2/3 292/2/3 291/2/3
f 294/2/3 292/2/3 293/2/3
f 297/7/3 296/7/3 295/7/3
f 298/7/3 296/7/3 297/7/3
f 299/7/3 297/7/3 295/7/3
f 299/2/3 298/2/3 297/2/3
f 300/7/3 296/7/3 298/7/3
f 300/2/3 298/2/3 299/2/3
f 301/7/3 299/7/3 295/7/3
f 301/7/3 300/7/3 299/7/3
f 302/7/3 296/7/3 300/7/3
f 302/7/3 300/7/3 301/7/3
f 305/2/3 304/2/3 303/2/3
f 306/2/3 304/2/3 305/2/3
f 310/9/3 308/9/3 307/9/3
f 312/9/3 310/9/3 309/9/3
f 313/9/3 310/9/3 312/9/3
f 313/9/3 312/9/3 311/9/3
f 314/9/3 308/9/3 310/9/3
f 314/9/3 310/9/3 313/9/3
f 315/9/3 313/9/3 311/9/3
f 317/9/3 315/9/3 311/9/3
f 317/5/3 316/5/3 315/5/3
f 318/5/3 316/5/3 317/5/3
f 319/9/3 317/9/3 311/9/3
f 320/9/3 308/9/3 314/9/3
f 321/9/3 319/9/3 311/9/3
f 321/9/3 320/9/3 319/9/3
f 322/9/3 320/9/3 321/9/3
f 323/9/3 320/9/3 322/9/3
f 324/9/3 320/9/3 323/9/3
f 325/9/3 320/9/3 324/9/3
f 326/9/3 308/9/3 320/9/3
f 326/9/3 320/9/3 325/9/3
f 329/7/3 328/7/3 327/7/3
f 330/7/3 328/7/3 329/7/3
f 333/5/3 332/5/3 331/5/3
f 334/5/3 332/5/3 333/5/3
f 336/4/3 335/4/3 334/4/3
f 337/4/3 335/4/3 336/4/3
f 340/4/3 339/4/3 338/4/3
f 341/4/3 339/4/3 340/4/3
f 343/3/3 341/3/3 340/3/3
f 344/3/3 341/3/3 343/3/3
f 345/5/3 343/5/3 342/5/3
f 346/5/3 343/5/3 345/5/3
f 349/3/3 348/3/3 347/3/3
f 350/3/3 348/3/3 349/3/3
f 353/9/3 352/9/3 351/9/3
f 354/9/3 352/9/3 353/9/3
f 355/9/3 352/9/3 354/9/3
f 356/9/3 352/9/3 355/9/3
f 357/9/3 355/9/3 354/9/3
f 358/9/3 355/9/3 357/9/3
f 359/9/3 355/9/3 358/9/3
f 360/9/3 355/9/3 359/9/3
f 361/9/3 359/9/3 358/9/3
f 362/9/3 359/9/3 361/9/3
f 363/9/3 355/9/3 360/9/3
f 364/9/3 355/9/3 363/9/3
f 367/11/3 366/11/3 365/11/3
f 368/11/3 366/11/3 367/11/3
f 369/11/3 366/11/3 368/11/3
f 370/11/3 366/11/3 369/11/3
f 371/11/3 366/11/3 370/11/3
f 373/11/3 366/11/3 371/11/3
f 374/11/3 373/11/3 372/11/3
f 375/11/3 366/11/3 373/11/3
f 375/11/3 373/11/3 374/11/3
f 377/11/3 366/11/3 375/11/3
f 379/11/3 377/11/3 376/11/3
f 380/11/3 379/11/3 378/11/3
f 381/11/3 366/11/3 377/11/3
f 381/11/3 379/11/3 380/11/3
f 381/11/3 377/11/3 379/11/3
f 387/9/3 383/9/3 382/9/3
f 388/9/3 383/9/3 387/9/3
f 389/9/3 385/9/3 384/9/3
f 391/9/3 388/9/3 387/9/3
f 391/9/3 389/9/3 388/9/3
f 391/9/3 387/9/3 386/9/3
f 392/9/3 385/9/3 389/9/3
f 392/9/3 389/9/3 391/9/3
f 393/9/3 352/9/3 356/9/3
f 394/9/3 392/9/3 391/9/3
f 394/9/3 393/9/3 392/9/3
f 394/9/3 391/9/3 390/9/3
f 395/9/3 352/9/3 393/9/3
f 395/9/3 393/9/3 394/9/3
f 396/2/4 397/2/4 398/2/4
f 398/2/4 397/2/4 399/2/4
f 400/8/4 401/8/4 402/8/4
f 402/8/4 401/8/4 403/8/4
f 403/8/4 401/8/4 404/8/4
f 404/8/4 401/8/4 405/8/4
f 405/8/4 401/8/4 406/8/4
f 406/8/4 401/8/4 407/8/4
f 404/12/4 405/12/4 408/12/4
f 405/8/4 406/8/4 408/8/4
f 406/12/4 407/12/4 409/12/4
f 408/8/4 406/8/4 409/8/4
f 402/12/4 403/12/4 410/12/4
f 403/8/4 404/8/4 410/8/4
f 408/12/4 409/12/4 411/12/4
f 410/8/4 404/8/4 411/8/4
f 404/12/4 408/12/4 411/12/4
f 411/12/4 409/12/4 412/12/4
f 409/12/4 407/12/4 413/12/4
f 412/12/4 409/12/4 413/12/4
f 400/8/4 402/8/4 414/8/4
f 411/12/4 412/12/4 414/12/4
f 402/12/4 410/12/4 414/12/4
f 410/12/4 411/12/4 414/12/4
f 412/8/4 413/8/4 415/8/4
f 414/12/4 412/12/4 415/12/4
f 413/12/4 407/12/4 416/12/4
f 415/8/4 413/8/4 416/8/4
f 407/8/4 401/8/4 417/8/4
f 416/12/4 407/12/4 417/12/4
f 414/8/4 415/8/4 418/8/4
f 400/8/4 414/8/4 418/8/4
f 416/8/4 417/8/4 418/8/4
f 415/8/4 416/8/4 418/8/4
f 417/8/4 401/8/4 419/8/4
f 418/8/4 417/8/4 419/8/4
f 418/12/4 419/12/4 420/12/4
f 420/12/4 419/12/4 421/12/4
f 420/8/4 421/8/4 422/8/4
f 422/8/4 421/8/4 423/8/4
f 423/8/4 421/8/4 424/8/4
f 424/8/4 421/8/4 425/8/4
f 422/12/4 423/12/4 426/12/4
f 426/12/4 423/12/4 427/12/4
f 423/8/4 424/8/4 428/8/4
f 427/12/4 423/12/4 428/12/4
f 424/12/4 425/12/4 429/12/4
f 428/8/4 424/8/4 429/8/4
f 427/12/4 428/12/4 430/12/4
f 428/12/4 429/12/4 430/12/4
f 429/12/4 425/12/4 431/12/4
f 430/12/4 429/12/4 431/12/4
f 420/8/4 422/8/4 432/8/4
f 422/12/4 426/12/4 432/12/4
f 426/8/4 427/8/4 433/8/4
f 432/12/4 426/12/4 433/12/4
f 427/12/4 430/12/4 434/12/4
f 433/8/4 427/8/4 434/8/4
f 430/8/4 431/8/4 435/8/4
f 434/12/4 430/12/4 435/12/4
f 431/12/4 425/12/4 436/12/4
f 435/8/4 431/8/4 436/8/4
f 425/8/4 421/8/4 437/8/4
f 436/12/4 425/12/4 437/12/4
f 434/8/4 435/8/4 438/8/4
f 435/8/4 436/8/4 438/8/4
f 436/8/4 437/8/4 438/8/4
f 433/8/4 434/8/4 438/8/4
f 432/8/4 433/8/4 438/8/4
f 420/8/4 432/8/4 438/8/4
f 437/8/4 421/8/4 439/8/4
f 438/8/4 437/8/4 439/8/4
f 440/2/4 441/2/4 442/2/4
f 442/2/4 441/2/4 443/2/4
f 444/7/4 445/7/4 446/7/4
f 446/7/4 445/7/4 447/7/4
f 447/7/4 445/7/4 448/7/4
f 444/7/4 446/7/4 449/7/4
f 447/2/4 448/2/4 450/2/4
f 448/7/4 445/7/4 451/7/4
f 450/2/4 448/2/4 451/2/4
f 449/7/4 450/7/4 452/7/4
f 444/7/4 449/7/4 452/7/4
f 450/7/4 451/7/4 452/7/4
f 451/7/4 445/7/4 453/7/4
f 452/7/4 451/7/4 453/7/4
f 454/2/4 455/2/4 458/2/4
f 458/2/4 455/2/4 459/2/4
f 456/2/4 457/2/4 460/2/4
f 460/2/4 457/2/4 461/2/4
f 462/7/4 463/7/4 464/7/4
f 464/7/4 463/7/4 465/7/4
f 466/7/4 467/7/4 468/7/4
f 468/7/4 467/7/4 469/7/4
f 470/4/4 471/4/4 472/4/4
f 472/4/4 471/4/4 473/4/4
f 474/4/4 475/4/4 476/4/4
f 476/4/4 475/4/4 477/4/4
f 478/10/4 479/10/4 481/10/4
f 479/9/4 480/9/4 481/9/4
f 481/9/4 480/9/4 482/9/4
f 482/9/4 480/9/4 483/9/4
f 483/9/4 480/9/4 484/9/4
f 481/10/4 482/10/4 485/10/4
f 482/9/4 483/9/4 485/9/4
f 485/9/4 483/9/4 486/9/4
f 486/9/4 483/9/4 487/9/4
f 487/9/4 483/9/4 488/9/4
f 485/10/4 486/10/4 489/10/4
f 486/9/4 487/9/4 489/9/4
f 487/10/4 488/10/4 490/10/4
f 489/9/4 487/9/4 490/9/4
f 488/9/4 483/9/4 491/9/4
f 490/10/4 488/10/4 491/10/4
f 483/10/4 484/10/4 492/10/4
f 491/9/4 483/9/4 492/9/4
f 490/10/4 491/10/4 493/10/4
f 481/10/4 485/10/4 493/10/4
f 491/10/4 492/10/4 493/10/4
f 485/10/4 489/10/4 493/10/4
f 489/10/4 490/10/4 493/10/4
f 493/10/4 492/10/4 494/10/4
f 481/10/4 493/10/4 495/10/4
f 493/11/4 494/11/4 495/11/4
f 494/10/4 492/10/4 496/10/4
f 495/11/4 494/11/4 496/11/4
f 495/10/4 496/10/4 497/10/4
f 496/10/4 492/10/4 498/10/4
f 497/10/4 496/10/4 498/10/4
f 498/10/4 492/10/4 499/10/4
f 492/10/4 484/10/4 500/10/4
f 499/10/4 492/10/4 500/10/4
f 481/10/4 495/10/4 501/10/4
f 495/10/4 497/10/4 501/10/4
f 497/9/4 498/9/4 502/9/4
f 501/10/4 497/10/4 502/10/4
f 498/10/4 499/10/4 503/10/4
f 502/9/4 498/9/4 503/9/4
f 499/9/4 500/9/4 504/9/4
f 503/10/4 499/10/4 504/10/4
f 478/10/4 481/10/4 505/10/4
f 481/10/4 501/10/4 505/10/4
f 501/9/4 502/9/4 506/9/4
f 505/10/4 501/10/4 506/10/4
f 502/9/4 503/9/4 506/9/4
f 503/9/4 504/9/4 506/9/4
f 504/9/4 500/9/4 507/9/4
f 506/9/4 504/9/4 507/9/4
f 500/10/4 484/10/4 507/10/4
f 484/9/4 480/9/4 508/9/4
f 507/10/4 484/10/4 508/10/4
f 478/10/4 505/10/4 509/10/4
f 505/9/4 506/9/4 510/9/4
f 509/10/4 505/10/4 510/10/4
f 506/9/4 507/9/4 510/9/4
f 507/9/4 508/9/4 510/9/4
f 508/9/4 480/9/4 511/9/4
f 510/9/4 508/9/4 511/9/4
f 514/9/5 513/9/5 512/9/5
f 515/9/5 513/9/5 514/9/5
f 516/9/5 513/9/5 515/9/5
f 517/9/5 513/9/5 516/9/5
f 518/10/5 515/10/5 514/10/5
f 518/9/5 516/9/5 515/9/5
f 519/10/5 517/10/5 516/10/5
f 519/9/5 516/9/5 518/9/5
f 520/9/5 514/9/5 512/9/5
f 521/10/5 518/10/5 514/10/5
f 521/9/5 514/9/5 520/9/5
f 521/10/5 519/10/5 518/10/5
f 522/10/5 517/10/5 519/10/5
f 522/10/5 519/10/5 521/10/5
f 522/9/5 513/9/5 517/9/5
f 523/9/5 513/9/5 522/9/5
f 524/10/5 521/10/5 520/10/5
f 524/10/5 522/10/5 521/10/5
f 524/10/5 523/10/5 522/10/5
f 525/10/5 523/10/5 524/10/5
f 528/9/5 527/9/5 526/9/5
f 529/9/5 527/9/5 528/9/5
f 532/6/5 531/6/5 530/6/5
f 533/6/5 531/6/5 532/6/5
f 536/6/5 535/6/5 534/6/5
f 537/6/5 535/6/5 536/6/5
f 538/6/5 536/6/5 534/6/5
f 539/6/5 536/6/5 538/6/5
f 540/6/5 535/6/5 537/6/5
f 541/6/5 535/6/5 540/6/5
f 544/6/5 543/6/5 542/6/5
f 545/6/5 543/6/5 544/6/5
f 546/6/5 544/6/5 542/6/5
f 547/6/5 544/6/5 546/6/5
f 548/6/5 543/6/5 545/6/5
f 549/6/5 543/6/5 548/6/5
f 552/7/5 551/7/5 550/7/5
f 553/7/5 551/7/5 552/7/5
f 556/2/5 555/2/5 554/2/5
f 557/2/5 555/2/5 556/2/5
f 558/2/5 556/2/5 554/2/5
f 559/2/5 555/2/5 557/2/5
f 560/2/5 558/2/5 554/2/5
f 560/2/5 559/2/5 558/2/5
f 561/2/5 555/2/5 559/2/5
f 561/2/5 559/2/5 560/2/5
f 562/9/6 563/9/6 564/9/6
f 564/9/6 563/9/6 565/9/6
f 565/9/6 563/9/6 566/9/6
f 566/9/6 563/9/6 567/9/6
f 565/9/6 566/9/6 568/9/6
f 568/9/6 566/9/6 569/9/6
f 562/9/6 564/9/6 570/9/6
f 570/9/6 564/9/6 571/9/6
f 567/9/6 563/9/6 572/9/6
f 572/9/6 563/9/6 573/9/6
f 574/6/6 575/6/6 578/6/6
f 578/6/6 575/6/6 579/6/6
f 576/6/6 577/6/6 580/6/6
f 580/6/6 577/6/6 581/6/6
f 579/6/6 575/6/6 582/6/6
f 582/6/6 575/6/6 583/6/6
f 576/6/6 580/6/6 588/6/6
f 588/6/6 580/6/6 589/6/6
f 584/9/6 585/9/6 590/9/6
f 590/9/6 585/9/6 591/9/6
f 586/9/6 587/9/6 592/9/6
f 592/9/6 587/9/6 593/9/6
f 574/6/6 578/6/6 594/6/6
f 594/6/6 578/6/6 595/6/6
f 584/9/6 590/9/6 596/9/6
f 596/9/6 590/9/6 597/9/6
f 593/9/6 587/9/6 598/9/6
f 598/9/6 587/9/6 599/9/6
f 581/6/6 577/6/6 600/6/6
f 600/6/6 577/6/6 601/6/6
f 602/6/6 603/6/6 606/6/6
f 606/6/6 603/6/6 607/6/6
f 604/6/6 605/6/6 608/6/6
f 608/6/6 605/6/6 609/6/6
f 607/6/6 603/6/6 610/6/6
f 610/6/6 603/6/6 611/6/6
f 604/6/6 608/6/6 614/6/6
f 614/6/6 608/6/6 615/6/6
f 612/5/6 613/5/6 617/5/6
f 617/5/6 613/5/6 618/5/6
f 618/5/6 613/5/6 619/5/6
f 619/5/6 613/5/6 620/5/6
f 620/5/6 613/5/6 621/5/6
f 616/5/6 617/5/6 623/5/6
f 618/1/6 619/1/6 624/1/6
f 624/1/6 619/1/6 625/1/6
f 621/5/6 622/5/6 627/5/6
f 602/6/6 606/6/6 628/6/6
f 628/6/6 606/6/6 629/6/6
f 616/5/6 623/5/6 630/5/6
f 623/1/6 624/1/6 631/1/6
f 630/5/6 623/5/6 631/5/6
f 631/1/6 624/1/6 632/1/6
f 625/1/6 626/1/6 633/1/6
f 633/1/6 626/1/6 634/1/6
f 627/5/6 622/5/6 635/5/6
f 635/5/6 622/5/6 636/5/6
f 609/6/6 605/6/6 637/6/6
f 637/6/6 605/6/6 638/6/6
f 639/4/6 640/4/6 644/4/6
f 644/4/6 640/4/6 645/4/6
f 641/4/6 642/4/6 646/4/6
f 642/3/6 643/3/6 647/3/6
f 646/4/6 642/4/6 647/4/6
f 647/3/6 643/3/6 648/3/6
f 645/3/6 646/3/6 649/3/6
f 649/3/6 646/3/6 650/3/6
f 647/4/6 648/4/6 651/4/6
f 651/4/6 648/4/6 652/4/6
f 653/6/6 654/6/6 655/6/6
f 655/6/6 654/6/6 656/6/6
f 653/6/6 655/6/6 657/6/6
f 657/6/6 655/6/6 658/6/6
f 656/6/6 654/6/6 659/6/6
f 659/6/6 654/6/6 660/6/6
f 661/6/6 662/6/6 663/6/6
f 663/6/6 662/6/6 664/6/6
f 661/6/6 663/6/6 665/6/6
f 665/6/6 663/6/6 666/6/6
f 666/6/6 663/6/6 667/6/6
f 667/6/6 663/6/6 668/6/6
f 661/6/6 665/6/6 669/6/6
f 669/6/6 665/6/6 670/6/6
f 670/6/6 665/6/6 671/6/6
f 668/6/6 663/6/6 674/6/6
f 661/6/6 669/6/6 675/6/6
f 672/6/6 673/6/6 676/6/6
f 673/6/6 674/6/6 676/6/6
f 670/6/6 671/6/6 676/6/6
f 671/6/6 672/6/6 676/6/6
f 674/6/6 663/6/6 677/6/6
f 676/6/6 674/6/6 677/6/6
f 664/6/6 662/6/6 678/6/6
f 676/6/6 677/6/6 679/6/6
f 677/6/6 678/6/6 679/6/6
f 675/6/6 676/6/6 679/6/6
f 679/6/6 678/6/6 680/6/6
f 675/6/6 679/6/6 681/6/6
f 680/6/6 678/6/6 682/6/6
f 661/6/6 675/6/6 683/6/6
f 681/6/6 682/6/6 683/6/6
f 675/6/6 681/6/6 683/6/6
f 678/6/6 662/6/6 684/6/6
f 683/6/6 682/6/6 684/6/6
f 682/6/6 678/6/6 684/6/6
f 685/2/6 686/2/6 687/2/6
f 687/2/6 686/2/6 688/2/6
f 685/2/6 687/2/6 689/2/6
f 688/2/6 686/2/6 690/2/6
f 685/2/6 689/2/6 691/2/6
f 689/2/6 690/2/6 691/2/6
f 690/2/6 686/2/6 692/2/6
f 691/2/6 690/2/6 692/2/6
f 693/7/6 694/7/6 695/7/6
f 695/7/6 694/7/6 696/7/6
f 697/7/6 698/7/6 699/7/6
f 699/7/6 698/7/6 700/7/6
f 701/2/6 702/2/6 705/2/6
f 705/2/6 702/2/6 706/2/6
f 703/7/6 704/7/6 707/7/6
f 707/7/6 704/7/6 708/7/6
f 709/2/6 710/2/6 711/2/6
f 711/2/6 710/2/6 712/2/6
f 709/2/6 711/2/6 713/2/6
f 712/2/6 710/2/6 714/2/6
f 709/2/6 713/2/6 715/2/6
f 713/2/6 714/2/6 715/2/6
f 714/2/6 710/2/6 716/2/6
f 715/2/6 714/2/6 716/2/6
f 717/8/6 718/8/6 721/8/6
f 718/12/6 719/12/6 722/12/6
f 721/8/6 718/8/6 722/8/6
f 719/8/6 720/8/6 723/8/6
f 722/12/6 719/12/6 723/12/6
f 723/8/6 720/8/6 724/8/6
f 725/9/6 726/9/6 727/9/6
f 727/9/6 726/9/6 728/9/6
