# MagicaVoxel @ Ephtracy

# group
o 

# material
mtllib Paredes-1.mtl
usemtl palette

# normals
vn -1 0 0
vn 1 0 0
vn 0 0 1
vn 0 0 -1
vn 0 -1 0
vn 0 1 0

# texcoords
vt 0.958984 0.5
vt 0.974609 0.5
vt 0.994141 0.5

# verts
v -1.8 0 2.2
v -1.8 0 2
v -1.8 0.1 2.2
v -1.8 0.1 2
v -1.8 1.2 2.2
v -1.8 1.2 2.1
v -1.8 1.2 2
v -1.8 1.3 2.2
v -1.8 1.3 2.1
v -1.8 1.3 2
v -1.6 0 2.3
v -1.6 0 2.2
v -1.6 0 2
v -1.6 0 1.9
v -1.6 0.1 2.2
v -1.6 0.1 2
v -1.6 0.2 2.3
v -1.6 0.2 1.9
v -1.6 1.1 2.3
v -1.6 1.1 1.9
v -1.6 1.2 2.2
v -1.6 1.2 2
v -1.6 1.3 2.3
v -1.6 1.3 2.2
v -1.6 1.3 2
v -1.6 1.3 1.9
v -1.5 0 2.4
v -1.5 0 2.3
v -1.5 0 1.9
v -1.5 0 1.8
v -1.5 0.1 2.4
v -1.5 0.1 2.3
v -1.5 0.1 1.9
v -1.5 0.1 1.8
v -1.5 0.2 2.2
v -1.5 0.2 2
v -1.5 1.1 2.2
v -1.5 1.1 2
v -1.5 1.2 2.4
v -1.5 1.2 2.3
v -1.5 1.2 1.9
v -1.5 1.2 1.8
v -1.5 1.3 2.4
v -1.5 1.3 2.3
v -1.5 1.3 1.9
v -1.5 1.3 1.8
v -0.7 0 2.3
v -0.7 0 2.2
v -0.7 0 2
v -0.7 0 1.9
v -0.7 0.1 2.2
v -0.7 0.1 2
v -0.7 0.2 2.3
v -0.7 0.2 1.9
v -0.7 1.1 2.3
v -0.7 1.1 1.9
v -0.7 1.2 2.2
v -0.7 1.2 2
v -0.7 1.3 2.3
v -0.7 1.3 2.2
v -0.7 1.3 2
v -0.7 1.3 1.9
v -0.6 0 2.4
v -0.6 0 2.3
v -0.6 0 1.9
v -0.6 0 1.8
v -0.6 0.1 2.4
v -0.6 0.1 2.3
v -0.6 0.1 1.9
v -0.6 0.1 1.8
v -0.6 0.2 2.2
v -0.6 0.2 2
v -0.6 1.1 2.2
v -0.6 1.1 2
v -0.6 1.2 2.4
v -0.6 1.2 2.3
v -0.6 1.2 1.9
v -0.6 1.2 1.8
v -0.6 1.3 2.4
v -0.6 1.3 2.3
v -0.6 1.3 1.9
v -0.6 1.3 1.8
v 0.2 0 2.3
v 0.2 0 2.2
v 0.2 0 2
v 0.2 0 1.9
v 0.2 0.1 2.2
v 0.2 0.1 2
v 0.2 0.2 2.3
v 0.2 0.2 1.9
v 0.2 1.1 2.3
v 0.2 1.1 1.9
v 0.2 1.2 2.2
v 0.2 1.2 2
v 0.2 1.3 2.3
v 0.2 1.3 2.2
v 0.2 1.3 2
v 0.2 1.3 1.9
v 0.3 0 2.4
v 0.3 0 2.3
v 0.3 0 1.9
v 0.3 0 1.8
v 0.3 0.1 2.4
v 0.3 0.1 2.3
v 0.3 0.1 1.9
v 0.3 0.1 1.8
v 0.3 0.2 2.2
v 0.3 0.2 2
v 0.3 1.1 2.2
v 0.3 1.1 2
v 0.3 1.2 2.4
v 0.3 1.2 2.3
v 0.3 1.2 1.9
v 0.3 1.2 1.8
v 0.3 1.3 2.4
v 0.3 1.3 2.3
v 0.3 1.3 1.9
v 0.3 1.3 1.8
v 1.1 0 2.3
v 1.1 0 2.2
v 1.1 0 2
v 1.1 0 1.9
v 1.1 0.1 2.2
v 1.1 0.1 2
v 1.1 0.2 2.3
v 1.1 0.2 1.9
v 1.1 1.1 2.3
v 1.1 1.1 1.9
v 1.1 1.2 2.2
v 1.1 1.2 2.1
v 1.1 1.2 2
v 1.1 1.3 2.3
v 1.1 1.3 2.2
v 1.1 1.3 2
v 1.1 1.3 1.9
v 1.2 0 2.4
v 1.2 0 2.3
v 1.2 0 1.9
v 1.2 0 1.8
v 1.2 0.1 2.4
v 1.2 0.1 2.3
v 1.2 0.1 1.9
v 1.2 0.1 1.8
v 1.2 0.2 2.2
v 1.2 0.2 2
v 1.2 1.1 2.2
v 1.2 1.1 2
v 1.2 1.2 2.4
v 1.2 1.2 2.3
v 1.2 1.2 1.9
v 1.2 1.2 1.8
v 1.2 1.3 2.4
v 1.2 1.3 2.3
v 1.2 1.3 1.9
v 1.2 1.3 1.8
v -1.3 0 2.4
v -1.3 0 2.3
v -1.3 0 1.9
v -1.3 0 1.8
v -1.3 0.1 2.4
v -1.3 0.1 2.3
v -1.3 0.1 1.9
v -1.3 0.1 1.8
v -1.3 0.2 2.2
v -1.3 0.2 2
v -1.3 1.1 2.2
v -1.3 1.1 2
v -1.3 1.2 2.4
v -1.3 1.2 2.3
v -1.3 1.2 1.9
v -1.3 1.2 1.8
v -1.3 1.3 2.4
v -1.3 1.3 2.3
v -1.3 1.3 1.9
v -1.3 1.3 1.8
v -1.2 0 2.3
v -1.2 0 2.2
v -1.2 0 2
v -1.2 0 1.9
v -1.2 0.1 2.2
v -1.2 0.1 2
v -1.2 0.2 2.3
v -1.2 0.2 1.9
v -1.2 1.1 2.3
v -1.2 1.1 1.9
v -1.2 1.2 2.2
v -1.2 1.2 2
v -1.2 1.3 2.3
v -1.2 1.3 2.2
v -1.2 1.3 2
v -1.2 1.3 1.9
v -0.4 0 2.4
v -0.4 0 2.3
v -0.4 0 1.9
v -0.4 0 1.8
v -0.4 0.1 2.4
v -0.4 0.1 2.3
v -0.4 0.1 1.9
v -0.4 0.1 1.8
v -0.4 0.2 2.2
v -0.4 0.2 2
v -0.4 1.1 2.2
v -0.4 1.1 2
v -0.4 1.2 2.4
v -0.4 1.2 2.3
v -0.4 1.2 1.9
v -0.4 1.2 1.8
v -0.4 1.3 2.4
v -0.4 1.3 2.3
v -0.4 1.3 1.9
v -0.4 1.3 1.8
v -0.3 0 2.3
v -0.3 0 2.2
v -0.3 0 2
v -0.3 0 1.9
v -0.3 0.1 2.2
v -0.3 0.1 2
v -0.3 0.2 2.3
v -0.3 0.2 1.9
v -0.3 1.1 2.3
v -0.3 1.1 1.9
v -0.3 1.2 2.2
v -0.3 1.2 2
v -0.3 1.3 2.3
v -0.3 1.3 2.2
v -0.3 1.3 2
v -0.3 1.3 1.9
v 0.5 0 2.4
v 0.5 0 2.3
v 0.5 0 1.9
v 0.5 0 1.8
v 0.5 0.1 2.4
v 0.5 0.1 2.3
v 0.5 0.1 1.9
v 0.5 0.1 1.8
v 0.5 0.2 2.2
v 0.5 0.2 2
v 0.5 1.1 2.2
v 0.5 1.1 2
v 0.5 1.2 2.4
v 0.5 1.2 2.3
v 0.5 1.2 1.9
v 0.5 1.2 1.8
v 0.5 1.3 2.4
v 0.5 1.3 2.3
v 0.5 1.3 1.9
v 0.5 1.3 1.8
v 0.6 0 2.3
v 0.6 0 2.2
v 0.6 0 2
v 0.6 0 1.9
v 0.6 0.1 2.2
v 0.6 0.1 2
v 0.6 0.2 2.3
v 0.6 0.2 1.9
v 0.6 1.1 2.3
v 0.6 1.1 1.9
v 0.6 1.2 2.2
v 0.6 1.2 2.1
v 0.6 1.2 2
v 0.6 1.3 2.3
v 0.6 1.3 2.2
v 0.6 1.3 2
v 0.6 1.3 1.9
v 1.4 0 2.4
v 1.4 0 2.3
v 1.4 0 1.9
v 1.4 0 1.8
v 1.4 0.1 2.4
v 1.4 0.1 2.3
v 1.4 0.1 1.9
v 1.4 0.1 1.8
v 1.4 0.2 2.2
v 1.4 0.2 2
v 1.4 1.1 2.2
v 1.4 1.1 2
v 1.4 1.2 2.4
v 1.4 1.2 2.3
v 1.4 1.2 1.9
v 1.4 1.2 1.8
v 1.4 1.3 2.4
v 1.4 1.3 2.3
v 1.4 1.3 1.9
v 1.4 1.3 1.8
v 1.5 0 2.3
v 1.5 0 2.2
v 1.5 0 2
v 1.5 0 1.9
v 1.5 0.1 2.2
v 1.5 0.1 2
v 1.5 0.2 2.3
v 1.5 0.2 1.9
v 1.5 1.1 2.3
v 1.5 1.1 1.9
v 1.5 1.2 2.2
v 1.5 1.2 2
v 1.5 1.3 2.3
v 1.5 1.3 2.2
v 1.5 1.3 2
v 1.5 1.3 1.9
v 1.8 0 2.2
v 1.8 0 2
v 1.8 0.1 2.2
v 1.8 0.1 2
v 1.8 1.2 2.2
v 1.8 1.2 2
v 1.8 1.3 2.2
v 1.8 1.3 2
v -1.5 0 2.4
v -1.5 0.1 2.4
v -1.5 1.2 2.4
v -1.5 1.3 2.4
v -1.3 0 2.4
v -1.3 0.1 2.4
v -1.3 1.2 2.4
v -1.3 1.3 2.4
v -0.6 0 2.4
v -0.6 0.1 2.4
v -0.6 1.2 2.4
v -0.6 1.3 2.4
v -0.4 0 2.4
v -0.4 0.1 2.4
v -0.4 1.2 2.4
v -0.4 1.3 2.4
v 0.3 0 2.4
v 0.3 0.1 2.4
v 0.3 1.2 2.4
v 0.3 1.3 2.4
v 0.5 0 2.4
v 0.5 0.1 2.4
v 0.5 1.2 2.4
v 0.5 1.3 2.4
v 1.2 0 2.4
v 1.2 0.1 2.4
v 1.2 1.2 2.4
v 1.2 1.3 2.4
v 1.4 0 2.4
v 1.4 0.1 2.4
v 1.4 1.2 2.4
v 1.4 1.3 2.4
v -1.6 0 2.3
v -1.6 0.2 2.3
v -1.6 1.1 2.3
v -1.6 1.3 2.3
v -1.5 0 2.3
v -1.5 0.1 2.3
v -1.5 1.2 2.3
v -1.5 1.3 2.3
v -1.3 0 2.3
v -1.3 0.1 2.3
v -1.3 1.2 2.3
v -1.3 1.3 2.3
v -1.2 0 2.3
v -1.2 0.2 2.3
v -1.2 1.1 2.3
v -1.2 1.3 2.3
v -0.7 0 2.3
v -0.7 0.2 2.3
v -0.7 1.1 2.3
v -0.7 1.3 2.3
v -0.6 0 2.3
v -0.6 0.1 2.3
v -0.6 1.2 2.3
v -0.6 1.3 2.3
v -0.4 0 2.3
v -0.4 0.1 2.3
v -0.4 1.2 2.3
v -0.4 1.3 2.3
v -0.3 0 2.3
v -0.3 0.2 2.3
v -0.3 1.1 2.3
v -0.3 1.3 2.3
v 0.2 0 2.3
v 0.2 0.2 2.3
v 0.2 1.1 2.3
v 0.2 1.3 2.3
v 0.3 0 2.3
v 0.3 0.1 2.3
v 0.3 1.2 2.3
v 0.3 1.3 2.3
v 0.5 0 2.3
v 0.5 0.1 2.3
v 0.5 1.2 2.3
v 0.5 1.3 2.3
v 0.6 0 2.3
v 0.6 0.2 2.3
v 0.6 1.1 2.3
v 0.6 1.3 2.3
v 1.1 0 2.3
v 1.1 0.2 2.3
v 1.1 1.1 2.3
v 1.1 1.3 2.3
v 1.2 0 2.3
v 1.2 0.1 2.3
v 1.2 1.2 2.3
v 1.2 1.3 2.3
v 1.4 0 2.3
v 1.4 0.1 2.3
v 1.4 1.2 2.3
v 1.4 1.3 2.3
v 1.5 0 2.3
v 1.5 0.2 2.3
v 1.5 1.1 2.3
v 1.5 1.3 2.3
v -1.8 0 2.2
v -1.8 0.1 2.2
v -1.8 1.2 2.2
v -1.8 1.3 2.2
v -1.6 0 2.2
v -1.6 0.1 2.2
v -1.6 1.2 2.2
v -1.6 1.3 2.2
v -1.5 0.2 2.2
v -1.5 1.1 2.2
v -1.3 0.2 2.2
v -1.3 1.1 2.2
v -1.2 0 2.2
v -1.2 0.1 2.2
v -1.2 1.2 2.2
v -1.2 1.3 2.2
v -1.1 1.2 2.2
v -1.1 1.3 2.2
v -0.8 1.2 2.2
v -0.8 1.3 2.2
v -0.7 0 2.2
v -0.7 0.1 2.2
v -0.7 1.2 2.2
v -0.7 1.3 2.2
v -0.6 0.2 2.2
v -0.6 1.1 2.2
v -0.4 0.2 2.2
v -0.4 1.1 2.2
v -0.3 0 2.2
v -0.3 0.1 2.2
v -0.3 1.2 2.2
v -0.3 1.3 2.2
v -1.19209e-07 1.2 2.2
v -1.19209e-07 1.3 2.2
v 0.0999999 1.2 2.2
v 0.0999999 1.3 2.2
v 0.2 0 2.2
v 0.2 0.1 2.2
v 0.2 1.2 2.2
v 0.2 1.3 2.2
v 0.3 0.2 2.2
v 0.3 1.1 2.2
v 0.5 0.2 2.2
v 0.5 1.1 2.2
v 0.6 0 2.2
v 0.6 0.1 2.2
v 0.6 1.2 2.2
v 0.6 1.3 2.2
v 0.8 1.2 2.2
v 0.8 1.3 2.2
v 0.9 1.2 2.2
v 0.9 1.3 2.2
v 1.1 0 2.2
v 1.1 0.1 2.2
v 1.1 1.2 2.2
v 1.1 1.3 2.2
v 1.2 0.2 2.2
v 1.2 1.1 2.2
v 1.4 0.2 2.2
v 1.4 1.1 2.2
v 1.5 0 2.2
v 1.5 0.1 2.2
v 1.5 1.2 2.2
v 1.5 1.3 2.2
v 1.6 1.2 2.2
v 1.6 1.3 2.2
v 1.7 1.2 2.2
v 1.7 1.3 2.2
v 1.8 0 2.2
v 1.8 0.1 2.2
v 1.8 1.2 2.2
v 1.8 1.3 2.2
v -1.8 0 2
v -1.8 0.1 2
v -1.8 1.2 2
v -1.8 1.3 2
v -1.7 1.2 2
v -1.7 1.3 2
v -1.6 0 2
v -1.6 0.1 2
v -1.6 1.2 2
v -1.6 1.3 2
v -1.5 0.2 2
v -1.5 1.1 2
v -1.3 0.2 2
v -1.3 1.1 2
v -1.2 0 2
v -1.2 0.1 2
v -1.2 1.2 2
v -1.2 1.3 2
v -1.1 1.2 2
v -1.1 1.3 2
v -1 1.2 2
v -1 1.3 2
v -0.9 1.2 2
v -0.9 1.3 2
v -0.8 1.2 2
v -0.8 1.3 2
v -0.7 0 2
v -0.7 0.1 2
v -0.7 1.2 2
v -0.7 1.3 2
v -0.6 0.2 2
v -0.6 1.1 2
v -0.4 0.2 2
v -0.4 1.1 2
v -0.3 0 2
v -0.3 0.1 2
v -0.3 1.2 2
v -0.3 1.3 2
v -0.2 1.2 2
v -0.2 1.3 2
v -0.1 1.2 2
v -0.1 1.3 2
v -1.19209e-07 1.2 2
v -1.19209e-07 1.3 2
v 0.0999999 1.2 2
v 0.0999999 1.3 2
v 0.2 0 2
v 0.2 0.1 2
v 0.2 1.2 2
v 0.2 1.3 2
v 0.3 0.2 2
v 0.3 1.1 2
v 0.5 0.2 2
v 0.5 1.1 2
v 0.6 0 2
v 0.6 0.1 2
v 0.6 1.2 2
v 0.6 1.3 2
v 0.7 1.2 2
v 0.7 1.3 2
v 0.8 1.2 2
v 0.8 1.3 2
v 0.9 1.2 2
v 0.9 1.3 2
v 1 1.2 2
v 1 1.3 2
v 1.1 0 2
v 1.1 0.1 2
v 1.1 1.2 2
v 1.1 1.3 2
v 1.2 0.2 2
v 1.2 1.1 2
v 1.4 0.2 2
v 1.4 1.1 2
v 1.5 0 2
v 1.5 0.1 2
v 1.5 1.2 2
v 1.5 1.3 2
v 1.6 1.2 2
v 1.6 1.3 2
v 1.7 1.2 2
v 1.7 1.3 2
v 1.8 0 2
v 1.8 0.1 2
v 1.8 1.2 2
v 1.8 1.3 2
v -1.6 0 1.9
v -1.6 0.2 1.9
v -1.6 1.1 1.9
v -1.6 1.3 1.9
v -1.5 0 1.9
v -1.5 0.1 1.9
v -1.5 1.2 1.9
v -1.5 1.3 1.9
v -1.3 0 1.9
v -1.3 0.1 1.9
v -1.3 1.2 1.9
v -1.3 1.3 1.9
v -1.2 0 1.9
v -1.2 0.2 1.9
v -1.2 1.1 1.9
v -1.2 1.3 1.9
v -0.7 0 1.9
v -0.7 0.2 1.9
v -0.7 1.1 1.9
v -0.7 1.3 1.9
v -0.6 0 1.9
v -0.6 0.1 1.9
v -0.6 1.2 1.9
v -0.6 1.3 1.9
v -0.4 0 1.9
v -0.4 0.1 1.9
v -0.4 1.2 1.9
v -0.4 1.3 1.9
v -0.3 0 1.9
v -0.3 0.2 1.9
v -0.3 1.1 1.9
v -0.3 1.3 1.9
v 0.2 0 1.9
v 0.2 0.2 1.9
v 0.2 1.1 1.9
v 0.2 1.3 1.9
v 0.3 0 1.9
v 0.3 0.1 1.9
v 0.3 1.2 1.9
v 0.3 1.3 1.9
v 0.5 0 1.9
v 0.5 0.1 1.9
v 0.5 1.2 1.9
v 0.5 1.3 1.9
v 0.6 0 1.9
v 0.6 0.2 1.9
v 0.6 1.1 1.9
v 0.6 1.3 1.9
v 1.1 0 1.9
v 1.1 0.2 1.9
v 1.1 1.1 1.9
v 1.1 1.3 1.9
v 1.2 0 1.9
v 1.2 0.1 1.9
v 1.2 1.2 1.9
v 1.2 1.3 1.9
v 1.4 0 1.9
v 1.4 0.1 1.9
v 1.4 1.2 1.9
v 1.4 1.3 1.9
v 1.5 0 1.9
v 1.5 0.2 1.9
v 1.5 1.1 1.9
v 1.5 1.3 1.9
v -1.5 0 1.8
v -1.5 0.1 1.8
v -1.5 1.2 1.8
v -1.5 1.3 1.8
v -1.3 0 1.8
v -1.3 0.1 1.8
v -1.3 1.2 1.8
v -1.3 1.3 1.8
v -0.6 0 1.8
v -0.6 0.1 1.8
v -0.6 1.2 1.8
v -0.6 1.3 1.8
v -0.4 0 1.8
v -0.4 0.1 1.8
v -0.4 1.2 1.8
v -0.4 1.3 1.8
v 0.3 0 1.8
v 0.3 0.1 1.8
v 0.3 1.2 1.8
v 0.3 1.3 1.8
v 0.5 0 1.8
v 0.5 0.1 1.8
v 0.5 1.2 1.8
v 0.5 1.3 1.8
v 1.2 0 1.8
v 1.2 0.1 1.8
v 1.2 1.2 1.8
v 1.2 1.3 1.8
v 1.4 0 1.8
v 1.4 0.1 1.8
v 1.4 1.2 1.8
v 1.4 1.3 1.8
v -1.5 0 2.4
v -1.3 0 2.4
v -0.6 0 2.4
v -0.4 0 2.4
v 0.3 0 2.4
v 0.5 0 2.4
v 1.2 0 2.4
v 1.4 0 2.4
v -1.6 0 2.3
v -1.5 0 2.3
v -1.3 0 2.3
v -1.2 0 2.3
v -0.7 0 2.3
v -0.6 0 2.3
v -0.4 0 2.3
v -0.3 0 2.3
v 0.2 0 2.3
v 0.3 0 2.3
v 0.5 0 2.3
v 0.6 0 2.3
v 1.1 0 2.3
v 1.2 0 2.3
v 1.4 0 2.3
v 1.5 0 2.3
v -1.8 0 2.2
v -1.6 0 2.2
v -1.2 0 2.2
v -0.7 0 2.2
v -0.3 0 2.2
v 0.2 0 2.2
v 0.6 0 2.2
v 1.1 0 2.2
v 1.5 0 2.2
v 1.8 0 2.2
v -1.8 0 2
v -1.6 0 2
v -1.2 0 2
v -0.7 0 2
v -0.3 0 2
v 0.2 0 2
v 0.6 0 2
v 1.1 0 2
v 1.5 0 2
v 1.8 0 2
v -1.6 0 1.9
v -1.5 0 1.9
v -1.3 0 1.9
v -1.2 0 1.9
v -0.7 0 1.9
v -0.6 0 1.9
v -0.4 0 1.9
v -0.3 0 1.9
v 0.2 0 1.9
v 0.3 0 1.9
v 0.5 0 1.9
v 0.6 0 1.9
v 1.1 0 1.9
v 1.2 0 1.9
v 1.4 0 1.9
v 1.5 0 1.9
v -1.5 0 1.8
v -1.3 0 1.8
v -0.6 0 1.8
v -0.4 0 1.8
v 0.3 0 1.8
v 0.5 0 1.8
v 1.2 0 1.8
v 1.4 0 1.8
v -1.6 1.1 2.3
v -1.2 1.1 2.3
v -0.7 1.1 2.3
v -0.3 1.1 2.3
v 0.2 1.1 2.3
v 0.6 1.1 2.3
v 1.1 1.1 2.3
v 1.5 1.1 2.3
v -1.5 1.1 2.2
v -1.3 1.1 2.2
v -0.6 1.1 2.2
v -0.4 1.1 2.2
v 0.3 1.1 2.2
v 0.5 1.1 2.2
v 1.2 1.1 2.2
v 1.4 1.1 2.2
v -1.5 1.1 2
v -1.3 1.1 2
v -0.6 1.1 2
v -0.4 1.1 2
v 0.3 1.1 2
v 0.5 1.1 2
v 1.2 1.1 2
v 1.4 1.1 2
v -1.6 1.1 1.9
v -1.2 1.1 1.9
v -0.7 1.1 1.9
v -0.3 1.1 1.9
v 0.2 1.1 1.9
v 0.6 1.1 1.9
v 1.1 1.1 1.9
v 1.5 1.1 1.9
v -1.5 1.2 2.4
v -1.3 1.2 2.4
v -0.6 1.2 2.4
v -0.4 1.2 2.4
v 0.3 1.2 2.4
v 0.5 1.2 2.4
v 1.2 1.2 2.4
v 1.4 1.2 2.4
v -1.5 1.2 2.3
v -1.3 1.2 2.3
v -0.6 1.2 2.3
v -0.4 1.2 2.3
v 0.3 1.2 2.3
v 0.5 1.2 2.3
v 1.2 1.2 2.3
v 1.4 1.2 2.3
v -1.8 1.2 2.2
v -1.6 1.2 2.2
v -1.2 1.2 2.2
v -1.1 1.2 2.2
v -0.8 1.2 2.2
v -0.7 1.2 2.2
v -0.3 1.2 2.2
v -1.19209e-07 1.2 2.2
v 0.0999999 1.2 2.2
v 0.2 1.2 2.2
v 0.6 1.2 2.2
v 0.8 1.2 2.2
v 0.9 1.2 2.2
v 1.1 1.2 2.2
v 1.5 1.2 2.2
v 1.6 1.2 2.2
v 1.7 1.2 2.2
v 1.8 1.2 2.2
v -1.8 1.2 2.1
v -1.7 1.2 2.1
v -1 1.2 2.1
v -0.9 1.2 2.1
v -0.2 1.2 2.1
v -0.1 1.2 2.1
v 0.6 1.2 2.1
v 0.7 1.2 2.1
v 1 1.2 2.1
v 1.1 1.2 2.1
v -1.8 1.2 2
v -1.7 1.2 2
v -1.6 1.2 2
v -1.2 1.2 2
v -1.1 1.2 2
v -1 1.2 2
v -0.9 1.2 2
v -0.8 1.2 2
v -0.7 1.2 2
v -0.3 1.2 2
v -0.2 1.2 2
v -0.1 1.2 2
v -1.19209e-07 1.2 2
v 0.0999999 1.2 2
v 0.2 1.2 2
v 0.6 1.2 2
v 0.7 1.2 2
v 0.8 1.2 2
v 0.9 1.2 2
v 1 1.2 2
v 1.1 1.2 2
v 1.5 1.2 2
v 1.6 1.2 2
v 1.7 1.2 2
v 1.8 1.2 2
v -1.5 1.2 1.9
v -1.3 1.2 1.9
v -0.6 1.2 1.9
v -0.4 1.2 1.9
v 0.3 1.2 1.9
v 0.5 1.2 1.9
v 1.2 1.2 1.9
v 1.4 1.2 1.9
v -1.5 1.2 1.8
v -1.3 1.2 1.8
v -0.6 1.2 1.8
v -0.4 1.2 1.8
v 0.3 1.2 1.8
v 0.5 1.2 1.8
v 1.2 1.2 1.8
v 1.4 1.2 1.8
v -1.5 0.1 2.4
v -1.3 0.1 2.4
v -0.6 0.1 2.4
v -0.4 0.1 2.4
v 0.3 0.1 2.4
v 0.5 0.1 2.4
v 1.2 0.1 2.4
v 1.4 0.1 2.4
v -1.5 0.1 2.3
v -1.3 0.1 2.3
v -0.6 0.1 2.3
v -0.4 0.1 2.3
v 0.3 0.1 2.3
v 0.5 0.1 2.3
v 1.2 0.1 2.3
v 1.4 0.1 2.3
v -1.8 0.1 2.2
v -1.6 0.1 2.2
v -1.2 0.1 2.2
v -0.7 0.1 2.2
v -0.3 0.1 2.2
v 0.2 0.1 2.2
v 0.6 0.1 2.2
v 1.1 0.1 2.2
v 1.5 0.1 2.2
v 1.8 0.1 2.2
v -1.8 0.1 2
v -1.6 0.1 2
v -1.2 0.1 2
v -0.7 0.1 2
v -0.3 0.1 2
v 0.2 0.1 2
v 0.6 0.1 2
v 1.1 0.1 2
v 1.5 0.1 2
v 1.8 0.1 2
v -1.5 0.1 1.9
v -1.3 0.1 1.9
v -0.6 0.1 1.9
v -0.4 0.1 1.9
v 0.3 0.1 1.9
v 0.5 0.1 1.9
v 1.2 0.1 1.9
v 1.4 0.1 1.9
v -1.5 0.1 1.8
v -1.3 0.1 1.8
v -0.6 0.1 1.8
v -0.4 0.1 1.8
v 0.3 0.1 1.8
v 0.5 0.1 1.8
v 1.2 0.1 1.8
v 1.4 0.1 1.8
v -1.6 0.2 2.3
v -1.2 0.2 2.3
v -0.7 0.2 2.3
v -0.3 0.2 2.3
v 0.2 0.2 2.3
v 0.6 0.2 2.3
v 1.1 0.2 2.3
v 1.5 0.2 2.3
v -1.5 0.2 2.2
v -1.3 0.2 2.2
v -0.6 0.2 2.2
v -0.4 0.2 2.2
v 0.3 0.2 2.2
v 0.5 0.2 2.2
v 1.2 0.2 2.2
v 1.4 0.2 2.2
v -1.5 0.2 2
v -1.3 0.2 2
v -0.6 0.2 2
v -0.4 0.2 2
v 0.3 0.2 2
v 0.5 0.2 2
v 1.2 0.2 2
v 1.4 0.2 2
v -1.6 0.2 1.9
v -1.2 0.2 1.9
v -0.7 0.2 1.9
v -0.3 0.2 1.9
v 0.2 0.2 1.9
v 0.6 0.2 1.9
v 1.1 0.2 1.9
v 1.5 0.2 1.9
v -1.5 1.3 2.4
v -1.3 1.3 2.4
v -0.6 1.3 2.4
v -0.4 1.3 2.4
v 0.3 1.3 2.4
v 0.5 1.3 2.4
v 1.2 1.3 2.4
v 1.4 1.3 2.4
v -1.6 1.3 2.3
v -1.5 1.3 2.3
v -1.3 1.3 2.3
v -1.2 1.3 2.3
v -0.7 1.3 2.3
v -0.6 1.3 2.3
v -0.4 1.3 2.3
v -0.3 1.3 2.3
v 0.2 1.3 2.3
v 0.3 1.3 2.3
v 0.5 1.3 2.3
v 0.6 1.3 2.3
v 1.1 1.3 2.3
v 1.2 1.3 2.3
v 1.4 1.3 2.3
v 1.5 1.3 2.3
v -1.8 1.3 2.2
v -1.6 1.3 2.2
v -1.5 1.3 2.2
v -1.2 1.3 2.2
v -1.1 1.3 2.2
v -0.8 1.3 2.2
v -0.7 1.3 2.2
v -0.4 1.3 2.2
v -0.3 1.3 2.2
v -1.19209e-07 1.3 2.2
v 0.0999999 1.3 2.2
v 0.2 1.3 2.2
v 0.4 1.3 2.2
v 0.5 1.3 2.2
v 0.6 1.3 2.2
v 0.8 1.3 2.2
v 0.9 1.3 2.2
v 1.1 1.3 2.2
v 1.2 1.3 2.2
v 1.3 1.3 2.2
v 1.5 1.3 2.2
v 1.6 1.3 2.2
v 1.7 1.3 2.2
v 1.8 1.3 2.2
v -1.8 1.3 2.1
v -1.7 1.3 2.1
v -1.4 1.3 2.1
v -1.3 1.3 2.1
v -1 1.3 2.1
v -0.9 1.3 2.1
v -0.6 1.3 2.1
v -0.5 1.3 2.1
v -0.2 1.3 2.1
v -0.1 1.3 2.1
v 0.2 1.3 2.1
v 0.3 1.3 2.1
v 0.6 1.3 2.1
v 0.7 1.3 2.1
v 1 1.3 2.1
v 1.1 1.3 2.1
v 1.4 1.3 2.1
v 1.5 1.3 2.1
v -1.8 1.3 2
v -1.7 1.3 2
v -1.6 1.3 2
v -1.5 1.3 2
v -1.4 1.3 2
v -1.3 1.3 2
v -1.2 1.3 2
v -1.1 1.3 2
v -1 1.3 2
v -0.9 1.3 2
v -0.8 1.3 2
v -0.7 1.3 2
v -0.6 1.3 2
v -0.5 1.3 2
v -0.4 1.3 2
v -0.3 1.3 2
v -0.2 1.3 2
v -0.1 1.3 2
v -1.19209e-07 1.3 2
v 0.0999999 1.3 2
v 0.2 1.3 2
v 0.3 1.3 2
v 0.4 1.3 2
v 0.5 1.3 2
v 0.6 1.3 2
v 0.7 1.3 2
v 0.8 1.3 2
v 0.9 1.3 2
v 1 1.3 2
v 1.1 1.3 2
v 1.2 1.3 2
v 1.3 1.3 2
v 1.4 1.3 2
v 1.5 1.3 2
v 1.6 1.3 2
v 1.7 1.3 2
v 1.8 1.3 2
v -1.6 1.3 1.9
v -1.5 1.3 1.9
v -1.3 1.3 1.9
v -1.2 1.3 1.9
v -0.7 1.3 1.9
v -0.6 1.3 1.9
v -0.4 1.3 1.9
v -0.3 1.3 1.9
v 0.2 1.3 1.9
v 0.3 1.3 1.9
v 0.5 1.3 1.9
v 0.6 1.3 1.9
v 1.1 1.3 1.9
v 1.2 1.3 1.9
v 1.4 1.3 1.9
v 1.5 1.3 1.9
v -1.5 1.3 1.8
v -1.3 1.3 1.8
v -0.6 1.3 1.8
v -0.4 1.3 1.8
v 0.3 1.3 1.8
v 0.5 1.3 1.8
v 1.2 1.3 1.8
v 1.4 1.3 1.8

# faces
f 3/2/1 2/2/1 1/2/1
f 4/2/1 2/2/1 3/2/1
f 8/1/1 6/1/1 5/1/1
f 9/3/1 7/3/1 6/3/1
f 9/1/1 6/1/1 8/1/1
f 10/3/1 7/3/1 9/3/1
f 15/2/1 12/2/1 11/2/1
f 16/2/1 14/2/1 13/2/1
f 17/2/1 15/2/1 11/2/1
f 17/2/1 16/2/1 15/2/1
f 18/2/1 14/2/1 16/2/1
f 18/2/1 16/2/1 17/2/1
f 21/2/1 20/2/1 19/2/1
f 22/2/1 20/2/1 21/2/1
f 23/2/1 21/2/1 19/2/1
f 24/2/1 21/2/1 23/2/1
f 25/2/1 20/2/1 22/2/1
f 26/2/1 20/2/1 25/2/1
f 31/2/1 28/2/1 27/2/1
f 32/2/1 28/2/1 31/2/1
f 33/2/1 30/2/1 29/2/1
f 34/2/1 30/2/1 33/2/1
f 37/2/1 36/2/1 35/2/1
f 38/2/1 36/2/1 37/2/1
f 43/2/1 40/2/1 39/2/1
f 44/2/1 40/2/1 43/2/1
f 45/2/1 42/2/1 41/2/1
f 46/2/1 42/2/1 45/2/1
f 51/2/1 48/2/1 47/2/1
f 52/2/1 50/2/1 49/2/1
f 53/2/1 51/2/1 47/2/1
f 53/2/1 52/2/1 51/2/1
f 54/2/1 50/2/1 52/2/1
f 54/2/1 52/2/1 53/2/1
f 57/2/1 56/2/1 55/2/1
f 58/2/1 56/2/1 57/2/1
f 59/2/1 57/2/1 55/2/1
f 60/2/1 57/2/1 59/2/1
f 61/2/1 56/2/1 58/2/1
f 62/2/1 56/2/1 61/2/1
f 67/2/1 64/2/1 63/2/1
f 68/2/1 64/2/1 67/2/1
f 69/2/1 66/2/1 65/2/1
f 70/2/1 66/2/1 69/2/1
f 73/2/1 72/2/1 71/2/1
f 74/2/1 72/2/1 73/2/1
f 79/2/1 76/2/1 75/2/1
f 80/2/1 76/2/1 79/2/1
f 81/2/1 78/2/1 77/2/1
f 82/2/1 78/2/1 81/2/1
f 87/2/1 84/2/1 83/2/1
f 88/2/1 86/2/1 85/2/1
f 89/2/1 87/2/1 83/2/1
f 89/2/1 88/2/1 87/2/1
f 90/2/1 86/2/1 88/2/1
f 90/2/1 88/2/1 89/2/1
f 93/2/1 92/2/1 91/2/1
f 94/2/1 92/2/1 93/2/1
f 95/2/1 93/2/1 91/2/1
f 96/2/1 93/2/1 95/2/1
f 97/2/1 92/2/1 94/2/1
f 98/2/1 92/2/1 97/2/1
f 103/2/1 100/2/1 99/2/1
f 104/2/1 100/2/1 103/2/1
f 105/2/1 102/2/1 101/2/1
f 106/2/1 102/2/1 105/2/1
f 109/2/1 108/2/1 107/2/1
f 110/2/1 108/2/1 109/2/1
f 115/2/1 112/2/1 111/2/1
f 116/2/1 112/2/1 115/2/1
f 117/2/1 114/2/1 113/2/1
f 118/2/1 114/2/1 117/2/1
f 123/2/1 120/2/1 119/2/1
f 124/2/1 122/2/1 121/2/1
f 125/2/1 123/2/1 119/2/1
f 125/2/1 124/2/1 123/2/1
f 126/2/1 122/2/1 124/2/1
f 126/2/1 124/2/1 125/2/1
f 129/2/1 128/2/1 127/2/1
f 130/2/1 128/2/1 129/2/1
f 131/2/1 128/2/1 130/2/1
f 132/2/1 129/2/1 127/2/1
f 133/2/1 129/2/1 132/2/1
f 134/2/1 128/2/1 131/2/1
f 135/2/1 128/2/1 134/2/1
f 140/2/1 137/2/1 136/2/1
f 141/2/1 137/2/1 140/2/1
f 142/2/1 139/2/1 138/2/1
f 143/2/1 139/2/1 142/2/1
f 146/2/1 145/2/1 144/2/1
f 147/2/1 145/2/1 146/2/1
f 152/2/1 149/2/1 148/2/1
f 153/2/1 149/2/1 152/2/1
f 154/2/1 151/2/1 150/2/1
f 155/2/1 151/2/1 154/2/1
f 156/2/2 157/2/2 160/2/2
f 160/2/2 157/2/2 161/2/2
f 158/2/2 159/2/2 162/2/2
f 162/2/2 159/2/2 163/2/2
f 164/2/2 165/2/2 166/2/2
f 166/2/2 165/2/2 167/2/2
f 168/2/2 169/2/2 172/2/2
f 172/2/2 169/2/2 173/2/2
f 170/2/2 171/2/2 174/2/2
f 174/2/2 171/2/2 175/2/2
f 176/2/2 177/2/2 180/2/2
f 178/2/2 179/2/2 181/2/2
f 176/2/2 180/2/2 182/2/2
f 180/2/2 181/2/2 182/2/2
f 181/2/2 179/2/2 183/2/2
f 182/2/2 181/2/2 183/2/2
f 184/2/2 185/2/2 186/2/2
f 186/2/2 185/2/2 187/2/2
f 184/2/2 186/2/2 188/2/2
f 188/2/2 186/2/2 189/2/2
f 187/2/2 185/2/2 190/2/2
f 190/2/2 185/2/2 191/2/2
f 192/2/2 193/2/2 196/2/2
f 196/2/2 193/2/2 197/2/2
f 194/2/2 195/2/2 198/2/2
f 198/2/2 195/2/2 199/2/2
f 200/2/2 201/2/2 202/2/2
f 202/2/2 201/2/2 203/2/2
f 204/2/2 205/2/2 208/2/2
f 208/2/2 205/2/2 209/2/2
f 206/2/2 207/2/2 210/2/2
f 210/2/2 207/2/2 211/2/2
f 212/2/2 213/2/2 216/2/2
f 214/2/2 215/2/2 217/2/2
f 212/2/2 216/2/2 218/2/2
f 216/2/2 217/2/2 218/2/2
f 217/2/2 215/2/2 219/2/2
f 218/2/2 217/2/2 219/2/2
f 220/2/2 221/2/2 222/2/2
f 222/2/2 221/2/2 223/2/2
f 220/2/2 222/2/2 224/2/2
f 224/2/2 222/2/2 225/2/2
f 223/2/2 221/2/2 226/2/2
f 226/2/2 221/2/2 227/2/2
f 228/2/2 229/2/2 232/2/2
f 232/2/2 229/2/2 233/2/2
f 230/2/2 231/2/2 234/2/2
f 234/2/2 231/2/2 235/2/2
f 236/2/2 237/2/2 238/2/2
f 238/2/2 237/2/2 239/2/2
f 240/2/2 241/2/2 244/2/2
f 244/2/2 241/2/2 245/2/2
f 242/2/2 243/2/2 246/2/2
f 246/2/2 243/2/2 247/2/2
f 248/2/2 249/2/2 252/2/2
f 250/2/2 251/2/2 253/2/2
f 248/2/2 252/2/2 254/2/2
f 252/2/2 253/2/2 254/2/2
f 253/2/2 251/2/2 255/2/2
f 254/2/2 253/2/2 255/2/2
f 256/2/2 257/2/2 258/2/2
f 258/2/2 257/2/2 259/2/2
f 259/2/2 257/2/2 260/2/2
f 256/2/2 258/2/2 261/2/2
f 261/2/2 258/2/2 262/2/2
f 260/2/2 257/2/2 263/2/2
f 263/2/2 257/2/2 264/2/2
f 265/2/2 266/2/2 269/2/2
f 269/2/2 266/2/2 270/2/2
f 267/2/2 268/2/2 271/2/2
f 271/2/2 268/2/2 272/2/2
f 273/2/2 274/2/2 275/2/2
f 275/2/2 274/2/2 276/2/2
f 277/2/2 278/2/2 281/2/2
f 281/2/2 278/2/2 282/2/2
f 279/2/2 280/2/2 283/2/2
f 283/2/2 280/2/2 284/2/2
f 285/2/2 286/2/2 289/2/2
f 287/2/2 288/2/2 290/2/2
f 285/2/2 289/2/2 291/2/2
f 289/2/2 290/2/2 291/2/2
f 290/2/2 288/2/2 292/2/2
f 291/2/2 290/2/2 292/2/2
f 293/2/2 294/2/2 295/2/2
f 295/2/2 294/2/2 296/2/2
f 293/2/2 295/2/2 297/2/2
f 297/2/2 295/2/2 298/2/2
f 296/2/2 294/2/2 299/2/2
f 299/2/2 294/2/2 300/2/2
f 301/2/2 302/2/2 303/2/2
f 303/2/2 302/2/2 304/2/2
f 305/1/2 306/1/2 307/1/2
f 307/1/2 306/1/2 308/1/2
f 313/2/3 310/2/3 309/2/3
f 314/2/3 310/2/3 313/2/3
f 315/2/3 312/2/3 311/2/3
f 316/2/3 312/2/3 315/2/3
f 321/2/3 318/2/3 317/2/3
f 322/2/3 318/2/3 321/2/3
f 323/2/3 320/2/3 319/2/3
f 324/2/3 320/2/3 323/2/3
f 329/2/3 326/2/3 325/2/3
f 330/2/3 326/2/3 329/2/3
f 331/2/3 328/2/3 327/2/3
f 332/2/3 328/2/3 331/2/3
f 337/2/3 334/2/3 333/2/3
f 338/2/3 334/2/3 337/2/3
f 339/2/3 336/2/3 335/2/3
f 340/2/3 336/2/3 339/2/3
f 345/2/3 342/2/3 341/2/3
f 346/2/3 342/2/3 345/2/3
f 347/2/3 344/2/3 343/2/3
f 348/2/3 344/2/3 347/2/3
f 350/2/3 342/2/3 346/2/3
f 351/2/3 347/2/3 343/2/3
f 353/2/3 350/2/3 349/2/3
f 354/2/3 342/2/3 350/2/3
f 354/2/3 350/2/3 353/2/3
f 355/2/3 352/2/3 351/2/3
f 355/2/3 351/2/3 343/2/3
f 356/2/3 352/2/3 355/2/3
f 361/2/3 358/2/3 357/2/3
f 362/2/3 358/2/3 361/2/3
f 363/2/3 360/2/3 359/2/3
f 364/2/3 360/2/3 363/2/3
f 366/2/3 358/2/3 362/2/3
f 367/2/3 363/2/3 359/2/3
f 369/2/3 366/2/3 365/2/3
f 370/2/3 358/2/3 366/2/3
f 370/2/3 366/2/3 369/2/3
f 371/2/3 368/2/3 367/2/3
f 371/2/3 367/2/3 359/2/3
f 372/2/3 368/2/3 371/2/3
f 377/2/3 374/2/3 373/2/3
f 378/2/3 374/2/3 377/2/3
f 379/2/3 376/2/3 375/2/3
f 380/2/3 376/2/3 379/2/3
f 382/2/3 374/2/3 378/2/3
f 383/2/3 379/2/3 375/2/3
f 385/2/3 382/2/3 381/2/3
f 386/2/3 374/2/3 382/2/3
f 386/2/3 382/2/3 385/2/3
f 387/2/3 384/2/3 383/2/3
f 387/2/3 383/2/3 375/2/3
f 388/2/3 384/2/3 387/2/3
f 393/2/3 390/2/3 389/2/3
f 394/2/3 390/2/3 393/2/3
f 395/2/3 392/2/3 391/2/3
f 396/2/3 392/2/3 395/2/3
f 398/2/3 390/2/3 394/2/3
f 399/2/3 395/2/3 391/2/3
f 401/2/3 398/2/3 397/2/3
f 402/2/3 390/2/3 398/2/3
f 402/2/3 398/2/3 401/2/3
f 403/2/3 400/2/3 399/2/3
f 403/2/3 399/2/3 391/2/3
f 404/2/3 400/2/3 403/2/3
f 409/2/3 406/2/3 405/2/3
f 410/2/3 406/2/3 409/2/3
f 411/1/3 408/1/3 407/1/3
f 412/1/3 408/1/3 411/1/3
f 415/2/3 414/2/3 413/2/3
f 416/2/3 414/2/3 415/2/3
f 421/3/3 420/3/3 419/3/3
f 422/3/3 420/3/3 421/3/3
f 423/1/3 422/1/3 421/1/3
f 424/1/3 422/1/3 423/1/3
f 425/2/3 418/2/3 417/2/3
f 426/2/3 418/2/3 425/2/3
f 427/3/3 424/3/3 423/3/3
f 428/3/3 424/3/3 427/3/3
f 431/2/3 430/2/3 429/2/3
f 432/2/3 430/2/3 431/2/3
f 437/1/3 436/1/3 435/1/3
f 438/1/3 436/1/3 437/1/3
f 439/3/3 438/3/3 437/3/3
f 440/3/3 438/3/3 439/3/3
f 441/2/3 434/2/3 433/2/3
f 442/2/3 434/2/3 441/2/3
f 443/1/3 440/1/3 439/1/3
f 444/1/3 440/1/3 443/1/3
f 447/2/3 446/2/3 445/2/3
f 448/2/3 446/2/3 447/2/3
f 453/1/3 452/1/3 451/1/3
f 454/1/3 452/1/3 453/1/3
f 455/3/3 454/3/3 453/3/3
f 456/3/3 454/3/3 455/3/3
f 457/2/3 450/2/3 449/2/3
f 458/2/3 450/2/3 457/2/3
f 459/1/3 456/1/3 455/1/3
f 460/1/3 456/1/3 459/1/3
f 463/2/3 462/2/3 461/2/3
f 464/2/3 462/2/3 463/2/3
f 469/1/3 468/1/3 467/1/3
f 470/1/3 468/1/3 469/1/3
f 471/3/3 470/3/3 469/3/3
f 472/3/3 470/3/3 471/3/3
f 473/2/3 466/2/3 465/2/3
f 474/2/3 466/2/3 473/2/3
f 475/1/3 472/1/3 471/1/3
f 476/1/3 472/1/3 475/1/3
f 479/3/4 480/3/4 481/3/4
f 481/3/4 480/3/4 482/3/4
f 477/2/4 478/2/4 483/2/4
f 483/2/4 478/2/4 484/2/4
f 481/1/4 482/1/4 485/1/4
f 485/1/4 482/1/4 486/1/4
f 487/2/4 488/2/4 489/2/4
f 489/2/4 488/2/4 490/2/4
f 493/3/4 494/3/4 495/3/4
f 495/3/4 494/3/4 496/3/4
f 495/1/4 496/1/4 497/1/4
f 497/1/4 496/1/4 498/1/4
f 497/3/4 498/3/4 499/3/4
f 499/3/4 498/3/4 500/3/4
f 499/1/4 500/1/4 501/1/4
f 501/1/4 500/1/4 502/1/4
f 491/2/4 492/2/4 503/2/4
f 503/2/4 492/2/4 504/2/4
f 501/3/4 502/3/4 505/3/4
f 505/3/4 502/3/4 506/3/4
f 507/2/4 508/2/4 509/2/4
f 509/2/4 508/2/4 510/2/4
f 513/1/4 514/1/4 515/1/4
f 515/1/4 514/1/4 516/1/4
f 515/3/4 516/3/4 517/3/4
f 517/3/4 516/3/4 518/3/4
f 517/1/4 518/1/4 519/1/4
f 519/1/4 518/1/4 520/1/4
f 519/3/4 520/3/4 521/3/4
f 521/3/4 520/3/4 522/3/4
f 511/2/4 512/2/4 523/2/4
f 523/2/4 512/2/4 524/2/4
f 521/1/4 522/1/4 525/1/4
f 525/1/4 522/1/4 526/1/4
f 527/2/4 528/2/4 529/2/4
f 529/2/4 528/2/4 530/2/4
f 533/3/4 534/3/4 535/3/4
f 535/3/4 534/3/4 536/3/4
f 535/1/4 536/1/4 537/1/4
f 537/1/4 536/1/4 538/1/4
f 537/3/4 538/3/4 539/3/4
f 539/3/4 538/3/4 540/3/4
f 539/1/4 540/1/4 541/1/4
f 541/1/4 540/1/4 542/1/4
f 531/2/4 532/2/4 543/2/4
f 543/2/4 532/2/4 544/2/4
f 541/3/4 542/3/4 545/3/4
f 545/3/4 542/3/4 546/3/4
f 547/2/4 548/2/4 549/2/4
f 549/2/4 548/2/4 550/2/4
f 553/1/4 554/1/4 555/1/4
f 555/1/4 554/1/4 556/1/4
f 555/3/4 556/3/4 557/3/4
f 557/3/4 556/3/4 558/3/4
f 551/2/4 552/2/4 559/2/4
f 559/2/4 552/2/4 560/2/4
f 557/1/4 558/1/4 561/1/4
f 561/1/4 558/1/4 562/1/4
f 563/2/4 564/2/4 567/2/4
f 567/2/4 564/2/4 568/2/4
f 565/2/4 566/2/4 569/2/4
f 569/2/4 566/2/4 570/2/4
f 568/2/4 564/2/4 572/2/4
f 565/2/4 569/2/4 573/2/4
f 571/2/4 572/2/4 575/2/4
f 572/2/4 564/2/4 576/2/4
f 575/2/4 572/2/4 576/2/4
f 573/2/4 574/2/4 577/2/4
f 565/2/4 573/2/4 577/2/4
f 577/2/4 574/2/4 578/2/4
f 579/2/4 580/2/4 583/2/4
f 583/2/4 580/2/4 584/2/4
f 581/2/4 582/2/4 585/2/4
f 585/2/4 582/2/4 586/2/4
f 584/2/4 580/2/4 588/2/4
f 581/2/4 585/2/4 589/2/4
f 587/2/4 588/2/4 591/2/4
f 588/2/4 580/2/4 592/2/4
f 591/2/4 588/2/4 592/2/4
f 589/2/4 590/2/4 593/2/4
f 581/2/4 589/2/4 593/2/4
f 593/2/4 590/2/4 594/2/4
f 595/2/4 596/2/4 599/2/4
f 599/2/4 596/2/4 600/2/4
f 597/2/4 598/2/4 601/2/4
f 601/2/4 598/2/4 602/2/4
f 600/2/4 596/2/4 604/2/4
f 597/2/4 601/2/4 605/2/4
f 603/2/4 604/2/4 607/2/4
f 604/2/4 596/2/4 608/2/4
f 607/2/4 604/2/4 608/2/4
f 605/2/4 606/2/4 609/2/4
f 597/2/4 605/2/4 609/2/4
f 609/2/4 606/2/4 610/2/4
f 611/2/4 612/2/4 615/2/4
f 615/2/4 612/2/4 616/2/4
f 613/2/4 614/2/4 617/2/4
f 617/2/4 614/2/4 618/2/4
f 616/2/4 612/2/4 620/2/4
f 613/2/4 617/2/4 621/2/4
f 619/2/4 620/2/4 623/2/4
f 620/2/4 612/2/4 624/2/4
f 623/2/4 620/2/4 624/2/4
f 621/2/4 622/2/4 625/2/4
f 613/2/4 621/2/4 625/2/4
f 625/2/4 622/2/4 626/2/4
f 627/2/4 628/2/4 631/2/4
f 631/2/4 628/2/4 632/2/4
f 629/2/4 630/2/4 633/2/4
f 633/2/4 630/2/4 634/2/4
f 635/2/4 636/2/4 639/2/4
f 639/2/4 636/2/4 640/2/4
f 637/2/4 638/2/4 641/2/4
f 641/2/4 638/2/4 642/2/4
f 643/2/4 644/2/4 647/2/4
f 647/2/4 644/2/4 648/2/4
f 645/2/4 646/2/4 649/2/4
f 649/2/4 646/2/4 650/2/4
f 651/2/4 652/2/4 655/2/4
f 655/2/4 652/2/4 656/2/4
f 653/2/4 654/2/4 657/2/4
f 657/2/4 654/2/4 658/2/4
f 668/2/5 660/2/5 659/2/5
f 669/2/5 660/2/5 668/2/5
f 672/2/5 662/2/5 661/2/5
f 673/2/5 662/2/5 672/2/5
f 676/2/5 664/2/5 663/2/5
f 677/2/5 664/2/5 676/2/5
f 680/2/5 666/2/5 665/2/5
f 681/2/5 666/2/5 680/2/5
f 684/2/5 670/2/5 669/2/5
f 684/2/5 668/2/5 667/2/5
f 684/2/5 669/2/5 668/2/5
f 685/2/5 670/2/5 684/2/5
f 686/2/5 674/2/5 673/2/5
f 686/2/5 672/2/5 671/2/5
f 686/2/5 673/2/5 672/2/5
f 687/2/5 674/2/5 686/2/5
f 688/2/5 678/2/5 677/2/5
f 688/2/5 676/2/5 675/2/5
f 688/2/5 677/2/5 676/2/5
f 689/2/5 678/2/5 688/2/5
f 690/2/5 682/2/5 681/2/5
f 690/2/5 681/2/5 680/2/5
f 690/2/5 680/2/5 679/2/5
f 691/2/5 682/2/5 690/2/5
f 693/2/5 687/2/5 686/2/5
f 693/2/5 692/2/5 691/2/5
f 693/2/5 691/2/5 690/2/5
f 693/2/5 690/2/5 689/2/5
f 693/2/5 689/2/5 688/2/5
f 693/2/5 685/2/5 684/2/5
f 693/2/5 688/2/5 687/2/5
f 693/2/5 686/2/5 685/2/5
f 693/2/5 684/2/5 683/2/5
f 694/2/5 692/2/5 693/2/5
f 695/2/5 692/2/5 694/2/5
f 696/2/5 692/2/5 695/2/5
f 697/2/5 692/2/5 696/2/5
f 698/2/5 692/2/5 697/2/5
f 699/2/5 692/2/5 698/2/5
f 700/2/5 692/2/5 699/2/5
f 701/2/5 692/2/5 700/2/5
f 702/2/5 692/2/5 701/2/5
f 703/2/5 695/2/5 694/2/5
f 704/2/5 695/2/5 703/2/5
f 705/2/5 695/2/5 704/2/5
f 706/2/5 695/2/5 705/2/5
f 707/2/5 697/2/5 696/2/5
f 708/2/5 697/2/5 707/2/5
f 709/2/5 697/2/5 708/2/5
f 710/2/5 697/2/5 709/2/5
f 711/2/5 699/2/5 698/2/5
f 712/2/5 699/2/5 711/2/5
f 713/2/5 699/2/5 712/2/5
f 714/2/5 699/2/5 713/2/5
f 715/2/5 701/2/5 700/2/5
f 716/2/5 701/2/5 715/2/5
f 717/2/5 701/2/5 716/2/5
f 718/2/5 701/2/5 717/2/5
f 719/2/5 705/2/5 704/2/5
f 720/2/5 705/2/5 719/2/5
f 721/2/5 709/2/5 708/2/5
f 722/2/5 709/2/5 721/2/5
f 723/2/5 713/2/5 712/2/5
f 724/2/5 713/2/5 723/2/5
f 725/2/5 717/2/5 716/2/5
f 726/2/5 717/2/5 725/2/5
f 735/2/5 728/2/5 727/2/5
f 736/2/5 728/2/5 735/2/5
f 737/2/5 730/2/5 729/2/5
f 738/2/5 730/2/5 737/2/5
f 739/2/5 732/2/5 731/2/5
f 740/2/5 732/2/5 739/2/5
f 741/2/5 734/2/5 733/2/5
f 742/2/5 734/2/5 741/2/5
f 743/2/5 735/2/5 727/2/5
f 744/2/5 728/2/5 736/2/5
f 745/2/5 737/2/5 729/2/5
f 746/2/5 730/2/5 738/2/5
f 747/2/5 739/2/5 731/2/5
f 748/2/5 732/2/5 740/2/5
f 749/2/5 741/2/5 733/2/5
f 750/2/5 734/2/5 742/2/5
f 751/2/5 743/2/5 727/2/5
f 751/2/5 744/2/5 743/2/5
f 752/2/5 728/2/5 744/2/5
f 752/2/5 744/2/5 751/2/5
f 753/2/5 745/2/5 729/2/5
f 753/2/5 746/2/5 745/2/5
f 754/2/5 730/2/5 746/2/5
f 754/2/5 746/2/5 753/2/5
f 755/2/5 747/2/5 731/2/5
f 755/2/5 748/2/5 747/2/5
f 756/2/5 732/2/5 748/2/5
f 756/2/5 748/2/5 755/2/5
f 757/2/5 750/2/5 749/2/5
f 757/2/5 749/2/5 733/2/5
f 758/2/5 734/2/5 750/2/5
f 758/2/5 750/2/5 757/2/5
f 767/2/5 760/2/5 759/2/5
f 768/2/5 760/2/5 767/2/5
f 769/2/5 762/2/5 761/2/5
f 770/2/5 762/2/5 769/2/5
f 771/2/5 764/2/5 763/2/5
f 772/2/5 764/2/5 771/2/5
f 773/2/5 766/2/5 765/2/5
f 774/2/5 766/2/5 773/2/5
f 793/1/5 776/1/5 775/1/5
f 794/1/5 776/1/5 793/1/5
f 795/1/5 779/1/5 778/1/5
f 796/1/5 779/1/5 795/1/5
f 797/1/5 782/1/5 781/1/5
f 798/1/5 782/1/5 797/1/5
f 799/1/5 786/1/5 785/1/5
f 800/1/5 786/1/5 799/1/5
f 801/1/5 788/1/5 787/1/5
f 802/1/5 788/1/5 801/1/5
f 803/3/5 794/3/5 793/3/5
f 804/1/5 776/1/5 794/1/5
f 804/3/5 794/3/5 803/3/5
f 805/1/5 776/1/5 804/1/5
f 806/3/5 778/3/5 777/3/5
f 807/1/5 795/1/5 778/1/5
f 807/3/5 778/3/5 806/3/5
f 808/3/5 796/3/5 795/3/5
f 808/1/5 795/1/5 807/1/5
f 809/1/5 779/1/5 796/1/5
f 809/3/5 796/3/5 808/3/5
f 810/3/5 780/3/5 779/3/5
f 810/1/5 779/1/5 809/1/5
f 811/3/5 780/3/5 810/3/5
f 812/1/5 797/1/5 781/1/5
f 813/3/5 798/3/5 797/3/5
f 813/1/5 797/1/5 812/1/5
f 814/1/5 782/1/5 798/1/5
f 814/3/5 798/3/5 813/3/5
f 815/3/5 783/3/5 782/3/5
f 815/1/5 782/1/5 814/1/5
f 816/1/5 784/1/5 783/1/5
f 816/3/5 783/3/5 815/3/5
f 817/1/5 784/1/5 816/1/5
f 818/3/5 800/3/5 799/3/5
f 819/1/5 786/1/5 800/1/5
f 819/3/5 800/3/5 818/3/5
f 820/3/5 787/3/5 786/3/5
f 820/1/5 786/1/5 819/1/5
f 821/1/5 801/1/5 787/1/5
f 821/3/5 787/3/5 820/3/5
f 822/3/5 802/3/5 801/3/5
f 822/1/5 801/1/5 821/1/5
f 823/3/5 802/3/5 822/3/5
f 824/1/5 790/1/5 789/1/5
f 825/3/5 791/3/5 790/3/5
f 825/1/5 790/1/5 824/1/5
f 826/1/5 792/1/5 791/1/5
f 826/3/5 791/3/5 825/3/5
f 827/1/5 792/1/5 826/1/5
f 836/2/5 829/2/5 828/2/5
f 837/2/5 829/2/5 836/2/5
f 838/2/5 831/2/5 830/2/5
f 839/2/5 831/2/5 838/2/5
f 840/2/5 833/2/5 832/2/5
f 841/2/5 833/2/5 840/2/5
f 842/2/5 835/2/5 834/2/5
f 843/2/5 835/2/5 842/2/5
f 844/2/6 845/2/6 852/2/6
f 852/2/6 845/2/6 853/2/6
f 846/2/6 847/2/6 854/2/6
f 854/2/6 847/2/6 855/2/6
f 848/2/6 849/2/6 856/2/6
f 856/2/6 849/2/6 857/2/6
f 850/2/6 851/2/6 858/2/6
f 858/2/6 851/2/6 859/2/6
f 860/2/6 861/2/6 870/2/6
f 870/2/6 861/2/6 871/2/6
f 862/2/6 863/2/6 872/2/6
f 872/2/6 863/2/6 873/2/6
f 864/2/6 865/2/6 874/2/6
f 874/2/6 865/2/6 875/2/6
f 866/2/6 867/2/6 876/2/6
f 876/2/6 867/2/6 877/2/6
f 868/2/6 869/2/6 878/2/6
f 878/2/6 869/2/6 879/2/6
f 880/2/6 881/2/6 888/2/6
f 888/2/6 881/2/6 889/2/6
f 882/2/6 883/2/6 890/2/6
f 890/2/6 883/2/6 891/2/6
f 884/2/6 885/2/6 892/2/6
f 892/2/6 885/2/6 893/2/6
f 886/2/6 887/2/6 894/2/6
f 894/2/6 887/2/6 895/2/6
f 896/2/6 897/2/6 904/2/6
f 904/2/6 897/2/6 905/2/6
f 898/2/6 899/2/6 906/2/6
f 906/2/6 899/2/6 907/2/6
f 900/2/6 901/2/6 908/2/6
f 908/2/6 901/2/6 909/2/6
f 902/2/6 903/2/6 910/2/6
f 910/2/6 903/2/6 911/2/6
f 896/2/6 904/2/6 912/2/6
f 905/2/6 897/2/6 913/2/6
f 898/2/6 906/2/6 914/2/6
f 907/2/6 899/2/6 915/2/6
f 900/2/6 908/2/6 916/2/6
f 909/2/6 901/2/6 917/2/6
f 902/2/6 910/2/6 918/2/6
f 911/2/6 903/2/6 919/2/6
f 896/2/6 912/2/6 920/2/6
f 912/2/6 913/2/6 920/2/6
f 913/2/6 897/2/6 921/2/6
f 920/2/6 913/2/6 921/2/6
f 898/2/6 914/2/6 922/2/6
f 914/2/6 915/2/6 922/2/6
f 915/2/6 899/2/6 923/2/6
f 922/2/6 915/2/6 923/2/6
f 900/2/6 916/2/6 924/2/6
f 916/2/6 917/2/6 924/2/6
f 917/2/6 901/2/6 925/2/6
f 924/2/6 917/2/6 925/2/6
f 918/2/6 919/2/6 926/2/6
f 902/2/6 918/2/6 926/2/6
f 919/2/6 903/2/6 927/2/6
f 926/2/6 919/2/6 927/2/6
f 928/2/6 929/2/6 937/2/6
f 937/2/6 929/2/6 938/2/6
f 930/2/6 931/2/6 941/2/6
f 941/2/6 931/2/6 942/2/6
f 932/2/6 933/2/6 945/2/6
f 945/2/6 933/2/6 946/2/6
f 934/2/6 935/2/6 949/2/6
f 949/2/6 935/2/6 950/2/6
f 938/2/6 939/2/6 953/2/6
f 936/2/6 937/2/6 953/2/6
f 937/2/6 938/2/6 953/2/6
f 953/2/6 939/2/6 954/2/6
f 954/2/6 939/2/6 955/2/6
f 942/2/6 943/2/6 958/2/6
f 940/2/6 941/2/6 958/2/6
f 941/2/6 942/2/6 958/2/6
f 958/2/6 943/2/6 959/2/6
f 959/2/6 943/2/6 960/2/6
f 946/2/6 947/2/6 963/2/6
f 944/2/6 945/2/6 963/2/6
f 945/2/6 946/2/6 963/2/6
f 963/2/6 947/2/6 964/2/6
f 964/2/6 947/2/6 965/2/6
f 965/2/6 947/2/6 966/2/6
f 950/2/6 951/2/6 969/2/6
f 949/2/6 950/2/6 969/2/6
f 948/2/6 949/2/6 969/2/6
f 969/2/6 951/2/6 970/2/6
f 970/2/6 951/2/6 971/2/6
f 971/2/6 951/2/6 972/2/6
f 952/1/6 953/1/6 976/1/6
f 976/1/6 953/1/6 977/1/6
f 954/1/6 955/1/6 978/1/6
f 978/1/6 955/1/6 979/1/6
f 956/1/6 957/1/6 980/1/6
f 980/1/6 957/1/6 981/1/6
f 958/1/6 959/1/6 982/1/6
f 982/1/6 959/1/6 983/1/6
f 960/1/6 961/1/6 984/1/6
f 984/1/6 961/1/6 985/1/6
f 962/1/6 963/1/6 986/1/6
f 963/1/6 964/1/6 986/1/6
f 986/1/6 964/1/6 987/1/6
f 966/1/6 967/1/6 988/1/6
f 965/1/6 966/1/6 988/1/6
f 988/1/6 967/1/6 989/1/6
f 968/1/6 969/1/6 990/1/6
f 969/1/6 970/1/6 990/1/6
f 990/1/6 970/1/6 991/1/6
f 971/1/6 972/1/6 992/1/6
f 972/1/6 973/1/6 992/1/6
f 992/1/6 973/1/6 993/1/6
f 976/3/6 977/3/6 994/3/6
f 977/1/6 953/1/6 995/1/6
f 994/3/6 977/3/6 995/3/6
f 953/3/6 954/3/6 996/3/6
f 995/1/6 953/1/6 996/1/6
f 954/1/6 978/1/6 997/1/6
f 996/3/6 954/3/6 997/3/6
f 978/3/6 979/3/6 998/3/6
f 997/1/6 978/1/6 998/1/6
f 979/1/6 955/1/6 999/1/6
f 998/3/6 979/3/6 999/3/6
f 955/3/6 956/3/6 1000/3/6
f 999/1/6 955/1/6 1000/1/6
f 956/1/6 980/1/6 1001/1/6
f 1000/3/6 956/3/6 1001/3/6
f 980/3/6 981/3/6 1002/3/6
f 1001/1/6 980/1/6 1002/1/6
f 981/1/6 957/1/6 1003/1/6
f 1002/3/6 981/3/6 1003/3/6
f 957/3/6 958/3/6 1004/3/6
f 1003/1/6 957/1/6 1004/1/6
f 958/1/6 982/1/6 1005/1/6
f 1004/3/6 958/3/6 1005/3/6
f 982/3/6 983/3/6 1006/3/6
f 1005/1/6 982/1/6 1006/1/6
f 983/1/6 959/1/6 1007/1/6
f 1006/3/6 983/3/6 1007/3/6
f 959/3/6 960/3/6 1008/3/6
f 1007/1/6 959/1/6 1008/1/6
f 960/1/6 984/1/6 1009/1/6
f 1008/3/6 960/3/6 1009/3/6
f 984/3/6 985/3/6 1010/3/6
f 1009/1/6 984/1/6 1010/1/6
f 985/1/6 961/1/6 1011/1/6
f 1010/3/6 985/3/6 1011/3/6
f 961/3/6 962/3/6 1012/3/6
f 1011/1/6 961/1/6 1012/1/6
f 962/1/6 986/1/6 1013/1/6
f 1012/3/6 962/3/6 1013/3/6
f 986/3/6 987/3/6 1014/3/6
f 1013/1/6 986/1/6 1014/1/6
f 987/1/6 964/1/6 1015/1/6
f 1014/3/6 987/3/6 1015/3/6
f 964/3/6 965/3/6 1016/3/6
f 1015/1/6 964/1/6 1016/1/6
f 965/1/6 988/1/6 1017/1/6
f 1016/3/6 965/3/6 1017/3/6
f 988/3/6 989/3/6 1018/3/6
f 1017/1/6 988/1/6 1018/1/6
f 989/1/6 967/1/6 1019/1/6
f 1018/3/6 989/3/6 1019/3/6
f 967/3/6 968/3/6 1020/3/6
f 1019/1/6 967/1/6 1020/1/6
f 968/1/6 990/1/6 1021/1/6
f 1020/3/6 968/3/6 1021/3/6
f 990/3/6 991/3/6 1022/3/6
f 1021/1/6 990/1/6 1022/1/6
f 991/1/6 970/1/6 1023/1/6
f 1022/3/6 991/3/6 1023/3/6
f 970/3/6 971/3/6 1024/3/6
f 1023/1/6 970/1/6 1024/1/6
f 971/1/6 992/1/6 1025/1/6
f 1024/3/6 971/3/6 1025/3/6
f 992/3/6 993/3/6 1026/3/6
f 1025/1/6 992/1/6 1026/1/6
f 993/1/6 973/1/6 1027/1/6
f 1026/3/6 993/3/6 1027/3/6
f 973/3/6 974/3/6 1028/3/6
f 1027/1/6 973/1/6 1028/1/6
f 974/1/6 975/1/6 1029/1/6
f 1028/3/6 974/3/6 1029/3/6
f 1029/1/6 975/1/6 1030/1/6
f 997/2/6 998/2/6 1031/2/6
f 998/2/6 999/2/6 1031/2/6
f 999/2/6 1000/2/6 1031/2/6
f 996/2/6 997/2/6 1031/2/6
f 1031/2/6 1000/2/6 1032/2/6
f 1032/2/6 1000/2/6 1033/2/6
f 1033/2/6 1000/2/6 1034/2/6
f 1007/2/6 1008/2/6 1035/2/6
f 1005/2/6 1006/2/6 1035/2/6
f 1006/2/6 1007/2/6 1035/2/6
f 1008/2/6 1009/2/6 1035/2/6
f 1035/2/6 1009/2/6 1036/2/6
f 1036/2/6 1009/2/6 1037/2/6
f 1037/2/6 1009/2/6 1038/2/6
f 1015/2/6 1016/2/6 1039/2/6
f 1016/2/6 1017/2/6 1039/2/6
f 1017/2/6 1018/2/6 1039/2/6
f 1014/2/6 1015/2/6 1039/2/6
f 1039/2/6 1018/2/6 1040/2/6
f 1040/2/6 1018/2/6 1041/2/6
f 1041/2/6 1018/2/6 1042/2/6
f 1024/2/6 1025/2/6 1043/2/6
f 1023/2/6 1024/2/6 1043/2/6
f 1025/2/6 1026/2/6 1043/2/6
f 1026/2/6 1027/2/6 1043/2/6
f 1043/2/6 1027/2/6 1044/2/6
f 1044/2/6 1027/2/6 1045/2/6
f 1045/2/6 1027/2/6 1046/2/6
f 1032/2/6 1033/2/6 1047/2/6
f 1047/2/6 1033/2/6 1048/2/6
f 1036/2/6 1037/2/6 1049/2/6
f 1049/2/6 1037/2/6 1050/2/6
f 1040/2/6 1041/2/6 1051/2/6
f 1051/2/6 1041/2/6 1052/2/6
f 1044/2/6 1045/2/6 1053/2/6
f 1053/2/6 1045/2/6 1054/2/6
