# MagicaVoxel @ Ephtracy

# group
o 

# material
mtllib Suelo32-9.mtl
usemtl palette

# normals
vn -1 0 0
vn 1 0 0
vn 0 0 1
vn 0 0 -1
vn 0 -1 0
vn 0 1 0

# texcoords
vt 0.0410156 0.5
vt 0.849609 0.5
vt 0.970703 0.5

# verts
v -1.6 0 1.6
v -1.6 0 1.2
v -1.6 0 1.1
v -1.6 0 1
v -1.6 0 -1
v -1.6 0 -1.1
v -1.6 0 -1.2
v -1.6 0 -1.6
v -1.6 0.1 1.6
v -1.6 0.1 1.2
v -1.6 0.1 1.1
v -1.6 0.1 1
v -1.6 0.1 -1
v -1.6 0.1 -1.1
v -1.6 0.1 -1.2
v -1.6 0.1 -1.6
v 1.6 0 1.6
v 1.6 0 -1.6
v 1.6 0.1 1.6
v 1.6 0.1 -1.6
v -1.6 0 1.6
v -1.6 0.1 1.6
v 1.6 0 1.6
v 1.6 0.1 1.6
v -1.6 0 -1.6
v -1.6 0.1 -1.6
v 1.6 0 -1.6
v 1.6 0.1 -1.6
v -1.6 0 1.6
v 1.6 0 1.6
v -1.6 0 1.2
v 1.2 0 1.2
v -1.6 0 1.1
v 1.1 0 1.1
v -1.6 0 1
v 1 0 1
v -1.6 0 -1
v 1 0 -1
v -1.6 0 -1.1
v 1.1 0 -1.1
v -1.6 0 -1.2
v 1.2 0 -1.2
v -1.6 0 -1.6
v 1.6 0 -1.6
v -1.6 0.1 1.6
v 1.6 0.1 1.6
v -1.6 0.1 1.2
v 1.2 0.1 1.2
v -1.6 0.1 1.1
v 1.1 0.1 1.1
v -1.6 0.1 1
v 1 0.1 1
v -1.6 0.1 -1
v 1 0.1 -1
v -1.6 0.1 -1.1
v 1.1 0.1 -1.1
v -1.6 0.1 -1.2
v 1.2 0.1 -1.2
v -1.6 0.1 -1.6
v 1.6 0.1 -1.6

# faces
f 9/3/1 2/3/1 1/3/1
f 10/2/1 3/2/1 2/2/1
f 10/3/1 2/3/1 9/3/1
f 11/1/1 4/1/1 3/1/1
f 11/2/1 3/2/1 10/2/1
f 12/2/1 5/2/1 4/2/1
f 12/1/1 4/1/1 11/1/1
f 13/1/1 6/1/1 5/1/1
f 13/2/1 5/2/1 12/2/1
f 14/2/1 7/2/1 6/2/1
f 14/1/1 6/1/1 13/1/1
f 15/3/1 8/3/1 7/3/1
f 15/2/1 7/2/1 14/2/1
f 16/3/1 8/3/1 15/3/1
f 17/3/2 18/3/2 19/3/2
f 19/3/2 18/3/2 20/3/2
f 23/3/3 22/3/3 21/3/3
f 24/3/3 22/3/3 23/3/3
f 25/3/4 26/3/4 27/3/4
f 27/3/4 26/3/4 28/3/4
f 31/3/5 30/3/5 29/3/5
f 32/3/5 30/3/5 31/3/5
f 33/2/5 32/2/5 31/2/5
f 34/2/5 32/2/5 33/2/5
f 35/1/5 34/1/5 33/1/5
f 36/1/5 34/1/5 35/1/5
f 37/2/5 36/2/5 35/2/5
f 38/1/5 34/1/5 36/1/5
f 38/2/5 36/2/5 37/2/5
f 39/1/5 38/1/5 37/1/5
f 40/2/5 32/2/5 34/2/5
f 40/1/5 38/1/5 39/1/5
f 40/1/5 34/1/5 38/1/5
f 41/2/5 40/2/5 39/2/5
f 42/3/5 30/3/5 32/3/5
f 42/2/5 40/2/5 41/2/5
f 42/2/5 32/2/5 40/2/5
f 43/3/5 42/3/5 41/3/5
f 44/3/5 30/3/5 42/3/5
f 44/3/5 42/3/5 43/3/5
f 45/3/6 46/3/6 47/3/6
f 47/3/6 46/3/6 48/3/6
f 47/2/6 48/2/6 49/2/6
f 49/2/6 48/2/6 50/2/6
f 49/1/6 50/1/6 51/1/6
f 51/1/6 50/1/6 52/1/6
f 51/2/6 52/2/6 53/2/6
f 52/1/6 50/1/6 54/1/6
f 53/2/6 52/2/6 54/2/6
f 53/1/6 54/1/6 55/1/6
f 50/2/6 48/2/6 56/2/6
f 55/1/6 54/1/6 56/1/6
f 54/1/6 50/1/6 56/1/6
f 55/2/6 56/2/6 57/2/6
f 48/3/6 46/3/6 58/3/6
f 57/2/6 56/2/6 58/2/6
f 56/2/6 48/2/6 58/2/6
f 57/3/6 58/3/6 59/3/6
f 58/3/6 46/3/6 60/3/6
f 59/3/6 58/3/6 60/3/6
