# MagicaVoxel @ Ephtracy

# group
o 

# material
mtllib Suelo32-0.mtl
usemtl palette

# normals
vn -1 0 0
vn 1 0 0
vn 0 0 1
vn 0 0 -1
vn 0 -1 0
vn 0 1 0

# texcoords
vt 0.0410156 0.5
vt 0.849609 0.5
vt 0.970703 0.5

# verts
v -14.2 0 1.8
v -14.2 0 -1.4
v -14.2 0.1 1.8
v -14.2 0.1 -1.4
v -11 0 1.8
v -11 0 -0.8
v -11 0 -0.9
v -11 0 -1
v -11 0 -1.4
v -11 0.1 1.8
v -11 0.1 -0.8
v -11 0.1 -0.9
v -11 0.1 -1
v -11 0.1 -1.4
v -14.2 0 1.8
v -14.2 0.1 1.8
v -13.8 0 1.8
v -13.8 0.1 1.8
v -13.7 0 1.8
v -13.7 0.1 1.8
v -13.6 0 1.8
v -13.6 0.1 1.8
v -11 0 1.8
v -11 0.1 1.8
v -14.2 0 -1.4
v -14.2 0.1 -1.4
v -13.8 0 -1.4
v -13.8 0.1 -1.4
v -13.7 0 -1.4
v -13.7 0.1 -1.4
v -13.6 0 -1.4
v -13.6 0.1 -1.4
v -11.6 0 -1.4
v -11.6 0.1 -1.4
v -11.5 0 -1.4
v -11.5 0.1 -1.4
v -11.4 0 -1.4
v -11.4 0.1 -1.4
v -11 0 -1.4
v -11 0.1 -1.4
v -14.2 0 1.8
v -13.8 0 1.8
v -13.7 0 1.8
v -13.6 0 1.8
v -11 0 1.8
v -11.6 0 -0.8
v -11 0 -0.8
v -11.5 0 -0.9
v -11 0 -0.9
v -11.4 0 -1
v -11 0 -1
v -14.2 0 -1.4
v -13.8 0 -1.4
v -13.7 0 -1.4
v -13.6 0 -1.4
v -11.6 0 -1.4
v -11.5 0 -1.4
v -11.4 0 -1.4
v -11 0 -1.4
v -14.2 0.1 1.8
v -13.8 0.1 1.8
v -13.7 0.1 1.8
v -13.6 0.1 1.8
v -11 0.1 1.8
v -11.6 0.1 -0.8
v -11 0.1 -0.8
v -11.5 0.1 -0.9
v -11 0.1 -0.9
v -11.4 0.1 -1
v -11 0.1 -1
v -14.2 0.1 -1.4
v -13.8 0.1 -1.4
v -13.7 0.1 -1.4
v -13.6 0.1 -1.4
v -11.6 0.1 -1.4
v -11.5 0.1 -1.4
v -11.4 0.1 -1.4
v -11 0.1 -1.4

# faces
f 3/3/1 2/3/1 1/3/1
f 4/3/1 2/3/1 3/3/1
f 5/2/2 6/2/2 10/2/2
f 6/1/2 7/1/2 11/1/2
f 10/2/2 6/2/2 11/2/2
f 7/2/2 8/2/2 12/2/2
f 11/1/2 7/1/2 12/1/2
f 8/3/2 9/3/2 13/3/2
f 12/2/2 8/2/2 13/2/2
f 13/3/2 9/3/2 14/3/2
f 17/3/3 16/3/3 15/3/3
f 18/3/3 16/3/3 17/3/3
f 19/2/3 18/2/3 17/2/3
f 20/2/3 18/2/3 19/2/3
f 21/1/3 20/1/3 19/1/3
f 22/1/3 20/1/3 21/1/3
f 23/2/3 22/2/3 21/2/3
f 24/2/3 22/2/3 23/2/3
f 25/3/4 26/3/4 27/3/4
f 27/3/4 26/3/4 28/3/4
f 27/2/4 28/2/4 29/2/4
f 29/2/4 28/2/4 30/2/4
f 29/1/4 30/1/4 31/1/4
f 31/1/4 30/1/4 32/1/4
f 31/2/4 32/2/4 33/2/4
f 33/2/4 32/2/4 34/2/4
f 33/1/4 34/1/4 35/1/4
f 35/1/4 34/1/4 36/1/4
f 35/2/4 36/2/4 37/2/4
f 37/2/4 36/2/4 38/2/4
f 37/3/4 38/3/4 39/3/4
f 39/3/4 38/3/4 40/3/4
f 46/2/5 45/2/5 44/2/5
f 47/2/5 45/2/5 46/2/5
f 48/1/5 47/1/5 46/1/5
f 49/1/5 47/1/5 48/1/5
f 50/2/5 49/2/5 48/2/5
f 51/2/5 49/2/5 50/2/5
f 52/3/5 42/3/5 41/3/5
f 53/2/5 43/2/5 42/2/5
f 53/3/5 42/3/5 52/3/5
f 54/1/5 44/1/5 43/1/5
f 54/2/5 43/2/5 53/2/5
f 55/2/5 46/2/5 44/2/5
f 55/1/5 44/1/5 54/1/5
f 56/1/5 48/1/5 46/1/5
f 56/2/5 46/2/5 55/2/5
f 57/2/5 50/2/5 48/2/5
f 57/1/5 48/1/5 56/1/5
f 58/3/5 51/3/5 50/3/5
f 58/2/5 50/2/5 57/2/5
f 59/3/5 51/3/5 58/3/5
f 63/2/6 64/2/6 65/2/6
f 65/2/6 64/2/6 66/2/6
f 65/1/6 66/1/6 67/1/6
f 67/1/6 66/1/6 68/1/6
f 67/2/6 68/2/6 69/2/6
f 69/2/6 68/2/6 70/2/6
f 60/3/6 61/3/6 71/3/6
f 61/2/6 62/2/6 72/2/6
f 71/3/6 61/3/6 72/3/6
f 62/1/6 63/1/6 73/1/6
f 72/2/6 62/2/6 73/2/6
f 63/2/6 65/2/6 74/2/6
f 73/1/6 63/1/6 74/1/6
f 65/1/6 67/1/6 75/1/6
f 74/2/6 65/2/6 75/2/6
f 67/2/6 69/2/6 76/2/6
f 75/1/6 67/1/6 76/1/6
f 69/3/6 70/3/6 77/3/6
f 76/2/6 69/2/6 77/2/6
f 77/3/6 70/3/6 78/3/6
