# MagicaVoxel @ Ephtracy

# group
o 

# material
mtllib CronomantePartes-3.mtl
usemtl palette

# normals
vn 1 0 0
vn -1 0 0
vn 0 0 -1
vn 0 0 1
vn 0 -1 0
vn 0 1 0

# texcoords
vt 0.00585938 0.5
vt 0.0332031 0.5
vt 0.958984 0.5

# verts
v -0.5 2.4 -0.7
v -0.5 2.4 -0.1
v -0.5 2.5 -0.6
v -0.5 2.5 -0.2
v -0.5 2.7 -0.6
v -0.5 2.7 -0.2
v -0.5 2.8 -0.7
v -0.5 2.8 -0.1
v -0.7 1.2 -0.5
v -0.7 1.2 -0.3
v -0.7 1.4 -0.5
v -0.7 1.4 -0.3
v -0.7 2.4 -0.5
v -0.7 2.4 -0.3
v -0.8 2.4 -0.7
v -0.8 2.4 -0.6
v -0.8 2.4 -0.3
v -0.8 2.4 -0.1
v -0.8 2.5 -0.7
v -0.8 2.5 -0.6
v -0.8 2.5 -0.3
v -0.8 2.5 -0.1
v -0.8 2.7 -0.7
v -0.8 2.7 -0.6
v -0.8 2.7 -0.2
v -0.8 2.7 -0.1
v -0.8 2.8 -0.7
v -0.8 2.8 -0.6
v -0.8 2.8 -0.2
v -0.8 2.8 -0.1
v -0.9 1.2 -0.5
v -0.9 1.2 -0.3
v -0.9 1.4 -0.5
v -0.9 1.4 -0.3
v -0.9 2.4 -0.6
v -0.9 2.4 -0.5
v -0.9 2.4 -0.3
v -0.9 2.5 -0.7
v -0.9 2.5 -0.6
v -0.9 2.5 -0.5
v -0.9 2.7 -0.7
v -0.9 2.7 -0.6
v -0.9 2.7 -0.5
v -0.9 2.7 -0.3
v -0.9 2.7 -0.2
v -0.9 2.8 -0.6
v -0.9 2.8 -0.5
v -0.9 2.8 -0.3
v -0.9 2.8 -0.2
v -1 2.4 -0.5
v -1 2.4 -0.3
v -1 2.5 -0.6
v -1 2.5 -0.5
v -1 2.5 -0.3
v -1 2.5 -0.1
v -1 2.7 -0.6
v -1 2.7 -0.5
v -1 2.7 -0.3
v -1 2.7 -0.1
v -1 2.8 -0.5
v -1 2.8 -0.3
v -0.5 2.4 -0.7
v -0.5 2.8 -0.7
v -0.8 2.4 -0.7
v -0.8 2.5 -0.7
v -0.8 2.7 -0.7
v -0.8 2.8 -0.7
v -0.9 2.5 -0.7
v -0.9 2.7 -0.7
v -0.8 2.4 -0.6
v -0.8 2.5 -0.6
v -0.8 2.7 -0.6
v -0.8 2.8 -0.6
v -0.9 2.4 -0.6
v -0.9 2.5 -0.6
v -0.9 2.7 -0.6
v -0.9 2.8 -0.6
v -1 2.5 -0.6
v -1 2.7 -0.6
v -0.7 1.2 -0.5
v -0.7 1.4 -0.5
v -0.7 2.4 -0.5
v -0.9 1.2 -0.5
v -0.9 1.4 -0.5
v -0.9 2.4 -0.5
v -0.9 2.5 -0.5
v -0.9 2.7 -0.5
v -0.9 2.8 -0.5
v -1 2.4 -0.5
v -1 2.5 -0.5
v -1 2.7 -0.5
v -1 2.8 -0.5
v -0.7 1.2 -0.3
v -0.7 1.4 -0.3
v -0.7 2.4 -0.3
v -0.8 2.4 -0.3
v -0.8 2.5 -0.3
v -0.9 1.2 -0.3
v -0.9 1.4 -0.3
v -0.9 2.4 -0.3
v -0.9 2.7 -0.3
v -0.9 2.8 -0.3
v -1 2.4 -0.3
v -1 2.5 -0.3
v -1 2.7 -0.3
v -1 2.8 -0.3
v -0.8 2.7 -0.2
v -0.8 2.8 -0.2
v -0.9 2.7 -0.2
v -0.9 2.8 -0.2
v -0.5 2.4 -0.1
v -0.5 2.8 -0.1
v -0.8 2.4 -0.1
v -0.8 2.5 -0.1
v -0.8 2.7 -0.1
v -0.8 2.8 -0.1
v -1 2.5 -0.1
v -1 2.7 -0.1
v -0.7 1.2 -0.5
v -0.9 1.2 -0.5
v -0.7 1.2 -0.3
v -0.9 1.2 -0.3
v -0.5 2.4 -0.7
v -0.8 2.4 -0.7
v -0.8 2.4 -0.6
v -0.9 2.4 -0.6
v -0.7 2.4 -0.5
v -0.9 2.4 -0.5
v -1 2.4 -0.5
v -0.7 2.4 -0.3
v -0.8 2.4 -0.3
v -0.9 2.4 -0.3
v -1 2.4 -0.3
v -0.5 2.4 -0.1
v -0.8 2.4 -0.1
v -0.8 2.5 -0.7
v -0.9 2.5 -0.7
v -0.8 2.5 -0.6
v -0.9 2.5 -0.6
v -1 2.5 -0.6
v -0.9 2.5 -0.5
v -1 2.5 -0.5
v -0.8 2.5 -0.3
v -1 2.5 -0.3
v -0.8 2.5 -0.1
v -1 2.5 -0.1
v -0.8 2.7 -0.7
v -0.9 2.7 -0.7
v -0.8 2.7 -0.6
v -0.9 2.7 -0.6
v -1 2.7 -0.6
v -0.9 2.7 -0.5
v -1 2.7 -0.5
v -0.9 2.7 -0.3
v -1 2.7 -0.3
v -0.8 2.7 -0.2
v -0.9 2.7 -0.2
v -0.8 2.7 -0.1
v -1 2.7 -0.1
v -0.5 2.8 -0.7
v -0.8 2.8 -0.7
v -0.8 2.8 -0.6
v -0.9 2.8 -0.6
v -0.9 2.8 -0.5
v -1 2.8 -0.5
v -0.9 2.8 -0.3
v -1 2.8 -0.3
v -0.8 2.8 -0.2
v -0.9 2.8 -0.2
v -0.5 2.8 -0.1
v -0.8 2.8 -0.1

# faces
f 3/3/1 2/3/1 1/3/1
f 4/3/1 2/3/1 3/3/1
f 5/3/1 3/3/1 1/3/1
f 5/1/1 4/1/1 3/1/1
f 6/3/1 2/3/1 4/3/1
f 6/1/1 4/1/1 5/1/1
f 7/3/1 5/3/1 1/3/1
f 7/3/1 6/3/1 5/3/1
f 8/3/1 2/3/1 6/3/1
f 8/3/1 6/3/1 7/3/1
f 11/2/1 10/2/1 9/2/1
f 12/2/1 10/2/1 11/2/1
f 13/3/1 12/3/1 11/3/1
f 14/3/1 12/3/1 13/3/1
f 15/3/2 16/3/2 19/3/2
f 19/3/2 16/3/2 20/3/2
f 17/3/2 18/3/2 21/3/2
f 21/3/2 18/3/2 22/3/2
f 23/3/2 24/3/2 27/3/2
f 27/3/2 24/3/2 28/3/2
f 25/3/2 26/3/2 29/3/2
f 29/3/2 26/3/2 30/3/2
f 31/2/2 32/2/2 33/2/2
f 33/2/2 32/2/2 34/2/2
f 33/3/2 34/3/2 36/3/2
f 36/3/2 34/3/2 37/3/2
f 35/3/2 36/3/2 39/3/2
f 39/3/2 36/3/2 40/3/2
f 38/3/2 39/3/2 41/3/2
f 41/3/2 39/3/2 42/3/2
f 42/3/2 43/3/2 46/3/2
f 46/3/2 43/3/2 47/3/2
f 44/3/2 45/3/2 48/3/2
f 48/3/2 45/3/2 49/3/2
f 50/3/2 51/3/2 53/3/2
f 53/3/2 51/3/2 54/3/2
f 52/3/2 53/3/2 56/3/2
f 54/3/2 55/3/2 56/3/2
f 53/3/2 54/3/2 56/3/2
f 56/3/2 55/3/2 57/3/2
f 57/3/2 55/3/2 58/3/2
f 58/3/2 55/3/2 59/3/2
f 57/3/2 58/3/2 60/3/2
f 60/3/2 58/3/2 61/3/2
f 64/3/3 63/3/3 62/3/3
f 65/3/3 63/3/3 64/3/3
f 66/3/3 63/3/3 65/3/3
f 67/3/3 63/3/3 66/3/3
f 68/3/3 66/3/3 65/3/3
f 69/3/3 66/3/3 68/3/3
f 74/3/3 71/3/3 70/3/3
f 75/3/3 71/3/3 74/3/3
f 76/3/3 73/3/3 72/3/3
f 77/3/3 73/3/3 76/3/3
f 78/3/3 76/3/3 75/3/3
f 79/3/3 76/3/3 78/3/3
f 83/2/3 81/2/3 80/2/3
f 84/3/3 82/3/3 81/3/3
f 84/2/3 81/2/3 83/2/3
f 85/3/3 82/3/3 84/3/3
f 89/3/3 86/3/3 85/3/3
f 90/3/3 86/3/3 89/3/3
f 91/3/3 88/3/3 87/3/3
f 92/3/3 88/3/3 91/3/3
f 94/3/4 95/3/4 96/3/4
f 93/2/4 94/2/4 98/2/4
f 96/3/4 97/3/4 99/3/4
f 98/2/4 94/2/4 99/2/4
f 94/3/4 96/3/4 99/3/4
f 99/3/4 97/3/4 100/3/4
f 100/3/4 97/3/4 103/3/4
f 103/3/4 97/3/4 104/3/4
f 101/3/4 102/3/4 105/3/4
f 105/3/4 102/3/4 106/3/4
f 107/3/4 108/3/4 109/3/4
f 109/3/4 108/3/4 110/3/4
f 111/3/4 112/3/4 113/3/4
f 113/3/4 112/3/4 114/3/4
f 114/3/4 112/3/4 115/3/4
f 115/3/4 112/3/4 116/3/4
f 114/3/4 115/3/4 117/3/4
f 117/3/4 115/3/4 118/3/4
f 121/2/5 120/2/5 119/2/5
f 122/2/5 120/2/5 121/2/5
f 125/3/5 124/3/5 123/3/5
f 127/3/5 125/3/5 123/3/5
f 127/3/5 126/3/5 125/3/5
f 128/3/5 126/3/5 127/3/5
f 130/3/5 127/3/5 123/3/5
f 132/3/5 129/3/5 128/3/5
f 133/3/5 129/3/5 132/3/5
f 134/3/5 131/3/5 130/3/5
f 134/3/5 130/3/5 123/3/5
f 135/3/5 131/3/5 134/3/5
f 138/3/5 137/3/5 136/3/5
f 139/3/5 137/3/5 138/3/5
f 141/3/5 140/3/5 139/3/5
f 142/3/5 140/3/5 141/3/5
f 145/3/5 144/3/5 143/3/5
f 146/3/5 144/3/5 145/3/5
f 147/3/6 148/3/6 149/3/6
f 149/3/6 148/3/6 150/3/6
f 150/3/6 151/3/6 152/3/6
f 152/3/6 151/3/6 153/3/6
f 154/3/6 155/3/6 157/3/6
f 156/3/6 157/3/6 158/3/6
f 157/3/6 155/3/6 159/3/6
f 158/3/6 157/3/6 159/3/6
f 160/3/6 161/3/6 162/3/6
f 162/3/6 163/3/6 164/3/6
f 162/3/6 164/3/6 166/3/6
f 164/3/6 165/3/6 166/3/6
f 166/3/6 165/3/6 167/3/6
f 160/3/6 162/3/6 168/3/6
f 162/3/6 166/3/6 168/3/6
f 168/3/6 166/3/6 169/3/6
f 160/3/6 168/3/6 170/3/6
f 170/3/6 168/3/6 171/3/6
