%YAML 1.1
%TAG !u! tag:unity3d.com,2011:
--- !u!1 &3537114071446683138
GameObject:
  m_ObjectHideFlags: 0
  m_CorrespondingSourceObject: {fileID: 0}
  m_PrefabInstance: {fileID: 0}
  m_PrefabAsset: {fileID: 0}
  serializedVersion: 6
  m_Component:
  - component: {fileID: 1985249461445547784}
  m_Layer: 0
  m_Name: Pared Cuadro
  m_TagString: Untagged
  m_Icon: {fileID: 0}
  m_NavMeshLayer: 0
  m_StaticEditorFlags: 0
  m_IsActive: 1
--- !u!4 &1985249461445547784
Transform:
  m_ObjectHideFlags: 0
  m_CorrespondingSourceObject: {fileID: 0}
  m_PrefabInstance: {fileID: 0}
  m_PrefabAsset: {fileID: 0}
  m_GameObject: {fileID: 3537114071446683138}
  m_LocalRotation: {x: 0, y: 0, z: 0, w: 1}
  m_LocalPosition: {x: 14.239791, y: 14.27907, z: 46.62152}
  m_LocalScale: {x: 1, y: 1, z: 1}
  m_Children:
  - {fileID: 1817134773397625868}
  - {fileID: 5757202294630177972}
  m_Father: {fileID: 0}
  m_RootOrder: 0
  m_LocalEulerAnglesHint: {x: 0, y: 0, z: 0}
--- !u!1001 &2215061898705861607
PrefabInstance:
  m_ObjectHideFlags: 0
  serializedVersion: 2
  m_Modification:
    m_TransformParent: {fileID: 1985249461445547784}
    m_Modifications:
    - target: {fileID: -8679921383154817045, guid: 12df3838add125445aad5bb1e03de558, type: 3}
      propertyPath: m_RootOrder
      value: 0
      objectReference: {fileID: 0}
    - target: {fileID: -8679921383154817045, guid: 12df3838add125445aad5bb1e03de558, type: 3}
      propertyPath: m_LocalScale.x
      value: 0.125
      objectReference: {fileID: 0}
    - target: {fileID: -8679921383154817045, guid: 12df3838add125445aad5bb1e03de558, type: 3}
      propertyPath: m_LocalScale.y
      value: 0.125
      objectReference: {fileID: 0}
    - target: {fileID: -8679921383154817045, guid: 12df3838add125445aad5bb1e03de558, type: 3}
      propertyPath: m_LocalScale.z
      value: 0.125
      objectReference: {fileID: 0}
    - target: {fileID: -8679921383154817045, guid: 12df3838add125445aad5bb1e03de558, type: 3}
      propertyPath: m_LocalPosition.x
      value: -0.74979115
      objectReference: {fileID: 0}
    - target: {fileID: -8679921383154817045, guid: 12df3838add125445aad5bb1e03de558, type: 3}
      propertyPath: m_LocalPosition.y
      value: -1.1290703
      objectReference: {fileID: 0}
    - target: {fileID: -8679921383154817045, guid: 12df3838add125445aad5bb1e03de558, type: 3}
      propertyPath: m_LocalPosition.z
      value: -2.4289322
      objectReference: {fileID: 0}
    - target: {fileID: -8679921383154817045, guid: 12df3838add125445aad5bb1e03de558, type: 3}
      propertyPath: m_LocalRotation.w
      value: 0
      objectReference: {fileID: 0}
    - target: {fileID: -8679921383154817045, guid: 12df3838add125445aad5bb1e03de558, type: 3}
      propertyPath: m_LocalRotation.x
      value: -0
      objectReference: {fileID: 0}
    - target: {fileID: -8679921383154817045, guid: 12df3838add125445aad5bb1e03de558, type: 3}
      propertyPath: m_LocalRotation.y
      value: 1
      objectReference: {fileID: 0}
    - target: {fileID: -8679921383154817045, guid: 12df3838add125445aad5bb1e03de558, type: 3}
      propertyPath: m_LocalRotation.z
      value: -0
      objectReference: {fileID: 0}
    - target: {fileID: -8679921383154817045, guid: 12df3838add125445aad5bb1e03de558, type: 3}
      propertyPath: m_LocalEulerAnglesHint.x
      value: 0
      objectReference: {fileID: 0}
    - target: {fileID: -8679921383154817045, guid: 12df3838add125445aad5bb1e03de558, type: 3}
      propertyPath: m_LocalEulerAnglesHint.y
      value: 180
      objectReference: {fileID: 0}
    - target: {fileID: -8679921383154817045, guid: 12df3838add125445aad5bb1e03de558, type: 3}
      propertyPath: m_LocalEulerAnglesHint.z
      value: 0
      objectReference: {fileID: 0}
    - target: {fileID: 919132149155446097, guid: 12df3838add125445aad5bb1e03de558, type: 3}
      propertyPath: m_Name
      value: RelojesDecoracion
      objectReference: {fileID: 0}
    m_RemovedComponents: []
  m_SourcePrefab: {fileID: 100100000, guid: 12df3838add125445aad5bb1e03de558, type: 3}
--- !u!4 &1817134773397625868 stripped
Transform:
  m_CorrespondingSourceObject: {fileID: -8679921383154817045, guid: 12df3838add125445aad5bb1e03de558, type: 3}
  m_PrefabInstance: {fileID: 2215061898705861607}
  m_PrefabAsset: {fileID: 0}
--- !u!1001 &5219400966855703391
PrefabInstance:
  m_ObjectHideFlags: 0
  serializedVersion: 2
  m_Modification:
    m_TransformParent: {fileID: 1985249461445547784}
    m_Modifications:
    - target: {fileID: -8679921383154817045, guid: 366255b29189128468aef9bdc66c34b3, type: 3}
      propertyPath: m_RootOrder
      value: 1
      objectReference: {fileID: 0}
    - target: {fileID: -8679921383154817045, guid: 366255b29189128468aef9bdc66c34b3, type: 3}
      propertyPath: m_LocalPosition.x
      value: -0.6761408
      objectReference: {fileID: 0}
    - target: {fileID: -8679921383154817045, guid: 366255b29189128468aef9bdc66c34b3, type: 3}
      propertyPath: m_LocalPosition.y
      value: -1.8810272
      objectReference: {fileID: 0}
    - target: {fileID: -8679921383154817045, guid: 366255b29189128468aef9bdc66c34b3, type: 3}
      propertyPath: m_LocalPosition.z
      value: 1.9085732
      objectReference: {fileID: 0}
    - target: {fileID: -8679921383154817045, guid: 366255b29189128468aef9bdc66c34b3, type: 3}
      propertyPath: m_LocalRotation.w
      value: 1
      objectReference: {fileID: 0}
    - target: {fileID: -8679921383154817045, guid: 366255b29189128468aef9bdc66c34b3, type: 3}
      propertyPath: m_LocalRotation.x
      value: -0
      objectReference: {fileID: 0}
    - target: {fileID: -8679921383154817045, guid: 366255b29189128468aef9bdc66c34b3, type: 3}
      propertyPath: m_LocalRotation.y
      value: -0
      objectReference: {fileID: 0}
    - target: {fileID: -8679921383154817045, guid: 366255b29189128468aef9bdc66c34b3, type: 3}
      propertyPath: m_LocalRotation.z
      value: -0
      objectReference: {fileID: 0}
    - target: {fileID: -8679921383154817045, guid: 366255b29189128468aef9bdc66c34b3, type: 3}
      propertyPath: m_LocalEulerAnglesHint.x
      value: 0
      objectReference: {fileID: 0}
    - target: {fileID: -8679921383154817045, guid: 366255b29189128468aef9bdc66c34b3, type: 3}
      propertyPath: m_LocalEulerAnglesHint.y
      value: 90
      objectReference: {fileID: 0}
    - target: {fileID: -8679921383154817045, guid: 366255b29189128468aef9bdc66c34b3, type: 3}
      propertyPath: m_LocalEulerAnglesHint.z
      value: 0
      objectReference: {fileID: 0}
    - target: {fileID: 919132149155446097, guid: 366255b29189128468aef9bdc66c34b3, type: 3}
      propertyPath: m_Name
      value: Pared3 (51)
      objectReference: {fileID: 0}
    m_RemovedComponents: []
  m_SourcePrefab: {fileID: 100100000, guid: 366255b29189128468aef9bdc66c34b3, type: 3}
--- !u!4 &5757202294630177972 stripped
Transform:
  m_CorrespondingSourceObject: {fileID: -8679921383154817045, guid: 366255b29189128468aef9bdc66c34b3, type: 3}
  m_PrefabInstance: {fileID: 5219400966855703391}
  m_PrefabAsset: {fileID: 0}
