# MagicaVoxel @ Ephtracy

# group
o 

# material
mtllib RelojArena.mtl
usemtl palette

# normals
vn -1 0 0
vn 1 0 0
vn 0 0 1
vn 0 0 -1
vn 0 -1 0
vn 0 1 0

# texcoords
vt 0.00585938 0.5
vt 0.00976563 0.5
vt 0.0410156 0.5
vt 0.0644531 0.5
vt 0.212891 0.5
vt 0.232422 0.5

# verts
v -0.7 -0.6 0.8
v -0.7 -0.6 0.6
v -0.7 -0.6 -0.4
v -0.7 -0.6 -0.6
v -0.7 -0.4 0.8
v -0.7 -0.4 0.6
v -0.7 -0.4 -0.4
v -0.7 -0.4 -0.6
v -0.7 -0.2 1
v -0.7 -0.2 -0.8
v -0.7 0 1
v -0.7 0 -0.8
v -0.7 1.4 1
v -0.7 1.4 -0.8
v -0.7 1.6 1
v -0.7 1.6 -0.8
v -0.7 1.8 0.8
v -0.7 1.8 0.6
v -0.7 1.8 -0.4
v -0.7 1.8 -0.6
v -0.7 2 0.8
v -0.7 2 0.6
v -0.7 2 -0.4
v -0.7 2 -0.6
v -0.5 -0.8 0.8
v -0.5 -0.8 0.6
v -0.5 -0.8 -0.4
v -0.5 -0.8 -0.6
v -0.5 -0.6 1
v -0.5 -0.6 0.8
v -0.5 -0.6 0.6
v -0.5 -0.6 0.4
v -0.5 -0.6 -0.2
v -0.5 -0.6 -0.4
v -0.5 -0.6 -0.6
v -0.5 -0.6 -0.8
v -0.5 -0.4 1
v -0.5 -0.4 0.8
v -0.5 -0.4 0.6
v -0.5 -0.4 0.4
v -0.5 -0.4 -0.2
v -0.5 -0.4 -0.4
v -0.5 -0.4 -0.6
v -0.5 -0.4 -0.8
v -0.5 -0.2 0.8
v -0.5 -0.2 0.6
v -0.5 -0.2 -0.4
v -0.5 -0.2 -0.6
v -0.5 0 0.8
v -0.5 0 0.6
v -0.5 0 -0.4
v -0.5 0 -0.6
v -0.5 0.2 0.8
v -0.5 0.2 0.6
v -0.5 0.2 -0.4
v -0.5 0.2 -0.6
v -0.5 1.2 0.8
v -0.5 1.2 0.6
v -0.5 1.2 -0.4
v -0.5 1.2 -0.6
v -0.5 1.4 0.8
v -0.5 1.4 0.6
v -0.5 1.4 -0.4
v -0.5 1.4 -0.6
v -0.5 1.6 0.8
v -0.5 1.6 0.6
v -0.5 1.6 -0.4
v -0.5 1.6 -0.6
v -0.5 1.8 1
v -0.5 1.8 0.8
v -0.5 1.8 0.6
v -0.5 1.8 0.4
v -0.5 1.8 -0.2
v -0.5 1.8 -0.4
v -0.5 1.8 -0.6
v -0.5 1.8 -0.8
v -0.5 2 1
v -0.5 2 0.8
v -0.5 2 0.6
v -0.5 2 0.4
v -0.5 2 -0.2
v -0.5 2 -0.4
v -0.5 2 -0.6
v -0.5 2 -0.8
v -0.5 2.2 0.8
v -0.5 2.2 0.6
v -0.5 2.2 -0.4
v -0.5 2.2 -0.6
v -0.3 0 0.6
v -0.3 0 -0.4
v -0.3 0.2 0.6
v -0.3 0.2 -0.4
v -0.3 1.2 0.6
v -0.3 1.2 -0.4
v -0.3 1.4 0.6
v -0.3 1.4 -0.4
v -0.1 0.2 0.4
v -0.1 0.2 -0.2
v -0.1 0.4 0.4
v -0.1 0.4 -0.2
v -0.1 1 0.4
v -0.1 1 -0.2
v -0.1 1.2 0.4
v -0.1 1.2 -0.2
v 0.1 0.4 0.2
v 0.1 0.4 0
v 0.1 0.6 0.2
v 0.1 0.6 0
v 0.1 0.8 0.2
v 0.1 0.8 0
v 0.1 1 0.2
v 0.1 1 0
v 0.5 -0.6 0.8
v 0.5 -0.6 0.6
v 0.5 -0.6 -0.4
v 0.5 -0.6 -0.6
v 0.5 -0.4 0.8
v 0.5 -0.4 0.6
v 0.5 -0.4 -0.4
v 0.5 -0.4 -0.6
v 0.5 1.8 0.8
v 0.5 1.8 0.6
v 0.5 1.8 -0.4
v 0.5 1.8 -0.6
v 0.5 2 0.8
v 0.5 2 0.6
v 0.5 2 -0.4
v 0.5 2 -0.6
v 0.7 -0.8 0.8
v 0.7 -0.8 0.6
v 0.7 -0.8 -0.4
v 0.7 -0.8 -0.6
v 0.7 -0.6 1
v 0.7 -0.6 0.8
v 0.7 -0.6 0.6
v 0.7 -0.6 0.4
v 0.7 -0.6 -0.2
v 0.7 -0.6 -0.4
v 0.7 -0.6 -0.6
v 0.7 -0.6 -0.8
v 0.7 -0.4 1
v 0.7 -0.4 0.8
v 0.7 -0.4 0.6
v 0.7 -0.4 0.4
v 0.7 -0.4 -0.2
v 0.7 -0.4 -0.4
v 0.7 -0.4 -0.6
v 0.7 -0.4 -0.8
v 0.7 -0.2 0.8
v 0.7 -0.2 0.6
v 0.7 -0.2 -0.4
v 0.7 -0.2 -0.6
v 0.7 0 0.8
v 0.7 0 0.6
v 0.7 0 -0.4
v 0.7 0 -0.6
v 0.7 0.2 0.8
v 0.7 0.2 0.6
v 0.7 0.2 -0.4
v 0.7 0.2 -0.6
v 0.7 1.2 0.8
v 0.7 1.2 0.6
v 0.7 1.2 -0.4
v 0.7 1.2 -0.6
v 0.7 1.4 0.8
v 0.7 1.4 0.6
v 0.7 1.4 -0.4
v 0.7 1.4 -0.6
v 0.7 1.6 0.8
v 0.7 1.6 0.6
v 0.7 1.6 -0.4
v 0.7 1.6 -0.6
v 0.7 1.8 1
v 0.7 1.8 0.8
v 0.7 1.8 0.6
v 0.7 1.8 0.4
v 0.7 1.8 -0.2
v 0.7 1.8 -0.4
v 0.7 1.8 -0.6
v 0.7 1.8 -0.8
v 0.7 2 1
v 0.7 2 0.8
v 0.7 2 0.6
v 0.7 2 0.4
v 0.7 2 -0.2
v 0.7 2 -0.4
v 0.7 2 -0.6
v 0.7 2 -0.8
v 0.7 2.2 0.8
v 0.7 2.2 0.6
v 0.7 2.2 -0.4
v 0.7 2.2 -0.6
v -0.3 -0.8 0.8
v -0.3 -0.8 0.6
v -0.3 -0.8 -0.4
v -0.3 -0.8 -0.6
v -0.3 -0.6 1
v -0.3 -0.6 0.8
v -0.3 -0.6 0.6
v -0.3 -0.6 0.4
v -0.3 -0.6 -0.2
v -0.3 -0.6 -0.4
v -0.3 -0.6 -0.6
v -0.3 -0.6 -0.8
v -0.3 -0.4 1
v -0.3 -0.4 0.8
v -0.3 -0.4 0.6
v -0.3 -0.4 0.4
v -0.3 -0.4 -0.2
v -0.3 -0.4 -0.4
v -0.3 -0.4 -0.6
v -0.3 -0.4 -0.8
v -0.3 -0.2 0.8
v -0.3 -0.2 0.6
v -0.3 -0.2 -0.4
v -0.3 -0.2 -0.6
v -0.3 0 0.8
v -0.3 0 0.6
v -0.3 0 -0.4
v -0.3 0 -0.6
v -0.3 0.2 0.8
v -0.3 0.2 0.6
v -0.3 0.2 -0.4
v -0.3 0.2 -0.6
v -0.3 1.2 0.8
v -0.3 1.2 0.6
v -0.3 1.2 -0.4
v -0.3 1.2 -0.6
v -0.3 1.4 0.8
v -0.3 1.4 0.6
v -0.3 1.4 -0.4
v -0.3 1.4 -0.6
v -0.3 1.6 0.8
v -0.3 1.6 0.6
v -0.3 1.6 -0.4
v -0.3 1.6 -0.6
v -0.3 1.8 1
v -0.3 1.8 0.8
v -0.3 1.8 0.6
v -0.3 1.8 0.4
v -0.3 1.8 -0.2
v -0.3 1.8 -0.4
v -0.3 1.8 -0.6
v -0.3 1.8 -0.8
v -0.3 2 1
v -0.3 2 0.8
v -0.3 2 0.6
v -0.3 2 0.4
v -0.3 2 -0.2
v -0.3 2 -0.4
v -0.3 2 -0.6
v -0.3 2 -0.8
v -0.3 2.2 0.8
v -0.3 2.2 0.6
v -0.3 2.2 -0.4
v -0.3 2.2 -0.6
v -0.1 -0.6 0.8
v -0.1 -0.6 0.6
v -0.1 -0.6 -0.4
v -0.1 -0.6 -0.6
v -0.1 -0.4 0.8
v -0.1 -0.4 0.6
v -0.1 -0.4 -0.4
v -0.1 -0.4 -0.6
v -0.1 1.8 0.8
v -0.1 1.8 0.6
v -0.1 1.8 -0.4
v -0.1 1.8 -0.6
v -0.1 2 0.8
v -0.1 2 0.6
v -0.1 2 -0.4
v -0.1 2 -0.6
v 0.3 0.4 0.2
v 0.3 0.4 0
v 0.3 0.6 0.2
v 0.3 0.6 0
v 0.3 0.8 0.2
v 0.3 0.8 0
v 0.3 1 0.2
v 0.3 1 0
v 0.5 0.2 0.4
v 0.5 0.2 -0.2
v 0.5 0.4 0.4
v 0.5 0.4 -0.2
v 0.5 1 0.4
v 0.5 1 -0.2
v 0.5 1.2 0.4
v 0.5 1.2 -0.2
v 0.7 0 0.6
v 0.7 0 -0.4
v 0.7 0.2 0.6
v 0.7 0.2 -0.4
v 0.7 1.2 0.6
v 0.7 1.2 -0.4
v 0.7 1.4 0.6
v 0.7 1.4 -0.4
v 0.9 -0.8 0.8
v 0.9 -0.8 0.6
v 0.9 -0.8 -0.4
v 0.9 -0.8 -0.6
v 0.9 -0.6 1
v 0.9 -0.6 0.8
v 0.9 -0.6 0.6
v 0.9 -0.6 0.4
v 0.9 -0.6 -0.2
v 0.9 -0.6 -0.4
v 0.9 -0.6 -0.6
v 0.9 -0.6 -0.8
v 0.9 -0.4 1
v 0.9 -0.4 0.8
v 0.9 -0.4 0.6
v 0.9 -0.4 0.4
v 0.9 -0.4 -0.2
v 0.9 -0.4 -0.4
v 0.9 -0.4 -0.6
v 0.9 -0.4 -0.8
v 0.9 -0.2 0.8
v 0.9 -0.2 0.6
v 0.9 -0.2 -0.4
v 0.9 -0.2 -0.6
v 0.9 0 0.8
v 0.9 0 0.6
v 0.9 0 -0.4
v 0.9 0 -0.6
v 0.9 0.2 0.8
v 0.9 0.2 0.6
v 0.9 0.2 -0.4
v 0.9 0.2 -0.6
v 0.9 1.2 0.8
v 0.9 1.2 0.6
v 0.9 1.2 -0.4
v 0.9 1.2 -0.6
v 0.9 1.4 0.8
v 0.9 1.4 0.6
v 0.9 1.4 -0.4
v 0.9 1.4 -0.6
v 0.9 1.6 0.8
v 0.9 1.6 0.6
v 0.9 1.6 -0.4
v 0.9 1.6 -0.6
v 0.9 1.8 1
v 0.9 1.8 0.8
v 0.9 1.8 0.6
v 0.9 1.8 0.4
v 0.9 1.8 -0.2
v 0.9 1.8 -0.4
v 0.9 1.8 -0.6
v 0.9 1.8 -0.8
v 0.9 2 1
v 0.9 2 0.8
v 0.9 2 0.6
v 0.9 2 0.4
v 0.9 2 -0.2
v 0.9 2 -0.4
v 0.9 2 -0.6
v 0.9 2 -0.8
v 0.9 2.2 0.8
v 0.9 2.2 0.6
v 0.9 2.2 -0.4
v 0.9 2.2 -0.6
v 1.1 -0.6 0.8
v 1.1 -0.6 0.6
v 1.1 -0.6 -0.4
v 1.1 -0.6 -0.6
v 1.1 -0.4 0.8
v 1.1 -0.4 0.6
v 1.1 -0.4 -0.4
v 1.1 -0.4 -0.6
v 1.1 -0.2 1
v 1.1 -0.2 -0.8
v 1.1 0 1
v 1.1 0 -0.8
v 1.1 1.4 1
v 1.1 1.4 -0.8
v 1.1 1.6 1
v 1.1 1.6 -0.8
v 1.1 1.8 0.8
v 1.1 1.8 0.6
v 1.1 1.8 -0.4
v 1.1 1.8 -0.6
v 1.1 2 0.8
v 1.1 2 0.6
v 1.1 2 -0.4
v 1.1 2 -0.6
v -0.7 -0.2 1
v -0.7 0 1
v -0.7 1.4 1
v -0.7 1.6 1
v -0.5 -0.6 1
v -0.5 -0.4 1
v -0.5 1.8 1
v -0.5 2 1
v -0.3 -0.6 1
v -0.3 -0.4 1
v -0.3 1.8 1
v -0.3 2 1
v 0.7 -0.6 1
v 0.7 -0.4 1
v 0.7 1.8 1
v 0.7 2 1
v 0.9 -0.6 1
v 0.9 -0.4 1
v 0.9 1.8 1
v 0.9 2 1
v 1.1 -0.2 1
v 1.1 0 1
v 1.1 1.4 1
v 1.1 1.6 1
v -0.7 -0.6 0.8
v -0.7 -0.4 0.8
v -0.7 1.8 0.8
v -0.7 2 0.8
v -0.5 -0.8 0.8
v -0.5 -0.6 0.8
v -0.5 -0.4 0.8
v -0.5 -0.2 0.8
v -0.5 0 0.8
v -0.5 0.2 0.8
v -0.5 1.2 0.8
v -0.5 1.4 0.8
v -0.5 1.6 0.8
v -0.5 1.8 0.8
v -0.5 2 0.8
v -0.5 2.2 0.8
v -0.3 -0.8 0.8
v -0.3 -0.6 0.8
v -0.3 -0.4 0.8
v -0.3 -0.2 0.8
v -0.3 0 0.8
v -0.3 0.2 0.8
v -0.3 1.2 0.8
v -0.3 1.4 0.8
v -0.3 1.6 0.8
v -0.3 1.8 0.8
v -0.3 2 0.8
v -0.3 2.2 0.8
v -0.1 -0.6 0.8
v -0.1 -0.4 0.8
v -0.1 1.8 0.8
v -0.1 2 0.8
v 0.5 -0.6 0.8
v 0.5 -0.4 0.8
v 0.5 1.8 0.8
v 0.5 2 0.8
v 0.7 -0.8 0.8
v 0.7 -0.6 0.8
v 0.7 -0.4 0.8
v 0.7 -0.2 0.8
v 0.7 0 0.8
v 0.7 0.2 0.8
v 0.7 1.2 0.8
v 0.7 1.4 0.8
v 0.7 1.6 0.8
v 0.7 1.8 0.8
v 0.7 2 0.8
v 0.7 2.2 0.8
v 0.9 -0.8 0.8
v 0.9 -0.6 0.8
v 0.9 -0.4 0.8
v 0.9 -0.2 0.8
v 0.9 0 0.8
v 0.9 0.2 0.8
v 0.9 1.2 0.8
v 0.9 1.4 0.8
v 0.9 1.6 0.8
v 0.9 1.8 0.8
v 0.9 2 0.8
v 0.9 2.2 0.8
v 1.1 -0.6 0.8
v 1.1 -0.4 0.8
v 1.1 1.8 0.8
v 1.1 2 0.8
v -0.3 0 0.6
v -0.3 0.2 0.6
v -0.3 1.2 0.6
v -0.3 1.4 0.6
v 0.7 0 0.6
v 0.7 0.2 0.6
v 0.7 1.2 0.6
v 0.7 1.4 0.6
v -0.1 0.2 0.4
v -0.1 0.4 0.4
v -0.1 1 0.4
v -0.1 1.2 0.4
v 0.5 0.2 0.4
v 0.5 0.4 0.4
v 0.5 1 0.4
v 0.5 1.2 0.4
v 0.1 0.4 0.2
v 0.1 0.6 0.2
v 0.1 0.8 0.2
v 0.1 1 0.2
v 0.3 0.4 0.2
v 0.3 0.6 0.2
v 0.3 0.8 0.2
v 0.3 1 0.2
v -0.5 -0.6 -0.2
v -0.5 -0.4 -0.2
v -0.5 1.8 -0.2
v -0.5 2 -0.2
v -0.3 -0.6 -0.2
v -0.3 -0.4 -0.2
v -0.3 1.8 -0.2
v -0.3 2 -0.2
v 0.7 -0.6 -0.2
v 0.7 -0.4 -0.2
v 0.7 1.8 -0.2
v 0.7 2 -0.2
v 0.9 -0.6 -0.2
v 0.9 -0.4 -0.2
v 0.9 1.8 -0.2
v 0.9 2 -0.2
v -0.7 -0.6 -0.4
v -0.7 -0.4 -0.4
v -0.7 1.8 -0.4
v -0.7 2 -0.4
v -0.5 -0.8 -0.4
v -0.5 -0.6 -0.4
v -0.5 -0.4 -0.4
v -0.5 -0.2 -0.4
v -0.5 0 -0.4
v -0.5 0.2 -0.4
v -0.5 1.2 -0.4
v -0.5 1.4 -0.4
v -0.5 1.6 -0.4
v -0.5 1.8 -0.4
v -0.5 2 -0.4
v -0.5 2.2 -0.4
v -0.3 -0.8 -0.4
v -0.3 -0.6 -0.4
v -0.3 -0.4 -0.4
v -0.3 -0.2 -0.4
v -0.3 0 -0.4
v -0.3 0.2 -0.4
v -0.3 1.2 -0.4
v -0.3 1.4 -0.4
v -0.3 1.6 -0.4
v -0.3 1.8 -0.4
v -0.3 2 -0.4
v -0.3 2.2 -0.4
v -0.1 -0.6 -0.4
v -0.1 -0.4 -0.4
v -0.1 1.8 -0.4
v -0.1 2 -0.4
v 0.5 -0.6 -0.4
v 0.5 -0.4 -0.4
v 0.5 1.8 -0.4
v 0.5 2 -0.4
v 0.7 -0.8 -0.4
v 0.7 -0.6 -0.4
v 0.7 -0.4 -0.4
v 0.7 -0.2 -0.4
v 0.7 0 -0.4
v 0.7 0.2 -0.4
v 0.7 1.2 -0.4
v 0.7 1.4 -0.4
v 0.7 1.6 -0.4
v 0.7 1.8 -0.4
v 0.7 2 -0.4
v 0.7 2.2 -0.4
v 0.9 -0.8 -0.4
v 0.9 -0.6 -0.4
v 0.9 -0.4 -0.4
v 0.9 -0.2 -0.4
v 0.9 0 -0.4
v 0.9 0.2 -0.4
v 0.9 1.2 -0.4
v 0.9 1.4 -0.4
v 0.9 1.6 -0.4
v 0.9 1.8 -0.4
v 0.9 2 -0.4
v 0.9 2.2 -0.4
v 1.1 -0.6 -0.4
v 1.1 -0.4 -0.4
v 1.1 1.8 -0.4
v 1.1 2 -0.4
v -0.7 -0.6 0.6
v -0.7 -0.4 0.6
v -0.7 1.8 0.6
v -0.7 2 0.6
v -0.5 -0.8 0.6
v -0.5 -0.6 0.6
v -0.5 -0.4 0.6
v -0.5 -0.2 0.6
v -0.5 0 0.6
v -0.5 0.2 0.6
v -0.5 1.2 0.6
v -0.5 1.4 0.6
v -0.5 1.6 0.6
v -0.5 1.8 0.6
v -0.5 2 0.6
v -0.5 2.2 0.6
v -0.3 -0.8 0.6
v -0.3 -0.6 0.6
v -0.3 -0.4 0.6
v -0.3 -0.2 0.6
v -0.3 0 0.6
v -0.3 0.2 0.6
v -0.3 1.2 0.6
v -0.3 1.4 0.6
v -0.3 1.6 0.6
v -0.3 1.8 0.6
v -0.3 2 0.6
v -0.3 2.2 0.6
v -0.1 -0.6 0.6
v -0.1 -0.4 0.6
v -0.1 1.8 0.6
v -0.1 2 0.6
v 0.5 -0.6 0.6
v 0.5 -0.4 0.6
v 0.5 1.8 0.6
v 0.5 2 0.6
v 0.7 -0.8 0.6
v 0.7 -0.6 0.6
v 0.7 -0.4 0.6
v 0.7 -0.2 0.6
v 0.7 0 0.6
v 0.7 0.2 0.6
v 0.7 1.2 0.6
v 0.7 1.4 0.6
v 0.7 1.6 0.6
v 0.7 1.8 0.6
v 0.7 2 0.6
v 0.7 2.2 0.6
v 0.9 -0.8 0.6
v 0.9 -0.6 0.6
v 0.9 -0.4 0.6
v 0.9 -0.2 0.6
v 0.9 0 0.6
v 0.9 0.2 0.6
v 0.9 1.2 0.6
v 0.9 1.4 0.6
v 0.9 1.6 0.6
v 0.9 1.8 0.6
v 0.9 2 0.6
v 0.9 2.2 0.6
v 1.1 -0.6 0.6
v 1.1 -0.4 0.6
v 1.1 1.8 0.6
v 1.1 2 0.6
v -0.5 -0.6 0.4
v -0.5 -0.4 0.4
v -0.5 1.8 0.4
v -0.5 2 0.4
v -0.3 -0.6 0.4
v -0.3 -0.4 0.4
v -0.3 1.8 0.4
v -0.3 2 0.4
v 0.7 -0.6 0.4
v 0.7 -0.4 0.4
v 0.7 1.8 0.4
v 0.7 2 0.4
v 0.9 -0.6 0.4
v 0.9 -0.4 0.4
v 0.9 1.8 0.4
v 0.9 2 0.4
v 0.1 0.4 0
v 0.1 0.6 0
v 0.1 0.8 0
v 0.1 1 0
v 0.3 0.4 0
v 0.3 0.6 0
v 0.3 0.8 0
v 0.3 1 0
v -0.1 0.2 -0.2
v -0.1 0.4 -0.2
v -0.1 1 -0.2
v -0.1 1.2 -0.2
v 0.5 0.2 -0.2
v 0.5 0.4 -0.2
v 0.5 1 -0.2
v 0.5 1.2 -0.2
v -0.3 0 -0.4
v -0.3 0.2 -0.4
v -0.3 1.2 -0.4
v -0.3 1.4 -0.4
v 0.7 0 -0.4
v 0.7 0.2 -0.4
v 0.7 1.2 -0.4
v 0.7 1.4 -0.4
v -0.7 -0.6 -0.6
v -0.7 -0.4 -0.6
v -0.7 1.8 -0.6
v -0.7 2 -0.6
v -0.5 -0.8 -0.6
v -0.5 -0.6 -0.6
v -0.5 -0.4 -0.6
v -0.5 -0.2 -0.6
v -0.5 0 -0.6
v -0.5 0.2 -0.6
v -0.5 1.2 -0.6
v -0.5 1.4 -0.6
v -0.5 1.6 -0.6
v -0.5 1.8 -0.6
v -0.5 2 -0.6
v -0.5 2.2 -0.6
v -0.3 -0.8 -0.6
v -0.3 -0.6 -0.6
v -0.3 -0.4 -0.6
v -0.3 -0.2 -0.6
v -0.3 0 -0.6
v -0.3 0.2 -0.6
v -0.3 1.2 -0.6
v -0.3 1.4 -0.6
v -0.3 1.6 -0.6
v -0.3 1.8 -0.6
v -0.3 2 -0.6
v -0.3 2.2 -0.6
v -0.1 -0.6 -0.6
v -0.1 -0.4 -0.6
v -0.1 1.8 -0.6
v -0.1 2 -0.6
v 0.5 -0.6 -0.6
v 0.5 -0.4 -0.6
v 0.5 1.8 -0.6
v 0.5 2 -0.6
v 0.7 -0.8 -0.6
v 0.7 -0.6 -0.6
v 0.7 -0.4 -0.6
v 0.7 -0.2 -0.6
v 0.7 0 -0.6
v 0.7 0.2 -0.6
v 0.7 1.2 -0.6
v 0.7 1.4 -0.6
v 0.7 1.6 -0.6
v 0.7 1.8 -0.6
v 0.7 2 -0.6
v 0.7 2.2 -0.6
v 0.9 -0.8 -0.6
v 0.9 -0.6 -0.6
v 0.9 -0.4 -0.6
v 0.9 -0.2 -0.6
v 0.9 0 -0.6
v 0.9 0.2 -0.6
v 0.9 1.2 -0.6
v 0.9 1.4 -0.6
v 0.9 1.6 -0.6
v 0.9 1.8 -0.6
v 0.9 2 -0.6
v 0.9 2.2 -0.6
v 1.1 -0.6 -0.6
v 1.1 -0.4 -0.6
v 1.1 1.8 -0.6
v 1.1 2 -0.6
v -0.7 -0.2 -0.8
v -0.7 0 -0.8
v -0.7 1.4 -0.8
v -0.7 1.6 -0.8
v -0.5 -0.6 -0.8
v -0.5 -0.4 -0.8
v -0.5 1.8 -0.8
v -0.5 2 -0.8
v -0.3 -0.6 -0.8
v -0.3 -0.4 -0.8
v -0.3 1.8 -0.8
v -0.3 2 -0.8
v 0.7 -0.6 -0.8
v 0.7 -0.4 -0.8
v 0.7 1.8 -0.8
v 0.7 2 -0.8
v 0.9 -0.6 -0.8
v 0.9 -0.4 -0.8
v 0.9 1.8 -0.8
v 0.9 2 -0.8
v 1.1 -0.2 -0.8
v 1.1 0 -0.8
v 1.1 1.4 -0.8
v 1.1 1.6 -0.8
v -0.5 -0.8 0.8
v -0.3 -0.8 0.8
v 0.7 -0.8 0.8
v 0.9 -0.8 0.8
v -0.5 -0.8 0.6
v -0.3 -0.8 0.6
v 0.7 -0.8 0.6
v 0.9 -0.8 0.6
v -0.5 -0.8 -0.4
v -0.3 -0.8 -0.4
v 0.7 -0.8 -0.4
v 0.9 -0.8 -0.4
v -0.5 -0.8 -0.6
v -0.3 -0.8 -0.6
v 0.7 -0.8 -0.6
v 0.9 -0.8 -0.6
v -0.5 -0.6 1
v -0.3 -0.6 1
v 0.7 -0.6 1
v 0.9 -0.6 1
v -0.7 -0.6 0.8
v -0.5 -0.6 0.8
v -0.3 -0.6 0.8
v -0.1 -0.6 0.8
v 0.5 -0.6 0.8
v 0.7 -0.6 0.8
v 0.9 -0.6 0.8
v 1.1 -0.6 0.8
v -0.7 -0.6 0.6
v -0.5 -0.6 0.6
v -0.3 -0.6 0.6
v -0.1 -0.6 0.6
v 0.5 -0.6 0.6
v 0.7 -0.6 0.6
v 0.9 -0.6 0.6
v 1.1 -0.6 0.6
v -0.5 -0.6 0.4
v -0.3 -0.6 0.4
v 0.7 -0.6 0.4
v 0.9 -0.6 0.4
v -0.5 -0.6 -0.2
v -0.3 -0.6 -0.2
v 0.7 -0.6 -0.2
v 0.9 -0.6 -0.2
v -0.7 -0.6 -0.4
v -0.5 -0.6 -0.4
v -0.3 -0.6 -0.4
v -0.1 -0.6 -0.4
v 0.5 -0.6 -0.4
v 0.7 -0.6 -0.4
v 0.9 -0.6 -0.4
v 1.1 -0.6 -0.4
v -0.7 -0.6 -0.6
v -0.5 -0.6 -0.6
v -0.3 -0.6 -0.6
v -0.1 -0.6 -0.6
v 0.5 -0.6 -0.6
v 0.7 -0.6 -0.6
v 0.9 -0.6 -0.6
v 1.1 -0.6 -0.6
v -0.5 -0.6 -0.8
v -0.3 -0.6 -0.8
v 0.7 -0.6 -0.8
v 0.9 -0.6 -0.8
v -0.7 -0.2 1
v 1.1 -0.2 1
v -0.5 -0.2 0.8
v -0.3 -0.2 0.8
v 0.7 -0.2 0.8
v 0.9 -0.2 0.8
v -0.5 -0.2 0.6
v -0.3 -0.2 0.6
v 0.7 -0.2 0.6
v 0.9 -0.2 0.6
v -0.5 -0.2 -0.4
v -0.3 -0.2 -0.4
v 0.7 -0.2 -0.4
v 0.9 -0.2 -0.4
v -0.5 -0.2 -0.6
v -0.3 -0.2 -0.6
v 0.7 -0.2 -0.6
v 0.9 -0.2 -0.6
v -0.7 -0.2 -0.8
v 1.1 -0.2 -0.8
v -0.1 1 0.4
v 0.5 1 0.4
v 0.1 1 0.2
v 0.3 1 0.2
v 0.1 1 0
v 0.3 1 0
v -0.1 1 -0.2
v 0.5 1 -0.2
v -0.3 1.2 0.6
v 0.7 1.2 0.6
v -0.1 1.2 0.4
v 0.5 1.2 0.4
v -0.1 1.2 -0.2
v 0.5 1.2 -0.2
v -0.3 1.2 -0.4
v 0.7 1.2 -0.4
v -0.7 1.4 1
v 1.1 1.4 1
v -0.5 1.4 0.8
v -0.3 1.4 0.8
v 0.7 1.4 0.8
v 0.9 1.4 0.8
v -0.5 1.4 0.6
v -0.3 1.4 0.6
v 0.7 1.4 0.6
v 0.9 1.4 0.6
v -0.5 1.4 -0.4
v -0.3 1.4 -0.4
v 0.7 1.4 -0.4
v 0.9 1.4 -0.4
v -0.5 1.4 -0.6
v -0.3 1.4 -0.6
v 0.7 1.4 -0.6
v 0.9 1.4 -0.6
v -0.7 1.4 -0.8
v 1.1 1.4 -0.8
v -0.5 1.8 1
v -0.3 1.8 1
v 0.7 1.8 1
v 0.9 1.8 1
v -0.7 1.8 0.8
v -0.5 1.8 0.8
v -0.3 1.8 0.8
v -0.1 1.8 0.8
v 0.5 1.8 0.8
v 0.7 1.8 0.8
v 0.9 1.8 0.8
v 1.1 1.8 0.8
v -0.7 1.8 0.6
v -0.5 1.8 0.6
v -0.3 1.8 0.6
v -0.1 1.8 0.6
v 0.5 1.8 0.6
v 0.7 1.8 0.6
v 0.9 1.8 0.6
v 1.1 1.8 0.6
v -0.5 1.8 0.4
v -0.3 1.8 0.4
v 0.7 1.8 0.4
v 0.9 1.8 0.4
v -0.5 1.8 -0.2
v -0.3 1.8 -0.2
v 0.7 1.8 -0.2
v 0.9 1.8 -0.2
v -0.7 1.8 -0.4
v -0.5 1.8 -0.4
v -0.3 1.8 -0.4
v -0.1 1.8 -0.4
v 0.5 1.8 -0.4
v 0.7 1.8 -0.4
v 0.9 1.8 -0.4
v 1.1 1.8 -0.4
v -0.7 1.8 -0.6
v -0.5 1.8 -0.6
v -0.3 1.8 -0.6
v -0.1 1.8 -0.6
v 0.5 1.8 -0.6
v 0.7 1.8 -0.6
v 0.9 1.8 -0.6
v 1.1 1.8 -0.6
v -0.5 1.8 -0.8
v -0.3 1.8 -0.8
v 0.7 1.8 -0.8
v 0.9 1.8 -0.8
v -0.5 -0.4 1
v -0.3 -0.4 1
v 0.7 -0.4 1
v 0.9 -0.4 1
v -0.7 -0.4 0.8
v -0.5 -0.4 0.8
v -0.3 -0.4 0.8
v -0.1 -0.4 0.8
v 0.5 -0.4 0.8
v 0.7 -0.4 0.8
v 0.9 -0.4 0.8
v 1.1 -0.4 0.8
v -0.7 -0.4 0.6
v -0.5 -0.4 0.6
v -0.3 -0.4 0.6
v -0.1 -0.4 0.6
v 0.5 -0.4 0.6
v 0.7 -0.4 0.6
v 0.9 -0.4 0.6
v 1.1 -0.4 0.6
v -0.5 -0.4 0.4
v -0.3 -0.4 0.4
v 0.7 -0.4 0.4
v 0.9 -0.4 0.4
v -0.5 -0.4 -0.2
v -0.3 -0.4 -0.2
v 0.7 -0.4 -0.2
v 0.9 -0.4 -0.2
v -0.7 -0.4 -0.4
v -0.5 -0.4 -0.4
v -0.3 -0.4 -0.4
v -0.1 -0.4 -0.4
v 0.5 -0.4 -0.4
v 0.7 -0.4 -0.4
v 0.9 -0.4 -0.4
v 1.1 -0.4 -0.4
v -0.7 -0.4 -0.6
v -0.5 -0.4 -0.6
v -0.3 -0.4 -0.6
v -0.1 -0.4 -0.6
v 0.5 -0.4 -0.6
v 0.7 -0.4 -0.6
v 0.9 -0.4 -0.6
v 1.1 -0.4 -0.6
v -0.5 -0.4 -0.8
v -0.3 -0.4 -0.8
v 0.7 -0.4 -0.8
v 0.9 -0.4 -0.8
v -0.7 0 1
v 1.1 0 1
v -0.5 0 0.8
v -0.3 0 0.8
v 0.7 0 0.8
v 0.9 0 0.8
v -0.5 0 0.6
v -0.3 0 0.6
v 0.7 0 0.6
v 0.9 0 0.6
v -0.5 0 -0.4
v -0.3 0 -0.4
v 0.7 0 -0.4
v 0.9 0 -0.4
v -0.5 0 -0.6
v -0.3 0 -0.6
v 0.7 0 -0.6
v 0.9 0 -0.6
v -0.7 0 -0.8
v 1.1 0 -0.8
v -0.3 0.2 0.6
v 0.7 0.2 0.6
v -0.1 0.2 0.4
v 0.5 0.2 0.4
v -0.1 0.2 -0.2
v 0.5 0.2 -0.2
v -0.3 0.2 -0.4
v 0.7 0.2 -0.4
v -0.1 0.4 0.4
v 0.5 0.4 0.4
v 0.1 0.4 0.2
v 0.3 0.4 0.2
v 0.1 0.4 0
v 0.3 0.4 0
v -0.1 0.4 -0.2
v 0.5 0.4 -0.2
v -0.7 1.6 1
v 1.1 1.6 1
v -0.5 1.6 0.8
v -0.3 1.6 0.8
v 0.7 1.6 0.8
v 0.9 1.6 0.8
v -0.5 1.6 0.6
v -0.3 1.6 0.6
v 0.7 1.6 0.6
v 0.9 1.6 0.6
v -0.5 1.6 -0.4
v -0.3 1.6 -0.4
v 0.7 1.6 -0.4
v 0.9 1.6 -0.4
v -0.5 1.6 -0.6
v -0.3 1.6 -0.6
v 0.7 1.6 -0.6
v 0.9 1.6 -0.6
v -0.7 1.6 -0.8
v 1.1 1.6 -0.8
v -0.5 2 1
v -0.3 2 1
v 0.7 2 1
v 0.9 2 1
v -0.7 2 0.8
v -0.5 2 0.8
v -0.3 2 0.8
v -0.1 2 0.8
v 0.5 2 0.8
v 0.7 2 0.8
v 0.9 2 0.8
v 1.1 2 0.8
v -0.7 2 0.6
v -0.5 2 0.6
v -0.3 2 0.6
v -0.1 2 0.6
v 0.5 2 0.6
v 0.7 2 0.6
v 0.9 2 0.6
v 1.1 2 0.6
v -0.5 2 0.4
v -0.3 2 0.4
v 0.7 2 0.4
v 0.9 2 0.4
v -0.5 2 -0.2
v -0.3 2 -0.2
v 0.7 2 -0.2
v 0.9 2 -0.2
v -0.7 2 -0.4
v -0.5 2 -0.4
v -0.3 2 -0.4
v -0.1 2 -0.4
v 0.5 2 -0.4
v 0.7 2 -0.4
v 0.9 2 -0.4
v 1.1 2 -0.4
v -0.7 2 -0.6
v -0.5 2 -0.6
v -0.3 2 -0.6
v -0.1 2 -0.6
v 0.5 2 -0.6
v 0.7 2 -0.6
v 0.9 2 -0.6
v 1.1 2 -0.6
v -0.5 2 -0.8
v -0.3 2 -0.8
v 0.7 2 -0.8
v 0.9 2 -0.8
v -0.5 2.2 0.8
v -0.3 2.2 0.8
v 0.7 2.2 0.8
v 0.9 2.2 0.8
v -0.5 2.2 0.6
v -0.3 2.2 0.6
v 0.7 2.2 0.6
v 0.9 2.2 0.6
v -0.5 2.2 -0.4
v -0.3 2.2 -0.4
v 0.7 2.2 -0.4
v 0.9 2.2 -0.4
v -0.5 2.2 -0.6
v -0.3 2.2 -0.6
v 0.7 2.2 -0.6
v 0.9 2.2 -0.6

# faces
f 5/4/1 2/4/1 1/4/1
f 6/4/1 2/4/1 5/4/1
f 7/4/1 4/4/1 3/4/1
f 8/4/1 4/4/1 7/4/1
f 11/6/1 10/6/1 9/6/1
f 12/6/1 10/6/1 11/6/1
f 15/6/1 14/6/1 13/6/1
f 16/6/1 14/6/1 15/6/1
f 21/4/1 18/4/1 17/4/1
f 22/4/1 18/4/1 21/4/1
f 23/4/1 20/4/1 19/4/1
f 24/4/1 20/4/1 23/4/1
f 30/3/1 26/3/1 25/3/1
f 31/3/1 26/3/1 30/3/1
f 34/3/1 28/3/1 27/3/1
f 35/3/1 28/3/1 34/3/1
f 37/4/1 30/4/1 29/4/1
f 38/4/1 30/4/1 37/4/1
f 39/4/1 32/4/1 31/4/1
f 40/4/1 32/4/1 39/4/1
f 41/4/1 34/4/1 33/4/1
f 42/4/1 34/4/1 41/4/1
f 43/4/1 36/4/1 35/4/1
f 44/4/1 36/4/1 43/4/1
f 45/3/1 39/3/1 38/3/1
f 46/3/1 39/3/1 45/3/1
f 47/3/1 43/3/1 42/3/1
f 48/3/1 43/3/1 47/3/1
f 53/3/1 50/3/1 49/3/1
f 54/3/1 50/3/1 53/3/1
f 55/3/1 52/3/1 51/3/1
f 56/3/1 52/3/1 55/3/1
f 57/4/1 54/4/1 53/4/1
f 58/4/1 54/4/1 57/4/1
f 59/4/1 56/4/1 55/4/1
f 60/4/1 56/4/1 59/4/1
f 61/3/1 58/3/1 57/3/1
f 62/3/1 58/3/1 61/3/1
f 63/3/1 60/3/1 59/3/1
f 64/3/1 60/3/1 63/3/1
f 70/3/1 66/3/1 65/3/1
f 71/3/1 66/3/1 70/3/1
f 74/3/1 68/3/1 67/3/1
f 75/3/1 68/3/1 74/3/1
f 77/4/1 70/4/1 69/4/1
f 78/4/1 70/4/1 77/4/1
f 79/4/1 72/4/1 71/4/1
f 80/4/1 72/4/1 79/4/1
f 81/4/1 74/4/1 73/4/1
f 82/4/1 74/4/1 81/4/1
f 83/4/1 76/4/1 75/4/1
f 84/4/1 76/4/1 83/4/1
f 85/3/1 79/3/1 78/3/1
f 86/3/1 79/3/1 85/3/1
f 87/3/1 83/3/1 82/3/1
f 88/3/1 83/3/1 87/3/1
f 91/2/1 90/2/1 89/2/1
f 92/2/1 90/2/1 91/2/1
f 95/2/1 94/2/1 93/2/1
f 96/2/1 94/2/1 95/2/1
f 99/2/1 98/2/1 97/2/1
f 100/2/1 98/2/1 99/2/1
f 103/2/1 102/2/1 101/2/1
f 104/2/1 102/2/1 103/2/1
f 107/2/1 106/2/1 105/2/1
f 108/2/1 106/2/1 107/2/1
f 109/5/1 108/5/1 107/5/1
f 110/5/1 108/5/1 109/5/1
f 111/2/1 110/2/1 109/2/1
f 112/2/1 110/2/1 111/2/1
f 117/4/1 114/4/1 113/4/1
f 118/4/1 114/4/1 117/4/1
f 119/4/1 116/4/1 115/4/1
f 120/4/1 116/4/1 119/4/1
f 125/4/1 122/4/1 121/4/1
f 126/4/1 122/4/1 125/4/1
f 127/4/1 124/4/1 123/4/1
f 128/4/1 124/4/1 127/4/1
f 134/3/1 130/3/1 129/3/1
f 135/3/1 130/3/1 134/3/1
f 138/3/1 132/3/1 131/3/1
f 139/3/1 132/3/1 138/3/1
f 141/4/1 134/4/1 133/4/1
f 142/4/1 134/4/1 141/4/1
f 143/4/1 136/4/1 135/4/1
f 144/4/1 136/4/1 143/4/1
f 145/4/1 138/4/1 137/4/1
f 146/4/1 138/4/1 145/4/1
f 147/4/1 140/4/1 139/4/1
f 148/4/1 140/4/1 147/4/1
f 149/3/1 143/3/1 142/3/1
f 150/3/1 143/3/1 149/3/1
f 151/3/1 147/3/1 146/3/1
f 152/3/1 147/3/1 151/3/1
f 157/3/1 154/3/1 153/3/1
f 158/3/1 154/3/1 157/3/1
f 159/3/1 156/3/1 155/3/1
f 160/3/1 156/3/1 159/3/1
f 161/4/1 158/4/1 157/4/1
f 162/4/1 158/4/1 161/4/1
f 163/4/1 160/4/1 159/4/1
f 164/4/1 160/4/1 163/4/1
f 165/3/1 162/3/1 161/3/1
f 166/3/1 162/3/1 165/3/1
f 167/3/1 164/3/1 163/3/1
f 168/3/1 164/3/1 167/3/1
f 174/3/1 170/3/1 169/3/1
f 175/3/1 170/3/1 174/3/1
f 178/3/1 172/3/1 171/3/1
f 179/3/1 172/3/1 178/3/1
f 181/4/1 174/4/1 173/4/1
f 182/4/1 174/4/1 181/4/1
f 183/4/1 176/4/1 175/4/1
f 184/4/1 176/4/1 183/4/1
f 185/4/1 178/4/1 177/4/1
f 186/4/1 178/4/1 185/4/1
f 187/4/1 180/4/1 179/4/1
f 188/4/1 180/4/1 187/4/1
f 189/3/1 183/3/1 182/3/1
f 190/3/1 183/3/1 189/3/1
f 191/3/1 187/3/1 186/3/1
f 192/3/1 187/3/1 191/3/1
f 193/3/2 194/3/2 198/3/2
f 198/3/2 194/3/2 199/3/2
f 195/3/2 196/3/2 202/3/2
f 202/3/2 196/3/2 203/3/2
f 197/4/2 198/4/2 205/4/2
f 205/4/2 198/4/2 206/4/2
f 199/4/2 200/4/2 207/4/2
f 207/4/2 200/4/2 208/4/2
f 201/4/2 202/4/2 209/4/2
f 209/4/2 202/4/2 210/4/2
f 203/4/2 204/4/2 211/4/2
f 211/4/2 204/4/2 212/4/2
f 206/3/2 207/3/2 213/3/2
f 213/3/2 207/3/2 214/3/2
f 210/3/2 211/3/2 215/3/2
f 215/3/2 211/3/2 216/3/2
f 217/3/2 218/3/2 221/3/2
f 221/3/2 218/3/2 222/3/2
f 219/3/2 220/3/2 223/3/2
f 223/3/2 220/3/2 224/3/2
f 221/4/2 222/4/2 225/4/2
f 225/4/2 222/4/2 226/4/2
f 223/4/2 224/4/2 227/4/2
f 227/4/2 224/4/2 228/4/2
f 225/3/2 226/3/2 229/3/2
f 229/3/2 226/3/2 230/3/2
f 227/3/2 228/3/2 231/3/2
f 231/3/2 228/3/2 232/3/2
f 233/3/2 234/3/2 238/3/2
f 238/3/2 234/3/2 239/3/2
f 235/3/2 236/3/2 242/3/2
f 242/3/2 236/3/2 243/3/2
f 237/4/2 238/4/2 245/4/2
f 245/4/2 238/4/2 246/4/2
f 239/4/2 240/4/2 247/4/2
f 247/4/2 240/4/2 248/4/2
f 241/4/2 242/4/2 249/4/2
f 249/4/2 242/4/2 250/4/2
f 243/4/2 244/4/2 251/4/2
f 251/4/2 244/4/2 252/4/2
f 246/3/2 247/3/2 253/3/2
f 253/3/2 247/3/2 254/3/2
f 250/3/2 251/3/2 255/3/2
f 255/3/2 251/3/2 256/3/2
f 257/4/2 258/4/2 261/4/2
f 261/4/2 258/4/2 262/4/2
f 259/4/2 260/4/2 263/4/2
f 263/4/2 260/4/2 264/4/2
f 265/4/2 266/4/2 269/4/2
f 269/4/2 266/4/2 270/4/2
f 267/4/2 268/4/2 271/4/2
f 271/4/2 268/4/2 272/4/2
f 273/2/2 274/2/2 275/2/2
f 275/2/2 274/2/2 276/2/2
f 275/5/2 276/5/2 277/5/2
f 277/5/2 276/5/2 278/5/2
f 277/2/2 278/2/2 279/2/2
f 279/2/2 278/2/2 280/2/2
f 281/2/2 282/2/2 283/2/2
f 283/2/2 282/2/2 284/2/2
f 285/2/2 286/2/2 287/2/2
f 287/2/2 286/2/2 288/2/2
f 289/2/2 290/2/2 291/2/2
f 291/2/2 290/2/2 292/2/2
f 293/2/2 294/2/2 295/2/2
f 295/2/2 294/2/2 296/2/2
f 297/3/2 298/3/2 302/3/2
f 302/3/2 298/3/2 303/3/2
f 299/3/2 300/3/2 306/3/2
f 306/3/2 300/3/2 307/3/2
f 301/4/2 302/4/2 309/4/2
f 309/4/2 302/4/2 310/4/2
f 303/4/2 304/4/2 311/4/2
f 311/4/2 304/4/2 312/4/2
f 305/4/2 306/4/2 313/4/2
f 313/4/2 306/4/2 314/4/2
f 307/4/2 308/4/2 315/4/2
f 315/4/2 308/4/2 316/4/2
f 310/3/2 311/3/2 317/3/2
f 317/3/2 311/3/2 318/3/2
f 314/3/2 315/3/2 319/3/2
f 319/3/2 315/3/2 320/3/2
f 321/3/2 322/3/2 325/3/2
f 325/3/2 322/3/2 326/3/2
f 323/3/2 324/3/2 327/3/2
f 327/3/2 324/3/2 328/3/2
f 325/4/2 326/4/2 329/4/2
f 329/4/2 326/4/2 330/4/2
f 327/4/2 328/4/2 331/4/2
f 331/4/2 328/4/2 332/4/2
f 329/3/2 330/3/2 333/3/2
f 333/3/2 330/3/2 334/3/2
f 331/3/2 332/3/2 335/3/2
f 335/3/2 332/3/2 336/3/2
f 337/3/2 338/3/2 342/3/2
f 342/3/2 338/3/2 343/3/2
f 339/3/2 340/3/2 346/3/2
f 346/3/2 340/3/2 347/3/2
f 341/4/2 342/4/2 349/4/2
f 349/4/2 342/4/2 350/4/2
f 343/4/2 344/4/2 351/4/2
f 351/4/2 344/4/2 352/4/2
f 345/4/2 346/4/2 353/4/2
f 353/4/2 346/4/2 354/4/2
f 347/4/2 348/4/2 355/4/2
f 355/4/2 348/4/2 356/4/2
f 350/3/2 351/3/2 357/3/2
f 357/3/2 351/3/2 358/3/2
f 354/3/2 355/3/2 359/3/2
f 359/3/2 355/3/2 360/3/2
f 361/4/2 362/4/2 365/4/2
f 365/4/2 362/4/2 366/4/2
f 363/4/2 364/4/2 367/4/2
f 367/4/2 364/4/2 368/4/2
f 369/6/2 370/6/2 371/6/2
f 371/6/2 370/6/2 372/6/2
f 373/6/2 374/6/2 375/6/2
f 375/6/2 374/6/2 376/6/2
f 377/4/2 378/4/2 381/4/2
f 381/4/2 378/4/2 382/4/2
f 379/4/2 380/4/2 383/4/2
f 383/4/2 380/4/2 384/4/2
f 393/4/3 390/4/3 389/4/3
f 394/4/3 390/4/3 393/4/3
f 395/4/3 392/4/3 391/4/3
f 396/4/3 392/4/3 395/4/3
f 401/4/3 398/4/3 397/4/3
f 402/4/3 398/4/3 401/4/3
f 403/4/3 400/4/3 399/4/3
f 404/4/3 400/4/3 403/4/3
f 405/6/3 386/6/3 385/6/3
f 406/6/3 386/6/3 405/6/3
f 407/6/3 388/6/3 387/6/3
f 408/6/3 388/6/3 407/6/3
f 414/4/3 410/4/3 409/4/3
f 415/4/3 410/4/3 414/4/3
f 422/4/3 412/4/3 411/4/3
f 423/4/3 412/4/3 422/4/3
f 425/3/3 414/3/3 413/3/3
f 426/3/3 414/3/3 425/3/3
f 427/3/3 416/3/3 415/3/3
f 428/3/3 416/3/3 427/3/3
f 429/3/3 418/3/3 417/3/3
f 430/4/3 419/4/3 418/4/3
f 430/3/3 418/3/3 429/3/3
f 431/3/3 420/3/3 419/3/3
f 431/4/3 419/4/3 430/4/3
f 432/3/3 420/3/3 431/3/3
f 433/3/3 422/3/3 421/3/3
f 434/3/3 422/3/3 433/3/3
f 435/3/3 424/3/3 423/3/3
f 436/3/3 424/3/3 435/3/3
f 437/4/3 427/4/3 426/4/3
f 438/4/3 427/4/3 437/4/3
f 439/4/3 435/4/3 434/4/3
f 440/4/3 435/4/3 439/4/3
f 446/4/3 442/4/3 441/4/3
f 447/4/3 442/4/3 446/4/3
f 454/4/3 444/4/3 443/4/3
f 455/4/3 444/4/3 454/4/3
f 457/3/3 446/3/3 445/3/3
f 458/3/3 446/3/3 457/3/3
f 459/3/3 448/3/3 447/3/3
f 460/3/3 448/3/3 459/3/3
f 461/3/3 450/3/3 449/3/3
f 462/4/3 451/4/3 450/4/3
f 462/3/3 450/3/3 461/3/3
f 463/3/3 452/3/3 451/3/3
f 463/4/3 451/4/3 462/4/3
f 464/3/3 452/3/3 463/3/3
f 465/3/3 454/3/3 453/3/3
f 466/3/3 454/3/3 465/3/3
f 467/3/3 456/3/3 455/3/3
f 468/3/3 456/3/3 467/3/3
f 469/4/3 459/4/3 458/4/3
f 470/4/3 459/4/3 469/4/3
f 471/4/3 467/4/3 466/4/3
f 472/4/3 467/4/3 471/4/3
f 477/2/3 474/2/3 473/2/3
f 478/2/3 474/2/3 477/2/3
f 479/2/3 476/2/3 475/2/3
f 480/2/3 476/2/3 479/2/3
f 485/2/3 482/2/3 481/2/3
f 486/2/3 482/2/3 485/2/3
f 487/2/3 484/2/3 483/2/3
f 488/2/3 484/2/3 487/2/3
f 493/2/3 490/2/3 489/2/3
f 494/5/3 491/5/3 490/5/3
f 494/2/3 490/2/3 493/2/3
f 495/2/3 492/2/3 491/2/3
f 495/5/3 491/5/3 494/5/3
f 496/2/3 492/2/3 495/2/3
f 501/4/3 498/4/3 497/4/3
f 502/4/3 498/4/3 501/4/3
f 503/4/3 500/4/3 499/4/3
f 504/4/3 500/4/3 503/4/3
f 509/4/3 506/4/3 505/4/3
f 510/4/3 506/4/3 509/4/3
f 511/4/3 508/4/3 507/4/3
f 512/4/3 508/4/3 511/4/3
f 518/4/3 514/4/3 513/4/3
f 519/4/3 514/4/3 518/4/3
f 526/4/3 516/4/3 515/4/3
f 527/4/3 516/4/3 526/4/3
f 529/3/3 518/3/3 517/3/3
f 530/3/3 518/3/3 529/3/3
f 531/3/3 520/3/3 519/3/3
f 532/3/3 520/3/3 531/3/3
f 533/3/3 522/3/3 521/3/3
f 534/4/3 523/4/3 522/4/3
f 534/3/3 522/3/3 533/3/3
f 535/3/3 524/3/3 523/3/3
f 535/4/3 523/4/3 534/4/3
f 536/3/3 524/3/3 535/3/3
f 537/3/3 526/3/3 525/3/3
f 538/3/3 526/3/3 537/3/3
f 539/3/3 528/3/3 527/3/3
f 540/3/3 528/3/3 539/3/3
f 541/4/3 531/4/3 530/4/3
f 542/4/3 531/4/3 541/4/3
f 543/4/3 539/4/3 538/4/3
f 544/4/3 539/4/3 543/4/3
f 550/4/3 546/4/3 545/4/3
f 551/4/3 546/4/3 550/4/3
f 558/4/3 548/4/3 547/4/3
f 559/4/3 548/4/3 558/4/3
f 561/3/3 550/3/3 549/3/3
f 562/3/3 550/3/3 561/3/3
f 563/3/3 552/3/3 551/3/3
f 564/3/3 552/3/3 563/3/3
f 565/3/3 554/3/3 553/3/3
f 566/4/3 555/4/3 554/4/3
f 566/3/3 554/3/3 565/3/3
f 567/3/3 556/3/3 555/3/3
f 567/4/3 555/4/3 566/4/3
f 568/3/3 556/3/3 567/3/3
f 569/3/3 558/3/3 557/3/3
f 570/3/3 558/3/3 569/3/3
f 571/3/3 560/3/3 559/3/3
f 572/3/3 560/3/3 571/3/3
f 573/4/3 563/4/3 562/4/3
f 574/4/3 563/4/3 573/4/3
f 575/4/3 571/4/3 570/4/3
f 576/4/3 571/4/3 575/4/3
f 577/4/4 578/4/4 582/4/4
f 582/4/4 578/4/4 583/4/4
f 579/4/4 580/4/4 590/4/4
f 590/4/4 580/4/4 591/4/4
f 581/3/4 582/3/4 593/3/4
f 593/3/4 582/3/4 594/3/4
f 583/3/4 584/3/4 595/3/4
f 595/3/4 584/3/4 596/3/4
f 585/3/4 586/3/4 597/3/4
f 586/4/4 587/4/4 598/4/4
f 597/3/4 586/3/4 598/3/4
f 587/3/4 588/3/4 599/3/4
f 598/4/4 587/4/4 599/4/4
f 599/3/4 588/3/4 600/3/4
f 589/3/4 590/3/4 601/3/4
f 601/3/4 590/3/4 602/3/4
f 591/3/4 592/3/4 603/3/4
f 603/3/4 592/3/4 604/3/4
f 594/4/4 595/4/4 605/4/4
f 605/4/4 595/4/4 606/4/4
f 602/4/4 603/4/4 607/4/4
f 607/4/4 603/4/4 608/4/4
f 609/4/4 610/4/4 614/4/4
f 614/4/4 610/4/4 615/4/4
f 611/4/4 612/4/4 622/4/4
f 622/4/4 612/4/4 623/4/4
f 613/3/4 614/3/4 625/3/4
f 625/3/4 614/3/4 626/3/4
f 615/3/4 616/3/4 627/3/4
f 627/3/4 616/3/4 628/3/4
f 617/3/4 618/3/4 629/3/4
f 618/4/4 619/4/4 630/4/4
f 629/3/4 618/3/4 630/3/4
f 619/3/4 620/3/4 631/3/4
f 630/4/4 619/4/4 631/4/4
f 631/3/4 620/3/4 632/3/4
f 621/3/4 622/3/4 633/3/4
f 633/3/4 622/3/4 634/3/4
f 623/3/4 624/3/4 635/3/4
f 635/3/4 624/3/4 636/3/4
f 626/4/4 627/4/4 637/4/4
f 637/4/4 627/4/4 638/4/4
f 634/4/4 635/4/4 639/4/4
f 639/4/4 635/4/4 640/4/4
f 641/4/4 642/4/4 645/4/4
f 645/4/4 642/4/4 646/4/4
f 643/4/4 644/4/4 647/4/4
f 647/4/4 644/4/4 648/4/4
f 649/4/4 650/4/4 653/4/4
f 653/4/4 650/4/4 654/4/4
f 651/4/4 652/4/4 655/4/4
f 655/4/4 652/4/4 656/4/4
f 657/2/4 658/2/4 661/2/4
f 658/5/4 659/5/4 662/5/4
f 661/2/4 658/2/4 662/2/4
f 659/2/4 660/2/4 663/2/4
f 662/5/4 659/5/4 663/5/4
f 663/2/4 660/2/4 664/2/4
f 665/2/4 666/2/4 669/2/4
f 669/2/4 666/2/4 670/2/4
f 667/2/4 668/2/4 671/2/4
f 671/2/4 668/2/4 672/2/4
f 673/2/4 674/2/4 677/2/4
f 677/2/4 674/2/4 678/2/4
f 675/2/4 676/2/4 679/2/4
f 679/2/4 676/2/4 680/2/4
f 681/4/4 682/4/4 686/4/4
f 686/4/4 682/4/4 687/4/4
f 683/4/4 684/4/4 694/4/4
f 694/4/4 684/4/4 695/4/4
f 685/3/4 686/3/4 697/3/4
f 697/3/4 686/3/4 698/3/4
f 687/3/4 688/3/4 699/3/4
f 699/3/4 688/3/4 700/3/4
f 689/3/4 690/3/4 701/3/4
f 690/4/4 691/4/4 702/4/4
f 701/3/4 690/3/4 702/3/4
f 691/3/4 692/3/4 703/3/4
f 702/4/4 691/4/4 703/4/4
f 703/3/4 692/3/4 704/3/4
f 693/3/4 694/3/4 705/3/4
f 705/3/4 694/3/4 706/3/4
f 695/3/4 696/3/4 707/3/4
f 707/3/4 696/3/4 708/3/4
f 698/4/4 699/4/4 709/4/4
f 709/4/4 699/4/4 710/4/4
f 706/4/4 707/4/4 711/4/4
f 711/4/4 707/4/4 712/4/4
f 713/4/4 714/4/4 718/4/4
f 718/4/4 714/4/4 719/4/4
f 715/4/4 716/4/4 726/4/4
f 726/4/4 716/4/4 727/4/4
f 717/3/4 718/3/4 729/3/4
f 729/3/4 718/3/4 730/3/4
f 719/3/4 720/3/4 731/3/4
f 731/3/4 720/3/4 732/3/4
f 721/3/4 722/3/4 733/3/4
f 722/4/4 723/4/4 734/4/4
f 733/3/4 722/3/4 734/3/4
f 723/3/4 724/3/4 735/3/4
f 734/4/4 723/4/4 735/4/4
f 735/3/4 724/3/4 736/3/4
f 725/3/4 726/3/4 737/3/4
f 737/3/4 726/3/4 738/3/4
f 727/3/4 728/3/4 739/3/4
f 739/3/4 728/3/4 740/3/4
f 730/4/4 731/4/4 741/4/4
f 741/4/4 731/4/4 742/4/4
f 738/4/4 739/4/4 743/4/4
f 743/4/4 739/4/4 744/4/4
f 749/4/4 750/4/4 753/4/4
f 753/4/4 750/4/4 754/4/4
f 751/4/4 752/4/4 755/4/4
f 755/4/4 752/4/4 756/4/4
f 757/4/4 758/4/4 761/4/4
f 761/4/4 758/4/4 762/4/4
f 759/4/4 760/4/4 763/4/4
f 763/4/4 760/4/4 764/4/4
f 745/6/4 746/6/4 765/6/4
f 765/6/4 746/6/4 766/6/4
f 747/6/4 748/6/4 767/6/4
f 767/6/4 748/6/4 768/6/4
f 773/3/5 770/3/5 769/3/5
f 774/3/5 770/3/5 773/3/5
f 775/3/5 772/3/5 771/3/5
f 776/3/5 772/3/5 775/3/5
f 781/3/5 778/3/5 777/3/5
f 782/3/5 778/3/5 781/3/5
f 783/3/5 780/3/5 779/3/5
f 784/3/5 780/3/5 783/3/5
f 790/4/5 786/4/5 785/4/5
f 791/4/5 786/4/5 790/4/5
f 794/4/5 788/4/5 787/4/5
f 795/4/5 788/4/5 794/4/5
f 797/4/5 790/4/5 789/4/5
f 798/4/5 790/4/5 797/4/5
f 799/4/5 792/4/5 791/4/5
f 800/4/5 792/4/5 799/4/5
f 801/4/5 794/4/5 793/4/5
f 802/4/5 794/4/5 801/4/5
f 803/4/5 796/4/5 795/4/5
f 804/4/5 796/4/5 803/4/5
f 805/4/5 799/4/5 798/4/5
f 806/4/5 799/4/5 805/4/5
f 807/4/5 803/4/5 802/4/5
f 808/4/5 803/4/5 807/4/5
f 814/4/5 810/4/5 809/4/5
f 815/4/5 810/4/5 814/4/5
f 818/4/5 812/4/5 811/4/5
f 819/4/5 812/4/5 818/4/5
f 821/4/5 814/4/5 813/4/5
f 822/4/5 814/4/5 821/4/5
f 823/4/5 816/4/5 815/4/5
f 824/4/5 816/4/5 823/4/5
f 825/4/5 818/4/5 817/4/5
f 826/4/5 818/4/5 825/4/5
f 827/4/5 820/4/5 819/4/5
f 828/4/5 820/4/5 827/4/5
f 829/4/5 823/4/5 822/4/5
f 830/4/5 823/4/5 829/4/5
f 831/4/5 827/4/5 826/4/5
f 832/4/5 827/4/5 831/4/5
f 835/6/5 834/6/5 833/6/5
f 836/6/5 834/6/5 835/6/5
f 837/6/5 834/6/5 836/6/5
f 838/6/5 834/6/5 837/6/5
f 839/6/5 835/6/5 833/6/5
f 840/6/5 837/6/5 836/6/5
f 841/6/5 837/6/5 840/6/5
f 842/6/5 834/6/5 838/6/5
f 843/6/5 841/6/5 840/6/5
f 843/6/5 842/6/5 841/6/5
f 843/6/5 839/6/5 833/6/5
f 843/6/5 840/6/5 839/6/5
f 844/6/5 842/6/5 843/6/5
f 845/6/5 842/6/5 844/6/5
f 846/6/5 834/6/5 842/6/5
f 846/6/5 842/6/5 845/6/5
f 847/6/5 843/6/5 833/6/5
f 848/6/5 845/6/5 844/6/5
f 849/6/5 845/6/5 848/6/5
f 850/6/5 834/6/5 846/6/5
f 851/6/5 847/6/5 833/6/5
f 851/6/5 850/6/5 849/6/5
f 851/6/5 849/6/5 848/6/5
f 851/6/5 848/6/5 847/6/5
f 852/6/5 834/6/5 850/6/5
f 852/6/5 850/6/5 851/6/5
f 855/2/5 854/2/5 853/2/5
f 856/2/5 854/2/5 855/2/5
f 857/2/5 855/2/5 853/2/5
f 858/2/5 854/2/5 856/2/5
f 859/2/5 857/2/5 853/2/5
f 859/2/5 858/2/5 857/2/5
f 860/2/5 854/2/5 858/2/5
f 860/2/5 858/2/5 859/2/5
f 863/2/5 862/2/5 861/2/5
f 864/2/5 862/2/5 863/2/5
f 865/2/5 863/2/5 861/2/5
f 866/2/5 862/2/5 864/2/5
f 867/2/5 865/2/5 861/2/5
f 867/2/5 866/2/5 865/2/5
f 868/2/5 862/2/5 866/2/5
f 868/2/5 866/2/5 867/2/5
f 871/6/5 870/6/5 869/6/5
f 872/6/5 870/6/5 871/6/5
f 873/6/5 870/6/5 872/6/5
f 874/6/5 870/6/5 873/6/5
f 875/6/5 871/6/5 869/6/5
f 876/6/5 873/6/5 872/6/5
f 877/6/5 873/6/5 876/6/5
f 878/6/5 870/6/5 874/6/5
f 879/6/5 875/6/5 869/6/5
f 879/6/5 876/6/5 875/6/5
f 880/6/5 876/6/5 879/6/5
f 881/6/5 878/6/5 877/6/5
f 882/6/5 870/6/5 878/6/5
f 882/6/5 878/6/5 881/6/5
f 883/6/5 879/6/5 869/6/5
f 884/6/5 881/6/5 880/6/5
f 885/6/5 881/6/5 884/6/5
f 886/6/5 870/6/5 882/6/5
f 887/6/5 885/6/5 884/6/5
f 887/6/5 886/6/5 885/6/5
f 887/6/5 883/6/5 869/6/5
f 887/6/5 884/6/5 883/6/5
f 888/6/5 870/6/5 886/6/5
f 888/6/5 886/6/5 887/6/5
f 894/4/5 890/4/5 889/4/5
f 895/4/5 890/4/5 894/4/5
f 898/4/5 892/4/5 891/4/5
f 899/4/5 892/4/5 898/4/5
f 901/4/5 894/4/5 893/4/5
f 902/4/5 894/4/5 901/4/5
f 903/4/5 896/4/5 895/4/5
f 904/4/5 896/4/5 903/4/5
f 905/4/5 898/4/5 897/4/5
f 906/4/5 898/4/5 905/4/5
f 907/4/5 900/4/5 899/4/5
f 908/4/5 900/4/5 907/4/5
f 909/4/5 903/4/5 902/4/5
f 910/4/5 903/4/5 909/4/5
f 911/4/5 907/4/5 906/4/5
f 912/4/5 907/4/5 911/4/5
f 918/4/5 914/4/5 913/4/5
f 919/4/5 914/4/5 918/4/5
f 922/4/5 916/4/5 915/4/5
f 923/4/5 916/4/5 922/4/5
f 925/4/5 918/4/5 917/4/5
f 926/4/5 918/4/5 925/4/5
f 927/4/5 920/4/5 919/4/5
f 928/4/5 920/4/5 927/4/5
f 929/4/5 922/4/5 921/4/5
f 930/4/5 922/4/5 929/4/5
f 931/4/5 924/4/5 923/4/5
f 932/4/5 924/4/5 931/4/5
f 933/4/5 927/4/5 926/4/5
f 934/4/5 927/4/5 933/4/5
f 935/4/5 931/4/5 930/4/5
f 936/4/5 931/4/5 935/4/5
f 937/4/6 938/4/6 942/4/6
f 942/4/6 938/4/6 943/4/6
f 939/4/6 940/4/6 946/4/6
f 946/4/6 940/4/6 947/4/6
f 941/4/6 942/4/6 949/4/6
f 949/4/6 942/4/6 950/4/6
f 943/4/6 944/4/6 951/4/6
f 951/4/6 944/4/6 952/4/6
f 945/4/6 946/4/6 953/4/6
f 953/4/6 946/4/6 954/4/6
f 947/4/6 948/4/6 955/4/6
f 955/4/6 948/4/6 956/4/6
f 950/4/6 951/4/6 957/4/6
f 957/4/6 951/4/6 958/4/6
f 954/4/6 955/4/6 959/4/6
f 959/4/6 955/4/6 960/4/6
f 961/4/6 962/4/6 966/4/6
f 966/4/6 962/4/6 967/4/6
f 963/4/6 964/4/6 970/4/6
f 970/4/6 964/4/6 971/4/6
f 965/4/6 966/4/6 973/4/6
f 973/4/6 966/4/6 974/4/6
f 967/4/6 968/4/6 975/4/6
f 975/4/6 968/4/6 976/4/6
f 969/4/6 970/4/6 977/4/6
f 977/4/6 970/4/6 978/4/6
f 971/4/6 972/4/6 979/4/6
f 979/4/6 972/4/6 980/4/6
f 974/4/6 975/4/6 981/4/6
f 981/4/6 975/4/6 982/4/6
f 978/4/6 979/4/6 983/4/6
f 983/4/6 979/4/6 984/4/6
f 985/6/6 986/6/6 987/6/6
f 987/6/6 986/6/6 988/6/6
f 988/6/6 986/6/6 989/6/6
f 989/6/6 986/6/6 990/6/6
f 985/6/6 987/6/6 991/6/6
f 988/6/6 989/6/6 992/6/6
f 992/6/6 989/6/6 993/6/6
f 990/6/6 986/6/6 994/6/6
f 985/6/6 991/6/6 995/6/6
f 991/6/6 992/6/6 995/6/6
f 995/6/6 992/6/6 996/6/6
f 993/6/6 994/6/6 997/6/6
f 994/6/6 986/6/6 998/6/6
f 997/6/6 994/6/6 998/6/6
f 985/6/6 995/6/6 999/6/6
f 996/6/6 997/6/6 1000/6/6
f 1000/6/6 997/6/6 1001/6/6
f 998/6/6 986/6/6 1002/6/6
f 1000/6/6 1001/6/6 1003/6/6
f 1001/6/6 1002/6/6 1003/6/6
f 985/6/6 999/6/6 1003/6/6
f 999/6/6 1000/6/6 1003/6/6
f 1002/6/6 986/6/6 1004/6/6
f 1003/6/6 1002/6/6 1004/6/6
f 1005/2/6 1006/2/6 1007/2/6
f 1007/2/6 1006/2/6 1008/2/6
f 1005/2/6 1007/2/6 1009/2/6
f 1008/2/6 1006/2/6 1010/2/6
f 1005/2/6 1009/2/6 1011/2/6
f 1009/2/6 1010/2/6 1011/2/6
f 1010/2/6 1006/2/6 1012/2/6
f 1011/2/6 1010/2/6 1012/2/6
f 1013/2/6 1014/2/6 1015/2/6
f 1015/2/6 1014/2/6 1016/2/6
f 1013/2/6 1015/2/6 1017/2/6
f 1016/2/6 1014/2/6 1018/2/6
f 1013/2/6 1017/2/6 1019/2/6
f 1017/2/6 1018/2/6 1019/2/6
f 1018/2/6 1014/2/6 1020/2/6
f 1019/2/6 1018/2/6 1020/2/6
f 1021/6/6 1022/6/6 1023/6/6
f 1023/6/6 1022/6/6 1024/6/6
f 1024/6/6 1022/6/6 1025/6/6
f 1025/6/6 1022/6/6 1026/6/6
f 1021/6/6 1023/6/6 1027/6/6
f 1024/6/6 1025/6/6 1028/6/6
f 1028/6/6 1025/6/6 1029/6/6
f 1026/6/6 1022/6/6 1030/6/6
f 1028/6/6 1029/6/6 1031/6/6
f 1029/6/6 1030/6/6 1031/6/6
f 1021/6/6 1027/6/6 1031/6/6
f 1027/6/6 1028/6/6 1031/6/6
f 1031/6/6 1030/6/6 1032/6/6
f 1032/6/6 1030/6/6 1033/6/6
f 1030/6/6 1022/6/6 1034/6/6
f 1033/6/6 1030/6/6 1034/6/6
f 1021/6/6 1031/6/6 1035/6/6
f 1032/6/6 1033/6/6 1036/6/6
f 1036/6/6 1033/6/6 1037/6/6
f 1034/6/6 1022/6/6 1038/6/6
f 1021/6/6 1035/6/6 1039/6/6
f 1037/6/6 1038/6/6 1039/6/6
f 1036/6/6 1037/6/6 1039/6/6
f 1035/6/6 1036/6/6 1039/6/6
f 1038/6/6 1022/6/6 1040/6/6
f 1039/6/6 1038/6/6 1040/6/6
f 1041/4/6 1042/4/6 1046/4/6
f 1046/4/6 1042/4/6 1047/4/6
f 1043/4/6 1044/4/6 1050/4/6
f 1050/4/6 1044/4/6 1051/4/6
f 1045/4/6 1046/4/6 1053/4/6
f 1053/4/6 1046/4/6 1054/4/6
f 1047/4/6 1048/4/6 1055/4/6
f 1055/4/6 1048/4/6 1056/4/6
f 1049/4/6 1050/4/6 1057/4/6
f 1057/4/6 1050/4/6 1058/4/6
f 1051/4/6 1052/4/6 1059/4/6
f 1059/4/6 1052/4/6 1060/4/6
f 1054/4/6 1055/4/6 1061/4/6
f 1061/4/6 1055/4/6 1062/4/6
f 1058/4/6 1059/4/6 1063/4/6
f 1063/4/6 1059/4/6 1064/4/6
f 1065/4/6 1066/4/6 1070/4/6
f 1070/4/6 1066/4/6 1071/4/6
f 1067/4/6 1068/4/6 1074/4/6
f 1074/4/6 1068/4/6 1075/4/6
f 1069/4/6 1070/4/6 1077/4/6
f 1077/4/6 1070/4/6 1078/4/6
f 1071/4/6 1072/4/6 1079/4/6
f 1079/4/6 1072/4/6 1080/4/6
f 1073/4/6 1074/4/6 1081/4/6
f 1081/4/6 1074/4/6 1082/4/6
f 1075/4/6 1076/4/6 1083/4/6
f 1083/4/6 1076/4/6 1084/4/6
f 1078/4/6 1079/4/6 1085/4/6
f 1085/4/6 1079/4/6 1086/4/6
f 1082/4/6 1083/4/6 1087/4/6
f 1087/4/6 1083/4/6 1088/4/6
f 1089/3/6 1090/3/6 1093/3/6
f 1093/3/6 1090/3/6 1094/3/6
f 1091/3/6 1092/3/6 1095/3/6
f 1095/3/6 1092/3/6 1096/3/6
f 1097/3/6 1098/3/6 1101/3/6
f 1101/3/6 1098/3/6 1102/3/6
f 1099/3/6 1100/3/6 1103/3/6
f 1103/3/6 1100/3/6 1104/3/6
