# MagicaVoxel @ Ephtracy

# group
o 

# material
mtllib Valla.mtl
usemtl palette

# normals
vn -1 0 0
vn 1 0 0
vn 0 0 1
vn 0 0 -1
vn 0 -1 0
vn 0 1 0

# texcoords
vt 0.537109 0.5
vt 0.994141 0.5

# verts
v -1.8 -0.8 1.5
v -1.8 -0.8 -1.5
v -1.8 -0.7 1.5
v -1.8 -0.7 -1.5
v -1.8 0.6 0.3
v -1.8 0.6 -0.3
v -1.8 0.8 0.5
v -1.8 0.8 0.3
v -1.8 0.8 -0.3
v -1.8 0.8 -0.5
v -1.8 1.4 0.5
v -1.8 1.4 0.3
v -1.8 1.4 -0.3
v -1.8 1.4 -0.5
v -1.8 1.6 0.3
v -1.8 1.6 -0.3
v -1.7 -0.7 0.5
v -1.7 -0.7 -0.5
v -1.7 -0.6 0.5
v -1.7 -0.6 -0.5
v -1.5 -0.7 0.9
v -1.5 -0.7 0.5
v -1.5 -0.7 -0.5
v -1.5 -0.7 -0.9
v -1.5 -0.6 0.9
v -1.5 -0.6 0.5
v -1.5 -0.6 -0.5
v -1.5 -0.6 -0.9
v -1.5 -0.4 0.5
v -1.5 -0.4 -0.5
v -1.3 -0.7 1.1
v -1.3 -0.7 0.9
v -1.3 -0.7 -0.9
v -1.3 -0.7 -1.1
v -1.3 -0.6 1.1
v -1.3 -0.6 0.9
v -1.3 -0.6 0.5
v -1.3 -0.6 -0.5
v -1.3 -0.6 -0.9
v -1.3 -0.6 -1.1
v -1.3 -0.4 0.9
v -1.3 -0.4 0.5
v -1.3 -0.4 -0.5
v -1.3 -0.4 -0.9
v -1.3 -0.2 0.5
v -1.3 -0.2 0.3
v -1.3 -0.2 -0.3
v -1.3 -0.2 -0.5
v -1.3 0.8 0.3
v -1.3 0.8 -0.3
v -1.1 -0.7 1.3
v -1.1 -0.7 1.1
v -1.1 -0.7 -1.1
v -1.1 -0.7 -1.3
v -1.1 -0.6 1.3
v -1.1 -0.6 1.1
v -1.1 -0.6 0.9
v -1.1 -0.6 -0.9
v -1.1 -0.6 -1.1
v -1.1 -0.6 -1.3
v -1.1 -0.4 1.1
v -1.1 -0.4 0.9
v -1.1 -0.4 0.7
v -1.1 -0.4 0.5
v -1.1 -0.4 -0.5
v -1.1 -0.4 -0.7
v -1.1 -0.4 -0.9
v -1.1 -0.4 -1.1
v -1.1 -0.2 0.7
v -1.1 -0.2 0.5
v -1.1 -0.2 0.3
v -1.1 -0.2 -0.3
v -1.1 -0.2 -0.5
v -1.1 -0.2 -0.7
v -1.1 1.4 0.5
v -1.1 1.4 0.3
v -1.1 1.4 -0.3
v -1.1 1.4 -0.5
v -1.1 1.5 0.3
v -1.1 1.5 -0.3
v -1.1 1.7 0.1
v -1.1 1.7 -0.1
v -1.1 2.3 0.1
v -1.1 2.3 -0.1
v -0.9 -0.4 0.9
v -0.9 -0.4 0.7
v -0.9 -0.4 -0.7
v -0.9 -0.4 -0.9
v -0.9 -0.2 0.9
v -0.9 -0.2 0.7
v -0.9 -0.2 -0.7
v -0.9 -0.2 -0.9
v -0.9 1.5 0.1
v -0.9 1.5 -0.1
v -0.9 1.7 0.1
v -0.9 1.7 -0.1
v -0.7 -0.7 1.5
v -0.7 -0.7 1.3
v -0.7 -0.7 -1.3
v -0.7 -0.7 -1.5
v -0.7 -0.6 1.5
v -0.7 -0.6 1.3
v -0.7 -0.6 1.1
v -0.7 -0.6 -1.1
v -0.7 -0.6 -1.3
v -0.7 -0.6 -1.5
v -0.7 -0.4 1.3
v -0.7 -0.4 1.1
v -0.7 -0.4 0.9
v -0.7 -0.4 -0.9
v -0.7 -0.4 -1.1
v -0.7 -0.4 -1.3
v -0.7 -0.2 1.1
v -0.7 -0.2 0.9
v -0.7 -0.2 -0.9
v -0.7 -0.2 -1.1
v -0.7 1.7 0.1
v -0.7 1.7 -0.1
v -0.7 2.3 0.1
v -0.7 2.3 -0.1
v -0.1 -0.2 0.3
v -0.1 -0.2 -0.3
v -0.1 0.8 0.3
v -0.1 0.8 -0.3
v 0.0999999 -0.2 0.5
v 0.0999999 -0.2 0.3
v 0.0999999 -0.2 -0.3
v 0.0999999 -0.2 -0.5
v 0.0999999 1.4 0.5
v 0.0999999 1.4 0.3
v 0.0999999 1.4 -0.3
v 0.0999999 1.4 -0.5
v 0.0999999 1.5 0.3
v 0.0999999 1.5 0.1
v 0.0999999 1.5 -0.1
v 0.0999999 1.5 -0.3
v 0.0999999 1.7 0.1
v 0.0999999 1.7 -0.1
v 0.0999999 2.1 0.1
v 0.0999999 2.1 -0.1
v 0.0999999 2.3 0.1
v 0.0999999 2.3 -0.1
v 0.3 1.7 0.1
v 0.3 1.7 -0.1
v 0.3 2.1 0.1
v 0.3 2.1 -0.1
v 1.3 0.6 0.3
v 1.3 0.6 -0.3
v 1.3 0.8 0.5
v 1.3 0.8 0.3
v 1.3 0.8 -0.3
v 1.3 0.8 -0.5
v 1.3 1.4 0.5
v 1.3 1.4 0.3
v 1.3 1.4 -0.3
v 1.3 1.4 -0.5
v 1.3 1.6 0.3
v 1.3 1.6 -0.3
v -1.7 0.6 0.3
v -1.7 0.6 -0.3
v -1.7 0.8 0.5
v -1.7 0.8 0.3
v -1.7 0.8 -0.3
v -1.7 0.8 -0.5
v -1.7 1.4 0.5
v -1.7 1.4 0.3
v -1.7 1.4 -0.3
v -1.7 1.4 -0.5
v -1.7 1.6 0.3
v -1.7 1.6 -0.3
v -0.9 1.7 0.1
v -0.9 1.7 -0.1
v -0.9 2.3 0.1
v -0.9 2.3 -0.1
v -0.7 1.5 0.1
v -0.7 1.5 -0.1
v -0.7 1.7 0.1
v -0.7 1.7 -0.1
v -0.5 -0.2 0.5
v -0.5 -0.2 0.3
v -0.5 -0.2 -0.3
v -0.5 -0.2 -0.5
v -0.5 1.4 0.5
v -0.5 1.4 0.3
v -0.5 1.4 -0.3
v -0.5 1.4 -0.5
v -0.5 1.5 0.3
v -0.5 1.5 -0.3
v -0.5 1.7 0.1
v -0.5 1.7 -0.1
v -0.5 2.3 0.1
v -0.5 2.3 -0.1
v -0.3 -0.2 0.3
v -0.3 -0.2 -0.3
v -0.3 0.8 0.3
v -0.3 0.8 -0.3
v 0.3 -0.7 1.5
v 0.3 -0.7 1.3
v 0.3 -0.7 -1.3
v 0.3 -0.7 -1.5
v 0.3 -0.6 1.5
v 0.3 -0.6 1.3
v 0.3 -0.6 1.1
v 0.3 -0.6 -1.1
v 0.3 -0.6 -1.3
v 0.3 -0.6 -1.5
v 0.3 -0.4 1.3
v 0.3 -0.4 1.1
v 0.3 -0.4 0.9
v 0.3 -0.4 -0.9
v 0.3 -0.4 -1.1
v 0.3 -0.4 -1.3
v 0.3 -0.2 1.1
v 0.3 -0.2 0.9
v 0.3 -0.2 -0.9
v 0.3 -0.2 -1.1
v 0.5 -0.4 0.9
v 0.5 -0.4 0.7
v 0.5 -0.4 -0.7
v 0.5 -0.4 -0.9
v 0.5 -0.2 0.9
v 0.5 -0.2 0.7
v 0.5 -0.2 -0.7
v 0.5 -0.2 -0.9
v 0.5 1.7 0.1
v 0.5 1.7 -0.1
v 0.5 2.1 0.1
v 0.5 2.1 -0.1
v 0.7 -0.7 1.3
v 0.7 -0.7 1.1
v 0.7 -0.7 -1.1
v 0.7 -0.7 -1.3
v 0.7 -0.6 1.3
v 0.7 -0.6 1.1
v 0.7 -0.6 0.9
v 0.7 -0.6 -0.9
v 0.7 -0.6 -1.1
v 0.7 -0.6 -1.3
v 0.7 -0.4 1.1
v 0.7 -0.4 0.9
v 0.7 -0.4 0.7
v 0.7 -0.4 0.5
v 0.7 -0.4 -0.5
v 0.7 -0.4 -0.7
v 0.7 -0.4 -0.9
v 0.7 -0.4 -1.1
v 0.7 -0.2 0.7
v 0.7 -0.2 0.5
v 0.7 -0.2 0.3
v 0.7 -0.2 -0.3
v 0.7 -0.2 -0.5
v 0.7 -0.2 -0.7
v 0.7 1.4 0.5
v 0.7 1.4 0.3
v 0.7 1.4 -0.3
v 0.7 1.4 -0.5
v 0.7 1.5 0.3
v 0.7 1.5 0.1
v 0.7 1.5 -0.1
v 0.7 1.5 -0.3
v 0.7 1.7 0.1
v 0.7 1.7 -0.1
v 0.7 2.1 0.1
v 0.7 2.1 -0.1
v 0.7 2.3 0.1
v 0.7 2.3 -0.1
v 0.9 -0.7 1.1
v 0.9 -0.7 0.9
v 0.9 -0.7 -0.9
v 0.9 -0.7 -1.1
v 0.9 -0.6 1.1
v 0.9 -0.6 0.9
v 0.9 -0.6 0.5
v 0.9 -0.6 -0.5
v 0.9 -0.6 -0.9
v 0.9 -0.6 -1.1
v 0.9 -0.4 0.9
v 0.9 -0.4 0.5
v 0.9 -0.4 -0.5
v 0.9 -0.4 -0.9
v 0.9 -0.2 0.5
v 0.9 -0.2 0.3
v 0.9 -0.2 -0.3
v 0.9 -0.2 -0.5
v 0.9 0.8 0.3
v 0.9 0.8 -0.3
v 1.1 -0.7 0.9
v 1.1 -0.7 0.5
v 1.1 -0.7 -0.5
v 1.1 -0.7 -0.9
v 1.1 -0.6 0.9
v 1.1 -0.6 0.5
v 1.1 -0.6 -0.5
v 1.1 -0.6 -0.9
v 1.1 -0.4 0.5
v 1.1 -0.4 -0.5
v 1.3 -0.7 0.5
v 1.3 -0.7 -0.5
v 1.3 -0.6 0.5
v 1.3 -0.6 -0.5
v 1.4 -0.8 1.5
v 1.4 -0.8 -1.5
v 1.4 -0.7 1.5
v 1.4 -0.7 -1.5
v 1.4 0.6 0.3
v 1.4 0.6 -0.3
v 1.4 0.8 0.5
v 1.4 0.8 0.3
v 1.4 0.8 -0.3
v 1.4 0.8 -0.5
v 1.4 1.4 0.5
v 1.4 1.4 0.3
v 1.4 1.4 -0.3
v 1.4 1.4 -0.5
v 1.4 1.6 0.3
v 1.4 1.6 -0.3
v -1.8 -0.8 1.5
v -1.8 -0.7 1.5
v -0.7 -0.7 1.5
v -0.7 -0.6 1.5
v 0.3 -0.7 1.5
v 0.3 -0.6 1.5
v 1.4 -0.8 1.5
v 1.4 -0.7 1.5
v -1.1 -0.7 1.3
v -1.1 -0.6 1.3
v -0.7 -0.7 1.3
v -0.7 -0.6 1.3
v -0.7 -0.4 1.3
v 0.3 -0.7 1.3
v 0.3 -0.6 1.3
v 0.3 -0.4 1.3
v 0.7 -0.7 1.3
v 0.7 -0.6 1.3
v -1.3 -0.7 1.1
v -1.3 -0.6 1.1
v -1.1 -0.7 1.1
v -1.1 -0.6 1.1
v -1.1 -0.4 1.1
v -0.7 -0.6 1.1
v -0.7 -0.4 1.1
v -0.7 -0.2 1.1
v 0.3 -0.6 1.1
v 0.3 -0.4 1.1
v 0.3 -0.2 1.1
v 0.7 -0.7 1.1
v 0.7 -0.6 1.1
v 0.7 -0.4 1.1
v 0.9 -0.7 1.1
v 0.9 -0.6 1.1
v -1.5 -0.7 0.9
v -1.5 -0.6 0.9
v -1.3 -0.7 0.9
v -1.3 -0.6 0.9
v -1.3 -0.4 0.9
v -1.1 -0.6 0.9
v -1.1 -0.4 0.9
v -0.9 -0.4 0.9
v -0.9 -0.2 0.9
v -0.7 -0.4 0.9
v -0.7 -0.2 0.9
v 0.3 -0.4 0.9
v 0.3 -0.2 0.9
v 0.5 -0.4 0.9
v 0.5 -0.2 0.9
v 0.7 -0.6 0.9
v 0.7 -0.4 0.9
v 0.9 -0.7 0.9
v 0.9 -0.6 0.9
v 0.9 -0.4 0.9
v 1.1 -0.7 0.9
v 1.1 -0.6 0.9
v -1.1 -0.4 0.7
v -1.1 -0.2 0.7
v -0.9 -0.4 0.7
v -0.9 -0.2 0.7
v 0.5 -0.4 0.7
v 0.5 -0.2 0.7
v 0.7 -0.4 0.7
v 0.7 -0.2 0.7
v -1.8 0.8 0.5
v -1.8 1.4 0.5
v -1.7 -0.7 0.5
v -1.7 -0.6 0.5
v -1.7 0.8 0.5
v -1.7 1.4 0.5
v -1.5 -0.7 0.5
v -1.5 -0.6 0.5
v -1.5 -0.4 0.5
v -1.3 -0.6 0.5
v -1.3 -0.4 0.5
v -1.3 -0.2 0.5
v -1.1 -0.4 0.5
v -1.1 -0.2 0.5
v -1.1 1.4 0.5
v -0.5 -0.2 0.5
v -0.5 1.4 0.5
v 0.0999999 -0.2 0.5
v 0.0999999 1.4 0.5
v 0.7 -0.4 0.5
v 0.7 -0.2 0.5
v 0.7 1.4 0.5
v 0.9 -0.6 0.5
v 0.9 -0.4 0.5
v 0.9 -0.2 0.5
v 1.1 -0.7 0.5
v 1.1 -0.6 0.5
v 1.1 -0.4 0.5
v 1.3 -0.7 0.5
v 1.3 -0.6 0.5
v 1.3 0.8 0.5
v 1.3 1.4 0.5
v 1.4 0.8 0.5
v 1.4 1.4 0.5
v -1.8 0.6 0.3
v -1.8 0.8 0.3
v -1.8 1.4 0.3
v -1.8 1.6 0.3
v -1.7 0.6 0.3
v -1.7 0.8 0.3
v -1.7 1.4 0.3
v -1.7 1.6 0.3
v -1.3 -0.2 0.3
v -1.3 0.8 0.3
v -1.1 -0.2 0.3
v -1.1 1.4 0.3
v -1.1 1.5 0.3
v -0.5 -0.2 0.3
v -0.5 1.4 0.3
v -0.5 1.5 0.3
v -0.3 -0.2 0.3
v -0.3 0.8 0.3
v -0.1 -0.2 0.3
v -0.1 0.8 0.3
v 0.0999999 -0.2 0.3
v 0.0999999 1.4 0.3
v 0.0999999 1.5 0.3
v 0.7 -0.2 0.3
v 0.7 1.4 0.3
v 0.7 1.5 0.3
v 0.9 -0.2 0.3
v 0.9 0.8 0.3
v 1.3 0.6 0.3
v 1.3 0.8 0.3
v 1.3 1.4 0.3
v 1.3 1.6 0.3
v 1.4 0.6 0.3
v 1.4 0.8 0.3
v 1.4 1.4 0.3
v 1.4 1.6 0.3
v -1.1 1.7 0.1
v -1.1 2.3 0.1
v -0.9 1.5 0.1
v -0.9 1.7 0.1
v -0.9 2.3 0.1
v -0.7 1.5 0.1
v -0.7 1.7 0.1
v -0.7 2.3 0.1
v -0.5 1.7 0.1
v -0.5 2.3 0.1
v 0.0999999 1.5 0.1
v 0.0999999 1.7 0.1
v 0.0999999 2.1 0.1
v 0.0999999 2.3 0.1
v 0.3 1.7 0.1
v 0.3 2.1 0.1
v 0.5 1.7 0.1
v 0.5 2.1 0.1
v 0.7 1.5 0.1
v 0.7 1.7 0.1
v 0.7 2.1 0.1
v 0.7 2.3 0.1
v -1.1 1.7 -0.1
v -1.1 2.3 -0.1
v -0.9 1.5 -0.1
v -0.9 1.7 -0.1
v -0.9 2.3 -0.1
v -0.7 1.5 -0.1
v -0.7 1.7 -0.1
v -0.7 2.3 -0.1
v -0.5 1.7 -0.1
v -0.5 2.3 -0.1
v 0.0999999 1.5 -0.1
v 0.0999999 1.7 -0.1
v 0.0999999 2.1 -0.1
v 0.0999999 2.3 -0.1
v 0.3 1.7 -0.1
v 0.3 2.1 -0.1
v 0.5 1.7 -0.1
v 0.5 2.1 -0.1
v 0.7 1.5 -0.1
v 0.7 1.7 -0.1
v 0.7 2.1 -0.1
v 0.7 2.3 -0.1
v -1.8 0.6 -0.3
v -1.8 0.8 -0.3
v -1.8 1.4 -0.3
v -1.8 1.6 -0.3
v -1.7 0.6 -0.3
v -1.7 0.8 -0.3
v -1.7 1.4 -0.3
v -1.7 1.6 -0.3
v -1.3 -0.2 -0.3
v -1.3 0.8 -0.3
v -1.1 -0.2 -0.3
v -1.1 1.4 -0.3
v -1.1 1.5 -0.3
v -0.5 -0.2 -0.3
v -0.5 1.4 -0.3
v -0.5 1.5 -0.3
v -0.3 -0.2 -0.3
v -0.3 0.8 -0.3
v -0.1 -0.2 -0.3
v -0.1 0.8 -0.3
v 0.0999999 -0.2 -0.3
v 0.0999999 1.4 -0.3
v 0.0999999 1.5 -0.3
v 0.7 -0.2 -0.3
v 0.7 1.4 -0.3
v 0.7 1.5 -0.3
v 0.9 -0.2 -0.3
v 0.9 0.8 -0.3
v 1.3 0.6 -0.3
v 1.3 0.8 -0.3
v 1.3 1.4 -0.3
v 1.3 1.6 -0.3
v 1.4 0.6 -0.3
v 1.4 0.8 -0.3
v 1.4 1.4 -0.3
v 1.4 1.6 -0.3
v -1.8 0.8 -0.5
v -1.8 1.4 -0.5
v -1.7 -0.7 -0.5
v -1.7 -0.6 -0.5
v -1.7 0.8 -0.5
v -1.7 1.4 -0.5
v -1.5 -0.7 -0.5
v -1.5 -0.6 -0.5
v -1.5 -0.4 -0.5
v -1.3 -0.6 -0.5
v -1.3 -0.4 -0.5
v -1.3 -0.2 -0.5
v -1.1 -0.4 -0.5
v -1.1 -0.2 -0.5
v -1.1 1.4 -0.5
v -0.5 -0.2 -0.5
v -0.5 1.4 -0.5
v 0.0999999 -0.2 -0.5
v 0.0999999 1.4 -0.5
v 0.7 -0.4 -0.5
v 0.7 -0.2 -0.5
v 0.7 1.4 -0.5
v 0.9 -0.6 -0.5
v 0.9 -0.4 -0.5
v 0.9 -0.2 -0.5
v 1.1 -0.7 -0.5
v 1.1 -0.6 -0.5
v 1.1 -0.4 -0.5
v 1.3 -0.7 -0.5
v 1.3 -0.6 -0.5
v 1.3 0.8 -0.5
v 1.3 1.4 -0.5
v 1.4 0.8 -0.5
v 1.4 1.4 -0.5
v -1.1 -0.4 -0.7
v -1.1 -0.2 -0.7
v -0.9 -0.4 -0.7
v -0.9 -0.2 -0.7
v 0.5 -0.4 -0.7
v 0.5 -0.2 -0.7
v 0.7 -0.4 -0.7
v 0.7 -0.2 -0.7
v -1.5 -0.7 -0.9
v -1.5 -0.6 -0.9
v -1.3 -0.7 -0.9
v -1.3 -0.6 -0.9
v -1.3 -0.4 -0.9
v -1.1 -0.6 -0.9
v -1.1 -0.4 -0.9
v -0.9 -0.4 -0.9
v -0.9 -0.2 -0.9
v -0.7 -0.4 -0.9
v -0.7 -0.2 -0.9
v 0.3 -0.4 -0.9
v 0.3 -0.2 -0.9
v 0.5 -0.4 -0.9
v 0.5 -0.2 -0.9
v 0.7 -0.6 -0.9
v 0.7 -0.4 -0.9
v 0.9 -0.7 -0.9
v 0.9 -0.6 -0.9
v 0.9 -0.4 -0.9
v 1.1 -0.7 -0.9
v 1.1 -0.6 -0.9
v -1.3 -0.7 -1.1
v -1.3 -0.6 -1.1
v -1.1 -0.7 -1.1
v -1.1 -0.6 -1.1
v -1.1 -0.4 -1.1
v -0.7 -0.6 -1.1
v -0.7 -0.4 -1.1
v -0.7 -0.2 -1.1
v 0.3 -0.6 -1.1
v 0.3 -0.4 -1.1
v 0.3 -0.2 -1.1
v 0.7 -0.7 -1.1
v 0.7 -0.6 -1.1
v 0.7 -0.4 -1.1
v 0.9 -0.7 -1.1
v 0.9 -0.6 -1.1
v -1.1 -0.7 -1.3
v -1.1 -0.6 -1.3
v -0.7 -0.7 -1.3
v -0.7 -0.6 -1.3
v -0.7 -0.4 -1.3
v 0.3 -0.7 -1.3
v 0.3 -0.6 -1.3
v 0.3 -0.4 -1.3
v 0.7 -0.7 -1.3
v 0.7 -0.6 -1.3
v -1.8 -0.8 -1.5
v -1.8 -0.7 -1.5
v -0.7 -0.7 -1.5
v -0.7 -0.6 -1.5
v 0.3 -0.7 -1.5
v 0.3 -0.6 -1.5
v 1.4 -0.8 -1.5
v 1.4 -0.7 -1.5
v -1.8 -0.8 1.5
v 1.4 -0.8 1.5
v -1.8 -0.8 -1.5
v 1.4 -0.8 -1.5
v -1.8 0.6 0.3
v -1.7 0.6 0.3
v 1.3 0.6 0.3
v 1.4 0.6 0.3
v -1.8 0.6 -0.3
v -1.7 0.6 -0.3
v 1.3 0.6 -0.3
v 1.4 0.6 -0.3
v -1.8 0.8 0.5
v -1.7 0.8 0.5
v 1.3 0.8 0.5
v 1.4 0.8 0.5
v -1.8 0.8 0.3
v -1.7 0.8 0.3
v -1.3 0.8 0.3
v -0.3 0.8 0.3
v -0.1 0.8 0.3
v 0.9 0.8 0.3
v 1.3 0.8 0.3
v 1.4 0.8 0.3
v -1.8 0.8 -0.3
v -1.7 0.8 -0.3
v -1.3 0.8 -0.3
v -0.3 0.8 -0.3
v -0.1 0.8 -0.3
v 0.9 0.8 -0.3
v 1.3 0.8 -0.3
v 1.4 0.8 -0.3
v -1.8 0.8 -0.5
v -1.7 0.8 -0.5
v 1.3 0.8 -0.5
v 1.4 0.8 -0.5
v -1.1 1.7 0.1
v -0.9 1.7 0.1
v -0.7 1.7 0.1
v -0.5 1.7 0.1
v -1.1 1.7 -0.1
v -0.9 1.7 -0.1
v -0.7 1.7 -0.1
v -0.5 1.7 -0.1
v 0.0999999 2.1 0.1
v 0.3 2.1 0.1
v 0.5 2.1 0.1
v 0.7 2.1 0.1
v 0.0999999 2.1 -0.1
v 0.3 2.1 -0.1
v 0.5 2.1 -0.1
v 0.7 2.1 -0.1
v -1.8 -0.7 1.5
v -0.7 -0.7 1.5
v 0.3 -0.7 1.5
v 1.4 -0.7 1.5
v -1.1 -0.7 1.3
v -0.7 -0.7 1.3
v 0.3 -0.7 1.3
v 0.7 -0.7 1.3
v -1.3 -0.7 1.1
v -1.1 -0.7 1.1
v 0.7 -0.7 1.1
v 0.9 -0.7 1.1
v -1.5 -0.7 0.9
v -1.3 -0.7 0.9
v 0.9 -0.7 0.9
v 1.1 -0.7 0.9
v -1.7 -0.7 0.5
v -1.5 -0.7 0.5
v 1.1 -0.7 0.5
v 1.3 -0.7 0.5
v -1.7 -0.7 -0.5
v -1.5 -0.7 -0.5
v 1.1 -0.7 -0.5
v 1.3 -0.7 -0.5
v -1.5 -0.7 -0.9
v -1.3 -0.7 -0.9
v 0.9 -0.7 -0.9
v 1.1 -0.7 -0.9
v -1.3 -0.7 -1.1
v -1.1 -0.7 -1.1
v 0.7 -0.7 -1.1
v 0.9 -0.7 -1.1
v -1.1 -0.7 -1.3
v -0.7 -0.7 -1.3
v 0.3 -0.7 -1.3
v 0.7 -0.7 -1.3
v -1.8 -0.7 -1.5
v -0.7 -0.7 -1.5
v 0.3 -0.7 -1.5
v 1.4 -0.7 -1.5
v -0.7 -0.6 1.5
v 0.3 -0.6 1.5
v -1.1 -0.6 1.3
v -0.7 -0.6 1.3
v 0.3 -0.6 1.3
v 0.7 -0.6 1.3
v -1.3 -0.6 1.1
v -1.1 -0.6 1.1
v -0.7 -0.6 1.1
v 0.3 -0.6 1.1
v 0.7 -0.6 1.1
v 0.9 -0.6 1.1
v -1.5 -0.6 0.9
v -1.3 -0.6 0.9
v -1.1 -0.6 0.9
v 0.7 -0.6 0.9
v 0.9 -0.6 0.9
v 1.1 -0.6 0.9
v -1.7 -0.6 0.5
v -1.5 -0.6 0.5
v -1.3 -0.6 0.5
v 0.9 -0.6 0.5
v 1.1 -0.6 0.5
v 1.3 -0.6 0.5
v -1.7 -0.6 -0.5
v -1.5 -0.6 -0.5
v -1.3 -0.6 -0.5
v 0.9 -0.6 -0.5
v 1.1 -0.6 -0.5
v 1.3 -0.6 -0.5
v -1.5 -0.6 -0.9
v -1.3 -0.6 -0.9
v -1.1 -0.6 -0.9
v 0.7 -0.6 -0.9
v 0.9 -0.6 -0.9
v 1.1 -0.6 -0.9
v -1.3 -0.6 -1.1
v -1.1 -0.6 -1.1
v -0.7 -0.6 -1.1
v 0.3 -0.6 -1.1
v 0.7 -0.6 -1.1
v 0.9 -0.6 -1.1
v -1.1 -0.6 -1.3
v -0.7 -0.6 -1.3
v 0.3 -0.6 -1.3
v 0.7 -0.6 -1.3
v -0.7 -0.6 -1.5
v 0.3 -0.6 -1.5
v -0.7 -0.4 1.3
v 0.3 -0.4 1.3
v -1.1 -0.4 1.1
v -0.7 -0.4 1.1
v 0.3 -0.4 1.1
v 0.7 -0.4 1.1
v -1.3 -0.4 0.9
v -1.1 -0.4 0.9
v -0.9 -0.4 0.9
v -0.7 -0.4 0.9
v 0.3 -0.4 0.9
v 0.5 -0.4 0.9
v 0.7 -0.4 0.9
v 0.9 -0.4 0.9
v -1.1 -0.4 0.7
v -0.9 -0.4 0.7
v 0.5 -0.4 0.7
v 0.7 -0.4 0.7
v -1.5 -0.4 0.5
v -1.3 -0.4 0.5
v -1.1 -0.4 0.5
v 0.7 -0.4 0.5
v 0.9 -0.4 0.5
v 1.1 -0.4 0.5
v -1.5 -0.4 -0.5
v -1.3 -0.4 -0.5
v -1.1 -0.4 -0.5
v 0.7 -0.4 -0.5
v 0.9 -0.4 -0.5
v 1.1 -0.4 -0.5
v -1.1 -0.4 -0.7
v -0.9 -0.4 -0.7
v 0.5 -0.4 -0.7
v 0.7 -0.4 -0.7
v -1.3 -0.4 -0.9
v -1.1 -0.4 -0.9
v -0.9 -0.4 -0.9
v -0.7 -0.4 -0.9
v 0.3 -0.4 -0.9
v 0.5 -0.4 -0.9
v 0.7 -0.4 -0.9
v 0.9 -0.4 -0.9
v -1.1 -0.4 -1.1
v -0.7 -0.4 -1.1
v 0.3 -0.4 -1.1
v 0.7 -0.4 -1.1
v -0.7 -0.4 -1.3
v 0.3 -0.4 -1.3
v -0.7 -0.2 1.1
v 0.3 -0.2 1.1
v -0.9 -0.2 0.9
v -0.7 -0.2 0.9
v 0.3 -0.2 0.9
v 0.5 -0.2 0.9
v -1.1 -0.2 0.7
v -0.9 -0.2 0.7
v 0.5 -0.2 0.7
v 0.7 -0.2 0.7
v -1.3 -0.2 0.5
v -1.1 -0.2 0.5
v -0.5 -0.2 0.5
v 0.0999999 -0.2 0.5
v 0.7 -0.2 0.5
v 0.9 -0.2 0.5
v -1.3 -0.2 0.3
v -1.1 -0.2 0.3
v -0.5 -0.2 0.3
v -0.3 -0.2 0.3
v -0.1 -0.2 0.3
v 0.0999999 -0.2 0.3
v 0.7 -0.2 0.3
v 0.9 -0.2 0.3
v -1.3 -0.2 -0.3
v -1.1 -0.2 -0.3
v -0.5 -0.2 -0.3
v -0.3 -0.2 -0.3
v -0.1 -0.2 -0.3
v 0.0999999 -0.2 -0.3
v 0.7 -0.2 -0.3
v 0.9 -0.2 -0.3
v -1.3 -0.2 -0.5
v -1.1 -0.2 -0.5
v -0.5 -0.2 -0.5
v 0.0999999 -0.2 -0.5
v 0.7 -0.2 -0.5
v 0.9 -0.2 -0.5
v -1.1 -0.2 -0.7
v -0.9 -0.2 -0.7
v 0.5 -0.2 -0.7
v 0.7 -0.2 -0.7
v -0.9 -0.2 -0.9
v -0.7 -0.2 -0.9
v 0.3 -0.2 -0.9
v 0.5 -0.2 -0.9
v -0.7 -0.2 -1.1
v 0.3 -0.2 -1.1
v -1.8 1.4 0.5
v -1.7 1.4 0.5
v -1.1 1.4 0.5
v -0.5 1.4 0.5
v 0.0999999 1.4 0.5
v 0.7 1.4 0.5
v 1.3 1.4 0.5
v 1.4 1.4 0.5
v -1.8 1.4 0.3
v -1.7 1.4 0.3
v -1.1 1.4 0.3
v -0.5 1.4 0.3
v 0.0999999 1.4 0.3
v 0.7 1.4 0.3
v 1.3 1.4 0.3
v 1.4 1.4 0.3
v -1.8 1.4 -0.3
v -1.7 1.4 -0.3
v -1.1 1.4 -0.3
v -0.5 1.4 -0.3
v 0.0999999 1.4 -0.3
v 0.7 1.4 -0.3
v 1.3 1.4 -0.3
v 1.4 1.4 -0.3
v -1.8 1.4 -0.5
v -1.7 1.4 -0.5
v -1.1 1.4 -0.5
v -0.5 1.4 -0.5
v 0.0999999 1.4 -0.5
v 0.7 1.4 -0.5
v 1.3 1.4 -0.5
v 1.4 1.4 -0.5
v -1.1 1.5 0.3
v -0.5 1.5 0.3
v 0.0999999 1.5 0.3
v 0.7 1.5 0.3
v -0.9 1.5 0.1
v -0.7 1.5 0.1
v 0.0999999 1.5 0.1
v 0.7 1.5 0.1
v -0.9 1.5 -0.1
v -0.7 1.5 -0.1
v 0.0999999 1.5 -0.1
v 0.7 1.5 -0.1
v -1.1 1.5 -0.3
v -0.5 1.5 -0.3
v 0.0999999 1.5 -0.3
v 0.7 1.5 -0.3
v -1.8 1.6 0.3
v -1.7 1.6 0.3
v 1.3 1.6 0.3
v 1.4 1.6 0.3
v -1.8 1.6 -0.3
v -1.7 1.6 -0.3
v 1.3 1.6 -0.3
v 1.4 1.6 -0.3
v -0.9 1.7 0.1
v -0.7 1.7 0.1
v 0.0999999 1.7 0.1
v 0.3 1.7 0.1
v 0.5 1.7 0.1
v 0.7 1.7 0.1
v -0.9 1.7 -0.1
v -0.7 1.7 -0.1
v 0.0999999 1.7 -0.1
v 0.3 1.7 -0.1
v 0.5 1.7 -0.1
v 0.7 1.7 -0.1
v -1.1 2.3 0.1
v -0.9 2.3 0.1
v -0.7 2.3 0.1
v -0.5 2.3 0.1
v 0.0999999 2.3 0.1
v 0.7 2.3 0.1
v -1.1 2.3 -0.1
v -0.9 2.3 -0.1
v -0.7 2.3 -0.1
v -0.5 2.3 -0.1
v 0.0999999 2.3 -0.1
v 0.7 2.3 -0.1

# faces
f 3/1/1 2/1/1 1/1/1
f 4/1/1 2/1/1 3/1/1
f 8/1/1 6/1/1 5/1/1
f 9/1/1 6/1/1 8/1/1
f 11/1/1 8/1/1 7/1/1
f 11/1/1 10/1/1 9/1/1
f 11/1/1 9/1/1 8/1/1
f 12/1/1 10/1/1 11/1/1
f 13/1/1 10/1/1 12/1/1
f 14/1/1 10/1/1 13/1/1
f 15/1/1 13/1/1 12/1/1
f 16/1/1 13/1/1 15/1/1
f 19/1/1 18/1/1 17/1/1
f 20/1/1 18/1/1 19/1/1
f 25/1/1 22/1/1 21/1/1
f 26/1/1 22/1/1 25/1/1
f 27/1/1 24/1/1 23/1/1
f 28/1/1 24/1/1 27/1/1
f 29/1/1 27/1/1 26/1/1
f 30/1/1 27/1/1 29/1/1
f 35/1/1 32/1/1 31/1/1
f 36/1/1 32/1/1 35/1/1
f 39/1/1 34/1/1 33/1/1
f 40/1/1 34/1/1 39/1/1
f 41/1/1 37/1/1 36/1/1
f 42/1/1 37/1/1 41/1/1
f 43/1/1 39/1/1 38/1/1
f 44/1/1 39/1/1 43/1/1
f 45/1/1 43/1/1 42/1/1
f 46/1/1 43/1/1 45/1/1
f 47/1/1 43/1/1 46/1/1
f 48/1/1 43/1/1 47/1/1
f 49/1/1 47/1/1 46/1/1
f 50/1/1 47/1/1 49/1/1
f 55/1/1 52/1/1 51/1/1
f 56/1/1 52/1/1 55/1/1
f 59/1/1 54/1/1 53/1/1
f 60/1/1 54/1/1 59/1/1
f 61/1/1 57/1/1 56/1/1
f 62/1/1 57/1/1 61/1/1
f 67/1/1 59/1/1 58/1/1
f 68/1/1 59/1/1 67/1/1
f 69/1/1 64/1/1 63/1/1
f 70/1/1 64/1/1 69/1/1
f 73/1/1 66/1/1 65/1/1
f 74/1/1 66/1/1 73/1/1
f 75/1/1 71/1/1 70/1/1
f 76/1/1 71/1/1 75/1/1
f 77/1/1 73/1/1 72/1/1
f 78/1/1 73/1/1 77/1/1
f 79/1/1 77/1/1 76/1/1
f 80/1/1 77/1/1 79/1/1
f 83/2/1 82/2/1 81/2/1
f 84/2/1 82/2/1 83/2/1
f 89/1/1 86/1/1 85/1/1
f 90/1/1 86/1/1 89/1/1
f 91/1/1 88/1/1 87/1/1
f 92/1/1 88/1/1 91/1/1
f 95/2/1 94/2/1 93/2/1
f 96/2/1 94/2/1 95/2/1
f 101/1/1 98/1/1 97/1/1
f 102/1/1 98/1/1 101/1/1
f 105/1/1 100/1/1 99/1/1
f 106/1/1 100/1/1 105/1/1
f 107/1/1 103/1/1 102/1/1
f 108/1/1 103/1/1 107/1/1
f 111/1/1 105/1/1 104/1/1
f 112/1/1 105/1/1 111/1/1
f 113/1/1 109/1/1 108/1/1
f 114/1/1 109/1/1 113/1/1
f 115/1/1 111/1/1 110/1/1
f 116/1/1 111/1/1 115/1/1
f 119/2/1 118/2/1 117/2/1
f 120/2/1 118/2/1 119/2/1
f 123/1/1 122/1/1 121/1/1
f 124/1/1 122/1/1 123/1/1
f 129/1/1 126/1/1 125/1/1
f 130/1/1 126/1/1 129/1/1
f 131/1/1 128/1/1 127/1/1
f 132/1/1 128/1/1 131/1/1
f 133/1/1 131/1/1 130/1/1
f 134/1/1 131/1/1 133/1/1
f 135/1/1 131/1/1 134/1/1
f 136/1/1 131/1/1 135/1/1
f 137/2/1 135/2/1 134/2/1
f 138/2/1 135/2/1 137/2/1
f 141/2/1 140/2/1 139/2/1
f 142/2/1 140/2/1 141/2/1
f 145/2/1 144/2/1 143/2/1
f 146/2/1 144/2/1 145/2/1
f 150/1/1 148/1/1 147/1/1
f 151/1/1 148/1/1 150/1/1
f 153/1/1 150/1/1 149/1/1
f 154/1/1 150/1/1 153/1/1
f 155/1/1 152/1/1 151/1/1
f 156/1/1 152/1/1 155/1/1
f 157/1/1 155/1/1 154/1/1
f 158/1/1 155/1/1 157/1/1
f 159/1/2 160/1/2 162/1/2
f 162/1/2 160/1/2 163/1/2
f 161/1/2 162/1/2 165/1/2
f 165/1/2 162/1/2 166/1/2
f 163/1/2 164/1/2 167/1/2
f 167/1/2 164/1/2 168/1/2
f 166/1/2 167/1/2 169/1/2
f 169/1/2 167/1/2 170/1/2
f 171/2/2 172/2/2 173/2/2
f 173/2/2 172/2/2 174/2/2
f 175/2/2 176/2/2 177/2/2
f 177/2/2 176/2/2 178/2/2
f 179/1/2 180/1/2 183/1/2
f 183/1/2 180/1/2 184/1/2
f 181/1/2 182/1/2 185/1/2
f 185/1/2 182/1/2 186/1/2
f 184/1/2 185/1/2 187/1/2
f 187/1/2 185/1/2 188/1/2
f 189/2/2 190/2/2 191/2/2
f 191/2/2 190/2/2 192/2/2
f 193/1/2 194/1/2 195/1/2
f 195/1/2 194/1/2 196/1/2
f 197/1/2 198/1/2 201/1/2
f 201/1/2 198/1/2 202/1/2
f 199/1/2 200/1/2 205/1/2
f 205/1/2 200/1/2 206/1/2
f 202/1/2 203/1/2 207/1/2
f 207/1/2 203/1/2 208/1/2
f 204/1/2 205/1/2 211/1/2
f 211/1/2 205/1/2 212/1/2
f 208/1/2 209/1/2 213/1/2
f 213/1/2 209/1/2 214/1/2
f 210/1/2 211/1/2 215/1/2
f 215/1/2 211/1/2 216/1/2
f 217/1/2 218/1/2 221/1/2
f 221/1/2 218/1/2 222/1/2
f 219/1/2 220/1/2 223/1/2
f 223/1/2 220/1/2 224/1/2
f 225/2/2 226/2/2 227/2/2
f 227/2/2 226/2/2 228/2/2
f 229/1/2 230/1/2 233/1/2
f 233/1/2 230/1/2 234/1/2
f 231/1/2 232/1/2 237/1/2
f 237/1/2 232/1/2 238/1/2
f 234/1/2 235/1/2 239/1/2
f 239/1/2 235/1/2 240/1/2
f 236/1/2 237/1/2 245/1/2
f 245/1/2 237/1/2 246/1/2
f 241/1/2 242/1/2 247/1/2
f 247/1/2 242/1/2 248/1/2
f 243/1/2 244/1/2 251/1/2
f 251/1/2 244/1/2 252/1/2
f 248/1/2 249/1/2 253/1/2
f 253/1/2 249/1/2 254/1/2
f 250/1/2 251/1/2 255/1/2
f 255/1/2 251/1/2 256/1/2
f 254/1/2 255/1/2 257/1/2
f 257/1/2 255/1/2 258/1/2
f 258/1/2 255/1/2 259/1/2
f 259/1/2 255/1/2 260/1/2
f 258/2/2 259/2/2 261/2/2
f 261/2/2 259/2/2 262/2/2
f 263/2/2 264/2/2 265/2/2
f 265/2/2 264/2/2 266/2/2
f 267/1/2 268/1/2 271/1/2
f 271/1/2 268/1/2 272/1/2
f 269/1/2 270/1/2 275/1/2
f 275/1/2 270/1/2 276/1/2
f 272/1/2 273/1/2 277/1/2
f 277/1/2 273/1/2 278/1/2
f 274/1/2 275/1/2 279/1/2
f 279/1/2 275/1/2 280/1/2
f 278/1/2 279/1/2 281/1/2
f 281/1/2 279/1/2 282/1/2
f 282/1/2 279/1/2 283/1/2
f 283/1/2 279/1/2 284/1/2
f 282/1/2 283/1/2 285/1/2
f 285/1/2 283/1/2 286/1/2
f 287/1/2 288/1/2 291/1/2
f 291/1/2 288/1/2 292/1/2
f 289/1/2 290/1/2 293/1/2
f 293/1/2 290/1/2 294/1/2
f 292/1/2 293/1/2 295/1/2
f 295/1/2 293/1/2 296/1/2
f 297/1/2 298/1/2 299/1/2
f 299/1/2 298/1/2 300/1/2
f 301/1/2 302/1/2 303/1/2
f 303/1/2 302/1/2 304/1/2
f 305/1/2 306/1/2 308/1/2
f 308/1/2 306/1/2 309/1/2
f 307/1/2 308/1/2 311/1/2
f 309/1/2 310/1/2 311/1/2
f 308/1/2 309/1/2 311/1/2
f 311/1/2 310/1/2 312/1/2
f 312/1/2 310/1/2 313/1/2
f 313/1/2 310/1/2 314/1/2
f 312/1/2 313/1/2 315/1/2
f 315/1/2 313/1/2 316/1/2
f 319/1/3 318/1/3 317/1/3
f 321/1/3 319/1/3 317/1/3
f 321/1/3 320/1/3 319/1/3
f 322/1/3 320/1/3 321/1/3
f 323/1/3 321/1/3 317/1/3
f 324/1/3 321/1/3 323/1/3
f 327/1/3 326/1/3 325/1/3
f 328/1/3 326/1/3 327/1/3
f 331/1/3 329/1/3 328/1/3
f 332/1/3 329/1/3 331/1/3
f 333/1/3 331/1/3 330/1/3
f 334/1/3 331/1/3 333/1/3
f 337/1/3 336/1/3 335/1/3
f 338/1/3 336/1/3 337/1/3
f 340/1/3 339/1/3 338/1/3
f 341/1/3 339/1/3 340/1/3
f 344/1/3 342/1/3 341/1/3
f 345/1/3 342/1/3 344/1/3
f 347/1/3 344/1/3 343/1/3
f 348/1/3 344/1/3 347/1/3
f 349/1/3 347/1/3 346/1/3
f 350/1/3 347/1/3 349/1/3
f 353/1/3 352/1/3 351/1/3
f 354/1/3 352/1/3 353/1/3
f 356/1/3 355/1/3 354/1/3
f 357/1/3 355/1/3 356/1/3
f 360/1/3 359/1/3 358/1/3
f 361/1/3 359/1/3 360/1/3
f 364/1/3 363/1/3 362/1/3
f 365/1/3 363/1/3 364/1/3
f 369/1/3 367/1/3 366/1/3
f 370/1/3 367/1/3 369/1/3
f 371/1/3 369/1/3 368/1/3
f 372/1/3 369/1/3 371/1/3
f 375/1/3 374/1/3 373/1/3
f 376/1/3 374/1/3 375/1/3
f 379/1/3 378/1/3 377/1/3
f 380/1/3 378/1/3 379/1/3
f 385/1/3 382/1/3 381/1/3
f 386/1/3 382/1/3 385/1/3
f 387/1/3 384/1/3 383/1/3
f 388/1/3 384/1/3 387/1/3
f 390/1/3 389/1/3 388/1/3
f 391/1/3 389/1/3 390/1/3
f 393/1/3 392/1/3 391/1/3
f 394/1/3 392/1/3 393/1/3
f 396/1/3 395/1/3 394/1/3
f 397/1/3 395/1/3 396/1/3
f 401/1/3 399/1/3 398/1/3
f 402/1/3 399/1/3 401/1/3
f 404/1/3 401/1/3 400/1/3
f 405/1/3 401/1/3 404/1/3
f 407/1/3 404/1/3 403/1/3
f 408/1/3 404/1/3 407/1/3
f 409/1/3 407/1/3 406/1/3
f 410/1/3 407/1/3 409/1/3
f 413/1/3 412/1/3 411/1/3
f 414/1/3 412/1/3 413/1/3
f 419/1/3 416/1/3 415/1/3
f 420/1/3 416/1/3 419/1/3
f 421/1/3 418/1/3 417/1/3
f 422/1/3 418/1/3 421/1/3
f 424/1/3 421/1/3 420/1/3
f 425/1/3 424/1/3 423/1/3
f 426/1/3 421/1/3 424/1/3
f 426/1/3 424/1/3 425/1/3
f 429/1/3 427/1/3 426/1/3
f 430/1/3 427/1/3 429/1/3
f 431/1/3 429/1/3 428/1/3
f 432/1/3 429/1/3 431/1/3
f 434/1/3 429/1/3 432/1/3
f 435/1/3 434/1/3 433/1/3
f 436/1/3 429/1/3 434/1/3
f 436/1/3 434/1/3 435/1/3
f 439/1/3 437/1/3 436/1/3
f 440/1/3 437/1/3 439/1/3
f 441/1/3 439/1/3 438/1/3
f 442/1/3 439/1/3 441/1/3
f 444/1/3 439/1/3 442/1/3
f 445/1/3 439/1/3 444/1/3
f 447/1/3 444/1/3 443/1/3
f 448/1/3 444/1/3 447/1/3
f 449/1/3 446/1/3 445/1/3
f 450/1/3 446/1/3 449/1/3
f 454/2/3 452/2/3 451/2/3
f 455/2/3 452/2/3 454/2/3
f 456/2/3 454/2/3 453/2/3
f 457/2/3 454/2/3 456/2/3
f 459/2/3 458/2/3 457/2/3
f 460/2/3 458/2/3 459/2/3
f 465/2/3 462/2/3 461/2/3
f 466/2/3 464/2/3 463/2/3
f 467/2/3 465/2/3 461/2/3
f 467/2/3 466/2/3 465/2/3
f 468/2/3 464/2/3 466/2/3
f 468/2/3 466/2/3 467/2/3
f 469/2/3 467/2/3 461/2/3
f 470/2/3 467/2/3 469/2/3
f 471/2/3 464/2/3 468/2/3
f 472/2/3 464/2/3 471/2/3
f 473/2/4 474/2/4 476/2/4
f 476/2/4 474/2/4 477/2/4
f 475/2/4 476/2/4 478/2/4
f 478/2/4 476/2/4 479/2/4
f 479/2/4 480/2/4 481/2/4
f 481/2/4 480/2/4 482/2/4
f 483/2/4 484/2/4 487/2/4
f 485/2/4 486/2/4 488/2/4
f 483/2/4 487/2/4 489/2/4
f 487/2/4 488/2/4 489/2/4
f 488/2/4 486/2/4 490/2/4
f 489/2/4 488/2/4 490/2/4
f 483/2/4 489/2/4 491/2/4
f 491/2/4 489/2/4 492/2/4
f 490/2/4 486/2/4 493/2/4
f 493/2/4 486/2/4 494/2/4
f 495/1/4 496/1/4 499/1/4
f 499/1/4 496/1/4 500/1/4
f 497/1/4 498/1/4 501/1/4
f 501/1/4 498/1/4 502/1/4
f 500/1/4 501/1/4 504/1/4
f 503/1/4 504/1/4 505/1/4
f 504/1/4 501/1/4 506/1/4
f 505/1/4 504/1/4 506/1/4
f 506/1/4 507/1/4 509/1/4
f 509/1/4 507/1/4 510/1/4
f 508/1/4 509/1/4 511/1/4
f 511/1/4 509/1/4 512/1/4
f 512/1/4 509/1/4 514/1/4
f 513/1/4 514/1/4 515/1/4
f 514/1/4 509/1/4 516/1/4
f 515/1/4 514/1/4 516/1/4
f 516/1/4 517/1/4 519/1/4
f 519/1/4 517/1/4 520/1/4
f 518/1/4 519/1/4 521/1/4
f 521/1/4 519/1/4 522/1/4
f 522/1/4 519/1/4 524/1/4
f 524/1/4 519/1/4 525/1/4
f 523/1/4 524/1/4 527/1/4
f 527/1/4 524/1/4 528/1/4
f 525/1/4 526/1/4 529/1/4
f 529/1/4 526/1/4 530/1/4
f 531/1/4 532/1/4 535/1/4
f 535/1/4 532/1/4 536/1/4
f 533/1/4 534/1/4 537/1/4
f 537/1/4 534/1/4 538/1/4
f 538/1/4 539/1/4 540/1/4
f 540/1/4 539/1/4 541/1/4
f 541/1/4 542/1/4 543/1/4
f 543/1/4 542/1/4 544/1/4
f 544/1/4 545/1/4 546/1/4
f 546/1/4 545/1/4 547/1/4
f 548/1/4 549/1/4 551/1/4
f 551/1/4 549/1/4 552/1/4
f 550/1/4 551/1/4 554/1/4
f 554/1/4 551/1/4 555/1/4
f 553/1/4 554/1/4 557/1/4
f 557/1/4 554/1/4 558/1/4
f 556/1/4 557/1/4 559/1/4
f 559/1/4 557/1/4 560/1/4
f 561/1/4 562/1/4 563/1/4
f 563/1/4 562/1/4 564/1/4
f 565/1/4 566/1/4 567/1/4
f 567/1/4 566/1/4 568/1/4
f 569/1/4 570/1/4 571/1/4
f 571/1/4 570/1/4 572/1/4
f 573/1/4 574/1/4 575/1/4
f 575/1/4 574/1/4 576/1/4
f 576/1/4 577/1/4 578/1/4
f 578/1/4 577/1/4 579/1/4
f 580/1/4 581/1/4 582/1/4
f 582/1/4 581/1/4 583/1/4
f 584/1/4 585/1/4 586/1/4
f 586/1/4 585/1/4 587/1/4
f 588/1/4 589/1/4 591/1/4
f 591/1/4 589/1/4 592/1/4
f 590/1/4 591/1/4 593/1/4
f 593/1/4 591/1/4 594/1/4
f 595/1/4 596/1/4 597/1/4
f 597/1/4 596/1/4 598/1/4
f 598/1/4 599/1/4 600/1/4
f 600/1/4 599/1/4 601/1/4
f 601/1/4 602/1/4 604/1/4
f 604/1/4 602/1/4 605/1/4
f 603/1/4 604/1/4 607/1/4
f 607/1/4 604/1/4 608/1/4
f 606/1/4 607/1/4 609/1/4
f 609/1/4 607/1/4 610/1/4
f 611/1/4 612/1/4 613/1/4
f 613/1/4 612/1/4 614/1/4
f 614/1/4 615/1/4 617/1/4
f 617/1/4 615/1/4 618/1/4
f 616/1/4 617/1/4 619/1/4
f 619/1/4 617/1/4 620/1/4
f 621/1/4 622/1/4 623/1/4
f 621/1/4 623/1/4 625/1/4
f 623/1/4 624/1/4 625/1/4
f 625/1/4 624/1/4 626/1/4
f 621/1/4 625/1/4 627/1/4
f 627/1/4 625/1/4 628/1/4
f 631/1/5 630/1/5 629/1/5
f 632/1/5 630/1/5 631/1/5
f 637/1/5 634/1/5 633/1/5
f 638/1/5 634/1/5 637/1/5
f 639/1/5 636/1/5 635/1/5
f 640/1/5 636/1/5 639/1/5
f 645/1/5 642/1/5 641/1/5
f 646/1/5 642/1/5 645/1/5
f 651/1/5 644/1/5 643/1/5
f 652/1/5 644/1/5 651/1/5
f 654/1/5 647/1/5 646/1/5
f 655/1/5 647/1/5 654/1/5
f 656/1/5 649/1/5 648/1/5
f 657/1/5 649/1/5 656/1/5
f 658/1/5 651/1/5 650/1/5
f 659/1/5 651/1/5 658/1/5
f 661/1/5 654/1/5 653/1/5
f 662/1/5 654/1/5 661/1/5
f 663/1/5 660/1/5 659/1/5
f 664/1/5 660/1/5 663/1/5
f 669/2/5 666/2/5 665/2/5
f 670/2/5 666/2/5 669/2/5
f 671/2/5 668/2/5 667/2/5
f 672/2/5 668/2/5 671/2/5
f 677/2/5 674/2/5 673/2/5
f 678/2/5 674/2/5 677/2/5
f 679/2/5 676/2/5 675/2/5
f 680/2/5 676/2/5 679/2/5
f 681/1/6 682/1/6 685/1/6
f 685/1/6 682/1/6 686/1/6
f 683/1/6 684/1/6 687/1/6
f 687/1/6 684/1/6 688/1/6
f 681/1/6 685/1/6 689/1/6
f 689/1/6 685/1/6 690/1/6
f 688/1/6 684/1/6 691/1/6
f 691/1/6 684/1/6 692/1/6
f 681/1/6 689/1/6 693/1/6
f 693/1/6 689/1/6 694/1/6
f 692/1/6 684/1/6 695/1/6
f 695/1/6 684/1/6 696/1/6
f 681/1/6 693/1/6 697/1/6
f 697/1/6 693/1/6 698/1/6
f 696/1/6 684/1/6 699/1/6
f 699/1/6 684/1/6 700/1/6
f 681/1/6 697/1/6 701/1/6
f 700/1/6 684/1/6 704/1/6
f 701/1/6 702/1/6 705/1/6
f 703/1/6 704/1/6 708/1/6
f 705/1/6 706/1/6 709/1/6
f 707/1/6 708/1/6 712/1/6
f 709/1/6 710/1/6 713/1/6
f 711/1/6 712/1/6 716/1/6
f 713/1/6 714/1/6 717/1/6
f 681/1/6 701/1/6 717/1/6
f 701/1/6 705/1/6 717/1/6
f 705/1/6 709/1/6 717/1/6
f 709/1/6 713/1/6 717/1/6
f 717/1/6 714/1/6 718/1/6
f 715/1/6 716/1/6 719/1/6
f 716/1/6 712/1/6 720/1/6
f 719/1/6 716/1/6 720/1/6
f 704/1/6 684/1/6 720/1/6
f 708/1/6 704/1/6 720/1/6
f 712/1/6 708/1/6 720/1/6
f 721/1/6 722/1/6 724/1/6
f 724/1/6 722/1/6 725/1/6
f 723/1/6 724/1/6 728/1/6
f 728/1/6 724/1/6 729/1/6
f 725/1/6 726/1/6 730/1/6
f 730/1/6 726/1/6 731/1/6
f 727/1/6 728/1/6 734/1/6
f 734/1/6 728/1/6 735/1/6
f 731/1/6 732/1/6 736/1/6
f 736/1/6 732/1/6 737/1/6
f 733/1/6 734/1/6 740/1/6
f 740/1/6 734/1/6 741/1/6
f 737/1/6 738/1/6 742/1/6
f 742/1/6 738/1/6 743/1/6
f 739/1/6 740/1/6 745/1/6
f 745/1/6 740/1/6 746/1/6
f 743/1/6 744/1/6 749/1/6
f 749/1/6 744/1/6 750/1/6
f 746/1/6 747/1/6 751/1/6
f 751/1/6 747/1/6 752/1/6
f 748/1/6 749/1/6 755/1/6
f 755/1/6 749/1/6 756/1/6
f 752/1/6 753/1/6 757/1/6
f 757/1/6 753/1/6 758/1/6
f 754/1/6 755/1/6 761/1/6
f 761/1/6 755/1/6 762/1/6
f 758/1/6 759/1/6 763/1/6
f 763/1/6 759/1/6 764/1/6
f 760/1/6 761/1/6 765/1/6
f 765/1/6 761/1/6 766/1/6
f 764/1/6 765/1/6 767/1/6
f 767/1/6 765/1/6 768/1/6
f 769/1/6 770/1/6 772/1/6
f 772/1/6 770/1/6 773/1/6
f 771/1/6 772/1/6 776/1/6
f 776/1/6 772/1/6 777/1/6
f 777/1/6 772/1/6 778/1/6
f 773/1/6 774/1/6 779/1/6
f 779/1/6 774/1/6 780/1/6
f 780/1/6 774/1/6 781/1/6
f 775/1/6 776/1/6 783/1/6
f 776/1/6 777/1/6 783/1/6
f 783/1/6 777/1/6 784/1/6
f 781/1/6 782/1/6 785/1/6
f 780/1/6 781/1/6 785/1/6
f 785/1/6 782/1/6 786/1/6
f 775/1/6 783/1/6 788/1/6
f 788/1/6 783/1/6 789/1/6
f 786/1/6 782/1/6 790/1/6
f 790/1/6 782/1/6 791/1/6
f 787/1/6 788/1/6 793/1/6
f 793/1/6 788/1/6 794/1/6
f 791/1/6 792/1/6 797/1/6
f 797/1/6 792/1/6 798/1/6
f 794/1/6 795/1/6 799/1/6
f 796/1/6 797/1/6 802/1/6
f 799/1/6 800/1/6 803/1/6
f 794/1/6 799/1/6 803/1/6
f 803/1/6 800/1/6 804/1/6
f 804/1/6 800/1/6 805/1/6
f 801/1/6 802/1/6 808/1/6
f 802/1/6 797/1/6 809/1/6
f 808/1/6 802/1/6 809/1/6
f 809/1/6 797/1/6 810/1/6
f 805/1/6 806/1/6 811/1/6
f 804/1/6 805/1/6 811/1/6
f 811/1/6 806/1/6 812/1/6
f 807/1/6 808/1/6 813/1/6
f 808/1/6 809/1/6 813/1/6
f 813/1/6 809/1/6 814/1/6
f 812/1/6 813/1/6 815/1/6
f 815/1/6 813/1/6 816/1/6
f 817/1/6 818/1/6 820/1/6
f 820/1/6 818/1/6 821/1/6
f 819/1/6 820/1/6 824/1/6
f 821/1/6 822/1/6 824/1/6
f 820/1/6 821/1/6 824/1/6
f 824/1/6 822/1/6 825/1/6
f 823/1/6 824/1/6 828/1/6
f 825/1/6 826/1/6 828/1/6
f 824/1/6 825/1/6 828/1/6
f 828/1/6 826/1/6 829/1/6
f 829/1/6 826/1/6 830/1/6
f 830/1/6 826/1/6 831/1/6
f 827/1/6 828/1/6 833/1/6
f 833/1/6 828/1/6 834/1/6
f 829/1/6 830/1/6 835/1/6
f 835/1/6 830/1/6 836/1/6
f 836/1/6 830/1/6 837/1/6
f 837/1/6 830/1/6 838/1/6
f 831/1/6 832/1/6 839/1/6
f 839/1/6 832/1/6 840/1/6
f 836/1/6 837/1/6 844/1/6
f 844/1/6 837/1/6 845/1/6
f 841/1/6 842/1/6 849/1/6
f 849/1/6 842/1/6 850/1/6
f 843/1/6 844/1/6 851/1/6
f 844/1/6 845/1/6 851/1/6
f 845/1/6 846/1/6 851/1/6
f 851/1/6 846/1/6 852/1/6
f 847/1/6 848/1/6 853/1/6
f 853/1/6 848/1/6 854/1/6
f 851/1/6 852/1/6 855/1/6
f 852/1/6 853/1/6 855/1/6
f 850/1/6 851/1/6 855/1/6
f 855/1/6 853/1/6 856/1/6
f 856/1/6 853/1/6 857/1/6
f 857/1/6 853/1/6 858/1/6
f 856/1/6 857/1/6 859/1/6
f 859/1/6 857/1/6 860/1/6
f 860/1/6 857/1/6 861/1/6
f 861/1/6 857/1/6 862/1/6
f 860/1/6 861/1/6 863/1/6
f 863/1/6 861/1/6 864/1/6
f 865/1/6 866/1/6 873/1/6
f 873/1/6 866/1/6 874/1/6
f 867/1/6 868/1/6 875/1/6
f 875/1/6 868/1/6 876/1/6
f 869/1/6 870/1/6 877/1/6
f 877/1/6 870/1/6 878/1/6
f 871/1/6 872/1/6 879/1/6
f 879/1/6 872/1/6 880/1/6
f 874/1/6 875/1/6 882/1/6
f 882/1/6 875/1/6 883/1/6
f 876/1/6 877/1/6 884/1/6
f 884/1/6 877/1/6 885/1/6
f 878/1/6 879/1/6 886/1/6
f 886/1/6 879/1/6 887/1/6
f 881/1/6 882/1/6 889/1/6
f 889/1/6 882/1/6 890/1/6
f 883/1/6 884/1/6 891/1/6
f 891/1/6 884/1/6 892/1/6
f 885/1/6 886/1/6 893/1/6
f 893/1/6 886/1/6 894/1/6
f 887/1/6 888/1/6 895/1/6
f 895/1/6 888/1/6 896/1/6
f 897/1/6 898/1/6 901/1/6
f 901/1/6 898/1/6 902/1/6
f 899/1/6 900/1/6 903/1/6
f 903/1/6 900/1/6 904/1/6
f 897/1/6 901/1/6 905/1/6
f 902/1/6 898/1/6 906/1/6
f 897/1/6 905/1/6 909/1/6
f 905/1/6 906/1/6 909/1/6
f 906/1/6 898/1/6 910/1/6
f 909/1/6 906/1/6 910/1/6
f 907/1/6 908/1/6 911/1/6
f 911/1/6 908/1/6 912/1/6
f 913/1/6 914/1/6 917/1/6
f 917/1/6 914/1/6 918/1/6
f 915/1/6 916/1/6 919/1/6
f 919/1/6 916/1/6 920/1/6
f 921/2/6 922/2/6 927/2/6
f 927/2/6 922/2/6 928/2/6
f 923/2/6 924/2/6 929/2/6
f 929/2/6 924/2/6 930/2/6
f 925/2/6 926/2/6 931/2/6
f 931/2/6 926/2/6 932/2/6
f 933/2/6 934/2/6 939/2/6
f 939/2/6 934/2/6 940/2/6
f 935/2/6 936/2/6 941/2/6
f 941/2/6 936/2/6 942/2/6
f 937/2/6 938/2/6 943/2/6
f 943/2/6 938/2/6 944/2/6
