# MagicaVoxel @ Ephtracy

# group
o 

# material
mtllib playerLaSombra-2.mtl
usemtl palette

# normals
vn -1 0 0
vn 1 0 0
vn 0 0 1
vn 0 0 -1
vn 0 -1 0
vn 0 1 0

# texcoords
vt 0.0566406 0.5
vt 0.0605469 0.5
vt 0.212891 0.5
vt 0.853516 0.5

# verts
v -0.3 -2 -0.1
v -0.3 -2 -0.2
v -0.3 -1.9 2.98023e-08
v -0.3 -1.9 -0.1
v -0.3 -1.9 -0.2
v -0.3 -1.9 -0.3
v -0.3 -1.5 0.1
v -0.3 -1.5 2.98023e-08
v -0.3 -1.5 -0.3
v -0.3 -1.3 0.1
v -0.3 -1.3 -0.3
v -0.3 -1.2 2.98023e-08
v -0.3 -1.2 -0.1
v -0.3 -1.1 0.1
v -0.3 -1.1 2.98023e-08
v -0.3 -1.1 -0.1
v -0.3 -1.1 -0.2
v -0.3 -0.9 0.1
v -0.3 -0.9 2.98023e-08
v -0.3 -0.9 -0.1
v -0.3 -0.9 -0.2
v -0.3 -0.9 -0.3
v -0.3 -0.8 2.98023e-08
v -0.3 -0.8 -0.1
v -0.3 -0.8 -0.2
v -0.3 -0.8 -0.3
v -0.3 -0.7 2.98023e-08
v -0.3 -0.7 -0.1
v -0.3 -0.7 -0.2
v -0.3 -0.5 -0.1
v -0.3 -0.5 -0.2
v -0.3 -0.5 -0.3
v -0.3 -0.3 0.1
v -0.3 -0.3 2.98023e-08
v -0.3 -0.3 -0.2
v -0.3 -0.3 -0.3
v -0.3 -0.2 0.1
v -0.3 -0.2 2.98023e-08
v -0.3 -0.2 -0.1
v -0.3 -0.2 -0.2
v -0.3 -0.2 -0.3
v -0.3 -0.1 2.98023e-08
v -0.3 -0.1 -0.1
v -0.3 -0.1 -0.2
v -0.2 -2.2 -0.1
v -0.2 -2.2 -0.2
v -0.2 -2.1 2.98023e-08
v -0.2 -2.1 -0.1
v -0.2 -2.1 -0.2
v -0.2 -2.1 -0.3
v -0.2 -2 0.1
v -0.2 -2 2.98023e-08
v -0.2 -2 -0.1
v -0.2 -2 -0.2
v -0.2 -2 -0.3
v -0.2 -2 -0.4
v -0.2 -1.9 2.98023e-08
v -0.2 -1.9 -0.1
v -0.2 -1.9 -0.2
v -0.2 -1.9 -0.3
v -0.2 -1.5 0.2
v -0.2 -1.5 0.1
v -0.2 -1.5 2.98023e-08
v -0.2 -1.5 -0.3
v -0.2 -1.5 -0.4
v -0.2 -1.3 0.2
v -0.2 -1.3 0.1
v -0.2 -1.3 -0.3
v -0.2 -1.3 -0.4
v -0.2 -1.1 0.2
v -0.2 -1.1 0.1
v -0.2 -1 0.2
v -0.2 -1 0.1
v -0.2 -0.9 0.1
v -0.2 -0.9 -0.3
v -0.2 -0.8 -0.3
v -0.2 -0.7 -0.3
v -0.2 -0.7 -0.4
v -0.2 -0.5 -0.3
v -0.2 -0.5 -0.4
v -0.2 -0.4 0.2
v -0.2 -0.4 0.1
v -0.2 -0.3 0.2
v -0.2 -0.3 0.1
v -0.2 -0.3 -0.3
v -0.2 -0.2 0.1
v -0.2 -0.2 2.98023e-08
v -0.2 -0.2 -0.2
v -0.2 -0.2 -0.3
v -0.2 -0.2 -0.4
v -0.2 -0.1 2.98023e-08
v -0.2 -0.1 -0.1
v -0.2 -0.1 -0.2
v -0.2 -2.38419e-07 -0.3
v -0.2 -2.38419e-07 -0.4
v -0.2 0.0999999 0.2
v -0.2 0.0999999 0.1
v -0.2 0.0999999 -0.3
v -0.2 0.0999999 -0.4
v -0.2 0.2 0.1
v -0.2 0.2 -0.3
v -0.1 -2.2 2.98023e-08
v -0.1 -2.2 -0.1
v -0.1 -2.2 -0.2
v -0.1 -2.2 -0.3
v -0.1 -2.1 0.2
v -0.1 -2.1 2.98023e-08
v -0.1 -2.1 -0.1
v -0.1 -2.1 -0.2
v -0.1 -2.1 -0.3
v -0.1 -2.1 -0.4
v -0.1 -2 0.1
v -0.1 -2 2.98023e-08
v -0.1 -2 -0.3
v -0.1 -2 -0.4
v -0.1 -1.9 0.3
v -0.1 -1.9 0.2
v -0.1 -1.9 -0.4
v -0.1 -1.9 -0.5
v -0.1 -1.7 -0.4
v -0.1 -1.7 -0.5
v -0.1 -1.6 0.3
v -0.1 -1.6 0.2
v -0.1 -1.5 0.2
v -0.1 -1.5 0.1
v -0.1 0.0999999 0.2
v -0.1 0.0999999 0.1
v -0.1 0.0999999 -0.3
v -0.1 0.0999999 -0.4
v -0.1 0.2 0.2
v -0.1 0.2 0.1
v -0.1 0.2 -0.3
v -0.1 0.2 -0.4
v -0.1 0.3 0.1
v -0.1 0.3 -0.3
v 2.98023e-08 -2.2 0.1
v 2.98023e-08 -2.2 2.98023e-08
v 2.98023e-08 -2.2 -0.3
v 2.98023e-08 -2.2 -0.4
v 2.98023e-08 -2.1 0.1
v 2.98023e-08 -2.1 2.98023e-08
v 2.98023e-08 -2.1 -0.3
v 2.98023e-08 -2.1 -0.4
v 2.98023e-08 -2 0.3
v 2.98023e-08 -2 0.2
v 2.98023e-08 -2 -0.4
v 2.98023e-08 -2 -0.5
v 2.98023e-08 -1.9 0.3
v 2.98023e-08 -1.9 0.2
v 2.98023e-08 -1.9 -0.4
v 2.98023e-08 -1.9 -0.5
v 2.98023e-08 -1.7 -0.4
v 2.98023e-08 -1.7 -0.5
v 2.98023e-08 -1.6 0.3
v 2.98023e-08 -1.6 0.2
v 2.98023e-08 -1.6 -0.4
v 2.98023e-08 -1.6 -0.5
v 2.98023e-08 -1.5 0.3
v 2.98023e-08 -1.5 0.2
v 2.98023e-08 0.2 0.2
v 2.98023e-08 0.2 0.1
v 2.98023e-08 0.2 -0.3
v 2.98023e-08 0.2 -0.4
v 2.98023e-08 0.3 0.2
v 2.98023e-08 0.3 0.1
v 2.98023e-08 0.3 -0.3
v 2.98023e-08 0.3 -0.4
v 2.98023e-08 0.4 0.1
v 2.98023e-08 0.4 -0.3
v 0.1 -2 -0.4
v 0.1 -2 -0.5
v 0.1 -1.9 -0.4
v 0.1 -1.9 -0.5
v 0.1 -1.7 -0.4
v 0.1 -1.7 -0.5
v 0.1 -1.6 -0.4
v 0.1 -1.6 -0.5
v 0.2 -2.2 0.1
v 0.2 -2.2 -0.4
v 0.2 -2.1 0.1
v 0.2 -2.1 -0.4
v 0.2 -2 0.3
v 0.2 -2 0.2
v 0.2 -1.9 0.2
v 0.2 -1.9 -0.4
v 0.2 -1.9 -0.5
v 0.2 -1.7 -0.4
v 0.2 -1.7 -0.5
v 0.2 -1.5 0.3
v 0.2 -1.5 0.2
v 0.2 -1.5 -0.4
v 0.3 -2.1 0.2
v 0.3 -2.1 -0.4
v 0.3 -1.9 0.2
v 0.3 -1.9 -0.4
v 0.3 -1.5 0.2
v 0.3 -1.5 0.1
v 0.3 -1.3 0.2
v 0.3 -1.3 0.1
v 0.3 -1.2 0.2
v 0.3 -1.2 0.1
v 0.3 -1.1 0.2
v 0.3 -1.1 0.1
v 0.3 -0.7 0.1
v 0.3 -0.6 0.1
v 0.3 -0.4 0.2
v 0.3 -0.4 0.1
v 0.3 -0.3 0.2
v 0.3 -0.3 0.1
v 0.3 -0.2 0.1
v 0.3 -0.1 0.1
v 0.3 -2.38419e-07 -0.3
v 0.3 -2.38419e-07 -0.4
v 0.3 0.0999999 -0.3
v 0.3 0.0999999 -0.4
v 0.3 0.3 0.2
v 0.3 0.3 0.1
v 0.3 0.3 -0.3
v 0.3 0.3 -0.4
v 0.4 -1.5 0.1
v 0.4 -1.5 -0.4
v 0.4 -1.3 0.1
v 0.4 -1.3 -0.4
v 0.4 -1.2 0.1
v 0.4 -1.2 -0.1
v 0.4 -1.1 0.1
v 0.4 -1.1 -0.1
v 0.4 -1.1 -0.4
v 0.4 -1 -0.1
v 0.4 -1 -0.4
v 0.4 -0.7 0.1
v 0.4 -0.7 -0.1
v 0.4 -0.6 0.1
v 0.4 -0.6 -0.1
v 0.4 -0.6 -0.4
v 0.4 -0.5 -0.1
v 0.4 -0.5 -0.4
v 0.4 -0.2 0.1
v 0.4 -0.2 -0.1
v 0.4 -0.1 0.1
v 0.4 -0.1 -0.1
v 0.4 -0.1 -0.4
v 0.4 -2.38419e-07 -0.1
v 0.4 -2.38419e-07 -0.3
v 0.4 -2.38419e-07 -0.4
v 0.4 0.4 0.1
v 0.4 0.4 -0.3
v -0.1 -1.9 0.3
v -0.1 -1.6 0.3
v 2.98023e-08 -2 0.3
v 2.98023e-08 -1.9 0.3
v 2.98023e-08 -1.6 0.3
v 2.98023e-08 -1.5 0.3
v 0.2 -2 0.3
v 0.2 -1.5 0.3
v -0.2 -1.5 0.2
v -0.2 -1.3 0.2
v -0.2 -1.1 0.2
v -0.2 -1 0.2
v -0.2 -0.4 0.2
v -0.2 -0.3 0.2
v -0.2 0.0999999 0.2
v -0.1 -2.1 0.2
v -0.1 -1.9 0.2
v -0.1 -1.6 0.2
v -0.1 -1.5 0.2
v -0.1 -1.2 0.2
v -0.1 -1.1 0.2
v -0.1 -1 0.2
v -0.1 -0.9 0.2
v -0.1 -0.8 0.2
v -0.1 -0.5 0.2
v -0.1 -0.4 0.2
v -0.1 -0.3 0.2
v -0.1 -2.38419e-07 0.2
v -0.1 0.0999999 0.2
v -0.1 0.2 0.2
v 2.98023e-08 -2 0.2
v 2.98023e-08 -1.9 0.2
v 2.98023e-08 -1.6 0.2
v 2.98023e-08 -1.5 0.2
v 2.98023e-08 -1.2 0.2
v 2.98023e-08 -1.1 0.2
v 2.98023e-08 -1 0.2
v 2.98023e-08 -0.9 0.2
v 2.98023e-08 -0.8 0.2
v 2.98023e-08 -0.6 0.2
v 2.98023e-08 -0.5 0.2
v 2.98023e-08 -0.4 0.2
v 2.98023e-08 -0.2 0.2
v 2.98023e-08 -2.38419e-07 0.2
v 2.98023e-08 0.0999999 0.2
v 2.98023e-08 0.2 0.2
v 2.98023e-08 0.3 0.2
v 0.1 -1.1 0.2
v 0.1 -1 0.2
v 0.1 -0.9 0.2
v 0.1 -0.6 0.2
v 0.1 -0.5 0.2
v 0.1 -0.3 0.2
v 0.1 -0.2 0.2
v 0.1 -2.38419e-07 0.2
v 0.2 -2 0.2
v 0.2 -1.9 0.2
v 0.2 -1.5 0.2
v 0.2 -1.2 0.2
v 0.2 -1.1 0.2
v 0.2 -1 0.2
v 0.2 -0.4 0.2
v 0.2 -0.3 0.2
v 0.2 -0.2 0.2
v 0.3 -2.1 0.2
v 0.3 -1.9 0.2
v 0.3 -1.5 0.2
v 0.3 -1.3 0.2
v 0.3 -1.2 0.2
v 0.3 -1.1 0.2
v 0.3 -0.4 0.2
v 0.3 -0.3 0.2
v 0.3 0.3 0.2
v -0.3 -1.5 0.1
v -0.3 -1.3 0.1
v -0.3 -1.1 0.1
v -0.3 -0.9 0.1
v -0.3 -0.3 0.1
v -0.3 -0.2 0.1
v -0.2 -2 0.1
v -0.2 -1.5 0.1
v -0.2 -1.3 0.1
v -0.2 -1.1 0.1
v -0.2 -1 0.1
v -0.2 -0.9 0.1
v -0.2 -0.4 0.1
v -0.2 -0.3 0.1
v -0.2 -0.2 0.1
v -0.2 0.0999999 0.1
v -0.2 0.2 0.1
v -0.1 -2 0.1
v -0.1 -1.5 0.1
v -0.1 0.0999999 0.1
v -0.1 0.2 0.1
v -0.1 0.3 0.1
v 2.98023e-08 -2.2 0.1
v 2.98023e-08 -2.1 0.1
v 2.98023e-08 0.2 0.1
v 2.98023e-08 0.3 0.1
v 2.98023e-08 0.4 0.1
v 0.2 -2.2 0.1
v 0.2 -2.1 0.1
v 0.3 -1.5 0.1
v 0.3 -1.3 0.1
v 0.3 -1.2 0.1
v 0.3 -1.1 0.1
v 0.3 -0.7 0.1
v 0.3 -0.6 0.1
v 0.3 -0.4 0.1
v 0.3 -0.3 0.1
v 0.3 -0.2 0.1
v 0.3 -0.1 0.1
v 0.3 0.3 0.1
v 0.4 -1.5 0.1
v 0.4 -1.3 0.1
v 0.4 -1.2 0.1
v 0.4 -1.1 0.1
v 0.4 -0.7 0.1
v 0.4 -0.6 0.1
v 0.4 -0.2 0.1
v 0.4 -0.1 0.1
v 0.4 0.4 0.1
v -0.3 -1.9 2.98023e-08
v -0.3 -1.5 2.98023e-08
v -0.3 -0.2 2.98023e-08
v -0.3 -0.1 2.98023e-08
v -0.2 -2.1 2.98023e-08
v -0.2 -2 2.98023e-08
v -0.2 -1.9 2.98023e-08
v -0.2 -1.5 2.98023e-08
v -0.2 -0.2 2.98023e-08
v -0.2 -0.1 2.98023e-08
v -0.1 -2.2 2.98023e-08
v -0.1 -2.1 2.98023e-08
v -0.1 -2 2.98023e-08
v 2.98023e-08 -2.2 2.98023e-08
v 2.98023e-08 -2.1 2.98023e-08
v -0.3 -2 -0.1
v -0.3 -1.9 -0.1
v -0.2 -2.2 -0.1
v -0.2 -2.1 -0.1
v -0.2 -2 -0.1
v -0.2 -1.9 -0.1
v -0.1 -2.2 -0.1
v -0.1 -2.1 -0.1
v -0.3 -2 -0.2
v -0.3 -1.9 -0.2
v -0.3 -0.2 -0.2
v -0.3 -0.1 -0.2
v -0.2 -2.2 -0.2
v -0.2 -2.1 -0.2
v -0.2 -2 -0.2
v -0.2 -1.9 -0.2
v -0.2 -0.2 -0.2
v -0.2 -0.1 -0.2
v -0.1 -2.2 -0.2
v -0.1 -2.1 -0.2
v -0.3 -1.9 -0.3
v -0.3 -1.5 -0.3
v -0.3 -1.3 -0.3
v -0.3 -0.9 -0.3
v -0.3 -0.8 -0.3
v -0.3 -0.5 -0.3
v -0.3 -0.3 -0.3
v -0.3 -0.2 -0.3
v -0.2 -2.1 -0.3
v -0.2 -2 -0.3
v -0.2 -1.9 -0.3
v -0.2 -1.5 -0.3
v -0.2 -1.3 -0.3
v -0.2 -0.9 -0.3
v -0.2 -0.8 -0.3
v -0.2 -0.7 -0.3
v -0.2 -0.5 -0.3
v -0.2 -0.3 -0.3
v -0.2 -0.2 -0.3
v -0.2 0.0999999 -0.3
v -0.2 0.2 -0.3
v -0.1 -2.2 -0.3
v -0.1 -2.1 -0.3
v -0.1 -2 -0.3
v -0.1 0.0999999 -0.3
v -0.1 0.2 -0.3
v -0.1 0.3 -0.3
v 2.98023e-08 -2.2 -0.3
v 2.98023e-08 -2.1 -0.3
v 2.98023e-08 0.2 -0.3
v 2.98023e-08 0.3 -0.3
v 2.98023e-08 0.4 -0.3
v 0.3 -2.38419e-07 -0.3
v 0.3 0.0999999 -0.3
v 0.3 0.3 -0.3
v 0.4 -2.38419e-07 -0.3
v 0.4 0.4 -0.3
v -0.2 -2 -0.4
v -0.2 -1.5 -0.4
v -0.2 -1.3 -0.4
v -0.2 -0.7 -0.4
v -0.2 -0.5 -0.4
v -0.2 -0.2 -0.4
v -0.2 -2.38419e-07 -0.4
v -0.2 0.0999999 -0.4
v -0.1 -2.1 -0.4
v -0.1 -2 -0.4
v -0.1 -1.9 -0.4
v -0.1 -1.7 -0.4
v -0.1 -1.2 -0.4
v -0.1 -1 -0.4
v -0.1 -0.8 -0.4
v -0.1 -0.7 -0.4
v -0.1 -0.5 -0.4
v -0.1 -0.3 -0.4
v -0.1 -0.2 -0.4
v -0.1 -2.38419e-07 -0.4
v -0.1 0.0999999 -0.4
v -0.1 0.2 -0.4
v 2.98023e-08 -2.2 -0.4
v 2.98023e-08 -2.1 -0.4
v 2.98023e-08 -2 -0.4
v 2.98023e-08 -1.9 -0.4
v 2.98023e-08 -1.7 -0.4
v 2.98023e-08 -1.6 -0.4
v 2.98023e-08 -1.3 -0.4
v 2.98023e-08 -1.2 -0.4
v 2.98023e-08 -1 -0.4
v 2.98023e-08 -0.8 -0.4
v 2.98023e-08 -0.7 -0.4
v 2.98023e-08 -0.3 -0.4
v 2.98023e-08 -0.2 -0.4
v 2.98023e-08 0.0999999 -0.4
v 2.98023e-08 0.2 -0.4
v 2.98023e-08 0.3 -0.4
v 0.1 -2 -0.4
v 0.1 -1.9 -0.4
v 0.1 -1.7 -0.4
v 0.1 -1.6 -0.4
v 0.1 -1.3 -0.4
v 0.1 -1.2 -0.4
v 0.1 -0.8 -0.4
v 0.1 -0.7 -0.4
v 0.1 -0.4 -0.4
v 0.1 -0.3 -0.4
v 0.1 -2.38419e-07 -0.4
v 0.1 0.0999999 -0.4
v 0.1 0.2 -0.4
v 0.2 -2.2 -0.4
v 0.2 -2.1 -0.4
v 0.2 -1.9 -0.4
v 0.2 -1.7 -0.4
v 0.2 -1.5 -0.4
v 0.2 -1 -0.4
v 0.2 -0.8 -0.4
v 0.2 -0.7 -0.4
v 0.2 -0.5 -0.4
v 0.2 -0.4 -0.4
v 0.2 -0.3 -0.4
v 0.3 -2.1 -0.4
v 0.3 -1.9 -0.4
v 0.3 -1.1 -0.4
v 0.3 -1 -0.4
v 0.3 -0.8 -0.4
v 0.3 -0.6 -0.4
v 0.3 -0.5 -0.4
v 0.3 -0.4 -0.4
v 0.3 -0.1 -0.4
v 0.3 -2.38419e-07 -0.4
v 0.3 0.0999999 -0.4
v 0.3 0.3 -0.4
v 0.4 -1.5 -0.4
v 0.4 -1.3 -0.4
v 0.4 -1.1 -0.4
v 0.4 -1 -0.4
v 0.4 -0.6 -0.4
v 0.4 -0.5 -0.4
v 0.4 -0.1 -0.4
v 0.4 -2.38419e-07 -0.4
v -0.1 -1.9 -0.5
v -0.1 -1.7 -0.5
v 2.98023e-08 -2 -0.5
v 2.98023e-08 -1.9 -0.5
v 2.98023e-08 -1.7 -0.5
v 2.98023e-08 -1.6 -0.5
v 0.1 -2 -0.5
v 0.1 -1.9 -0.5
v 0.1 -1.7 -0.5
v 0.1 -1.6 -0.5
v 0.2 -1.9 -0.5
v 0.2 -1.7 -0.5
v 2.98023e-08 -2.2 0.1
v 0.2 -2.2 0.1
v -0.1 -2.2 2.98023e-08
v 2.98023e-08 -2.2 2.98023e-08
v -0.2 -2.2 -0.1
v -0.1 -2.2 -0.1
v -0.2 -2.2 -0.2
v -0.1 -2.2 -0.2
v -0.1 -2.2 -0.3
v 2.98023e-08 -2.2 -0.3
v 2.98023e-08 -2.2 -0.4
v 0.2 -2.2 -0.4
v -0.1 -2.1 0.2
v 0.3 -2.1 0.2
v 2.98023e-08 -2.1 0.1
v 0.2 -2.1 0.1
v -0.2 -2.1 2.98023e-08
v -0.1 -2.1 2.98023e-08
v 2.98023e-08 -2.1 2.98023e-08
v -0.2 -2.1 -0.1
v -0.1 -2.1 -0.1
v -0.2 -2.1 -0.2
v -0.1 -2.1 -0.2
v -0.2 -2.1 -0.3
v -0.1 -2.1 -0.3
v 2.98023e-08 -2.1 -0.3
v -0.1 -2.1 -0.4
v 2.98023e-08 -2.1 -0.4
v 0.2 -2.1 -0.4
v 0.3 -2.1 -0.4
v 2.98023e-08 -2 0.3
v 0.2 -2 0.3
v 2.98023e-08 -2 0.2
v 0.2 -2 0.2
v -0.2 -2 0.1
v -0.1 -2 0.1
v -0.2 -2 2.98023e-08
v -0.1 -2 2.98023e-08
v -0.3 -2 -0.1
v -0.2 -2 -0.1
v -0.3 -2 -0.2
v -0.2 -2 -0.2
v -0.2 -2 -0.3
v -0.1 -2 -0.3
v -0.2 -2 -0.4
v -0.1 -2 -0.4
v 2.98023e-08 -2 -0.4
v 0.1 -2 -0.4
v 2.98023e-08 -2 -0.5
v 0.1 -2 -0.5
v -0.1 -1.9 0.3
v 2.98023e-08 -1.9 0.3
v -0.1 -1.9 0.2
v 2.98023e-08 -1.9 0.2
v -0.3 -1.9 2.98023e-08
v -0.2 -1.9 2.98023e-08
v -0.3 -1.9 -0.1
v -0.2 -1.9 -0.1
v -0.3 -1.9 -0.2
v -0.2 -1.9 -0.2
v -0.3 -1.9 -0.3
v -0.2 -1.9 -0.3
v -0.1 -1.9 -0.4
v 2.98023e-08 -1.9 -0.4
v 0.1 -1.9 -0.4
v 0.2 -1.9 -0.4
v -0.1 -1.9 -0.5
v 2.98023e-08 -1.9 -0.5
v 0.1 -1.9 -0.5
v 0.2 -1.9 -0.5
v -0.2 -1.5 0.2
v -0.1 -1.5 0.2
v 0.2 -1.5 0.2
v 0.3 -1.5 0.2
v -0.3 -1.5 0.1
v -0.2 -1.5 0.1
v -0.1 -1.5 0.1
v 0.3 -1.5 0.1
v 0.4 -1.5 0.1
v -0.3 -1.5 2.98023e-08
v -0.2 -1.5 2.98023e-08
v 0.2 -1.5 -0.4
v 0.4 -1.5 -0.4
v 0.2 -1.9 0.2
v 0.3 -1.9 0.2
v 0.2 -1.9 -0.4
v 0.3 -1.9 -0.4
v -0.1 -1.7 -0.4
v 2.98023e-08 -1.7 -0.4
v 0.1 -1.7 -0.4
v 0.2 -1.7 -0.4
v -0.1 -1.7 -0.5
v 2.98023e-08 -1.7 -0.5
v 0.1 -1.7 -0.5
v 0.2 -1.7 -0.5
v -0.1 -1.6 0.3
v 2.98023e-08 -1.6 0.3
v -0.1 -1.6 0.2
v 2.98023e-08 -1.6 0.2
v 2.98023e-08 -1.6 -0.4
v 0.1 -1.6 -0.4
v 2.98023e-08 -1.6 -0.5
v 0.1 -1.6 -0.5
v 2.98023e-08 -1.5 0.3
v 0.2 -1.5 0.3
v 2.98023e-08 -1.5 0.2
v 0.2 -1.5 0.2
v -0.3 -0.2 0.1
v -0.2 -0.2 0.1
v -0.3 -0.2 2.98023e-08
v -0.2 -0.2 2.98023e-08
v -0.3 -0.2 -0.2
v -0.2 -0.2 -0.2
v -0.3 -0.2 -0.3
v -0.2 -0.2 -0.3
v -0.3 -0.1 2.98023e-08
v -0.2 -0.1 2.98023e-08
v -0.3 -0.1 -0.1
v -0.2 -0.1 -0.1
v -0.3 -0.1 -0.2
v -0.2 -0.1 -0.2
v 0.3 -2.38419e-07 -0.3
v 0.4 -2.38419e-07 -0.3
v 0.3 -2.38419e-07 -0.4
v 0.4 -2.38419e-07 -0.4
v -0.2 0.0999999 0.2
v -0.1 0.0999999 0.2
v -0.2 0.0999999 0.1
v -0.1 0.0999999 0.1
v -0.2 0.0999999 -0.3
v -0.1 0.0999999 -0.3
v -0.2 0.0999999 -0.4
v -0.1 0.0999999 -0.4
v -0.1 0.2 0.2
v 2.98023e-08 0.2 0.2
v -0.2 0.2 0.1
v -0.1 0.2 0.1
v 2.98023e-08 0.2 0.1
v -0.2 0.2 -0.3
v -0.1 0.2 -0.3
v 2.98023e-08 0.2 -0.3
v -0.1 0.2 -0.4
v 2.98023e-08 0.2 -0.4
v 2.98023e-08 0.3 0.2
v 0.3 0.3 0.2
v -0.1 0.3 0.1
v 2.98023e-08 0.3 0.1
v 0.3 0.3 0.1
v -0.1 0.3 -0.3
v 2.98023e-08 0.3 -0.3
v 0.3 0.3 -0.3
v 2.98023e-08 0.3 -0.4
v 0.3 0.3 -0.4
v 2.98023e-08 0.4 0.1
v 0.4 0.4 0.1
v 2.98023e-08 0.4 -0.3
v 0.4 0.4 -0.3

# faces
f 4/1/1 2/1/1 1/1/1
f 5/1/1 2/1/1 4/1/1
f 8/1/1 4/1/1 3/1/1
f 8/1/1 6/1/1 5/1/1
f 8/1/1 5/1/1 4/1/1
f 9/1/1 6/1/1 8/1/1
f 10/4/1 8/4/1 7/4/1
f 10/4/1 9/4/1 8/4/1
f 11/4/1 9/4/1 10/4/1
f 12/2/1 11/2/1 10/2/1
f 13/2/1 11/2/1 12/2/1
f 14/2/1 12/2/1 10/2/1
f 15/3/1 13/3/1 12/3/1
f 15/2/1 12/2/1 14/2/1
f 16/2/1 11/2/1 13/2/1
f 16/3/1 13/3/1 15/3/1
f 17/2/1 11/2/1 16/2/1
f 18/3/1 15/3/1 14/3/1
f 19/2/1 16/2/1 15/2/1
f 19/3/1 15/3/1 18/3/1
f 20/3/1 17/3/1 16/3/1
f 20/2/1 16/2/1 19/2/1
f 21/2/1 11/2/1 17/2/1
f 21/3/1 17/3/1 20/3/1
f 22/2/1 11/2/1 21/2/1
f 23/2/1 20/2/1 19/2/1
f 23/2/1 19/2/1 18/2/1
f 23/2/1 21/2/1 20/2/1
f 24/2/1 21/2/1 23/2/1
f 25/3/1 22/3/1 21/3/1
f 25/2/1 21/2/1 24/2/1
f 26/3/1 22/3/1 25/3/1
f 27/3/1 24/3/1 23/3/1
f 27/2/1 23/2/1 18/2/1
f 28/2/1 26/2/1 25/2/1
f 28/3/1 24/3/1 27/3/1
f 28/2/1 25/2/1 24/2/1
f 29/2/1 26/2/1 28/2/1
f 30/2/1 28/2/1 27/2/1
f 30/3/1 29/3/1 28/3/1
f 31/2/1 26/2/1 29/2/1
f 31/3/1 29/3/1 30/3/1
f 32/2/1 26/2/1 31/2/1
f 33/2/1 27/2/1 18/2/1
f 33/2/1 30/2/1 27/2/1
f 33/2/1 31/2/1 30/2/1
f 34/2/1 31/2/1 33/2/1
f 35/3/1 32/3/1 31/3/1
f 35/2/1 31/2/1 34/2/1
f 36/3/1 32/3/1 35/3/1
f 37/3/1 34/3/1 33/3/1
f 38/2/1 35/2/1 34/2/1
f 38/3/1 34/3/1 37/3/1
f 38/2/1 36/2/1 35/2/1
f 39/2/1 36/2/1 38/2/1
f 40/2/1 36/2/1 39/2/1
f 41/2/1 36/2/1 40/2/1
f 42/3/1 39/3/1 38/3/1
f 43/2/1 40/2/1 39/2/1
f 43/3/1 39/3/1 42/3/1
f 44/2/1 40/2/1 43/2/1
f 48/1/1 46/1/1 45/1/1
f 49/1/1 46/1/1 48/1/1
f 52/1/1 48/1/1 47/1/1
f 52/1/1 50/1/1 49/1/1
f 52/1/1 49/1/1 48/1/1
f 53/1/1 50/1/1 52/1/1
f 54/1/1 50/1/1 53/1/1
f 55/1/1 50/1/1 54/1/1
f 57/1/1 52/1/1 51/1/1
f 57/1/1 53/1/1 52/1/1
f 58/1/1 53/1/1 57/1/1
f 59/1/1 56/1/1 55/1/1
f 59/1/1 55/1/1 54/1/1
f 60/1/1 56/1/1 59/1/1
f 62/1/1 57/1/1 51/1/1
f 63/1/1 57/1/1 62/1/1
f 64/1/1 56/1/1 60/1/1
f 65/1/1 56/1/1 64/1/1
f 66/4/1 62/4/1 61/4/1
f 67/4/1 62/4/1 66/4/1
f 68/4/1 65/4/1 64/4/1
f 69/4/1 65/4/1 68/4/1
f 70/2/1 67/2/1 66/2/1
f 71/2/1 67/2/1 70/2/1
f 72/3/1 71/3/1 70/3/1
f 73/3/1 71/3/1 72/3/1
f 74/2/1 73/2/1 72/2/1
f 75/2/1 69/2/1 68/2/1
f 76/2/1 69/2/1 75/2/1
f 77/2/1 69/2/1 76/2/1
f 78/2/1 69/2/1 77/2/1
f 79/3/1 78/3/1 77/3/1
f 80/3/1 78/3/1 79/3/1
f 81/2/1 74/2/1 72/2/1
f 82/2/1 74/2/1 81/2/1
f 83/3/1 82/3/1 81/3/1
f 84/3/1 82/3/1 83/3/1
f 85/2/1 80/2/1 79/2/1
f 86/2/1 84/2/1 83/2/1
f 89/2/1 80/2/1 85/2/1
f 90/2/1 80/2/1 89/2/1
f 91/2/1 87/2/1 86/2/1
f 93/2/1 89/2/1 88/2/1
f 94/2/1 92/2/1 91/2/1
f 94/2/1 93/2/1 92/2/1
f 94/2/1 89/2/1 93/2/1
f 94/3/1 90/3/1 89/3/1
f 95/3/1 90/3/1 94/3/1
f 96/2/1 86/2/1 83/2/1
f 96/2/1 91/2/1 86/2/1
f 96/2/1 95/2/1 94/2/1
f 96/2/1 94/2/1 91/2/1
f 97/2/1 95/2/1 96/2/1
f 98/2/1 95/2/1 97/2/1
f 99/2/1 95/2/1 98/2/1
f 100/2/1 98/2/1 97/2/1
f 101/2/1 98/2/1 100/2/1
f 107/1/1 103/1/1 102/1/1
f 108/1/1 103/1/1 107/1/1
f 109/1/1 105/1/1 104/1/1
f 110/1/1 105/1/1 109/1/1
f 112/1/1 107/1/1 106/1/1
f 113/1/1 107/1/1 112/1/1
f 114/1/1 111/1/1 110/1/1
f 115/1/1 111/1/1 114/1/1
f 117/1/1 112/1/1 106/1/1
f 120/1/1 119/1/1 118/1/1
f 121/1/1 119/1/1 120/1/1
f 122/1/1 117/1/1 116/1/1
f 123/1/1 112/1/1 117/1/1
f 123/1/1 117/1/1 122/1/1
f 124/1/1 112/1/1 123/1/1
f 125/1/1 112/1/1 124/1/1
f 130/2/1 127/2/1 126/2/1
f 131/2/1 127/2/1 130/2/1
f 132/2/1 129/2/1 128/2/1
f 133/2/1 129/2/1 132/2/1
f 134/2/1 132/2/1 131/2/1
f 135/2/1 132/2/1 134/2/1
f 140/1/1 137/1/1 136/1/1
f 141/1/1 137/1/1 140/1/1
f 142/1/1 139/1/1 138/1/1
f 143/1/1 139/1/1 142/1/1
f 148/1/1 145/1/1 144/1/1
f 149/1/1 145/1/1 148/1/1
f 150/1/1 147/1/1 146/1/1
f 151/1/1 147/1/1 150/1/1
f 156/1/1 153/1/1 152/1/1
f 157/1/1 153/1/1 156/1/1
f 158/1/1 155/1/1 154/1/1
f 159/1/1 155/1/1 158/1/1
f 164/2/1 161/2/1 160/2/1
f 165/2/1 161/2/1 164/2/1
f 166/2/1 163/2/1 162/2/1
f 167/2/1 163/2/1 166/2/1
f 168/2/1 166/2/1 165/2/1
f 169/2/1 166/2/1 168/2/1
f 170/1/2 171/1/2 172/1/2
f 172/1/2 171/1/2 173/1/2
f 174/1/2 175/1/2 176/1/2
f 176/1/2 175/1/2 177/1/2
f 178/1/2 179/1/2 180/1/2
f 180/1/2 179/1/2 181/1/2
f 182/1/2 183/1/2 184/1/2
f 184/1/2 185/1/2 187/1/2
f 185/1/2 186/1/2 187/1/2
f 187/1/2 186/1/2 188/1/2
f 182/1/2 184/1/2 189/1/2
f 184/1/2 187/1/2 189/1/2
f 189/1/2 187/1/2 190/1/2
f 190/1/2 187/1/2 191/1/2
f 192/1/2 193/1/2 194/1/2
f 194/1/2 193/1/2 195/1/2
f 196/4/2 197/4/2 198/4/2
f 198/4/2 197/4/2 199/4/2
f 198/2/2 199/2/2 200/2/2
f 200/2/2 199/2/2 201/2/2
f 200/3/2 201/3/2 202/3/2
f 202/3/2 201/3/2 203/3/2
f 202/2/2 203/2/2 204/2/2
f 202/2/2 204/2/2 205/2/2
f 202/2/2 205/2/2 206/2/2
f 206/2/2 205/2/2 207/2/2
f 206/3/2 207/3/2 208/3/2
f 208/3/2 207/3/2 209/3/2
f 208/2/2 209/2/2 210/2/2
f 208/2/2 210/2/2 211/2/2
f 212/3/2 213/3/2 214/3/2
f 214/3/2 213/3/2 215/3/2
f 208/2/2 211/2/2 216/2/2
f 216/2/2 211/2/2 217/2/2
f 214/2/2 215/2/2 218/2/2
f 218/2/2 215/2/2 219/2/2
f 220/4/2 221/4/2 222/4/2
f 222/4/2 221/4/2 223/4/2
f 222/2/2 223/2/2 224/2/2
f 224/2/2 223/2/2 225/2/2
f 224/3/2 225/3/2 226/3/2
f 225/2/2 223/2/2 227/2/2
f 226/3/2 225/3/2 227/3/2
f 227/2/2 223/2/2 228/2/2
f 226/2/2 227/2/2 229/2/2
f 227/3/2 228/3/2 229/3/2
f 229/3/2 228/3/2 230/3/2
f 226/2/2 229/2/2 231/2/2
f 229/2/2 230/2/2 231/2/2
f 231/2/2 230/2/2 232/2/2
f 231/3/2 232/3/2 233/3/2
f 232/2/2 230/2/2 234/2/2
f 233/3/2 232/3/2 234/3/2
f 234/2/2 230/2/2 235/2/2
f 233/2/2 234/2/2 236/2/2
f 234/3/2 235/3/2 236/3/2
f 236/3/2 235/3/2 237/3/2
f 233/2/2 236/2/2 238/2/2
f 236/2/2 237/2/2 238/2/2
f 238/2/2 237/2/2 239/2/2
f 238/3/2 239/3/2 240/3/2
f 239/2/2 237/2/2 241/2/2
f 240/3/2 239/3/2 241/3/2
f 241/2/2 237/2/2 242/2/2
f 240/2/2 241/2/2 243/2/2
f 241/3/2 242/3/2 243/3/2
f 243/3/2 242/3/2 244/3/2
f 244/3/2 242/3/2 245/3/2
f 240/2/2 243/2/2 246/2/2
f 243/2/2 244/2/2 246/2/2
f 246/2/2 244/2/2 247/2/2
f 251/1/3 249/1/3 248/1/3
f 252/1/3 249/1/3 251/1/3
f 254/1/3 251/1/3 250/1/3
f 254/1/3 253/1/3 252/1/3
f 254/1/3 252/1/3 251/1/3
f 255/1/3 253/1/3 254/1/3
f 266/4/3 257/4/3 256/4/3
f 267/2/3 258/2/3 257/2/3
f 268/3/3 259/3/3 258/3/3
f 268/2/3 258/2/3 267/2/3
f 269/2/3 260/2/3 259/2/3
f 269/3/3 259/3/3 268/3/3
f 270/2/3 260/2/3 269/2/3
f 271/2/3 260/2/3 270/2/3
f 272/2/3 260/2/3 271/2/3
f 273/3/3 261/3/3 260/3/3
f 273/2/3 260/2/3 272/2/3
f 274/2/3 262/2/3 261/2/3
f 274/3/3 261/3/3 273/3/3
f 275/2/3 262/2/3 274/2/3
f 276/2/3 262/2/3 275/2/3
f 278/1/3 264/1/3 263/1/3
f 279/1/3 264/1/3 278/1/3
f 280/1/3 266/1/3 265/1/3
f 281/4/3 257/4/3 266/4/3
f 281/1/3 266/1/3 280/1/3
f 282/2/3 267/2/3 257/2/3
f 282/3/3 268/3/3 267/3/3
f 283/2/3 269/2/3 268/2/3
f 283/3/3 268/3/3 282/3/3
f 283/2/3 270/2/3 269/2/3
f 284/2/3 270/2/3 283/2/3
f 285/3/3 271/3/3 270/3/3
f 285/2/3 270/2/3 284/2/3
f 286/2/3 272/2/3 271/2/3
f 286/3/3 271/3/3 285/3/3
f 287/2/3 272/2/3 286/2/3
f 288/3/3 273/3/3 272/3/3
f 288/2/3 272/2/3 287/2/3
f 289/2/3 274/2/3 273/2/3
f 289/3/3 273/3/3 288/3/3
f 289/2/3 275/2/3 274/2/3
f 290/2/3 275/2/3 289/2/3
f 291/3/3 276/3/3 275/3/3
f 291/2/3 275/2/3 290/2/3
f 292/2/3 277/2/3 276/2/3
f 292/3/3 276/3/3 291/3/3
f 293/2/3 277/2/3 292/2/3
f 295/2/3 284/2/3 283/2/3
f 295/2/3 283/2/3 282/2/3
f 296/3/3 285/3/3 284/3/3
f 296/2/3 284/2/3 295/2/3
f 297/2/3 287/2/3 286/2/3
f 297/3/3 285/3/3 296/3/3
f 297/2/3 286/2/3 285/2/3
f 298/3/3 288/3/3 287/3/3
f 298/2/3 287/2/3 297/2/3
f 299/2/3 289/2/3 288/2/3
f 299/3/3 288/3/3 298/3/3
f 299/2/3 290/2/3 289/2/3
f 300/2/3 290/2/3 299/2/3
f 301/3/3 291/3/3 290/3/3
f 301/2/3 290/2/3 300/2/3
f 302/2/3 294/2/3 293/2/3
f 302/3/3 291/3/3 301/3/3
f 302/2/3 293/2/3 292/2/3
f 302/2/3 292/2/3 291/2/3
f 303/1/3 278/1/3 263/1/3
f 305/4/3 257/4/3 281/4/3
f 306/2/3 295/2/3 282/2/3
f 306/2/3 282/2/3 257/2/3
f 307/3/3 296/3/3 295/3/3
f 307/2/3 295/2/3 306/2/3
f 308/2/3 300/2/3 299/2/3
f 308/3/3 296/3/3 307/3/3
f 308/2/3 299/2/3 298/2/3
f 308/2/3 298/2/3 297/2/3
f 308/2/3 297/2/3 296/2/3
f 309/2/3 300/2/3 308/2/3
f 310/3/3 301/3/3 300/3/3
f 310/2/3 300/2/3 309/2/3
f 311/2/3 302/2/3 301/2/3
f 311/3/3 301/3/3 310/3/3
f 312/1/3 304/1/3 303/1/3
f 312/1/3 303/1/3 263/1/3
f 313/1/3 304/1/3 312/1/3
f 314/4/3 257/4/3 305/4/3
f 315/2/3 306/2/3 257/2/3
f 315/4/3 257/4/3 314/4/3
f 316/3/3 307/3/3 306/3/3
f 316/2/3 306/2/3 315/2/3
f 317/2/3 309/2/3 308/2/3
f 317/3/3 307/3/3 316/3/3
f 317/2/3 308/2/3 307/2/3
f 318/3/3 310/3/3 309/3/3
f 318/2/3 309/2/3 317/2/3
f 319/2/3 311/2/3 310/2/3
f 319/3/3 310/3/3 318/3/3
f 320/2/3 302/2/3 311/2/3
f 320/2/3 311/2/3 319/2/3
f 320/2/3 294/2/3 302/2/3
f 328/4/3 322/4/3 321/4/3
f 329/2/3 323/2/3 322/2/3
f 329/4/3 322/4/3 328/4/3
f 330/3/3 324/3/3 323/3/3
f 330/2/3 323/2/3 329/2/3
f 331/3/3 324/3/3 330/3/3
f 332/2/3 325/2/3 324/2/3
f 332/3/3 324/3/3 331/3/3
f 333/2/3 325/2/3 332/2/3
f 334/3/3 326/3/3 325/3/3
f 334/2/3 325/2/3 333/2/3
f 335/3/3 326/3/3 334/3/3
f 338/1/3 328/1/3 327/1/3
f 339/1/3 328/1/3 338/1/3
f 340/2/3 337/2/3 336/2/3
f 341/2/3 337/2/3 340/2/3
f 345/2/3 342/2/3 341/2/3
f 346/2/3 342/2/3 345/2/3
f 348/1/3 344/1/3 343/1/3
f 349/1/3 344/1/3 348/1/3
f 360/2/3 347/2/3 346/2/3
f 361/4/3 351/4/3 350/4/3
f 362/2/3 352/2/3 351/2/3
f 362/4/3 351/4/3 361/4/3
f 363/3/3 353/3/3 352/3/3
f 363/2/3 352/2/3 362/2/3
f 364/2/3 354/2/3 353/2/3
f 364/3/3 353/3/3 363/3/3
f 365/3/3 355/3/3 354/3/3
f 365/2/3 354/2/3 364/2/3
f 366/2/3 356/2/3 355/2/3
f 366/3/3 355/3/3 365/3/3
f 366/2/3 357/2/3 356/2/3
f 366/2/3 358/2/3 357/2/3
f 367/3/3 359/3/3 358/3/3
f 367/2/3 358/2/3 366/2/3
f 368/2/3 360/2/3 359/2/3
f 368/3/3 359/3/3 367/3/3
f 369/2/3 347/2/3 360/2/3
f 369/2/3 360/2/3 368/2/3
f 376/1/3 371/1/3 370/1/3
f 377/1/3 371/1/3 376/1/3
f 378/3/3 373/3/3 372/3/3
f 379/3/3 373/3/3 378/3/3
f 381/1/3 375/1/3 374/1/3
f 382/1/3 375/1/3 381/1/3
f 383/1/3 381/1/3 380/1/3
f 384/1/3 381/1/3 383/1/3
f 389/1/3 386/1/3 385/1/3
f 390/1/3 386/1/3 389/1/3
f 391/1/3 388/1/3 387/1/3
f 392/1/3 388/1/3 391/1/3
f 393/1/4 394/1/4 399/1/4
f 399/1/4 394/1/4 400/1/4
f 395/2/4 396/2/4 401/2/4
f 401/2/4 396/2/4 402/2/4
f 397/1/4 398/1/4 403/1/4
f 403/1/4 398/1/4 404/1/4
f 405/1/4 406/1/4 415/1/4
f 406/4/4 407/4/4 416/4/4
f 415/1/4 406/1/4 416/1/4
f 407/2/4 408/2/4 417/2/4
f 416/4/4 407/4/4 417/4/4
f 408/3/4 409/3/4 418/3/4
f 417/2/4 408/2/4 418/2/4
f 409/2/4 410/2/4 419/2/4
f 418/3/4 409/3/4 419/3/4
f 419/2/4 410/2/4 420/2/4
f 410/3/4 411/3/4 421/3/4
f 420/2/4 410/2/4 421/2/4
f 411/2/4 412/2/4 422/2/4
f 421/3/4 411/3/4 422/3/4
f 422/2/4 412/2/4 423/2/4
f 413/1/4 414/1/4 427/1/4
f 427/1/4 414/1/4 428/1/4
f 424/2/4 425/2/4 429/2/4
f 429/2/4 425/2/4 430/2/4
f 426/1/4 427/1/4 432/1/4
f 432/1/4 427/1/4 433/1/4
f 430/2/4 431/2/4 434/2/4
f 434/2/4 431/2/4 435/2/4
f 435/2/4 436/2/4 439/2/4
f 437/2/4 438/2/4 440/2/4
f 438/2/4 439/2/4 440/2/4
f 439/2/4 436/2/4 441/2/4
f 440/2/4 439/2/4 441/2/4
f 442/1/4 443/1/4 451/1/4
f 451/1/4 443/1/4 452/1/4
f 452/1/4 443/1/4 453/1/4
f 444/2/4 445/2/4 454/2/4
f 454/2/4 445/2/4 455/2/4
f 455/2/4 445/2/4 456/2/4
f 445/3/4 446/3/4 457/3/4
f 456/2/4 445/2/4 457/2/4
f 446/2/4 447/2/4 458/2/4
f 457/3/4 446/3/4 458/3/4
f 458/2/4 447/2/4 459/2/4
f 447/3/4 448/3/4 460/3/4
f 459/2/4 447/2/4 460/2/4
f 448/2/4 449/2/4 461/2/4
f 460/3/4 448/3/4 461/3/4
f 461/2/4 449/2/4 462/2/4
f 450/1/4 451/1/4 465/1/4
f 451/1/4 452/1/4 465/1/4
f 465/1/4 452/1/4 466/1/4
f 466/1/4 452/1/4 467/1/4
f 453/1/4 443/1/4 468/1/4
f 468/1/4 443/1/4 469/1/4
f 443/4/4 444/4/4 470/4/4
f 444/2/4 454/2/4 470/2/4
f 454/3/4 455/3/4 471/3/4
f 470/2/4 454/2/4 471/2/4
f 455/2/4 456/2/4 472/2/4
f 471/3/4 455/3/4 472/3/4
f 456/3/4 457/3/4 473/3/4
f 472/2/4 456/2/4 473/2/4
f 458/2/4 459/2/4 474/2/4
f 473/3/4 457/3/4 474/3/4
f 457/2/4 458/2/4 474/2/4
f 459/3/4 460/3/4 475/3/4
f 474/2/4 459/2/4 475/2/4
f 461/2/4 462/2/4 476/2/4
f 475/3/4 460/3/4 476/3/4
f 460/2/4 461/2/4 476/2/4
f 462/2/4 463/2/4 476/2/4
f 476/2/4 463/2/4 477/2/4
f 477/2/4 463/2/4 478/2/4
f 465/1/4 466/1/4 480/1/4
f 464/1/4 465/1/4 480/1/4
f 469/1/4 443/1/4 483/1/4
f 470/3/4 471/3/4 484/3/4
f 443/4/4 470/4/4 484/4/4
f 473/2/4 474/2/4 485/2/4
f 484/3/4 471/3/4 485/3/4
f 471/2/4 472/2/4 485/2/4
f 472/2/4 473/2/4 485/2/4
f 474/2/4 475/2/4 485/2/4
f 476/2/4 477/2/4 485/2/4
f 475/2/4 476/2/4 485/2/4
f 485/2/4 477/2/4 486/2/4
f 486/2/4 477/2/4 487/2/4
f 487/2/4 477/2/4 488/2/4
f 488/2/4 477/2/4 489/2/4
f 489/2/4 477/2/4 490/2/4
f 477/3/4 478/3/4 491/3/4
f 490/2/4 477/2/4 491/2/4
f 478/2/4 479/2/4 492/2/4
f 491/3/4 478/3/4 492/3/4
f 480/1/4 481/1/4 493/1/4
f 464/1/4 480/1/4 493/1/4
f 493/1/4 481/1/4 494/1/4
f 494/1/4 481/1/4 495/1/4
f 482/1/4 483/1/4 496/1/4
f 443/4/4 484/4/4 497/4/4
f 496/1/4 483/1/4 497/1/4
f 483/1/4 443/1/4 497/1/4
f 484/2/4 485/2/4 498/2/4
f 485/2/4 486/2/4 498/2/4
f 486/3/4 487/3/4 499/3/4
f 498/2/4 486/2/4 499/2/4
f 487/2/4 488/2/4 500/2/4
f 499/3/4 487/3/4 500/3/4
f 500/2/4 488/2/4 501/2/4
f 488/3/4 489/3/4 502/3/4
f 501/2/4 488/2/4 502/2/4
f 489/2/4 490/2/4 503/2/4
f 502/3/4 489/3/4 503/3/4
f 494/1/4 495/1/4 504/1/4
f 504/1/4 495/1/4 505/1/4
f 484/2/4 498/2/4 506/2/4
f 498/3/4 499/3/4 507/3/4
f 506/2/4 498/2/4 507/2/4
f 499/2/4 500/2/4 508/2/4
f 507/3/4 499/3/4 508/3/4
f 500/2/4 501/2/4 508/2/4
f 508/2/4 501/2/4 509/2/4
f 501/3/4 502/3/4 510/3/4
f 509/2/4 501/2/4 510/2/4
f 502/2/4 503/2/4 511/2/4
f 510/3/4 502/3/4 511/3/4
f 503/2/4 490/2/4 512/2/4
f 511/2/4 503/2/4 512/2/4
f 490/3/4 491/3/4 513/3/4
f 512/2/4 490/2/4 513/2/4
f 491/2/4 492/2/4 514/2/4
f 513/3/4 491/3/4 514/3/4
f 492/2/4 479/2/4 515/2/4
f 514/2/4 492/2/4 515/2/4
f 497/4/4 484/4/4 516/4/4
f 484/2/4 506/2/4 517/2/4
f 516/4/4 484/4/4 517/4/4
f 506/3/4 507/3/4 518/3/4
f 517/2/4 506/2/4 518/2/4
f 508/2/4 509/2/4 519/2/4
f 518/3/4 507/3/4 519/3/4
f 507/2/4 508/2/4 519/2/4
f 509/3/4 510/3/4 520/3/4
f 519/2/4 509/2/4 520/2/4
f 511/2/4 512/2/4 521/2/4
f 520/3/4 510/3/4 521/3/4
f 510/2/4 511/2/4 521/2/4
f 512/3/4 513/3/4 522/3/4
f 521/2/4 512/2/4 522/2/4
f 522/3/4 513/3/4 523/3/4
f 524/1/4 525/1/4 527/1/4
f 527/1/4 525/1/4 528/1/4
f 526/1/4 527/1/4 530/1/4
f 528/1/4 529/1/4 530/1/4
f 527/1/4 528/1/4 530/1/4
f 530/1/4 529/1/4 531/1/4
f 531/1/4 529/1/4 532/1/4
f 532/1/4 529/1/4 533/1/4
f 531/1/4 532/1/4 534/1/4
f 534/1/4 532/1/4 535/1/4
f 539/1/5 537/1/5 536/1/5
f 541/1/5 539/1/5 538/1/5
f 542/1/5 541/1/5 540/1/5
f 543/1/5 539/1/5 541/1/5
f 543/1/5 541/1/5 542/1/5
f 544/1/5 539/1/5 543/1/5
f 545/1/5 537/1/5 539/1/5
f 545/1/5 539/1/5 544/1/5
f 546/1/5 537/1/5 545/1/5
f 547/1/5 537/1/5 546/1/5
f 550/1/5 549/1/5 548/1/5
f 551/1/5 549/1/5 550/1/5
f 553/1/5 550/1/5 548/1/5
f 554/1/5 550/1/5 553/1/5
f 555/1/5 553/1/5 552/1/5
f 556/1/5 553/1/5 555/1/5
f 559/1/5 558/1/5 557/1/5
f 560/1/5 558/1/5 559/1/5
f 562/1/5 561/1/5 560/1/5
f 563/1/5 561/1/5 562/1/5
f 564/1/5 549/1/5 551/1/5
f 565/1/5 549/1/5 564/1/5
f 568/1/5 567/1/5 566/1/5
f 569/1/5 567/1/5 568/1/5
f 572/1/5 571/1/5 570/1/5
f 573/1/5 571/1/5 572/1/5
f 576/1/5 575/1/5 574/1/5
f 577/1/5 575/1/5 576/1/5
f 580/1/5 579/1/5 578/1/5
f 581/1/5 579/1/5 580/1/5
f 584/1/5 583/1/5 582/1/5
f 585/1/5 583/1/5 584/1/5
f 588/1/5 587/1/5 586/1/5
f 589/1/5 587/1/5 588/1/5
f 592/1/5 591/1/5 590/1/5
f 593/1/5 591/1/5 592/1/5
f 596/1/5 595/1/5 594/1/5
f 597/1/5 595/1/5 596/1/5
f 602/1/5 599/1/5 598/1/5
f 603/1/5 599/1/5 602/1/5
f 604/1/5 601/1/5 600/1/5
f 605/1/5 601/1/5 604/1/5
f 611/4/5 607/4/5 606/4/5
f 612/4/5 607/4/5 611/4/5
f 613/4/5 609/4/5 608/4/5
f 615/4/5 611/4/5 610/4/5
f 616/4/5 611/4/5 615/4/5
f 617/4/5 614/4/5 613/4/5
f 617/4/5 613/4/5 608/4/5
f 618/4/5 614/4/5 617/4/5
f 619/1/6 620/1/6 621/1/6
f 621/1/6 620/1/6 622/1/6
f 623/1/6 624/1/6 627/1/6
f 627/1/6 624/1/6 628/1/6
f 625/1/6 626/1/6 629/1/6
f 629/1/6 626/1/6 630/1/6
f 631/1/6 632/1/6 633/1/6
f 633/1/6 632/1/6 634/1/6
f 635/1/6 636/1/6 637/1/6
f 637/1/6 636/1/6 638/1/6
f 639/1/6 640/1/6 641/1/6
f 641/1/6 640/1/6 642/1/6
f 643/3/6 644/3/6 645/3/6
f 645/3/6 644/3/6 646/3/6
f 647/2/6 648/2/6 649/2/6
f 649/2/6 648/2/6 650/2/6
f 651/3/6 652/3/6 653/3/6
f 653/3/6 652/3/6 654/3/6
f 653/2/6 654/2/6 655/2/6
f 655/2/6 654/2/6 656/2/6
f 657/3/6 658/3/6 659/3/6
f 659/3/6 658/3/6 660/3/6
f 661/2/6 662/2/6 663/2/6
f 663/2/6 662/2/6 664/2/6
f 665/2/6 666/2/6 667/2/6
f 667/2/6 666/2/6 668/2/6
f 669/2/6 670/2/6 672/2/6
f 672/2/6 670/2/6 673/2/6
f 671/2/6 672/2/6 674/2/6
f 674/2/6 672/2/6 675/2/6
f 675/2/6 676/2/6 677/2/6
f 677/2/6 676/2/6 678/2/6
f 679/2/6 680/2/6 682/2/6
f 682/2/6 680/2/6 683/2/6
f 681/2/6 682/2/6 684/2/6
f 684/2/6 682/2/6 685/2/6
f 685/2/6 686/2/6 687/2/6
f 687/2/6 686/2/6 688/2/6
f 689/2/6 690/2/6 691/2/6
f 691/2/6 690/2/6 692/2/6
