# MagicaVoxel @ Ephtracy

# group
o 

# material
mtllib enemiestrella-0.mtl
usemtl palette

# normals
vn -1 0 0
vn 1 0 0
vn 0 0 1
vn 0 0 -1
vn 0 -1 0
vn 0 1 0

# texcoords
vt 0.0722656 0.5
vt 0.0996094 0.5

# verts
v 0.9 1.2 -7.2
v 0.9 1.2 -7.3
v 0.9 1.2 -7.4
v 0.9 1.3 -7.2
v 0.9 1.3 -7.3
v 0.9 1.5 -6.8
v 0.9 1.5 -7.2
v 0.9 1.5 -7.3
v 0.9 1.5 -7.4
v 0.9 1.5 -7.8
v 0.9 1.7 -6.8
v 0.9 1.7 -6.9
v 0.9 1.7 -7
v 0.9 1.7 -7.2
v 0.9 1.7 -7.4
v 0.9 1.7 -7.6
v 0.9 1.7 -7.7
v 0.9 1.8 -7.7
v 0.9 1.8 -7.8
v 0.9 1.9 -6.8
v 0.9 1.9 -6.9
v 0.9 1.9 -7.6
v 0.9 1.9 -7.7
v 0.9 1.9 -7.8
v 0.9 2 -6.9
v 0.9 2 -7
v 0.9 2 -7.6
v 0.9 2 -7.7
v 0.9 2.1 -7.2
v 0.9 2.1 -7.3
v 0.9 2.1 -7.4
v 0.9 2.2 -6.8
v 0.9 2.2 -6.9
v 0.9 2.2 -7.7
v 0.9 2.2 -7.8
v 0.9 2.5 -6.8
v 0.9 2.5 -6.9
v 1 -1.6 -7.2
v 1 -1.6 -7.4
v 1 -1.5 -7.2
v 1 -1.5 -7.4
v 1 -1.4 -7.2
v 1 -1.4 -7.4
v 1 -1.2 -7.3
v 1 -1.2 -7.4
v 1 -0.9 -7.3
v 1 -0.9 -7.4
v 1 -0.8 -7.3
v 1 -0.8 -7.4
v 1 -0.3 -7.3
v 1 -0.3 -7.4
v 1 0.1 -7.3
v 1 0.1 -7.4
v 1 0.5 -7.3
v 1 0.5 -7.4
v 1 0.8 -7.3
v 1 0.8 -7.4
v 1 1.2 -7.2
v 1 1.2 -7.3
v 1 1.2 -7.4
v 1 2.1 -7.2
v 1 2.1 -7.3
v 1 2.1 -7.4
v 1 2.2 -7.3
v 1 2.2 -7.4
v 1 2.2 -7.7
v 1 2.2 -7.8
v 1 2.4 -7.2
v 1 2.4 -7.3
v 1 2.4 -7.4
v 1 2.5 -7.7
v 1 2.5 -7.8
v 1 2.8 -7.3
v 1 2.8 -7.4
v 1.2 1.6 -7.7
v 1.2 1.6 -7.8
v 1.2 1.7 -7.7
v 1.2 1.7 -7.8
v 1.1 1.6 -7.7
v 1.1 1.6 -7.8
v 1.1 1.7 -7.7
v 1.1 1.8 -7.7
v 1.1 1.8 -7.8
v 1.2 -1.6 -7.2
v 1.2 -1.6 -7.4
v 1.2 -1.5 -7.2
v 1.2 -1.5 -7.3
v 1.2 -1.4 -7.2
v 1.2 -1.4 -7.3
v 1.2 -1.2 -7.2
v 1.2 -1.2 -7.3
v 1.2 -0.6 -7.2
v 1.2 -0.6 -7.3
v 1.2 -0.5 -7.2
v 1.2 -0.5 -7.3
v 1.2 0 -7.2
v 1.2 0 -7.3
v 1.2 0.1 -7.2
v 1.2 0.1 -7.3
v 1.2 0.7 -7.2
v 1.2 0.7 -7.3
v 1.2 0.8 -7.2
v 1.2 0.8 -7.4
v 1.2 1 -7.2
v 1.2 1 -7.3
v 1.2 1.1 -7.2
v 1.2 1.1 -7.3
v 1.2 1.2 -7.2
v 1.2 1.2 -7.4
v 1.2 2.1 -7.2
v 1.2 2.1 -7.3
v 1.2 2.1 -7.4
v 1.2 2.2 -7.3
v 1.2 2.2 -7.4
v 1.2 2.2 -7.7
v 1.2 2.2 -7.8
v 1.2 2.4 -7.2
v 1.2 2.4 -7.3
v 1.2 2.4 -7.4
v 1.2 2.5 -7.7
v 1.2 2.5 -7.8
v 1.2 2.8 -7.3
v 1.2 2.8 -7.4
v 1.3 1.2 -7.2
v 1.3 1.2 -7.4
v 1.3 1.3 -7.3
v 1.3 1.3 -7.4
v 1.3 1.4 -7.2
v 1.3 1.4 -7.3
v 1.3 1.5 -6.8
v 1.3 1.5 -7.2
v 1.3 1.5 -7.3
v 1.3 1.5 -7.4
v 1.3 1.5 -7.5
v 1.3 1.5 -7.8
v 1.3 1.7 -6.8
v 1.3 1.7 -6.9
v 1.3 1.7 -7
v 1.3 1.7 -7.2
v 1.3 1.7 -7.4
v 1.3 1.7 -7.5
v 1.3 1.7 -7.6
v 1.3 1.7 -7.7
v 1.3 1.7 -7.8
v 1.3 1.8 -6.9
v 1.3 1.8 -7
v 1.3 1.9 -6.8
v 1.3 1.9 -6.9
v 1.3 1.9 -7.3
v 1.3 1.9 -7.4
v 1.3 1.9 -7.7
v 1.3 1.9 -7.8
v 1.3 2 -6.9
v 1.3 2 -7
v 1.3 2 -7.3
v 1.3 2 -7.4
v 1.3 2 -7.6
v 1.3 2 -7.7
v 1.3 2.1 -7.2
v 1.3 2.1 -7.3
v 1.3 2.1 -7.4
v 1.3 2.2 -6.8
v 1.3 2.2 -6.9
v 1.3 2.2 -7.7
v 1.3 2.2 -7.8
v 1.3 2.5 -6.8
v 1.3 2.5 -6.9
v 0.9 1.5 -6.8
v 0.9 1.7 -6.8
v 0.9 1.9 -6.8
v 0.9 2.2 -6.8
v 0.9 2.5 -6.8
v 1 1.5 -6.8
v 1 1.7 -6.8
v 1 1.9 -6.8
v 1 2.1 -6.8
v 1.1 1.5 -6.8
v 1.1 1.7 -6.8
v 1.2 1.9 -6.8
v 1.2 2.1 -6.8
v 1.3 1.5 -6.8
v 1.3 1.7 -6.8
v 1.3 1.9 -6.8
v 1.3 2.2 -6.8
v 1.3 2.5 -6.8
v 0.9 1.7 -6.9
v 0.9 1.9 -6.9
v 1 1.7 -6.9
v 1 1.9 -6.9
v 1.1 1.7 -6.9
v 1.2 1.7 -6.9
v 1.2 1.8 -6.9
v 1.2 1.9 -6.9
v 1.3 1.7 -6.9
v 1.3 1.8 -6.9
v 1.3 1.9 -6.9
v 0.9 1.2 -7.2
v 0.9 1.3 -7.2
v 0.9 1.5 -7.2
v 0.9 1.7 -7.2
v 0.9 2.1 -7.2
v 1 -1.6 -7.2
v 1 -1.5 -7.2
v 1 -1.4 -7.2
v 1 1.2 -7.2
v 1 2.1 -7.2
v 1 2.4 -7.2
v 1.1 -1.2 -7.2
v 1.1 -0.6 -7.2
v 1.1 -0.5 -7.2
v 1.1 0 -7.2
v 1.1 0.1 -7.2
v 1.1 0.7 -7.2
v 1.1 0.8 -7.2
v 1.1 1 -7.2
v 1.1 1.1 -7.2
v 1.1 1.3 -7.2
v 1.1 1.4 -7.2
v 1.1 1.5 -7.2
v 1.2 -1.6 -7.2
v 1.2 -1.5 -7.2
v 1.2 -1.4 -7.2
v 1.2 -1.2 -7.2
v 1.2 -0.6 -7.2
v 1.2 -0.5 -7.2
v 1.2 0 -7.2
v 1.2 0.1 -7.2
v 1.2 0.7 -7.2
v 1.2 0.8 -7.2
v 1.2 1 -7.2
v 1.2 1.1 -7.2
v 1.2 1.2 -7.2
v 1.2 2.1 -7.2
v 1.2 2.4 -7.2
v 1.3 1.2 -7.2
v 1.3 1.4 -7.2
v 1.3 1.5 -7.2
v 1.3 1.7 -7.2
v 1.3 2.1 -7.2
v 1 2.4 -7.3
v 1 2.8 -7.3
v 1.2 2.4 -7.3
v 1.2 2.8 -7.3
v 0.9 1.7 -7.6
v 0.9 1.9 -7.6
v 0.9 2 -7.6
v 1.2 1.7 -7.6
v 1.2 1.9 -7.6
v 1.3 1.7 -7.6
v 1.3 2 -7.6
v 0.9 2 -7.7
v 0.9 2.2 -7.7
v 1 2 -7.7
v 1 2.2 -7.7
v 1 2.5 -7.7
v 1.2 2 -7.7
v 1.2 2.2 -7.7
v 1.2 2.5 -7.7
v 1.3 2 -7.7
v 1.3 2.2 -7.7
v 0.9 2 -6.9
v 0.9 2.2 -6.9
v 0.9 2.5 -6.9
v 1 2 -6.9
v 1 2.1 -6.9
v 1.2 2 -6.9
v 1.2 2.1 -6.9
v 1.3 2 -6.9
v 1.3 2.2 -6.9
v 1.3 2.5 -6.9
v 0.9 1.7 -7
v 0.9 2 -7
v 1 1.7 -7
v 1 2 -7
v 1.2 1.7 -7
v 1.2 1.8 -7
v 1.3 1.7 -7
v 1.3 1.8 -7
v 1.3 2 -7
v 0.9 1.2 -7.4
v 0.9 1.5 -7.4
v 0.9 1.7 -7.4
v 0.9 2.1 -7.4
v 1 -1.6 -7.4
v 1 -1.5 -7.4
v 1 -1.4 -7.4
v 1 -1.2 -7.4
v 1 -0.9 -7.4
v 1 -0.8 -7.4
v 1 -0.3 -7.4
v 1 0.1 -7.4
v 1 0.5 -7.4
v 1 0.8 -7.4
v 1 1.2 -7.4
v 1 1.3 -7.4
v 1 1.5 -7.4
v 1 2.1 -7.4
v 1 2.2 -7.4
v 1 2.4 -7.4
v 1 2.8 -7.4
v 1.1 -1.5 -7.4
v 1.1 -1.4 -7.4
v 1.1 -1.2 -7.4
v 1.1 -0.9 -7.4
v 1.1 -0.8 -7.4
v 1.1 -0.3 -7.4
v 1.1 0.1 -7.4
v 1.1 0.5 -7.4
v 1.1 1.8 -7.4
v 1.1 2.1 -7.4
v 1.2 -1.6 -7.4
v 1.2 0.8 -7.4
v 1.2 1.2 -7.4
v 1.2 1.8 -7.4
v 1.2 1.9 -7.4
v 1.2 2 -7.4
v 1.2 2.1 -7.4
v 1.2 2.2 -7.4
v 1.2 2.4 -7.4
v 1.2 2.8 -7.4
v 1.3 1.2 -7.4
v 1.3 1.3 -7.4
v 1.3 1.5 -7.4
v 1.3 1.7 -7.4
v 1.3 1.9 -7.4
v 1.3 2 -7.4
v 1.3 2.1 -7.4
v 0.9 1.8 -7.7
v 0.9 1.9 -7.7
v 1 1.9 -7.7
v 1.1 1.6 -7.7
v 1.1 1.7 -7.7
v 1.1 1.8 -7.7
v 1.2 1.6 -7.7
v 1.2 1.7 -7.7
v 1.2 1.9 -7.7
v 1.3 1.7 -7.7
v 1.3 1.9 -7.7
v 0.9 1.5 -7.8
v 0.9 1.8 -7.8
v 0.9 1.9 -7.8
v 0.9 2.2 -7.8
v 1 1.9 -7.8
v 1 2.2 -7.8
v 1 2.5 -7.8
v 1.1 1.6 -7.8
v 1.1 1.8 -7.8
v 1.2 1.5 -7.8
v 1.2 1.6 -7.8
v 1.2 1.7 -7.8
v 1.2 1.9 -7.8
v 1.2 2.2 -7.8
v 1.2 2.5 -7.8
v 1.3 1.5 -7.8
v 1.3 1.7 -7.8
v 1.3 1.9 -7.8
v 1.3 2.2 -7.8
v 1 -1.6 -7.2
v 1.2 -1.6 -7.2
v 1 -1.6 -7.4
v 1.2 -1.6 -7.4
v 0.9 1.2 -7.2
v 1 1.2 -7.2
v 1.2 1.2 -7.2
v 1.3 1.2 -7.2
v 0.9 1.2 -7.3
v 1 1.2 -7.3
v 0.9 1.2 -7.4
v 1 1.2 -7.4
v 1.2 1.2 -7.4
v 1.3 1.2 -7.4
v 0.9 1.5 -6.8
v 1 1.5 -6.8
v 1.1 1.5 -6.8
v 1.3 1.5 -6.8
v 1 1.5 -6.9
v 1.1 1.5 -6.9
v 0.9 1.5 -7.2
v 1.1 1.5 -7.2
v 1.3 1.5 -7.2
v 0.9 1.5 -7.4
v 1 1.5 -7.4
v 1.3 1.5 -7.4
v 1.2 1.5 -7.5
v 1.3 1.5 -7.5
v 0.9 1.5 -7.8
v 1.2 1.5 -7.8
v 1.3 1.5 -7.8
v 0.9 1.9 -6.8
v 1 1.9 -6.8
v 1.2 1.9 -6.8
v 1.3 1.9 -6.8
v 0.9 1.9 -6.9
v 1 1.9 -6.9
v 1.2 1.9 -6.9
v 1.3 1.9 -6.9
v 0.9 1.9 -7.7
v 1 1.9 -7.7
v 1.2 1.9 -7.7
v 1.3 1.9 -7.7
v 0.9 1.9 -7.8
v 1 1.9 -7.8
v 1.2 1.9 -7.8
v 1.3 1.9 -7.8
v 1.1 1.6 -7.7
v 1.2 1.6 -7.7
v 1.1 1.6 -7.8
v 1.2 1.6 -7.8
v 0.9 1.7 -6.8
v 1 1.7 -6.8
v 1.1 1.7 -6.8
v 1.3 1.7 -6.8
v 0.9 1.7 -6.9
v 1 1.7 -6.9
v 1.1 1.7 -6.9
v 1.2 1.7 -6.9
v 1.3 1.7 -6.9
v 0.9 1.7 -7
v 1 1.7 -7
v 1.2 1.7 -7
v 1.3 1.7 -7
v 0.9 1.7 -7.2
v 1.3 1.7 -7.2
v 0.9 1.7 -7.4
v 1.3 1.7 -7.4
v 1.2 1.7 -7.5
v 1.3 1.7 -7.5
v 0.9 1.7 -7.6
v 1.2 1.7 -7.6
v 1.3 1.7 -7.6
v 1.2 1.7 -7.7
v 1.3 1.7 -7.7
v 1.2 1.7 -7.8
v 1.3 1.7 -7.8
v 0.9 1.8 -7.7
v 1.1 1.8 -7.7
v 0.9 1.8 -7.8
v 1.1 1.8 -7.8
v 0.9 2 -6.9
v 1 2 -6.9
v 1.2 2 -6.9
v 1.3 2 -6.9
v 0.9 2 -7
v 1 2 -7
v 1.3 2 -7
v 0.9 2 -7.6
v 1.3 2 -7.6
v 0.9 2 -7.7
v 1 2 -7.7
v 1.2 2 -7.7
v 1.3 2 -7.7
v 0.9 2.1 -7.2
v 1 2.1 -7.2
v 1.2 2.1 -7.2
v 1.3 2.1 -7.2
v 0.9 2.1 -7.3
v 1 2.1 -7.3
v 1.2 2.1 -7.3
v 1.3 2.1 -7.3
v 0.9 2.1 -7.4
v 1 2.1 -7.4
v 1.2 2.1 -7.4
v 1.3 2.1 -7.4
v 0.9 2.2 -7.7
v 1 2.2 -7.7
v 1.2 2.2 -7.7
v 1.3 2.2 -7.7
v 0.9 2.2 -7.8
v 1 2.2 -7.8
v 1.2 2.2 -7.8
v 1.3 2.2 -7.8
v 1 2.4 -7.2
v 1.2 2.4 -7.2
v 1 2.4 -7.3
v 1.2 2.4 -7.3
v 0.9 2.5 -6.8
v 1.3 2.5 -6.8
v 0.9 2.5 -6.9
v 1.3 2.5 -6.9
v 1 2.5 -7.7
v 1.2 2.5 -7.7
v 1 2.5 -7.8
v 1.2 2.5 -7.8
v 1 2.8 -7.3
v 1.2 2.8 -7.3
v 1 2.8 -7.4
v 1.2 2.8 -7.4

# faces
f 4/2/1 2/2/1 1/2/1
f 5/1/1 3/1/1 2/1/1
f 5/2/1 2/2/1 4/2/1
f 7/1/1 5/1/1 4/1/1
f 8/1/1 3/1/1 5/1/1
f 8/1/1 5/1/1 7/1/1
f 9/1/1 3/1/1 8/1/1
f 11/1/1 7/1/1 6/1/1
f 12/1/1 7/1/1 11/1/1
f 13/1/1 7/1/1 12/1/1
f 14/2/1 8/2/1 7/2/1
f 14/1/1 7/1/1 13/1/1
f 15/1/1 10/1/1 9/1/1
f 15/1/1 9/1/1 8/1/1
f 16/1/1 10/1/1 15/1/1
f 17/1/1 10/1/1 16/1/1
f 18/1/1 10/1/1 17/1/1
f 18/2/1 17/2/1 16/2/1
f 19/1/1 10/1/1 18/1/1
f 21/1/1 13/1/1 12/1/1
f 22/2/1 18/2/1 16/2/1
f 23/2/1 18/2/1 22/2/1
f 25/1/1 21/1/1 20/1/1
f 25/1/1 13/1/1 21/1/1
f 26/1/1 13/1/1 25/1/1
f 27/1/1 24/1/1 23/1/1
f 27/1/1 23/1/1 22/1/1
f 28/1/1 24/1/1 27/1/1
f 29/2/1 8/2/1 14/2/1
f 30/1/1 15/1/1 8/1/1
f 30/2/1 8/2/1 29/2/1
f 31/1/1 15/1/1 30/1/1
f 32/1/1 25/1/1 20/1/1
f 33/1/1 25/1/1 32/1/1
f 34/1/1 24/1/1 28/1/1
f 35/1/1 24/1/1 34/1/1
f 36/2/1 33/2/1 32/2/1
f 37/2/1 33/2/1 36/2/1
f 40/2/1 39/2/1 38/2/1
f 41/2/1 39/2/1 40/2/1
f 42/1/1 41/1/1 40/1/1
f 43/1/1 41/1/1 42/1/1
f 44/2/1 43/2/1 42/2/1
f 45/2/1 43/2/1 44/2/1
f 46/2/1 44/2/1 42/2/1
f 46/1/1 45/1/1 44/1/1
f 47/1/1 45/1/1 46/1/1
f 48/2/1 46/2/1 42/2/1
f 48/2/1 47/2/1 46/2/1
f 49/2/1 47/2/1 48/2/1
f 50/2/1 48/2/1 42/2/1
f 50/1/1 49/1/1 48/1/1
f 51/1/1 49/1/1 50/1/1
f 52/2/1 50/2/1 42/2/1
f 52/2/1 51/2/1 50/2/1
f 53/2/1 51/2/1 52/2/1
f 54/2/1 52/2/1 42/2/1
f 54/1/1 53/1/1 52/1/1
f 55/1/1 53/1/1 54/1/1
f 56/2/1 54/2/1 42/2/1
f 56/2/1 55/2/1 54/2/1
f 57/2/1 55/2/1 56/2/1
f 58/2/1 56/2/1 42/2/1
f 59/1/1 57/1/1 56/1/1
f 59/2/1 56/2/1 58/2/1
f 60/1/1 57/1/1 59/1/1
f 64/2/1 62/2/1 61/2/1
f 64/2/1 63/2/1 62/2/1
f 65/2/1 63/2/1 64/2/1
f 68/2/1 64/2/1 61/2/1
f 69/1/1 65/1/1 64/1/1
f 69/2/1 64/2/1 68/2/1
f 70/1/1 65/1/1 69/1/1
f 71/2/1 67/2/1 66/2/1
f 72/2/1 67/2/1 71/2/1
f 73/2/1 70/2/1 69/2/1
f 74/2/1 70/2/1 73/2/1
f 77/2/1 76/2/1 75/2/1
f 78/2/1 76/2/1 77/2/1
f 79/1/2 80/1/2 81/1/2
f 81/1/2 80/1/2 82/1/2
f 82/1/2 80/1/2 83/1/2
f 84/2/2 85/2/2 86/2/2
f 86/2/2 85/2/2 87/2/2
f 86/1/2 87/1/2 88/1/2
f 87/2/2 85/2/2 89/2/2
f 88/1/2 87/1/2 89/1/2
f 88/2/2 89/2/2 90/2/2
f 89/2/2 85/2/2 91/2/2
f 90/2/2 89/2/2 91/2/2
f 90/1/2 91/1/2 92/1/2
f 91/2/2 85/2/2 93/2/2
f 92/1/2 91/1/2 93/1/2
f 92/2/2 93/2/2 94/2/2
f 93/2/2 85/2/2 95/2/2
f 94/2/2 93/2/2 95/2/2
f 94/1/2 95/1/2 96/1/2
f 95/2/2 85/2/2 97/2/2
f 96/1/2 95/1/2 97/1/2
f 96/2/2 97/2/2 98/2/2
f 97/2/2 85/2/2 99/2/2
f 98/2/2 97/2/2 99/2/2
f 98/1/2 99/1/2 100/1/2
f 99/2/2 85/2/2 101/2/2
f 100/1/2 99/1/2 101/1/2
f 100/2/2 101/2/2 102/2/2
f 101/2/2 85/2/2 103/2/2
f 102/2/2 101/2/2 103/2/2
f 102/1/2 103/1/2 104/1/2
f 104/1/2 103/1/2 105/1/2
f 104/2/2 105/2/2 106/2/2
f 105/1/2 103/1/2 107/1/2
f 106/2/2 105/2/2 107/2/2
f 106/1/2 107/1/2 108/1/2
f 107/1/2 103/1/2 109/1/2
f 108/1/2 107/1/2 109/1/2
f 110/2/2 111/2/2 113/2/2
f 111/2/2 112/2/2 113/2/2
f 113/2/2 112/2/2 114/2/2
f 110/2/2 113/2/2 117/2/2
f 113/1/2 114/1/2 118/1/2
f 117/2/2 113/2/2 118/2/2
f 118/1/2 114/1/2 119/1/2
f 115/2/2 116/2/2 120/2/2
f 120/2/2 116/2/2 121/2/2
f 118/2/2 119/2/2 122/2/2
f 122/2/2 119/2/2 123/2/2
f 124/1/2 125/1/2 126/1/2
f 126/1/2 125/1/2 127/1/2
f 124/1/2 126/1/2 128/1/2
f 126/2/2 127/2/2 129/2/2
f 128/1/2 126/1/2 129/1/2
f 128/2/2 129/2/2 131/2/2
f 129/2/2 127/2/2 132/2/2
f 131/2/2 129/2/2 132/2/2
f 132/2/2 127/2/2 133/2/2
f 130/1/2 131/1/2 136/1/2
f 136/1/2 131/1/2 137/1/2
f 137/1/2 131/1/2 138/1/2
f 131/2/2 132/2/2 139/2/2
f 138/1/2 131/1/2 139/1/2
f 132/1/2 133/1/2 140/1/2
f 133/1/2 134/1/2 140/1/2
f 134/2/2 135/2/2 141/2/2
f 140/1/2 134/1/2 141/1/2
f 141/2/2 135/2/2 142/2/2
f 142/2/2 135/2/2 143/2/2
f 143/2/2 135/2/2 144/2/2
f 137/1/2 138/1/2 145/1/2
f 145/1/2 138/1/2 146/1/2
f 145/2/2 146/2/2 148/2/2
f 139/2/2 132/2/2 149/2/2
f 132/1/2 140/1/2 149/1/2
f 149/1/2 140/1/2 150/1/2
f 142/1/2 143/1/2 151/1/2
f 147/1/2 148/1/2 153/1/2
f 148/2/2 146/2/2 153/2/2
f 153/2/2 146/2/2 154/2/2
f 149/2/2 150/2/2 155/2/2
f 139/2/2 149/2/2 155/2/2
f 155/2/2 150/2/2 156/2/2
f 151/1/2 152/1/2 157/1/2
f 142/1/2 151/1/2 157/1/2
f 157/1/2 152/1/2 158/1/2
f 139/2/2 155/2/2 159/2/2
f 155/1/2 156/1/2 160/1/2
f 159/2/2 155/2/2 160/2/2
f 160/1/2 156/1/2 161/1/2
f 147/1/2 153/1/2 162/1/2
f 162/1/2 153/1/2 163/1/2
f 158/1/2 152/1/2 164/1/2
f 164/1/2 152/1/2 165/1/2
f 162/2/2 163/2/2 166/2/2
f 166/2/2 163/2/2 167/2/2
f 173/1/3 169/1/3 168/1/3
f 174/1/3 169/1/3 173/1/3
f 175/1/3 171/1/3 170/1/3
f 176/1/3 171/1/3 175/1/3
f 177/2/3 174/2/3 173/2/3
f 178/2/3 174/2/3 177/2/3
f 179/2/3 176/2/3 175/2/3
f 180/1/3 171/1/3 176/1/3
f 180/2/3 176/2/3 179/2/3
f 181/1/3 178/1/3 177/1/3
f 182/1/3 178/1/3 181/1/3
f 183/1/3 180/1/3 179/1/3
f 184/2/3 172/2/3 171/2/3
f 184/1/3 180/1/3 183/1/3
f 184/1/3 171/1/3 180/1/3
f 185/2/3 172/2/3 184/2/3
f 188/1/3 187/1/3 186/1/3
f 189/1/3 187/1/3 188/1/3
f 190/2/3 189/2/3 188/2/3
f 191/2/3 189/2/3 190/2/3
f 192/2/3 189/2/3 191/2/3
f 193/2/3 189/2/3 192/2/3
f 194/1/3 192/1/3 191/1/3
f 195/2/3 193/2/3 192/2/3
f 195/1/3 192/1/3 194/1/3
f 196/2/3 193/2/3 195/2/3
f 205/2/3 198/2/3 197/2/3
f 206/2/3 201/2/3 200/2/3
f 208/2/3 205/2/3 204/2/3
f 209/2/3 205/2/3 208/2/3
f 210/2/3 205/2/3 209/2/3
f 211/2/3 205/2/3 210/2/3
f 212/2/3 205/2/3 211/2/3
f 213/2/3 205/2/3 212/2/3
f 214/2/3 205/2/3 213/2/3
f 215/2/3 205/2/3 214/2/3
f 216/2/3 205/2/3 215/2/3
f 217/1/3 199/1/3 198/1/3
f 217/2/3 205/2/3 216/2/3
f 217/2/3 198/2/3 205/2/3
f 218/1/3 199/1/3 217/1/3
f 219/1/3 199/1/3 218/1/3
f 220/2/3 203/2/3 202/2/3
f 221/1/3 204/1/3 203/1/3
f 221/2/3 203/2/3 220/2/3
f 222/2/3 208/2/3 204/2/3
f 222/1/3 204/1/3 221/1/3
f 223/1/3 209/1/3 208/1/3
f 223/2/3 208/2/3 222/2/3
f 224/2/3 210/2/3 209/2/3
f 224/1/3 209/1/3 223/1/3
f 225/1/3 211/1/3 210/1/3
f 225/2/3 210/2/3 224/2/3
f 226/2/3 212/2/3 211/2/3
f 226/1/3 211/1/3 225/1/3
f 227/1/3 213/1/3 212/1/3
f 227/2/3 212/2/3 226/2/3
f 228/2/3 214/2/3 213/2/3
f 228/1/3 213/1/3 227/1/3
f 229/1/3 215/1/3 214/1/3
f 229/2/3 214/2/3 228/2/3
f 230/2/3 216/2/3 215/2/3
f 230/1/3 215/1/3 229/1/3
f 231/1/3 217/1/3 216/1/3
f 231/2/3 216/2/3 230/2/3
f 231/1/3 218/1/3 217/1/3
f 232/1/3 218/1/3 231/1/3
f 233/2/3 207/2/3 206/2/3
f 233/2/3 206/2/3 200/2/3
f 234/2/3 207/2/3 233/2/3
f 235/1/3 218/1/3 232/1/3
f 236/2/3 219/2/3 218/2/3
f 236/1/3 218/1/3 235/1/3
f 237/2/3 219/2/3 236/2/3
f 238/2/3 233/2/3 200/2/3
f 239/2/3 233/2/3 238/2/3
f 242/2/3 241/2/3 240/2/3
f 243/2/3 241/2/3 242/2/3
f 247/2/3 245/2/3 244/2/3
f 248/1/3 246/1/3 245/1/3
f 248/2/3 245/2/3 247/2/3
f 249/1/3 248/1/3 247/1/3
f 250/1/3 246/1/3 248/1/3
f 250/1/3 248/1/3 249/1/3
f 253/1/3 252/1/3 251/1/3
f 254/1/3 252/1/3 253/1/3
f 256/2/3 254/2/3 253/2/3
f 256/2/3 255/2/3 254/2/3
f 257/2/3 255/2/3 256/2/3
f 258/2/3 255/2/3 257/2/3
f 259/1/3 257/1/3 256/1/3
f 260/1/3 257/1/3 259/1/3
f 261/1/4 262/1/4 264/1/4
f 264/1/4 262/1/4 265/1/4
f 264/2/4 265/2/4 266/2/4
f 265/1/4 262/1/4 267/1/4
f 266/2/4 265/2/4 267/2/4
f 266/1/4 267/1/4 268/1/4
f 262/2/4 263/2/4 269/2/4
f 268/1/4 267/1/4 269/1/4
f 267/1/4 262/1/4 269/1/4
f 269/2/4 263/2/4 270/2/4
f 271/1/4 272/1/4 273/1/4
f 273/1/4 272/1/4 274/1/4
f 273/2/4 274/2/4 275/2/4
f 275/2/4 274/2/4 276/2/4
f 275/1/4 276/1/4 277/1/4
f 276/2/4 274/2/4 278/2/4
f 277/1/4 276/1/4 278/1/4
f 278/2/4 274/2/4 279/2/4
f 280/1/4 281/1/4 294/1/4
f 294/1/4 281/1/4 295/1/4
f 295/1/4 281/1/4 296/1/4
f 282/1/4 283/1/4 297/1/4
f 284/2/4 285/2/4 301/2/4
f 285/1/4 286/1/4 301/1/4
f 286/2/4 287/2/4 302/2/4
f 301/1/4 286/1/4 302/1/4
f 287/1/4 288/1/4 303/1/4
f 302/2/4 287/2/4 303/2/4
f 288/2/4 289/2/4 304/2/4
f 303/1/4 288/1/4 304/1/4
f 289/1/4 290/1/4 305/1/4
f 304/2/4 289/2/4 305/2/4
f 290/2/4 291/2/4 306/2/4
f 305/1/4 290/1/4 306/1/4
f 291/1/4 292/1/4 307/1/4
f 306/2/4 291/2/4 307/2/4
f 292/2/4 293/2/4 308/2/4
f 307/1/4 292/1/4 308/1/4
f 282/1/4 297/1/4 309/1/4
f 297/2/4 298/2/4 310/2/4
f 309/1/4 297/1/4 310/1/4
f 306/2/4 307/2/4 311/2/4
f 284/2/4 301/2/4 311/2/4
f 301/2/4 302/2/4 311/2/4
f 307/2/4 308/2/4 311/2/4
f 302/2/4 303/2/4 311/2/4
f 303/2/4 304/2/4 311/2/4
f 304/2/4 305/2/4 311/2/4
f 305/2/4 306/2/4 311/2/4
f 308/2/4 293/2/4 312/2/4
f 311/2/4 308/2/4 312/2/4
f 294/1/4 295/1/4 312/1/4
f 293/1/4 294/1/4 312/1/4
f 312/1/4 295/1/4 313/1/4
f 309/2/4 310/2/4 314/2/4
f 282/1/4 309/1/4 314/1/4
f 314/2/4 310/2/4 315/2/4
f 315/2/4 310/2/4 316/2/4
f 310/2/4 298/2/4 317/2/4
f 316/2/4 310/2/4 317/2/4
f 298/1/4 299/1/4 318/1/4
f 317/2/4 298/2/4 318/2/4
f 299/2/4 300/2/4 319/2/4
f 318/1/4 299/1/4 319/1/4
f 319/2/4 300/2/4 320/2/4
f 313/1/4 295/1/4 321/1/4
f 295/2/4 296/2/4 322/2/4
f 321/1/4 295/1/4 322/1/4
f 322/2/4 296/2/4 323/2/4
f 314/1/4 315/1/4 324/1/4
f 282/1/4 314/1/4 324/1/4
f 315/2/4 316/2/4 325/2/4
f 324/1/4 315/1/4 325/1/4
f 316/1/4 317/1/4 326/1/4
f 325/2/4 316/2/4 326/2/4
f 326/1/4 317/1/4 327/1/4
f 328/2/4 329/2/4 330/2/4
f 328/2/4 330/2/4 333/2/4
f 331/1/4 332/1/4 334/1/4
f 332/2/4 333/2/4 335/2/4
f 334/1/4 332/1/4 335/1/4
f 333/2/4 330/2/4 336/2/4
f 335/2/4 333/2/4 336/2/4
f 335/1/4 336/1/4 337/1/4
f 337/1/4 336/1/4 338/1/4
f 341/1/4 342/1/4 343/1/4
f 343/1/4 342/1/4 344/1/4
f 339/1/4 340/1/4 346/1/4
f 346/1/4 340/1/4 347/1/4
f 339/1/4 346/1/4 348/1/4
f 348/1/4 346/1/4 349/1/4
f 344/2/4 345/2/4 351/2/4
f 343/2/4 344/2/4 351/2/4
f 351/2/4 345/2/4 352/2/4
f 352/2/4 345/2/4 353/2/4
f 349/2/4 350/2/4 354/2/4
f 348/2/4 349/2/4 354/2/4
f 354/2/4 350/2/4 355/2/4
f 351/1/4 352/1/4 356/1/4
f 356/1/4 352/1/4 357/1/4
f 360/2/5 359/2/5 358/2/5
f 361/2/5 359/2/5 360/2/5
f 366/2/5 363/2/5 362/2/5
f 367/2/5 363/2/5 366/2/5
f 368/1/5 367/1/5 366/1/5
f 369/1/5 367/1/5 368/1/5
f 370/1/5 365/1/5 364/1/5
f 371/1/5 365/1/5 370/1/5
f 376/1/5 373/1/5 372/1/5
f 376/2/5 374/2/5 373/2/5
f 377/1/5 375/1/5 374/1/5
f 377/2/5 374/2/5 376/2/5
f 378/1/5 376/1/5 372/1/5
f 378/1/5 377/1/5 376/1/5
f 379/1/5 375/1/5 377/1/5
f 379/1/5 377/1/5 378/1/5
f 380/1/5 375/1/5 379/1/5
f 384/1/5 382/1/5 381/1/5
f 384/1/5 383/1/5 382/1/5
f 385/1/5 383/1/5 384/1/5
f 386/1/5 384/1/5 381/1/5
f 387/2/5 385/2/5 384/2/5
f 387/1/5 384/1/5 386/1/5
f 388/2/5 385/2/5 387/2/5
f 393/1/5 390/1/5 389/1/5
f 394/2/5 391/2/5 390/2/5
f 394/1/5 390/1/5 393/1/5
f 395/1/5 392/1/5 391/1/5
f 395/2/5 391/2/5 394/2/5
f 396/1/5 392/1/5 395/1/5
f 401/1/5 398/1/5 397/1/5
f 402/2/5 399/2/5 398/2/5
f 402/1/5 398/1/5 401/1/5
f 403/1/5 400/1/5 399/1/5
f 403/2/5 399/2/5 402/2/5
f 404/1/5 400/1/5 403/1/5
f 405/1/6 406/1/6 407/1/6
f 407/1/6 406/1/6 408/1/6
f 409/1/6 410/1/6 413/1/6
f 410/2/6 411/2/6 414/2/6
f 413/1/6 410/1/6 414/1/6
f 411/1/6 412/1/6 415/1/6
f 414/2/6 411/2/6 415/2/6
f 415/1/6 412/1/6 416/1/6
f 416/1/6 412/1/6 417/1/6
f 418/1/6 419/1/6 422/1/6
f 420/1/6 421/1/6 422/1/6
f 419/1/6 420/1/6 422/1/6
f 422/1/6 421/1/6 423/1/6
f 424/1/6 425/1/6 426/1/6
f 426/1/6 425/1/6 427/1/6
f 424/1/6 426/1/6 428/1/6
f 426/2/6 427/2/6 429/2/6
f 428/1/6 426/1/6 429/1/6
f 429/2/6 427/2/6 430/2/6
f 431/2/6 432/2/6 433/2/6
f 433/2/6 432/2/6 434/2/6
f 435/1/6 436/1/6 437/1/6
f 437/1/6 436/1/6 438/1/6
f 439/1/6 440/1/6 443/1/6
f 441/2/6 442/2/6 444/2/6
f 443/1/6 440/1/6 444/1/6
f 440/2/6 441/2/6 444/2/6
f 444/2/6 442/2/6 445/2/6
f 446/1/6 447/1/6 448/1/6
f 448/1/6 447/1/6 449/1/6
f 449/1/6 447/1/6 450/1/6
f 450/1/6 447/1/6 451/1/6
f 452/2/6 453/2/6 456/2/6
f 456/2/6 453/2/6 457/2/6
f 454/2/6 455/2/6 458/2/6
f 458/2/6 455/2/6 459/2/6
f 456/1/6 457/1/6 460/1/6
f 460/1/6 457/1/6 461/1/6
f 458/1/6 459/1/6 462/1/6
f 462/1/6 459/1/6 463/1/6
f 464/1/6 465/1/6 468/1/6
f 468/1/6 465/1/6 469/1/6
f 466/1/6 467/1/6 470/1/6
f 470/1/6 467/1/6 471/1/6
f 472/2/6 473/2/6 474/2/6
f 474/2/6 473/2/6 475/2/6
f 476/2/6 477/2/6 478/2/6
f 478/2/6 477/2/6 479/2/6
f 480/2/6 481/2/6 482/2/6
f 482/2/6 481/2/6 483/2/6
f 484/2/6 485/2/6 486/2/6
f 486/2/6 485/2/6 487/2/6
