# MagicaVoxel @ Ephtracy

# group
o 

# material
mtllib escaleristaenem-1.mtl
usemtl palette

# normals
vn -1 0 0
vn 1 0 0
vn 0 0 1
vn 0 0 -1
vn 0 -1 0
vn 0 1 0

# texcoords
vt 0.150391 0.5
vt 0.306641 0.5
vt 0.947266 0.5
vt 0.982422 0.5

# verts
v 0.4 0 0.7
v 0.4 0 -0.8
v 0.4 0.1 0.7
v 0.4 0.1 -0.8
v 0.4 0.2 0.1
v 0.4 0.2 -0.7
v 0.4 0.3 0.1
v 0.4 0.3 -0.7
v 0.5 0.1 0.6
v 0.5 0.1 -0.6
v 0.5 0.2 0.6
v 0.5 0.2 0.2
v 0.5 0.2 0.1
v 0.5 0.2 -0.6
v 0.5 0.3 0.2
v 0.5 0.3 0.1
v 0.5 0.3 -0.6
v 0.5 1.4 -0.6
v 0.5 1.4 -0.8
v 0.5 2.6 -0.1
v 0.5 2.6 -0.6
v 0.5 2.7 0.1
v 0.5 2.7 -0.1
v 0.5 2.8 -0.6
v 0.5 2.8 -0.8
v 0.6 0.1 0.7
v 0.6 0.1 0.6
v 0.6 0.2 0.6
v 0.6 0.2 0.2
v 0.6 0.3 0.7
v 0.6 0.3 0.2
v 0.8 2.6 -0.1
v 0.8 2.6 -0.6
v 0.8 2.7 -0.1
v 0.8 2.8 -0.1
v 0.8 2.8 -0.6
v 0.9 2.7 0.1
v 0.9 2.7 -0.1
v 0.9 2.8 -0.1
v 0.9 2.8 -0.6
v 0.9 2.9 0.1
v 0.9 2.9 -0.6
v 1.1 0.1 -0.7
v 1.1 0.1 -0.8
v 1.1 0.2 -0.7
v 1.1 0.2 -0.8
v 0.8 1.4 -0.6
v 0.8 1.4 -0.8
v 0.8 2.8 -0.6
v 0.8 2.8 -0.8
v 1.2 0.1 0.7
v 1.2 0.1 0.6
v 1.2 0.1 0.2
v 1.2 0.1 0.1
v 1.2 0.1 -0.6
v 1.2 0.1 -0.7
v 1.2 0.1 -0.8
v 1.2 0.2 0.6
v 1.2 0.2 0.2
v 1.2 0.2 0.1
v 1.2 0.2 -0.6
v 1.2 0.2 -0.7
v 1.2 0.2 -0.8
v 1.2 0.3 0.7
v 1.2 0.3 0.2
v 1.2 0.3 0.1
v 1.2 0.3 -0.6
v 1.2 2.9 0.1
v 1.2 2.9 -0.6
v 1.3 0 0.7
v 1.3 0 -0.8
v 1.3 0.1 0.7
v 1.3 0.1 0.2
v 1.3 0.1 0.1
v 1.3 0.1 -0.8
v 1.3 0.2 0.1
v 1.3 0.2 -0.7
v 1.3 0.3 0.2
v 1.3 0.3 -0.7
v 0.4 0 0.7
v 0.4 0.1 0.7
v 0.6 0.1 0.7
v 0.6 0.3 0.7
v 1.2 0.1 0.7
v 1.2 0.3 0.7
v 1.3 0 0.7
v 1.3 0.1 0.7
v 0.5 0.1 0.6
v 0.5 0.2 0.6
v 0.6 0.1 0.6
v 0.6 0.2 0.6
v 0.5 0.2 0.2
v 0.5 0.3 0.2
v 0.6 0.2 0.2
v 0.6 0.3 0.2
v 1.2 0.1 0.2
v 1.2 0.2 0.2
v 1.2 0.3 0.2
v 1.3 0.1 0.2
v 1.3 0.3 0.2
v 0.4 0.2 0.1
v 0.4 0.3 0.1
v 0.5 0.2 0.1
v 0.5 0.3 0.1
v 0.5 2.7 0.1
v 0.9 2.7 0.1
v 0.9 2.9 0.1
v 1.2 0.3 0.1
v 1.2 2.9 0.1
v 0.8 2.7 -0.1
v 0.8 2.8 -0.1
v 0.9 2.7 -0.1
v 0.9 2.8 -0.1
v 0.5 2.6 -0.6
v 0.5 2.8 -0.6
v 0.8 2.6 -0.6
v 0.8 2.8 -0.6
v 1.1 0.1 -0.7
v 1.1 0.2 -0.7
v 1.2 0.1 -0.7
v 1.2 0.2 -0.7
v 1.2 0.1 0.1
v 1.2 0.2 0.1
v 1.3 0.1 0.1
v 1.3 0.2 0.1
v 0.5 2.6 -0.1
v 0.5 2.7 -0.1
v 0.8 2.6 -0.1
v 0.8 2.7 -0.1
v 0.5 0.1 -0.6
v 0.5 0.2 -0.6
v 0.5 0.3 -0.6
v 0.5 1.4 -0.6
v 0.8 1.4 -0.6
v 0.8 2.8 -0.6
v 0.9 2.8 -0.6
v 0.9 2.9 -0.6
v 1.2 0.1 -0.6
v 1.2 0.2 -0.6
v 1.2 0.3 -0.6
v 1.2 2.9 -0.6
v 0.4 0.2 -0.7
v 0.4 0.3 -0.7
v 1.1 0.2 -0.7
v 1.2 0.2 -0.7
v 1.3 0.2 -0.7
v 1.3 0.3 -0.7
v 0.4 0 -0.8
v 0.4 0.1 -0.8
v 0.5 1.4 -0.8
v 0.5 2.8 -0.8
v 0.8 1.4 -0.8
v 0.8 2.8 -0.8
v 1.1 0.1 -0.8
v 1.1 0.2 -0.8
v 1.2 0.1 -0.8
v 1.2 0.2 -0.8
v 1.3 0 -0.8
v 1.3 0.1 -0.8
v 0.4 0 0.7
v 1.3 0 0.7
v 0.4 0 -0.8
v 1.3 0 -0.8
v 0.4 0.2 0.1
v 0.5 0.2 0.1
v 1.2 0.2 0.1
v 1.3 0.2 0.1
v 0.5 0.2 -0.6
v 1.2 0.2 -0.6
v 0.4 0.2 -0.7
v 1.1 0.2 -0.7
v 1.2 0.2 -0.7
v 1.3 0.2 -0.7
v 0.5 1.4 -0.6
v 0.8 1.4 -0.6
v 0.5 1.4 -0.8
v 0.8 1.4 -0.8
v 0.4 0.1 0.7
v 0.6 0.1 0.7
v 1.2 0.1 0.7
v 1.3 0.1 0.7
v 0.5 0.1 0.6
v 0.6 0.1 0.6
v 1.2 0.1 0.6
v 1.2 0.1 0.2
v 1.3 0.1 0.2
v 1.2 0.1 0.1
v 1.3 0.1 0.1
v 0.5 0.1 -0.6
v 1.2 0.1 -0.6
v 1.1 0.1 -0.7
v 1.2 0.1 -0.7
v 0.4 0.1 -0.8
v 1.1 0.1 -0.8
v 1.2 0.1 -0.8
v 1.3 0.1 -0.8
v 0.5 0.2 0.6
v 0.6 0.2 0.6
v 0.5 0.2 0.2
v 0.6 0.2 0.2
v 1.1 0.2 -0.7
v 1.2 0.2 -0.7
v 1.1 0.2 -0.8
v 1.2 0.2 -0.8
v 0.6 0.3 0.7
v 1.2 0.3 0.7
v 0.5 0.3 0.2
v 0.6 0.3 0.2
v 1.2 0.3 0.2
v 1.3 0.3 0.2
v 0.4 0.3 0.1
v 0.5 0.3 0.1
v 1.2 0.3 0.1
v 0.5 0.3 -0.6
v 1.2 0.3 -0.6
v 0.4 0.3 -0.7
v 1.3 0.3 -0.7
v 0.5 2.6 -0.1
v 0.8 2.6 -0.1
v 0.5 2.6 -0.6
v 0.8 2.6 -0.6
v 0.5 2.7 0.1
v 0.9 2.7 0.1
v 0.5 2.7 -0.1
v 0.8 2.7 -0.1
v 0.9 2.7 -0.1
v 0.8 2.8 -0.1
v 0.9 2.8 -0.1
v 0.5 2.8 -0.6
v 0.8 2.8 -0.6
v 0.9 2.8 -0.6
v 0.5 2.8 -0.8
v 0.8 2.8 -0.8
v 0.9 2.9 0.1
v 1.2 2.9 0.1
v 0.9 2.9 -0.6
v 1.2 2.9 -0.6

# faces
f 3/4/1 2/4/1 1/4/1
f 4/4/1 2/4/1 3/4/1
f 7/4/1 6/4/1 5/4/1
f 8/4/1 6/4/1 7/4/1
f 11/1/1 10/1/1 9/1/1
f 12/1/1 10/1/1 11/1/1
f 13/1/1 10/1/1 12/1/1
f 14/1/1 10/1/1 13/1/1
f 15/4/1 13/4/1 12/4/1
f 16/4/1 13/4/1 15/4/1
f 18/3/1 17/3/1 16/3/1
f 20/3/1 18/3/1 16/3/1
f 20/3/1 19/3/1 18/3/1
f 21/3/1 19/3/1 20/3/1
f 22/3/1 20/3/1 16/3/1
f 23/3/1 20/3/1 22/3/1
f 24/3/1 19/3/1 21/3/1
f 25/3/1 19/3/1 24/3/1
f 28/4/1 27/4/1 26/4/1
f 30/4/1 28/4/1 26/4/1
f 30/4/1 29/4/1 28/4/1
f 31/4/1 29/4/1 30/4/1
f 34/3/1 33/3/1 32/3/1
f 35/3/1 33/3/1 34/3/1
f 36/3/1 33/3/1 35/3/1
f 39/3/1 38/3/1 37/3/1
f 41/3/1 39/3/1 37/3/1
f 41/3/1 40/3/1 39/3/1
f 42/3/1 40/3/1 41/3/1
f 45/4/1 44/4/1 43/4/1
f 46/4/1 44/4/1 45/4/1
f 47/3/2 48/3/2 49/3/2
f 49/3/2 48/3/2 50/3/2
f 51/4/2 52/4/2 58/4/2
f 52/1/2 53/1/2 58/1/2
f 58/1/2 53/1/2 59/1/2
f 54/1/2 55/1/2 60/1/2
f 60/1/2 55/1/2 61/1/2
f 56/4/2 57/4/2 62/4/2
f 62/4/2 57/4/2 63/4/2
f 58/4/2 59/4/2 64/4/2
f 51/4/2 58/4/2 64/4/2
f 64/4/2 59/4/2 65/4/2
f 66/3/2 67/3/2 68/3/2
f 68/3/2 67/3/2 69/3/2
f 70/4/2 71/4/2 72/4/2
f 72/4/2 71/4/2 73/4/2
f 73/4/2 71/4/2 74/4/2
f 74/4/2 71/4/2 75/4/2
f 73/4/2 74/4/2 76/4/2
f 73/4/2 76/4/2 78/4/2
f 76/4/2 77/4/2 78/4/2
f 78/4/2 77/4/2 79/4/2
f 82/4/3 81/4/3 80/4/3
f 84/4/3 82/4/3 80/4/3
f 84/4/3 83/4/3 82/4/3
f 85/4/3 83/4/3 84/4/3
f 86/4/3 84/4/3 80/4/3
f 87/4/3 84/4/3 86/4/3
f 90/1/3 89/1/3 88/1/3
f 91/1/3 89/1/3 90/1/3
f 94/4/3 93/4/3 92/4/3
f 95/4/3 93/4/3 94/4/3
f 99/4/3 97/4/3 96/4/3
f 99/4/3 98/4/3 97/4/3
f 100/4/3 98/4/3 99/4/3
f 103/4/3 102/4/3 101/4/3
f 104/4/3 102/4/3 103/4/3
f 106/3/3 105/3/3 104/3/3
f 108/3/3 106/3/3 104/3/3
f 108/3/3 107/3/3 106/3/3
f 109/3/3 107/3/3 108/3/3
f 112/3/3 111/3/3 110/3/3
f 113/3/3 111/3/3 112/3/3
f 116/3/3 115/3/3 114/3/3
f 117/3/3 115/3/3 116/3/3
f 120/4/3 119/4/3 118/4/3
f 121/4/3 119/4/3 120/4/3
f 122/4/4 123/4/4 124/4/4
f 124/4/4 123/4/4 125/4/4
f 126/3/4 127/3/4 128/3/4
f 128/3/4 127/3/4 129/3/4
f 132/3/4 133/3/4 134/3/4
f 134/3/4 135/3/4 136/3/4
f 130/1/4 131/1/4 138/1/4
f 138/1/4 131/1/4 139/1/4
f 136/3/4 137/3/4 140/3/4
f 132/3/4 134/3/4 140/3/4
f 134/3/4 136/3/4 140/3/4
f 140/3/4 137/3/4 141/3/4
f 142/4/4 143/4/4 144/4/4
f 144/4/4 143/4/4 145/4/4
f 145/4/4 143/4/4 146/4/4
f 146/4/4 143/4/4 147/4/4
f 150/3/4 151/3/4 152/3/4
f 152/3/4 151/3/4 153/3/4
f 148/4/4 149/4/4 154/4/4
f 148/4/4 154/4/4 156/4/4
f 154/4/4 155/4/4 156/4/4
f 156/4/4 155/4/4 157/4/4
f 148/4/4 156/4/4 158/4/4
f 158/4/4 156/4/4 159/4/4
f 162/4/5 161/4/5 160/4/5
f 163/4/5 161/4/5 162/4/5
f 168/4/5 165/4/5 164/4/5
f 169/4/5 167/4/5 166/4/5
f 170/4/5 168/4/5 164/4/5
f 170/4/5 169/4/5 168/4/5
f 171/4/5 169/4/5 170/4/5
f 172/4/5 167/4/5 169/4/5
f 172/4/5 169/4/5 171/4/5
f 173/4/5 167/4/5 172/4/5
f 176/3/5 175/3/5 174/3/5
f 177/3/5 175/3/5 176/3/5
f 178/4/6 179/4/6 182/4/6
f 182/4/6 179/4/6 183/4/6
f 180/4/6 181/4/6 184/4/6
f 184/4/6 181/4/6 185/4/6
f 185/4/6 181/4/6 186/4/6
f 178/4/6 182/4/6 189/4/6
f 187/4/6 188/4/6 190/4/6
f 189/4/6 190/4/6 191/4/6
f 190/4/6 188/4/6 192/4/6
f 191/4/6 190/4/6 192/4/6
f 178/4/6 189/4/6 193/4/6
f 189/4/6 191/4/6 193/4/6
f 193/4/6 191/4/6 194/4/6
f 192/4/6 188/4/6 195/4/6
f 195/4/6 188/4/6 196/4/6
f 197/1/6 198/1/6 199/1/6
f 199/1/6 198/1/6 200/1/6
f 201/4/6 202/4/6 203/4/6
f 203/4/6 202/4/6 204/4/6
f 205/4/6 206/4/6 208/4/6
f 208/4/6 206/4/6 209/4/6
f 207/4/6 208/4/6 212/4/6
f 209/4/6 210/4/6 212/4/6
f 208/4/6 209/4/6 212/4/6
f 212/4/6 210/4/6 213/4/6
f 211/4/6 212/4/6 214/4/6
f 213/4/6 210/4/6 215/4/6
f 211/4/6 214/4/6 216/4/6
f 214/4/6 215/4/6 216/4/6
f 215/4/6 210/4/6 217/4/6
f 216/4/6 215/4/6 217/4/6
f 218/3/6 219/3/6 220/3/6
f 220/3/6 219/3/6 221/3/6
f 222/3/6 223/3/6 224/3/6
f 224/3/6 223/3/6 225/3/6
f 225/3/6 223/3/6 226/3/6
f 227/3/6 228/3/6 230/3/6
f 230/3/6 228/3/6 231/3/6
f 229/3/6 230/3/6 232/3/6
f 232/3/6 230/3/6 233/3/6
f 234/3/6 235/3/6 236/3/6
f 236/3/6 235/3/6 237/3/6
