# MagicaVoxel @ Ephtracy

# group
o 

# material
mtllib escenarioSuelo.mtl
usemtl palette

# normals
vn -1 0 0
vn 1 0 0
vn 0 0 1
vn 0 0 -1
vn 0 -1 0
vn 0 1 0

# texcoords
vt 0.0449219 0.5
vt 0.970703 0.5

# verts
v -2 0 2
v -2 0 1.6
v -2 0 1.2
v -2 0 1.1
v -2 0 0.7
v -2 0 0.6
v -2 0 0.0999999
v -2 0 -2.38419e-07
v -2 0 -0.5
v -2 0 -0.6
v -2 0 -1.1
v -2 0 -1.2
v -2 0 -1.6
v -2 0 -2
v -2 0.1 -1.9
v -2 0.1 -2
v -2 0.2 2
v -2 0.2 1.9
v -2 0.2 1.2
v -2 0.2 1.1
v -2 0.2 0.7
v -2 0.2 0.6
v -2 0.2 0.0999999
v -2 0.2 -2.38419e-07
v -2 0.2 -0.5
v -2 0.2 -0.6
v -2 0.2 -1.1
v -2 0.2 -1.2
v -2 0.3 1.9
v -2 0.3 1.6
v -2 0.3 1.2
v -2 0.3 1.1
v -2 0.3 0.7
v -2 0.3 0.6
v -2 0.3 0.0999999
v -2 0.3 -2.38419e-07
v -2 0.3 -0.5
v -2 0.3 -0.6
v -2 0.3 -1.1
v -2 0.3 -1.2
v -2 0.3 -1.6
v -2 0.3 -1.9
v -1.4 0.2 1.9
v -1.4 0.2 1.2
v -1.4 0.2 1.1
v -1.4 0.2 0.7
v -1.4 0.2 0.6
v -1.4 0.2 0.0999999
v -1.4 0.2 -2.38419e-07
v -1.4 0.2 -0.5
v -1.4 0.2 -0.6
v -1.4 0.2 -1.1
v -1.4 0.2 -1.2
v -1.4 0.2 -1.9
v -1.4 0.3 1.9
v -1.4 0.3 1.2
v -1.4 0.3 1.1
v -1.4 0.3 0.7
v -1.4 0.3 0.6
v -1.4 0.3 0.0999999
v -1.4 0.3 -2.38419e-07
v -1.4 0.3 -0.5
v -1.4 0.3 -0.6
v -1.4 0.3 -1.1
v -1.4 0.3 -1.2
v -1.4 0.3 -1.9
v -1 0.2 1.9
v -1 0.2 1.2
v -1 0.2 1.1
v -1 0.2 0.7
v -1 0.2 0.6
v -1 0.2 0.0999999
v -1 0.2 -2.38419e-07
v -1 0.2 -0.5
v -1 0.2 -0.6
v -1 0.2 -1.1
v -1 0.2 -1.2
v -1 0.2 -1.9
v -1 0.3 1.9
v -1 0.3 1.2
v -1 0.3 1.1
v -1 0.3 0.7
v -1 0.3 0.6
v -1 0.3 0.0999999
v -1 0.3 -2.38419e-07
v -1 0.3 -0.5
v -1 0.3 -0.6
v -1 0.3 -1.1
v -1 0.3 -1.2
v -1 0.3 -1.9
v -0.3 0.2 1.9
v -0.3 0.2 1.2
v -0.3 0.2 1.1
v -0.3 0.2 0.7
v -0.3 0.2 0.6
v -0.3 0.2 0.0999999
v -0.3 0.2 -2.38419e-07
v -0.3 0.2 -0.5
v -0.3 0.2 -0.6
v -0.3 0.2 -1.1
v -0.3 0.2 -1.2
v -0.3 0.2 -1.9
v -0.3 0.3 1.9
v -0.3 0.3 1.2
v -0.3 0.3 1.1
v -0.3 0.3 0.7
v -0.3 0.3 0.6
v -0.3 0.3 0.0999999
v -0.3 0.3 -2.38419e-07
v -0.3 0.3 -0.5
v -0.3 0.3 -0.6
v -0.3 0.3 -1.1
v -0.3 0.3 -1.2
v -0.3 0.3 -1.9
v 0.4 0.2 1.9
v 0.4 0.2 1.2
v 0.4 0.2 1.1
v 0.4 0.2 0.7
v 0.4 0.2 0.6
v 0.4 0.2 0.0999999
v 0.4 0.2 -2.38419e-07
v 0.4 0.2 -0.5
v 0.4 0.2 -0.6
v 0.4 0.2 -1.1
v 0.4 0.2 -1.2
v 0.4 0.2 -1.9
v 0.4 0.3 1.9
v 0.4 0.3 1.2
v 0.4 0.3 1.1
v 0.4 0.3 0.7
v 0.4 0.3 0.6
v 0.4 0.3 0.0999999
v 0.4 0.3 -2.38419e-07
v 0.4 0.3 -0.5
v 0.4 0.3 -0.6
v 0.4 0.3 -1.1
v 0.4 0.3 -1.2
v 0.4 0.3 -1.9
v 1.1 0.2 1.9
v 1.1 0.2 1.2
v 1.1 0.2 1.1
v 1.1 0.2 0.7
v 1.1 0.2 0.6
v 1.1 0.2 0.0999999
v 1.1 0.2 -2.38419e-07
v 1.1 0.2 -0.5
v 1.1 0.2 -0.6
v 1.1 0.2 -1.1
v 1.1 0.2 -1.2
v 1.1 0.2 -1.9
v 1.1 0.3 1.9
v 1.1 0.3 1.2
v 1.1 0.3 1.1
v 1.1 0.3 0.7
v 1.1 0.3 0.6
v 1.1 0.3 0.0999999
v 1.1 0.3 -2.38419e-07
v 1.1 0.3 -0.5
v 1.1 0.3 -0.6
v 1.1 0.3 -1.1
v 1.1 0.3 -1.2
v 1.1 0.3 -1.9
v 1.9 0.1 -1.9
v 1.9 0.1 -2
v 1.9 0.2 -1.9
v 1.9 0.2 -2
v -1.5 0.2 1.9
v -1.5 0.2 1.2
v -1.5 0.2 1.1
v -1.5 0.2 0.7
v -1.5 0.2 0.6
v -1.5 0.2 0.0999999
v -1.5 0.2 -2.38419e-07
v -1.5 0.2 -0.5
v -1.5 0.2 -0.6
v -1.5 0.2 -1.1
v -1.5 0.2 -1.2
v -1.5 0.2 -1.9
v -1.5 0.3 1.9
v -1.5 0.3 1.2
v -1.5 0.3 1.1
v -1.5 0.3 0.7
v -1.5 0.3 0.6
v -1.5 0.3 0.0999999
v -1.5 0.3 -2.38419e-07
v -1.5 0.3 -0.5
v -1.5 0.3 -0.6
v -1.5 0.3 -1.1
v -1.5 0.3 -1.2
v -1.5 0.3 -1.9
v -1.1 0.2 1.9
v -1.1 0.2 1.2
v -1.1 0.2 1.1
v -1.1 0.2 0.7
v -1.1 0.2 0.6
v -1.1 0.2 0.0999999
v -1.1 0.2 -2.38419e-07
v -1.1 0.2 -0.5
v -1.1 0.2 -0.6
v -1.1 0.2 -1.1
v -1.1 0.2 -1.2
v -1.1 0.2 -1.9
v -1.1 0.3 1.9
v -1.1 0.3 1.2
v -1.1 0.3 1.1
v -1.1 0.3 0.7
v -1.1 0.3 0.6
v -1.1 0.3 0.0999999
v -1.1 0.3 -2.38419e-07
v -1.1 0.3 -0.5
v -1.1 0.3 -0.6
v -1.1 0.3 -1.1
v -1.1 0.3 -1.2
v -1.1 0.3 -1.9
v -0.4 0.2 1.9
v -0.4 0.2 1.2
v -0.4 0.2 1.1
v -0.4 0.2 0.7
v -0.4 0.2 0.6
v -0.4 0.2 0.0999999
v -0.4 0.2 -2.38419e-07
v -0.4 0.2 -0.5
v -0.4 0.2 -0.6
v -0.4 0.2 -1.1
v -0.4 0.2 -1.2
v -0.4 0.2 -1.9
v -0.4 0.3 1.9
v -0.4 0.3 1.2
v -0.4 0.3 1.1
v -0.4 0.3 0.7
v -0.4 0.3 0.6
v -0.4 0.3 0.0999999
v -0.4 0.3 -2.38419e-07
v -0.4 0.3 -0.5
v -0.4 0.3 -0.6
v -0.4 0.3 -1.1
v -0.4 0.3 -1.2
v -0.4 0.3 -1.9
v 0.3 0.2 1.9
v 0.3 0.2 1.2
v 0.3 0.2 1.1
v 0.3 0.2 0.7
v 0.3 0.2 0.6
v 0.3 0.2 0.0999999
v 0.3 0.2 -2.38419e-07
v 0.3 0.2 -0.5
v 0.3 0.2 -0.6
v 0.3 0.2 -1.1
v 0.3 0.2 -1.2
v 0.3 0.2 -1.9
v 0.3 0.3 1.9
v 0.3 0.3 1.2
v 0.3 0.3 1.1
v 0.3 0.3 0.7
v 0.3 0.3 0.6
v 0.3 0.3 0.0999999
v 0.3 0.3 -2.38419e-07
v 0.3 0.3 -0.5
v 0.3 0.3 -0.6
v 0.3 0.3 -1.1
v 0.3 0.3 -1.2
v 0.3 0.3 -1.9
v 1 0.2 1.9
v 1 0.2 1.2
v 1 0.2 1.1
v 1 0.2 0.7
v 1 0.2 0.6
v 1 0.2 0.0999999
v 1 0.2 -2.38419e-07
v 1 0.2 -0.5
v 1 0.2 -0.6
v 1 0.2 -1.1
v 1 0.2 -1.2
v 1 0.2 -1.9
v 1 0.3 1.9
v 1 0.3 1.2
v 1 0.3 1.1
v 1 0.3 0.7
v 1 0.3 0.6
v 1 0.3 0.0999999
v 1 0.3 -2.38419e-07
v 1 0.3 -0.5
v 1 0.3 -0.6
v 1 0.3 -1.1
v 1 0.3 -1.2
v 1 0.3 -1.9
v 1.9 0.2 1.9
v 1.9 0.2 1.2
v 1.9 0.2 1.1
v 1.9 0.2 0.7
v 1.9 0.2 0.6
v 1.9 0.2 0.0999999
v 1.9 0.2 -2.38419e-07
v 1.9 0.2 -0.5
v 1.9 0.2 -0.6
v 1.9 0.2 -1.1
v 1.9 0.2 -1.2
v 1.9 0.2 -1.9
v 1.9 0.3 1.9
v 1.9 0.3 1.2
v 1.9 0.3 1.1
v 1.9 0.3 0.7
v 1.9 0.3 0.6
v 1.9 0.3 0.0999999
v 1.9 0.3 -2.38419e-07
v 1.9 0.3 -0.5
v 1.9 0.3 -0.6
v 1.9 0.3 -1.1
v 1.9 0.3 -1.2
v 1.9 0.3 -1.9
v 2 0 2
v 2 0 -2
v 2 0.2 2
v 2 0.2 -2
v -2 0 2
v -2 0.2 2
v 2 0 2
v 2 0.2 2
v -2 0.2 1.9
v -2 0.3 1.9
v -1.6 0.2 1.9
v -1.6 0.3 1.9
v -1.5 0.2 1.9
v -1.5 0.3 1.9
v -1.4 0.2 1.9
v -1.4 0.3 1.9
v -1.1 0.2 1.9
v -1.1 0.3 1.9
v -1 0.2 1.9
v -1 0.3 1.9
v -0.4 0.2 1.9
v -0.4 0.3 1.9
v -0.3 0.2 1.9
v -0.3 0.3 1.9
v 0.3 0.2 1.9
v 0.3 0.3 1.9
v 0.4 0.2 1.9
v 0.4 0.3 1.9
v 1 0.2 1.9
v 1 0.3 1.9
v 1.1 0.2 1.9
v 1.1 0.3 1.9
v 1.9 0.2 1.9
v 1.9 0.3 1.9
v -2 0.2 1.1
v -2 0.3 1.1
v -1.5 0.2 1.1
v -1.5 0.3 1.1
v -1.4 0.2 1.1
v -1.4 0.3 1.1
v -1.1 0.2 1.1
v -1.1 0.3 1.1
v -1 0.2 1.1
v -1 0.3 1.1
v -0.4 0.2 1.1
v -0.4 0.3 1.1
v -0.3 0.2 1.1
v -0.3 0.3 1.1
v 0.3 0.2 1.1
v 0.3 0.3 1.1
v 0.4 0.2 1.1
v 0.4 0.3 1.1
v 1 0.2 1.1
v 1 0.3 1.1
v 1.1 0.2 1.1
v 1.1 0.3 1.1
v 1.9 0.2 1.1
v 1.9 0.3 1.1
v -2 0.2 0.6
v -2 0.3 0.6
v -1.5 0.2 0.6
v -1.5 0.3 0.6
v -1.4 0.2 0.6
v -1.4 0.3 0.6
v -1.1 0.2 0.6
v -1.1 0.3 0.6
v -1 0.2 0.6
v -1 0.3 0.6
v -0.4 0.2 0.6
v -0.4 0.3 0.6
v -0.3 0.2 0.6
v -0.3 0.3 0.6
v 0.3 0.2 0.6
v 0.3 0.3 0.6
v 0.4 0.2 0.6
v 0.4 0.3 0.6
v 1 0.2 0.6
v 1 0.3 0.6
v 1.1 0.2 0.6
v 1.1 0.3 0.6
v 1.9 0.2 0.6
v 1.9 0.3 0.6
v -2 0.2 -2.38419e-07
v -2 0.3 -2.38419e-07
v -1.5 0.2 -2.38419e-07
v -1.5 0.3 -2.38419e-07
v -1.4 0.2 -2.38419e-07
v -1.4 0.3 -2.38419e-07
v -1.1 0.2 -2.38419e-07
v -1.1 0.3 -2.38419e-07
v -1 0.2 -2.38419e-07
v -1 0.3 -2.38419e-07
v -0.4 0.2 -2.38419e-07
v -0.4 0.3 -2.38419e-07
v -0.3 0.2 -2.38419e-07
v -0.3 0.3 -2.38419e-07
v 0.3 0.2 -2.38419e-07
v 0.3 0.3 -2.38419e-07
v 0.4 0.2 -2.38419e-07
v 0.4 0.3 -2.38419e-07
v 1 0.2 -2.38419e-07
v 1 0.3 -2.38419e-07
v 1.1 0.2 -2.38419e-07
v 1.1 0.3 -2.38419e-07
v 1.9 0.2 -2.38419e-07
v 1.9 0.3 -2.38419e-07
v -2 0.2 -0.6
v -2 0.3 -0.6
v -1.5 0.2 -0.6
v -1.5 0.3 -0.6
v -1.4 0.2 -0.6
v -1.4 0.3 -0.6
v -1.1 0.2 -0.6
v -1.1 0.3 -0.6
v -1 0.2 -0.6
v -1 0.3 -0.6
v -0.4 0.2 -0.6
v -0.4 0.3 -0.6
v -0.3 0.2 -0.6
v -0.3 0.3 -0.6
v 0.3 0.2 -0.6
v 0.3 0.3 -0.6
v 0.4 0.2 -0.6
v 0.4 0.3 -0.6
v 1 0.2 -0.6
v 1 0.3 -0.6
v 1.1 0.2 -0.6
v 1.1 0.3 -0.6
v 1.9 0.2 -0.6
v 1.9 0.3 -0.6
v -2 0.2 -1.2
v -2 0.3 -1.2
v -1.5 0.2 -1.2
v -1.5 0.3 -1.2
v -1.4 0.2 -1.2
v -1.4 0.3 -1.2
v -1.1 0.2 -1.2
v -1.1 0.3 -1.2
v -1 0.2 -1.2
v -1 0.3 -1.2
v -0.4 0.2 -1.2
v -0.4 0.3 -1.2
v -0.3 0.2 -1.2
v -0.3 0.3 -1.2
v 0.3 0.2 -1.2
v 0.3 0.3 -1.2
v 0.4 0.2 -1.2
v 0.4 0.3 -1.2
v 1 0.2 -1.2
v 1 0.3 -1.2
v 1.1 0.2 -1.2
v 1.1 0.3 -1.2
v 1.9 0.2 -1.2
v 1.9 0.3 -1.2
v -2 0.2 1.2
v -2 0.3 1.2
v -1.5 0.2 1.2
v -1.5 0.3 1.2
v -1.4 0.2 1.2
v -1.4 0.3 1.2
v -1.1 0.2 1.2
v -1.1 0.3 1.2
v -1 0.2 1.2
v -1 0.3 1.2
v -0.4 0.2 1.2
v -0.4 0.3 1.2
v -0.3 0.2 1.2
v -0.3 0.3 1.2
v 0.3 0.2 1.2
v 0.3 0.3 1.2
v 0.4 0.2 1.2
v 0.4 0.3 1.2
v 1 0.2 1.2
v 1 0.3 1.2
v 1.1 0.2 1.2
v 1.1 0.3 1.2
v 1.9 0.2 1.2
v 1.9 0.3 1.2
v -2 0.2 0.7
v -2 0.3 0.7
v -1.5 0.2 0.7
v -1.5 0.3 0.7
v -1.4 0.2 0.7
v -1.4 0.3 0.7
v -1.1 0.2 0.7
v -1.1 0.3 0.7
v -1 0.2 0.7
v -1 0.3 0.7
v -0.4 0.2 0.7
v -0.4 0.3 0.7
v -0.3 0.2 0.7
v -0.3 0.3 0.7
v 0.3 0.2 0.7
v 0.3 0.3 0.7
v 0.4 0.2 0.7
v 0.4 0.3 0.7
v 1 0.2 0.7
v 1 0.3 0.7
v 1.1 0.2 0.7
v 1.1 0.3 0.7
v 1.9 0.2 0.7
v 1.9 0.3 0.7
v -2 0.2 0.0999999
v -2 0.3 0.0999999
v -1.5 0.2 0.0999999
v -1.5 0.3 0.0999999
v -1.4 0.2 0.0999999
v -1.4 0.3 0.0999999
v -1.1 0.2 0.0999999
v -1.1 0.3 0.0999999
v -1 0.2 0.0999999
v -1 0.3 0.0999999
v -0.4 0.2 0.0999999
v -0.4 0.3 0.0999999
v -0.3 0.2 0.0999999
v -0.3 0.3 0.0999999
v 0.3 0.2 0.0999999
v 0.3 0.3 0.0999999
v 0.4 0.2 0.0999999
v 0.4 0.3 0.0999999
v 1 0.2 0.0999999
v 1 0.3 0.0999999
v 1.1 0.2 0.0999999
v 1.1 0.3 0.0999999
v 1.9 0.2 0.0999999
v 1.9 0.3 0.0999999
v -2 0.2 -0.5
v -2 0.3 -0.5
v -1.5 0.2 -0.5
v -1.5 0.3 -0.5
v -1.4 0.2 -0.5
v -1.4 0.3 -0.5
v -1.1 0.2 -0.5
v -1.1 0.3 -0.5
v -1 0.2 -0.5
v -1 0.3 -0.5
v -0.4 0.2 -0.5
v -0.4 0.3 -0.5
v -0.3 0.2 -0.5
v -0.3 0.3 -0.5
v 0.3 0.2 -0.5
v 0.3 0.3 -0.5
v 0.4 0.2 -0.5
v 0.4 0.3 -0.5
v 1 0.2 -0.5
v 1 0.3 -0.5
v 1.1 0.2 -0.5
v 1.1 0.3 -0.5
v 1.9 0.2 -0.5
v 1.9 0.3 -0.5
v -2 0.2 -1.1
v -2 0.3 -1.1
v -1.5 0.2 -1.1
v -1.5 0.3 -1.1
v -1.4 0.2 -1.1
v -1.4 0.3 -1.1
v -1.1 0.2 -1.1
v -1.1 0.3 -1.1
v -1 0.2 -1.1
v -1 0.3 -1.1
v -0.4 0.2 -1.1
v -0.4 0.3 -1.1
v -0.3 0.2 -1.1
v -0.3 0.3 -1.1
v 0.3 0.2 -1.1
v 0.3 0.3 -1.1
v 0.4 0.2 -1.1
v 0.4 0.3 -1.1
v 1 0.2 -1.1
v 1 0.3 -1.1
v 1.1 0.2 -1.1
v 1.1 0.3 -1.1
v 1.9 0.2 -1.1
v 1.9 0.3 -1.1
v -2 0.1 -1.9
v -2 0.3 -1.9
v -1.6 0.1 -1.9
v -1.6 0.3 -1.9
v -1.5 0.1 -1.9
v -1.5 0.2 -1.9
v -1.5 0.3 -1.9
v -1.4 0.1 -1.9
v -1.4 0.2 -1.9
v -1.4 0.3 -1.9
v -1.1 0.1 -1.9
v -1.1 0.2 -1.9
v -1.1 0.3 -1.9
v -1 0.1 -1.9
v -1 0.2 -1.9
v -1 0.3 -1.9
v -0.4 0.1 -1.9
v -0.4 0.2 -1.9
v -0.4 0.3 -1.9
v -0.3 0.1 -1.9
v -0.3 0.2 -1.9
v -0.3 0.3 -1.9
v 0.3 0.1 -1.9
v 0.3 0.2 -1.9
v 0.3 0.3 -1.9
v 0.4 0.1 -1.9
v 0.4 0.2 -1.9
v 0.4 0.3 -1.9
v 1 0.1 -1.9
v 1 0.2 -1.9
v 1 0.3 -1.9
v 1.1 0.1 -1.9
v 1.1 0.2 -1.9
v 1.1 0.3 -1.9
v 1.9 0.1 -1.9
v 1.9 0.2 -1.9
v 1.9 0.3 -1.9
v -2 0 -2
v -2 0.1 -2
v 1.9 0.1 -2
v 1.9 0.2 -2
v 2 0 -2
v 2 0.2 -2
v -2 0 2
v 2 0 2
v -1.9 0 1.9
v -1.1 0 1.9
v -1 0 1.9
v -0.4 0 1.9
v -0.3 0 1.9
v 0.3 0 1.9
v 0.4 0 1.9
v 1 0 1.9
v 1.1 0 1.9
v 1.9 0 1.9
v -2 0 1.6
v -1.9 0 1.6
v -2 0 1.2
v -1.9 0 1.2
v -1.7 0 1.2
v -1.1 0 1.2
v -1 0 1.2
v -0.4 0 1.2
v -0.3 0 1.2
v 0.3 0 1.2
v 0.4 0 1.2
v 1 0 1.2
v 1.1 0 1.2
v 1.9 0 1.2
v -2 0 1.1
v -1.9 0 1.1
v -1.7 0 1.1
v -1.1 0 1.1
v -1 0 1.1
v -0.4 0 1.1
v -0.3 0 1.1
v 0.3 0 1.1
v 0.4 0 1.1
v 1 0 1.1
v 1.1 0 1.1
v 1.9 0 1.1
v -2 0 0.7
v -1.9 0 0.7
v -1.7 0 0.7
v -1.1 0 0.7
v -1 0 0.7
v -0.4 0 0.7
v -0.3 0 0.7
v 0.3 0 0.7
v 0.4 0 0.7
v 1 0 0.7
v 1.1 0 0.7
v 1.9 0 0.7
v -2 0 0.6
v -1.9 0 0.6
v -1.7 0 0.6
v -1.1 0 0.6
v -1 0 0.6
v -0.4 0 0.6
v -0.3 0 0.6
v 0.3 0 0.6
v 0.4 0 0.6
v 1 0 0.6
v 1.1 0 0.6
v 1.9 0 0.6
v -2 0 0.0999999
v -1.9 0 0.0999999
v -1.7 0 0.0999999
v -1.1 0 0.0999999
v -1 0 0.0999999
v -0.4 0 0.0999999
v -0.3 0 0.0999999
v 0.3 0 0.0999999
v 0.4 0 0.0999999
v 1 0 0.0999999
v 1.1 0 0.0999999
v 1.9 0 0.0999999
v -2 0 -2.38419e-07
v -1.9 0 -2.38419e-07
v -1.7 0 -2.38419e-07
v -1.1 0 -2.38419e-07
v -1 0 -2.38419e-07
v -0.4 0 -2.38419e-07
v -0.3 0 -2.38419e-07
v 0.3 0 -2.38419e-07
v 0.4 0 -2.38419e-07
v 1 0 -2.38419e-07
v 1.1 0 -2.38419e-07
v 1.9 0 -2.38419e-07
v -2 0 -0.5
v -1.9 0 -0.5
v -1.8 0 -0.5
v -1.1 0 -0.5
v -1 0 -0.5
v -0.4 0 -0.5
v -0.3 0 -0.5
v 0.3 0 -0.5
v 0.4 0 -0.5
v 1 0 -0.5
v 1.1 0 -0.5
v 1.9 0 -0.5
v -2 0 -0.6
v -1.9 0 -0.6
v -1.8 0 -0.6
v -1.1 0 -0.6
v -1 0 -0.6
v -0.4 0 -0.6
v -0.3 0 -0.6
v 0.3 0 -0.6
v 0.4 0 -0.6
v 1 0 -0.6
v 1.1 0 -0.6
v 1.9 0 -0.6
v -2 0 -1.1
v -1.9 0 -1.1
v -1.8 0 -1.1
v -1.1 0 -1.1
v -1 0 -1.1
v -0.4 0 -1.1
v -0.3 0 -1.1
v 0.3 0 -1.1
v 0.4 0 -1.1
v 1 0 -1.1
v 1.1 0 -1.1
v 1.9 0 -1.1
v -2 0 -1.2
v -1.9 0 -1.2
v -1.8 0 -1.2
v -1.1 0 -1.2
v -1 0 -1.2
v -0.4 0 -1.2
v -0.3 0 -1.2
v 0.3 0 -1.2
v 0.4 0 -1.2
v 1 0 -1.2
v 1.1 0 -1.2
v 1.9 0 -1.2
v -2 0 -1.6
v -1.9 0 -1.6
v -0.4 0 -1.7
v -0.3 0 -1.7
v 0.3 0 -1.7
v 0.4 0 -1.7
v 1 0 -1.7
v 1.1 0 -1.7
v -1.1 0 -1.8
v -1 0 -1.8
v -1.9 0 -1.9
v 1.9 0 -1.9
v -2 0 -2
v 2 0 -2
v -2 0.1 -1.9
v -1.6 0.1 -1.9
v -1.5 0.1 -1.9
v -1.4 0.1 -1.9
v -1.1 0.1 -1.9
v -1 0.1 -1.9
v -0.4 0.1 -1.9
v -0.3 0.1 -1.9
v 0.3 0.1 -1.9
v 0.4 0.1 -1.9
v 1 0.1 -1.9
v 1.1 0.1 -1.9
v 1.9 0.1 -1.9
v -2 0.1 -2
v 1.9 0.1 -2
v -2 0.2 2
v 2 0.2 2
v -2 0.2 1.9
v -1.6 0.2 1.9
v -1.5 0.2 1.9
v -1.4 0.2 1.9
v -1.1 0.2 1.9
v -1 0.2 1.9
v -0.4 0.2 1.9
v -0.3 0.2 1.9
v 0.3 0.2 1.9
v 0.4 0.2 1.9
v 1 0.2 1.9
v 1.1 0.2 1.9
v 1.9 0.2 1.9
v -2 0.2 1.2
v -1.5 0.2 1.2
v -1.4 0.2 1.2
v -1.1 0.2 1.2
v -1 0.2 1.2
v -0.4 0.2 1.2
v -0.3 0.2 1.2
v 0.3 0.2 1.2
v 0.4 0.2 1.2
v 1 0.2 1.2
v 1.1 0.2 1.2
v 1.9 0.2 1.2
v -2 0.2 1.1
v -1.5 0.2 1.1
v -1.4 0.2 1.1
v -1.1 0.2 1.1
v -1 0.2 1.1
v -0.4 0.2 1.1
v -0.3 0.2 1.1
v 0.3 0.2 1.1
v 0.4 0.2 1.1
v 1 0.2 1.1
v 1.1 0.2 1.1
v 1.9 0.2 1.1
v -2 0.2 0.7
v -1.5 0.2 0.7
v -1.4 0.2 0.7
v -1.1 0.2 0.7
v -1 0.2 0.7
v -0.4 0.2 0.7
v -0.3 0.2 0.7
v 0.3 0.2 0.7
v 0.4 0.2 0.7
v 1 0.2 0.7
v 1.1 0.2 0.7
v 1.9 0.2 0.7
v -2 0.2 0.6
v -1.5 0.2 0.6
v -1.4 0.2 0.6
v -1.1 0.2 0.6
v -1 0.2 0.6
v -0.4 0.2 0.6
v -0.3 0.2 0.6
v 0.3 0.2 0.6
v 0.4 0.2 0.6
v 1 0.2 0.6
v 1.1 0.2 0.6
v 1.9 0.2 0.6
v -2 0.2 0.0999999
v -1.5 0.2 0.0999999
v -1.4 0.2 0.0999999
v -1.1 0.2 0.0999999
v -1 0.2 0.0999999
v -0.4 0.2 0.0999999
v -0.3 0.2 0.0999999
v 0.3 0.2 0.0999999
v 0.4 0.2 0.0999999
v 1 0.2 0.0999999
v 1.1 0.2 0.0999999
v 1.9 0.2 0.0999999
v -2 0.2 -2.38419e-07
v -1.5 0.2 -2.38419e-07
v -1.4 0.2 -2.38419e-07
v -1.1 0.2 -2.38419e-07
v -1 0.2 -2.38419e-07
v -0.4 0.2 -2.38419e-07
v -0.3 0.2 -2.38419e-07
v 0.3 0.2 -2.38419e-07
v 0.4 0.2 -2.38419e-07
v 1 0.2 -2.38419e-07
v 1.1 0.2 -2.38419e-07
v 1.9 0.2 -2.38419e-07
v -2 0.2 -0.5
v -1.5 0.2 -0.5
v -1.4 0.2 -0.5
v -1.1 0.2 -0.5
v -1 0.2 -0.5
v -0.4 0.2 -0.5
v -0.3 0.2 -0.5
v 0.3 0.2 -0.5
v 0.4 0.2 -0.5
v 1 0.2 -0.5
v 1.1 0.2 -0.5
v 1.9 0.2 -0.5
v -2 0.2 -0.6
v -1.5 0.2 -0.6
v -1.4 0.2 -0.6
v -1.1 0.2 -0.6
v -1 0.2 -0.6
v -0.4 0.2 -0.6
v -0.3 0.2 -0.6
v 0.3 0.2 -0.6
v 0.4 0.2 -0.6
v 1 0.2 -0.6
v 1.1 0.2 -0.6
v 1.9 0.2 -0.6
v -2 0.2 -1.1
v -1.5 0.2 -1.1
v -1.4 0.2 -1.1
v -1.1 0.2 -1.1
v -1 0.2 -1.1
v -0.4 0.2 -1.1
v -0.3 0.2 -1.1
v 0.3 0.2 -1.1
v 0.4 0.2 -1.1
v 1 0.2 -1.1
v 1.1 0.2 -1.1
v 1.9 0.2 -1.1
v -2 0.2 -1.2
v -1.5 0.2 -1.2
v -1.4 0.2 -1.2
v -1.1 0.2 -1.2
v -1 0.2 -1.2
v -0.4 0.2 -1.2
v -0.3 0.2 -1.2
v 0.3 0.2 -1.2
v 0.4 0.2 -1.2
v 1 0.2 -1.2
v 1.1 0.2 -1.2
v 1.9 0.2 -1.2
v -1.5 0.2 -1.9
v -1.4 0.2 -1.9
v -1.1 0.2 -1.9
v -1 0.2 -1.9
v -0.4 0.2 -1.9
v -0.3 0.2 -1.9
v 0.3 0.2 -1.9
v 0.4 0.2 -1.9
v 1 0.2 -1.9
v 1.1 0.2 -1.9
v 1.9 0.2 -1.9
v 1.9 0.2 -2
v 2 0.2 -2
v -2 0.3 1.9
v -1.6 0.3 1.9
v -1.5 0.3 1.9
v -1.4 0.3 1.9
v -1.1 0.3 1.9
v -1 0.3 1.9
v -0.4 0.3 1.9
v -0.3 0.3 1.9
v 0.3 0.3 1.9
v 0.4 0.3 1.9
v 1 0.3 1.9
v 1.1 0.3 1.9
v 1.9 0.3 1.9
v -2 0.3 1.6
v -1.6 0.3 1.6
v -2 0.3 1.2
v -1.5 0.3 1.2
v -1.4 0.3 1.2
v -1.1 0.3 1.2
v -1 0.3 1.2
v -0.4 0.3 1.2
v -0.3 0.3 1.2
v 0.3 0.3 1.2
v 0.4 0.3 1.2
v 1 0.3 1.2
v 1.1 0.3 1.2
v 1.9 0.3 1.2
v -2 0.3 1.1
v -1.5 0.3 1.1
v -1.4 0.3 1.1
v -1.1 0.3 1.1
v -1 0.3 1.1
v -0.4 0.3 1.1
v -0.3 0.3 1.1
v 0.3 0.3 1.1
v 0.4 0.3 1.1
v 1 0.3 1.1
v 1.1 0.3 1.1
v 1.9 0.3 1.1
v -2 0.3 0.7
v -1.5 0.3 0.7
v -1.4 0.3 0.7
v -1.1 0.3 0.7
v -1 0.3 0.7
v -0.4 0.3 0.7
v -0.3 0.3 0.7
v 0.3 0.3 0.7
v 0.4 0.3 0.7
v 1 0.3 0.7
v 1.1 0.3 0.7
v 1.9 0.3 0.7
v -2 0.3 0.6
v -1.5 0.3 0.6
v -1.4 0.3 0.6
v -1.1 0.3 0.6
v -1 0.3 0.6
v -0.4 0.3 0.6
v -0.3 0.3 0.6
v 0.3 0.3 0.6
v 0.4 0.3 0.6
v 1 0.3 0.6
v 1.1 0.3 0.6
v 1.9 0.3 0.6
v -2 0.3 0.0999999
v -1.5 0.3 0.0999999
v -1.4 0.3 0.0999999
v -1.1 0.3 0.0999999
v -1 0.3 0.0999999
v -0.4 0.3 0.0999999
v -0.3 0.3 0.0999999
v 0.3 0.3 0.0999999
v 0.4 0.3 0.0999999
v 1 0.3 0.0999999
v 1.1 0.3 0.0999999
v 1.9 0.3 0.0999999
v -2 0.3 -2.38419e-07
v -1.5 0.3 -2.38419e-07
v -1.4 0.3 -2.38419e-07
v -1.1 0.3 -2.38419e-07
v -1 0.3 -2.38419e-07
v -0.4 0.3 -2.38419e-07
v -0.3 0.3 -2.38419e-07
v 0.3 0.3 -2.38419e-07
v 0.4 0.3 -2.38419e-07
v 1 0.3 -2.38419e-07
v 1.1 0.3 -2.38419e-07
v 1.9 0.3 -2.38419e-07
v -2 0.3 -0.5
v -1.5 0.3 -0.5
v -1.4 0.3 -0.5
v -1.1 0.3 -0.5
v -1 0.3 -0.5
v -0.4 0.3 -0.5
v -0.3 0.3 -0.5
v 0.3 0.3 -0.5
v 0.4 0.3 -0.5
v 1 0.3 -0.5
v 1.1 0.3 -0.5
v 1.9 0.3 -0.5
v -2 0.3 -0.6
v -1.5 0.3 -0.6
v -1.4 0.3 -0.6
v -1.1 0.3 -0.6
v -1 0.3 -0.6
v -0.4 0.3 -0.6
v -0.3 0.3 -0.6
v 0.3 0.3 -0.6
v 0.4 0.3 -0.6
v 1 0.3 -0.6
v 1.1 0.3 -0.6
v 1.9 0.3 -0.6
v -2 0.3 -1.1
v -1.5 0.3 -1.1
v -1.4 0.3 -1.1
v -1.1 0.3 -1.1
v -1 0.3 -1.1
v -0.4 0.3 -1.1
v -0.3 0.3 -1.1
v 0.3 0.3 -1.1
v 0.4 0.3 -1.1
v 1 0.3 -1.1
v 1.1 0.3 -1.1
v 1.9 0.3 -1.1
v -2 0.3 -1.2
v -1.5 0.3 -1.2
v -1.4 0.3 -1.2
v -1.1 0.3 -1.2
v -1 0.3 -1.2
v -0.4 0.3 -1.2
v -0.3 0.3 -1.2
v 0.3 0.3 -1.2
v 0.4 0.3 -1.2
v 1 0.3 -1.2
v 1.1 0.3 -1.2
v 1.9 0.3 -1.2
v -2 0.3 -1.6
v -1.6 0.3 -1.6
v -2 0.3 -1.9
v -1.6 0.3 -1.9
v -1.5 0.3 -1.9
v -1.4 0.3 -1.9
v -1.1 0.3 -1.9
v -1 0.3 -1.9
v -0.4 0.3 -1.9
v -0.3 0.3 -1.9
v 0.3 0.3 -1.9
v 0.4 0.3 -1.9
v 1 0.3 -1.9
v 1.1 0.3 -1.9
v 1.9 0.3 -1.9

# faces
f 15/1/1 14/1/1 13/1/1
f 16/1/1 14/1/1 15/1/1
f 17/1/1 2/1/1 1/1/1
f 18/1/1 2/1/1 17/1/1
f 19/2/1 3/2/1 2/2/1
f 19/1/1 4/1/1 3/1/1
f 20/2/1 5/2/1 4/2/1
f 20/1/1 4/1/1 19/1/1
f 21/1/1 6/1/1 5/1/1
f 21/2/1 5/2/1 20/2/1
f 22/2/1 7/2/1 6/2/1
f 22/1/1 6/1/1 21/1/1
f 23/1/1 8/1/1 7/1/1
f 23/2/1 7/2/1 22/2/1
f 24/2/1 9/2/1 8/2/1
f 24/1/1 8/1/1 23/1/1
f 25/1/1 10/1/1 9/1/1
f 25/2/1 9/2/1 24/2/1
f 26/2/1 11/2/1 10/2/1
f 26/1/1 10/1/1 25/1/1
f 27/1/1 12/1/1 11/1/1
f 27/2/1 11/2/1 26/2/1
f 28/2/1 13/2/1 12/2/1
f 28/1/1 12/1/1 27/1/1
f 29/1/1 2/1/1 18/1/1
f 30/2/1 19/2/1 2/2/1
f 30/1/1 2/1/1 29/1/1
f 31/2/1 19/2/1 30/2/1
f 32/2/1 21/2/1 20/2/1
f 33/2/1 21/2/1 32/2/1
f 34/2/1 23/2/1 22/2/1
f 35/2/1 23/2/1 34/2/1
f 36/2/1 25/2/1 24/2/1
f 37/2/1 25/2/1 36/2/1
f 38/2/1 27/2/1 26/2/1
f 39/2/1 27/2/1 38/2/1
f 40/2/1 13/2/1 28/2/1
f 41/1/1 15/1/1 13/1/1
f 41/2/1 13/2/1 40/2/1
f 42/1/1 15/1/1 41/1/1
f 55/2/1 44/2/1 43/2/1
f 56/2/1 44/2/1 55/2/1
f 57/2/1 46/2/1 45/2/1
f 58/2/1 46/2/1 57/2/1
f 59/2/1 48/2/1 47/2/1
f 60/2/1 48/2/1 59/2/1
f 61/2/1 50/2/1 49/2/1
f 62/2/1 50/2/1 61/2/1
f 63/2/1 52/2/1 51/2/1
f 64/2/1 52/2/1 63/2/1
f 65/2/1 54/2/1 53/2/1
f 66/2/1 54/2/1 65/2/1
f 79/2/1 68/2/1 67/2/1
f 80/2/1 68/2/1 79/2/1
f 81/2/1 70/2/1 69/2/1
f 82/2/1 70/2/1 81/2/1
f 83/2/1 72/2/1 71/2/1
f 84/2/1 72/2/1 83/2/1
f 85/2/1 74/2/1 73/2/1
f 86/2/1 74/2/1 85/2/1
f 87/2/1 76/2/1 75/2/1
f 88/2/1 76/2/1 87/2/1
f 89/2/1 78/2/1 77/2/1
f 90/2/1 78/2/1 89/2/1
f 103/2/1 92/2/1 91/2/1
f 104/2/1 92/2/1 103/2/1
f 105/2/1 94/2/1 93/2/1
f 106/2/1 94/2/1 105/2/1
f 107/2/1 96/2/1 95/2/1
f 108/2/1 96/2/1 107/2/1
f 109/2/1 98/2/1 97/2/1
f 110/2/1 98/2/1 109/2/1
f 111/2/1 100/2/1 99/2/1
f 112/2/1 100/2/1 111/2/1
f 113/2/1 102/2/1 101/2/1
f 114/2/1 102/2/1 113/2/1
f 127/2/1 116/2/1 115/2/1
f 128/2/1 116/2/1 127/2/1
f 129/2/1 118/2/1 117/2/1
f 130/2/1 118/2/1 129/2/1
f 131/2/1 120/2/1 119/2/1
f 132/2/1 120/2/1 131/2/1
f 133/2/1 122/2/1 121/2/1
f 134/2/1 122/2/1 133/2/1
f 135/2/1 124/2/1 123/2/1
f 136/2/1 124/2/1 135/2/1
f 137/2/1 126/2/1 125/2/1
f 138/2/1 126/2/1 137/2/1
f 151/2/1 140/2/1 139/2/1
f 152/2/1 140/2/1 151/2/1
f 153/2/1 142/2/1 141/2/1
f 154/2/1 142/2/1 153/2/1
f 155/2/1 144/2/1 143/2/1
f 156/2/1 144/2/1 155/2/1
f 157/2/1 146/2/1 145/2/1
f 158/2/1 146/2/1 157/2/1
f 159/2/1 148/2/1 147/2/1
f 160/2/1 148/2/1 159/2/1
f 161/2/1 150/2/1 149/2/1
f 162/2/1 150/2/1 161/2/1
f 165/1/1 164/1/1 163/1/1
f 166/1/1 164/1/1 165/1/1
f 167/2/2 168/2/2 179/2/2
f 179/2/2 168/2/2 180/2/2
f 169/2/2 170/2/2 181/2/2
f 181/2/2 170/2/2 182/2/2
f 171/2/2 172/2/2 183/2/2
f 183/2/2 172/2/2 184/2/2
f 173/2/2 174/2/2 185/2/2
f 185/2/2 174/2/2 186/2/2
f 175/2/2 176/2/2 187/2/2
f 187/2/2 176/2/2 188/2/2
f 177/2/2 178/2/2 189/2/2
f 189/2/2 178/2/2 190/2/2
f 191/2/2 192/2/2 203/2/2
f 203/2/2 192/2/2 204/2/2
f 193/2/2 194/2/2 205/2/2
f 205/2/2 194/2/2 206/2/2
f 195/2/2 196/2/2 207/2/2
f 207/2/2 196/2/2 208/2/2
f 197/2/2 198/2/2 209/2/2
f 209/2/2 198/2/2 210/2/2
f 199/2/2 200/2/2 211/2/2
f 211/2/2 200/2/2 212/2/2
f 201/2/2 202/2/2 213/2/2
f 213/2/2 202/2/2 214/2/2
f 215/2/2 216/2/2 227/2/2
f 227/2/2 216/2/2 228/2/2
f 217/2/2 218/2/2 229/2/2
f 229/2/2 218/2/2 230/2/2
f 219/2/2 220/2/2 231/2/2
f 231/2/2 220/2/2 232/2/2
f 221/2/2 222/2/2 233/2/2
f 233/2/2 222/2/2 234/2/2
f 223/2/2 224/2/2 235/2/2
f 235/2/2 224/2/2 236/2/2
f 225/2/2 226/2/2 237/2/2
f 237/2/2 226/2/2 238/2/2
f 239/2/2 240/2/2 251/2/2
f 251/2/2 240/2/2 252/2/2
f 241/2/2 242/2/2 253/2/2
f 253/2/2 242/2/2 254/2/2
f 243/2/2 244/2/2 255/2/2
f 255/2/2 244/2/2 256/2/2
f 245/2/2 246/2/2 257/2/2
f 257/2/2 246/2/2 258/2/2
f 247/2/2 248/2/2 259/2/2
f 259/2/2 248/2/2 260/2/2
f 249/2/2 250/2/2 261/2/2
f 261/2/2 250/2/2 262/2/2
f 263/2/2 264/2/2 275/2/2
f 275/2/2 264/2/2 276/2/2
f 265/2/2 266/2/2 277/2/2
f 277/2/2 266/2/2 278/2/2
f 267/2/2 268/2/2 279/2/2
f 279/2/2 268/2/2 280/2/2
f 269/2/2 270/2/2 281/2/2
f 281/2/2 270/2/2 282/2/2
f 271/2/2 272/2/2 283/2/2
f 283/2/2 272/2/2 284/2/2
f 273/2/2 274/2/2 285/2/2
f 285/2/2 274/2/2 286/2/2
f 287/2/2 288/2/2 299/2/2
f 299/2/2 288/2/2 300/2/2
f 289/2/2 290/2/2 301/2/2
f 301/2/2 290/2/2 302/2/2
f 291/2/2 292/2/2 303/2/2
f 303/2/2 292/2/2 304/2/2
f 293/2/2 294/2/2 305/2/2
f 305/2/2 294/2/2 306/2/2
f 295/2/2 296/2/2 307/2/2
f 307/2/2 296/2/2 308/2/2
f 297/2/2 298/2/2 309/2/2
f 309/2/2 298/2/2 310/2/2
f 311/1/2 312/1/2 313/1/2
f 313/1/2 312/1/2 314/1/2
f 317/1/3 316/1/3 315/1/3
f 318/1/3 316/1/3 317/1/3
f 321/1/3 320/1/3 319/1/3
f 322/1/3 320/1/3 321/1/3
f 323/2/3 322/2/3 321/2/3
f 324/2/3 322/2/3 323/2/3
f 327/2/3 326/2/3 325/2/3
f 328/2/3 326/2/3 327/2/3
f 331/2/3 330/2/3 329/2/3
f 332/2/3 330/2/3 331/2/3
f 335/2/3 334/2/3 333/2/3
f 336/2/3 334/2/3 335/2/3
f 339/2/3 338/2/3 337/2/3
f 340/2/3 338/2/3 339/2/3
f 343/2/3 342/2/3 341/2/3
f 344/2/3 342/2/3 343/2/3
f 347/2/3 346/2/3 345/2/3
f 348/2/3 346/2/3 347/2/3
f 351/2/3 350/2/3 349/2/3
f 352/2/3 350/2/3 351/2/3
f 355/2/3 354/2/3 353/2/3
f 356/2/3 354/2/3 355/2/3
f 359/2/3 358/2/3 357/2/3
f 360/2/3 358/2/3 359/2/3
f 363/2/3 362/2/3 361/2/3
f 364/2/3 362/2/3 363/2/3
f 367/2/3 366/2/3 365/2/3
f 368/2/3 366/2/3 367/2/3
f 371/2/3 370/2/3 369/2/3
f 372/2/3 370/2/3 371/2/3
f 375/2/3 374/2/3 373/2/3
f 376/2/3 374/2/3 375/2/3
f 379/2/3 378/2/3 377/2/3
f 380/2/3 378/2/3 379/2/3
f 383/2/3 382/2/3 381/2/3
f 384/2/3 382/2/3 383/2/3
f 387/2/3 386/2/3 385/2/3
f 388/2/3 386/2/3 387/2/3
f 391/2/3 390/2/3 389/2/3
f 392/2/3 390/2/3 391/2/3
f 395/2/3 394/2/3 393/2/3
f 396/2/3 394/2/3 395/2/3
f 399/2/3 398/2/3 397/2/3
f 400/2/3 398/2/3 399/2/3
f 403/2/3 402/2/3 401/2/3
f 404/2/3 402/2/3 403/2/3
f 407/2/3 406/2/3 405/2/3
f 408/2/3 406/2/3 407/2/3
f 411/2/3 410/2/3 409/2/3
f 412/2/3 410/2/3 411/2/3
f 415/2/3 414/2/3 413/2/3
f 416/2/3 414/2/3 415/2/3
f 419/2/3 418/2/3 417/2/3
f 420/2/3 418/2/3 419/2/3
f 423/2/3 422/2/3 421/2/3
f 424/2/3 422/2/3 423/2/3
f 427/2/3 426/2/3 425/2/3
f 428/2/3 426/2/3 427/2/3
f 431/2/3 430/2/3 429/2/3
f 432/2/3 430/2/3 431/2/3
f 435/2/3 434/2/3 433/2/3
f 436/2/3 434/2/3 435/2/3
f 439/2/3 438/2/3 437/2/3
f 440/2/3 438/2/3 439/2/3
f 443/2/3 442/2/3 441/2/3
f 444/2/3 442/2/3 443/2/3
f 447/2/3 446/2/3 445/2/3
f 448/2/3 446/2/3 447/2/3
f 451/2/3 450/2/3 449/2/3
f 452/2/3 450/2/3 451/2/3
f 455/2/3 454/2/3 453/2/3
f 456/2/3 454/2/3 455/2/3
f 459/2/3 458/2/3 457/2/3
f 460/2/3 458/2/3 459/2/3
f 463/2/3 462/2/3 461/2/3
f 464/2/3 462/2/3 463/2/3
f 465/2/4 466/2/4 467/2/4
f 467/2/4 466/2/4 468/2/4
f 469/2/4 470/2/4 471/2/4
f 471/2/4 470/2/4 472/2/4
f 473/2/4 474/2/4 475/2/4
f 475/2/4 474/2/4 476/2/4
f 477/2/4 478/2/4 479/2/4
f 479/2/4 478/2/4 480/2/4
f 481/2/4 482/2/4 483/2/4
f 483/2/4 482/2/4 484/2/4
f 485/2/4 486/2/4 487/2/4
f 487/2/4 486/2/4 488/2/4
f 489/2/4 490/2/4 491/2/4
f 491/2/4 490/2/4 492/2/4
f 493/2/4 494/2/4 495/2/4
f 495/2/4 494/2/4 496/2/4
f 497/2/4 498/2/4 499/2/4
f 499/2/4 498/2/4 500/2/4
f 501/2/4 502/2/4 503/2/4
f 503/2/4 502/2/4 504/2/4
f 505/2/4 506/2/4 507/2/4
f 507/2/4 506/2/4 508/2/4
f 509/2/4 510/2/4 511/2/4
f 511/2/4 510/2/4 512/2/4
f 513/2/4 514/2/4 515/2/4
f 515/2/4 514/2/4 516/2/4
f 517/2/4 518/2/4 519/2/4
f 519/2/4 518/2/4 520/2/4
f 521/2/4 522/2/4 523/2/4
f 523/2/4 522/2/4 524/2/4
f 525/2/4 526/2/4 527/2/4
f 527/2/4 526/2/4 528/2/4
f 529/2/4 530/2/4 531/2/4
f 531/2/4 530/2/4 532/2/4
f 533/2/4 534/2/4 535/2/4
f 535/2/4 534/2/4 536/2/4
f 537/2/4 538/2/4 539/2/4
f 539/2/4 538/2/4 540/2/4
f 541/2/4 542/2/4 543/2/4
f 543/2/4 542/2/4 544/2/4
f 545/2/4 546/2/4 547/2/4
f 547/2/4 546/2/4 548/2/4
f 549/2/4 550/2/4 551/2/4
f 551/2/4 550/2/4 552/2/4
f 553/2/4 554/2/4 555/2/4
f 555/2/4 554/2/4 556/2/4
f 557/2/4 558/2/4 559/2/4
f 559/2/4 558/2/4 560/2/4
f 561/2/4 562/2/4 563/2/4
f 563/2/4 562/2/4 564/2/4
f 565/2/4 566/2/4 567/2/4
f 567/2/4 566/2/4 568/2/4
f 569/2/4 570/2/4 571/2/4
f 571/2/4 570/2/4 572/2/4
f 573/2/4 574/2/4 575/2/4
f 575/2/4 574/2/4 576/2/4
f 577/2/4 578/2/4 579/2/4
f 579/2/4 578/2/4 580/2/4
f 581/2/4 582/2/4 583/2/4
f 583/2/4 582/2/4 584/2/4
f 585/1/4 586/1/4 587/1/4
f 587/1/4 586/1/4 588/1/4
f 587/2/4 588/2/4 589/2/4
f 589/2/4 588/2/4 590/2/4
f 590/2/4 588/2/4 591/2/4
f 589/1/4 590/1/4 592/1/4
f 592/1/4 590/1/4 593/1/4
f 592/2/4 593/2/4 595/2/4
f 593/2/4 594/2/4 595/2/4
f 595/2/4 594/2/4 596/2/4
f 596/2/4 594/2/4 597/2/4
f 595/1/4 596/1/4 598/1/4
f 598/1/4 596/1/4 599/1/4
f 598/2/4 599/2/4 601/2/4
f 599/2/4 600/2/4 601/2/4
f 601/2/4 600/2/4 602/2/4
f 602/2/4 600/2/4 603/2/4
f 601/1/4 602/1/4 604/1/4
f 604/1/4 602/1/4 605/1/4
f 604/2/4 605/2/4 607/2/4
f 605/2/4 606/2/4 607/2/4
f 607/2/4 606/2/4 608/2/4
f 608/2/4 606/2/4 609/2/4
f 607/1/4 608/1/4 610/1/4
f 610/1/4 608/1/4 611/1/4
f 610/2/4 611/2/4 613/2/4
f 611/2/4 612/2/4 613/2/4
f 613/2/4 612/2/4 614/2/4
f 614/2/4 612/2/4 615/2/4
f 613/1/4 614/1/4 616/1/4
f 616/1/4 614/1/4 617/1/4
f 616/2/4 617/2/4 619/2/4
f 617/2/4 618/2/4 619/2/4
f 619/2/4 618/2/4 620/2/4
f 620/2/4 618/2/4 621/2/4
f 622/1/4 623/1/4 624/1/4
f 622/1/4 624/1/4 626/1/4
f 624/1/4 625/1/4 626/1/4
f 626/1/4 625/1/4 627/1/4
f 630/1/5 629/1/5 628/1/5
f 631/1/5 629/1/5 630/1/5
f 632/1/5 629/1/5 631/1/5
f 633/1/5 629/1/5 632/1/5
f 634/1/5 629/1/5 633/1/5
f 635/1/5 629/1/5 634/1/5
f 636/1/5 629/1/5 635/1/5
f 637/1/5 629/1/5 636/1/5
f 638/1/5 629/1/5 637/1/5
f 639/1/5 629/1/5 638/1/5
f 640/1/5 630/1/5 628/1/5
f 641/2/5 631/2/5 630/2/5
f 641/1/5 630/1/5 640/1/5
f 642/2/5 641/2/5 640/2/5
f 643/2/5 631/2/5 641/2/5
f 643/2/5 641/2/5 642/2/5
f 644/2/5 631/2/5 643/2/5
f 645/1/5 632/1/5 631/1/5
f 645/2/5 631/2/5 644/2/5
f 646/2/5 633/2/5 632/2/5
f 646/1/5 632/1/5 645/1/5
f 647/1/5 634/1/5 633/1/5
f 647/2/5 633/2/5 646/2/5
f 648/2/5 635/2/5 634/2/5
f 648/1/5 634/1/5 647/1/5
f 649/1/5 636/1/5 635/1/5
f 649/2/5 635/2/5 648/2/5
f 650/2/5 637/2/5 636/2/5
f 650/1/5 636/1/5 649/1/5
f 651/1/5 638/1/5 637/1/5
f 651/2/5 637/2/5 650/2/5
f 652/2/5 639/2/5 638/2/5
f 652/1/5 638/1/5 651/1/5
f 653/1/5 629/1/5 639/1/5
f 653/2/5 639/2/5 652/2/5
f 654/1/5 643/1/5 642/1/5
f 655/2/5 644/2/5 643/2/5
f 655/1/5 643/1/5 654/1/5
f 656/1/5 652/1/5 651/1/5
f 656/2/5 644/2/5 655/2/5
f 656/1/5 645/1/5 644/1/5
f 656/1/5 653/1/5 652/1/5
f 656/1/5 646/1/5 645/1/5
f 656/1/5 647/1/5 646/1/5
f 656/1/5 651/1/5 650/1/5
f 656/1/5 650/1/5 649/1/5
f 656/1/5 649/1/5 648/1/5
f 656/1/5 648/1/5 647/1/5
f 657/1/5 653/1/5 656/1/5
f 658/1/5 653/1/5 657/1/5
f 659/1/5 653/1/5 658/1/5
f 660/1/5 653/1/5 659/1/5
f 661/1/5 653/1/5 660/1/5
f 662/1/5 653/1/5 661/1/5
f 663/1/5 653/1/5 662/1/5
f 664/1/5 653/1/5 663/1/5
f 665/1/5 629/1/5 653/1/5
f 665/1/5 653/1/5 664/1/5
f 666/2/5 655/2/5 654/2/5
f 666/2/5 656/2/5 655/2/5
f 666/2/5 657/2/5 656/2/5
f 667/2/5 657/2/5 666/2/5
f 668/2/5 657/2/5 667/2/5
f 669/1/5 658/1/5 657/1/5
f 669/2/5 657/2/5 668/2/5
f 670/2/5 659/2/5 658/2/5
f 670/1/5 658/1/5 669/1/5
f 671/1/5 660/1/5 659/1/5
f 671/2/5 659/2/5 670/2/5
f 672/2/5 661/2/5 660/2/5
f 672/1/5 660/1/5 671/1/5
f 673/1/5 662/1/5 661/1/5
f 673/2/5 661/2/5 672/2/5
f 674/2/5 663/2/5 662/2/5
f 674/1/5 662/1/5 673/1/5
f 675/1/5 664/1/5 663/1/5
f 675/2/5 663/2/5 674/2/5
f 676/2/5 665/2/5 664/2/5
f 676/1/5 664/1/5 675/1/5
f 677/1/5 629/1/5 665/1/5
f 677/2/5 665/2/5 676/2/5
f 678/1/5 667/1/5 666/1/5
f 679/2/5 668/2/5 667/2/5
f 679/1/5 667/1/5 678/1/5
f 680/1/5 676/1/5 675/1/5
f 680/2/5 668/2/5 679/2/5
f 680/1/5 674/1/5 673/1/5
f 680/1/5 677/1/5 676/1/5
f 680/1/5 675/1/5 674/1/5
f 680/1/5 673/1/5 672/1/5
f 680/1/5 672/1/5 671/1/5
f 680/1/5 671/1/5 670/1/5
f 680/1/5 670/1/5 669/1/5
f 680/1/5 669/1/5 668/1/5
f 681/1/5 677/1/5 680/1/5
f 682/1/5 677/1/5 681/1/5
f 683/1/5 677/1/5 682/1/5
f 684/1/5 677/1/5 683/1/5
f 685/1/5 677/1/5 684/1/5
f 686/1/5 677/1/5 685/1/5
f 687/1/5 677/1/5 686/1/5
f 688/1/5 677/1/5 687/1/5
f 689/1/5 629/1/5 677/1/5
f 689/1/5 677/1/5 688/1/5
f 690/2/5 679/2/5 678/2/5
f 690/2/5 680/2/5 679/2/5
f 690/2/5 681/2/5 680/2/5
f 691/2/5 681/2/5 690/2/5
f 692/2/5 681/2/5 691/2/5
f 693/1/5 682/1/5 681/1/5
f 693/2/5 681/2/5 692/2/5
f 694/2/5 683/2/5 682/2/5
f 694/1/5 682/1/5 693/1/5
f 695/1/5 684/1/5 683/1/5
f 695/2/5 683/2/5 694/2/5
f 696/2/5 685/2/5 684/2/5
f 696/1/5 684/1/5 695/1/5
f 697/1/5 686/1/5 685/1/5
f 697/2/5 685/2/5 696/2/5
f 698/2/5 687/2/5 686/2/5
f 698/1/5 686/1/5 697/1/5
f 699/1/5 688/1/5 687/1/5
f 699/2/5 687/2/5 698/2/5
f 700/2/5 689/2/5 688/2/5
f 700/1/5 688/1/5 699/1/5
f 701/1/5 629/1/5 689/1/5
f 701/2/5 689/2/5 700/2/5
f 702/1/5 691/1/5 690/1/5
f 703/2/5 692/2/5 691/2/5
f 703/1/5 691/1/5 702/1/5
f 704/1/5 700/1/5 699/1/5
f 704/2/5 692/2/5 703/2/5
f 704/1/5 698/1/5 697/1/5
f 704/1/5 701/1/5 700/1/5
f 704/1/5 699/1/5 698/1/5
f 704/1/5 697/1/5 696/1/5
f 704/1/5 696/1/5 695/1/5
f 704/1/5 695/1/5 694/1/5
f 704/1/5 694/1/5 693/1/5
f 704/1/5 693/1/5 692/1/5
f 705/1/5 701/1/5 704/1/5
f 706/1/5 701/1/5 705/1/5
f 707/1/5 701/1/5 706/1/5
f 708/1/5 701/1/5 707/1/5
f 709/1/5 701/1/5 708/1/5
f 710/1/5 701/1/5 709/1/5
f 711/1/5 701/1/5 710/1/5
f 712/1/5 701/1/5 711/1/5
f 713/1/5 629/1/5 701/1/5
f 713/1/5 701/1/5 712/1/5
f 714/2/5 703/2/5 702/2/5
f 714/2/5 704/2/5 703/2/5
f 714/2/5 705/2/5 704/2/5
f 715/2/5 705/2/5 714/2/5
f 716/2/5 705/2/5 715/2/5
f 717/1/5 706/1/5 705/1/5
f 717/2/5 705/2/5 716/2/5
f 718/2/5 707/2/5 706/2/5
f 718/1/5 706/1/5 717/1/5
f 719/1/5 708/1/5 707/1/5
f 719/2/5 707/2/5 718/2/5
f 720/2/5 709/2/5 708/2/5
f 720/1/5 708/1/5 719/1/5
f 721/1/5 710/1/5 709/1/5
f 721/2/5 709/2/5 720/2/5
f 722/2/5 711/2/5 710/2/5
f 722/1/5 710/1/5 721/1/5
f 723/1/5 712/1/5 711/1/5
f 723/2/5 711/2/5 722/2/5
f 724/2/5 713/2/5 712/2/5
f 724/1/5 712/1/5 723/1/5
f 725/1/5 629/1/5 713/1/5
f 725/2/5 713/2/5 724/2/5
f 726/1/5 715/1/5 714/1/5
f 727/2/5 716/2/5 715/2/5
f 727/1/5 715/1/5 726/1/5
f 728/1/5 724/1/5 723/1/5
f 728/2/5 716/2/5 727/2/5
f 728/1/5 722/1/5 721/1/5
f 728/1/5 725/1/5 724/1/5
f 728/1/5 723/1/5 722/1/5
f 728/1/5 721/1/5 720/1/5
f 728/1/5 720/1/5 719/1/5
f 728/1/5 719/1/5 718/1/5
f 728/1/5 718/1/5 717/1/5
f 728/1/5 717/1/5 716/1/5
f 729/1/5 725/1/5 728/1/5
f 730/1/5 725/1/5 729/1/5
f 731/1/5 725/1/5 730/1/5
f 732/1/5 725/1/5 731/1/5
f 733/1/5 725/1/5 732/1/5
f 734/1/5 725/1/5 733/1/5
f 735/1/5 725/1/5 734/1/5
f 736/1/5 725/1/5 735/1/5
f 737/1/5 629/1/5 725/1/5
f 737/1/5 725/1/5 736/1/5
f 738/2/5 727/2/5 726/2/5
f 738/2/5 728/2/5 727/2/5
f 738/2/5 729/2/5 728/2/5
f 739/2/5 729/2/5 738/2/5
f 740/2/5 729/2/5 739/2/5
f 741/1/5 730/1/5 729/1/5
f 741/2/5 729/2/5 740/2/5
f 742/2/5 731/2/5 730/2/5
f 742/1/5 730/1/5 741/1/5
f 743/1/5 732/1/5 731/1/5
f 743/2/5 731/2/5 742/2/5
f 744/2/5 733/2/5 732/2/5
f 744/1/5 732/1/5 743/1/5
f 745/1/5 734/1/5 733/1/5
f 745/2/5 733/2/5 744/2/5
f 746/2/5 735/2/5 734/2/5
f 746/1/5 734/1/5 745/1/5
f 747/1/5 736/1/5 735/1/5
f 747/2/5 735/2/5 746/2/5
f 748/2/5 737/2/5 736/2/5
f 748/1/5 736/1/5 747/1/5
f 749/1/5 629/1/5 737/1/5
f 749/2/5 737/2/5 748/2/5
f 750/1/5 739/1/5 738/1/5
f 751/2/5 740/2/5 739/2/5
f 751/1/5 739/1/5 750/1/5
f 752/1/5 748/1/5 747/1/5
f 752/2/5 740/2/5 751/2/5
f 752/1/5 746/1/5 745/1/5
f 752/1/5 749/1/5 748/1/5
f 752/1/5 747/1/5 746/1/5
f 752/1/5 745/1/5 744/1/5
f 752/1/5 744/1/5 743/1/5
f 752/1/5 743/1/5 742/1/5
f 752/1/5 742/1/5 741/1/5
f 752/1/5 741/1/5 740/1/5
f 753/1/5 749/1/5 752/1/5
f 754/1/5 749/1/5 753/1/5
f 755/1/5 749/1/5 754/1/5
f 756/1/5 749/1/5 755/1/5
f 757/1/5 749/1/5 756/1/5
f 758/1/5 749/1/5 757/1/5
f 759/1/5 749/1/5 758/1/5
f 760/1/5 749/1/5 759/1/5
f 761/1/5 629/1/5 749/1/5
f 761/1/5 749/1/5 760/1/5
f 762/2/5 751/2/5 750/2/5
f 762/2/5 752/2/5 751/2/5
f 762/2/5 753/2/5 752/2/5
f 763/2/5 753/2/5 762/2/5
f 764/2/5 755/2/5 754/2/5
f 764/1/5 756/1/5 755/1/5
f 765/2/5 757/2/5 756/2/5
f 765/1/5 756/1/5 764/1/5
f 766/1/5 758/1/5 757/1/5
f 766/2/5 757/2/5 765/2/5
f 767/2/5 759/2/5 758/2/5
f 767/1/5 758/1/5 766/1/5
f 768/1/5 760/1/5 759/1/5
f 768/2/5 759/2/5 767/2/5
f 769/2/5 761/2/5 760/2/5
f 769/1/5 760/1/5 768/1/5
f 770/1/5 754/1/5 753/1/5
f 770/2/5 753/2/5 763/2/5
f 771/2/5 767/2/5 766/2/5
f 771/1/5 754/1/5 770/1/5
f 771/2/5 768/2/5 767/2/5
f 771/2/5 766/2/5 765/2/5
f 771/2/5 765/2/5 764/2/5
f 771/2/5 764/2/5 754/2/5
f 771/2/5 769/2/5 768/2/5
f 772/2/5 770/2/5 763/2/5
f 772/1/5 763/1/5 762/1/5
f 772/2/5 771/2/5 770/2/5
f 773/1/5 629/1/5 761/1/5
f 773/2/5 771/2/5 772/2/5
f 773/2/5 769/2/5 771/2/5
f 773/2/5 761/2/5 769/2/5
f 774/1/5 772/1/5 762/1/5
f 774/1/5 773/1/5 772/1/5
f 775/1/5 629/1/5 773/1/5
f 775/1/5 773/1/5 774/1/5
f 776/1/6 777/1/6 789/1/6
f 787/1/6 788/1/6 789/1/6
f 786/1/6 787/1/6 789/1/6
f 785/1/6 786/1/6 789/1/6
f 784/1/6 785/1/6 789/1/6
f 783/1/6 784/1/6 789/1/6
f 782/1/6 783/1/6 789/1/6
f 781/1/6 782/1/6 789/1/6
f 780/1/6 781/1/6 789/1/6
f 779/1/6 780/1/6 789/1/6
f 778/1/6 779/1/6 789/1/6
f 777/1/6 778/1/6 789/1/6
f 789/1/6 788/1/6 790/1/6
f 791/1/6 792/1/6 793/1/6
f 793/1/6 792/1/6 794/1/6
f 794/1/6 792/1/6 795/1/6
f 795/1/6 792/1/6 796/1/6
f 796/1/6 792/1/6 797/1/6
f 797/1/6 792/1/6 798/1/6
f 798/1/6 792/1/6 799/1/6
f 799/1/6 792/1/6 800/1/6
f 800/1/6 792/1/6 801/1/6
f 801/1/6 792/1/6 802/1/6
f 802/1/6 792/1/6 803/1/6
f 803/1/6 792/1/6 804/1/6
f 804/1/6 792/1/6 805/1/6
f 795/1/6 796/1/6 807/1/6
f 807/1/6 796/1/6 808/1/6
f 797/1/6 798/1/6 809/1/6
f 809/1/6 798/1/6 810/1/6
f 799/1/6 800/1/6 811/1/6
f 811/1/6 800/1/6 812/1/6
f 801/1/6 802/1/6 813/1/6
f 813/1/6 802/1/6 814/1/6
f 803/1/6 804/1/6 815/1/6
f 815/1/6 804/1/6 816/1/6
f 805/1/6 792/1/6 817/1/6
f 815/1/6 816/1/6 818/1/6
f 816/1/6 817/1/6 818/1/6
f 813/1/6 814/1/6 818/1/6
f 809/1/6 810/1/6 818/1/6
f 814/1/6 815/1/6 818/1/6
f 811/1/6 812/1/6 818/1/6
f 812/1/6 813/1/6 818/1/6
f 807/1/6 808/1/6 818/1/6
f 810/1/6 811/1/6 818/1/6
f 806/1/6 807/1/6 818/1/6
f 808/1/6 809/1/6 818/1/6
f 818/1/6 817/1/6 819/1/6
f 819/1/6 817/1/6 820/1/6
f 820/1/6 817/1/6 821/1/6
f 821/1/6 817/1/6 822/1/6
f 822/1/6 817/1/6 823/1/6
f 823/1/6 817/1/6 824/1/6
f 824/1/6 817/1/6 825/1/6
f 825/1/6 817/1/6 826/1/6
f 826/1/6 817/1/6 827/1/6
f 827/1/6 817/1/6 828/1/6
f 817/1/6 792/1/6 829/1/6
f 828/1/6 817/1/6 829/1/6
f 819/1/6 820/1/6 831/1/6
f 831/1/6 820/1/6 832/1/6
f 821/1/6 822/1/6 833/1/6
f 833/1/6 822/1/6 834/1/6
f 823/1/6 824/1/6 835/1/6
f 835/1/6 824/1/6 836/1/6
f 825/1/6 826/1/6 837/1/6
f 837/1/6 826/1/6 838/1/6
f 827/1/6 828/1/6 839/1/6
f 839/1/6 828/1/6 840/1/6
f 829/1/6 792/1/6 841/1/6
f 837/1/6 838/1/6 842/1/6
f 840/1/6 841/1/6 842/1/6
f 839/1/6 840/1/6 842/1/6
f 833/1/6 834/1/6 842/1/6
f 838/1/6 839/1/6 842/1/6
f 835/1/6 836/1/6 842/1/6
f 836/1/6 837/1/6 842/1/6
f 831/1/6 832/1/6 842/1/6
f 834/1/6 835/1/6 842/1/6
f 830/1/6 831/1/6 842/1/6
f 832/1/6 833/1/6 842/1/6
f 842/1/6 841/1/6 843/1/6
f 843/1/6 841/1/6 844/1/6
f 844/1/6 841/1/6 845/1/6
f 845/1/6 841/1/6 846/1/6
f 846/1/6 841/1/6 847/1/6
f 847/1/6 841/1/6 848/1/6
f 848/1/6 841/1/6 849/1/6
f 849/1/6 841/1/6 850/1/6
f 850/1/6 841/1/6 851/1/6
f 851/1/6 841/1/6 852/1/6
f 841/1/6 792/1/6 853/1/6
f 852/1/6 841/1/6 853/1/6
f 843/1/6 844/1/6 855/1/6
f 855/1/6 844/1/6 856/1/6
f 845/1/6 846/1/6 857/1/6
f 857/1/6 846/1/6 858/1/6
f 847/1/6 848/1/6 859/1/6
f 859/1/6 848/1/6 860/1/6
f 849/1/6 850/1/6 861/1/6
f 861/1/6 850/1/6 862/1/6
f 851/1/6 852/1/6 863/1/6
f 863/1/6 852/1/6 864/1/6
f 853/1/6 792/1/6 865/1/6
f 861/1/6 862/1/6 866/1/6
f 864/1/6 865/1/6 866/1/6
f 863/1/6 864/1/6 866/1/6
f 857/1/6 858/1/6 866/1/6
f 862/1/6 863/1/6 866/1/6
f 859/1/6 860/1/6 866/1/6
f 860/1/6 861/1/6 866/1/6
f 855/1/6 856/1/6 866/1/6
f 858/1/6 859/1/6 866/1/6
f 854/1/6 855/1/6 866/1/6
f 856/1/6 857/1/6 866/1/6
f 866/1/6 865/1/6 867/1/6
f 867/1/6 865/1/6 868/1/6
f 868/1/6 865/1/6 869/1/6
f 869/1/6 865/1/6 870/1/6
f 870/1/6 865/1/6 871/1/6
f 871/1/6 865/1/6 872/1/6
f 872/1/6 865/1/6 873/1/6
f 873/1/6 865/1/6 874/1/6
f 874/1/6 865/1/6 875/1/6
f 875/1/6 865/1/6 876/1/6
f 865/1/6 792/1/6 877/1/6
f 876/1/6 865/1/6 877/1/6
f 867/1/6 868/1/6 879/1/6
f 879/1/6 868/1/6 880/1/6
f 869/1/6 870/1/6 881/1/6
f 881/1/6 870/1/6 882/1/6
f 871/1/6 872/1/6 883/1/6
f 883/1/6 872/1/6 884/1/6
f 873/1/6 874/1/6 885/1/6
f 885/1/6 874/1/6 886/1/6
f 875/1/6 876/1/6 887/1/6
f 887/1/6 876/1/6 888/1/6
f 877/1/6 792/1/6 889/1/6
f 885/1/6 886/1/6 890/1/6
f 888/1/6 889/1/6 890/1/6
f 887/1/6 888/1/6 890/1/6
f 881/1/6 882/1/6 890/1/6
f 886/1/6 887/1/6 890/1/6
f 883/1/6 884/1/6 890/1/6
f 884/1/6 885/1/6 890/1/6
f 879/1/6 880/1/6 890/1/6
f 882/1/6 883/1/6 890/1/6
f 878/1/6 879/1/6 890/1/6
f 880/1/6 881/1/6 890/1/6
f 890/1/6 889/1/6 891/1/6
f 891/1/6 889/1/6 892/1/6
f 892/1/6 889/1/6 893/1/6
f 893/1/6 889/1/6 894/1/6
f 894/1/6 889/1/6 895/1/6
f 895/1/6 889/1/6 896/1/6
f 896/1/6 889/1/6 897/1/6
f 897/1/6 889/1/6 898/1/6
f 898/1/6 889/1/6 899/1/6
f 899/1/6 889/1/6 900/1/6
f 889/1/6 792/1/6 901/1/6
f 900/1/6 889/1/6 901/1/6
f 891/1/6 892/1/6 903/1/6
f 903/1/6 892/1/6 904/1/6
f 893/1/6 894/1/6 905/1/6
f 905/1/6 894/1/6 906/1/6
f 895/1/6 896/1/6 907/1/6
f 907/1/6 896/1/6 908/1/6
f 897/1/6 898/1/6 909/1/6
f 909/1/6 898/1/6 910/1/6
f 899/1/6 900/1/6 911/1/6
f 911/1/6 900/1/6 912/1/6
f 901/1/6 792/1/6 913/1/6
f 909/1/6 910/1/6 914/1/6
f 912/1/6 913/1/6 914/1/6
f 911/1/6 912/1/6 914/1/6
f 905/1/6 906/1/6 914/1/6
f 910/1/6 911/1/6 914/1/6
f 907/1/6 908/1/6 914/1/6
f 908/1/6 909/1/6 914/1/6
f 903/1/6 904/1/6 914/1/6
f 906/1/6 907/1/6 914/1/6
f 902/1/6 903/1/6 914/1/6
f 904/1/6 905/1/6 914/1/6
f 914/1/6 913/1/6 915/1/6
f 915/1/6 913/1/6 916/1/6
f 916/1/6 913/1/6 917/1/6
f 917/1/6 913/1/6 918/1/6
f 918/1/6 913/1/6 919/1/6
f 919/1/6 913/1/6 920/1/6
f 920/1/6 913/1/6 921/1/6
f 921/1/6 913/1/6 922/1/6
f 922/1/6 913/1/6 923/1/6
f 923/1/6 913/1/6 924/1/6
f 913/1/6 792/1/6 925/1/6
f 924/1/6 913/1/6 925/1/6
f 915/1/6 916/1/6 926/1/6
f 926/1/6 916/1/6 927/1/6
f 917/1/6 918/1/6 928/1/6
f 928/1/6 918/1/6 929/1/6
f 919/1/6 920/1/6 930/1/6
f 930/1/6 920/1/6 931/1/6
f 921/1/6 922/1/6 932/1/6
f 932/1/6 922/1/6 933/1/6
f 923/1/6 924/1/6 934/1/6
f 934/1/6 924/1/6 935/1/6
f 925/1/6 792/1/6 936/1/6
f 936/1/6 792/1/6 937/1/6
f 937/1/6 792/1/6 938/1/6
f 939/1/6 940/1/6 952/1/6
f 940/2/6 941/2/6 953/2/6
f 952/1/6 940/1/6 953/1/6
f 952/2/6 953/2/6 954/2/6
f 953/2/6 941/2/6 955/2/6
f 954/2/6 953/2/6 955/2/6
f 942/2/6 943/2/6 956/2/6
f 956/2/6 943/2/6 957/2/6
f 944/2/6 945/2/6 958/2/6
f 958/2/6 945/2/6 959/2/6
f 946/2/6 947/2/6 960/2/6
f 960/2/6 947/2/6 961/2/6
f 948/2/6 949/2/6 962/2/6
f 962/2/6 949/2/6 963/2/6
f 950/2/6 951/2/6 964/2/6
f 964/2/6 951/2/6 965/2/6
f 966/2/6 967/2/6 978/2/6
f 978/2/6 967/2/6 979/2/6
f 968/2/6 969/2/6 980/2/6
f 980/2/6 969/2/6 981/2/6
f 970/2/6 971/2/6 982/2/6
f 982/2/6 971/2/6 983/2/6
f 972/2/6 973/2/6 984/2/6
f 984/2/6 973/2/6 985/2/6
f 974/2/6 975/2/6 986/2/6
f 986/2/6 975/2/6 987/2/6
f 976/2/6 977/2/6 988/2/6
f 988/2/6 977/2/6 989/2/6
f 990/2/6 991/2/6 1002/2/6
f 1002/2/6 991/2/6 1003/2/6
f 992/2/6 993/2/6 1004/2/6
f 1004/2/6 993/2/6 1005/2/6
f 994/2/6 995/2/6 1006/2/6
f 1006/2/6 995/2/6 1007/2/6
f 996/2/6 997/2/6 1008/2/6
f 1008/2/6 997/2/6 1009/2/6
f 998/2/6 999/2/6 1010/2/6
f 1010/2/6 999/2/6 1011/2/6
f 1000/2/6 1001/2/6 1012/2/6
f 1012/2/6 1001/2/6 1013/2/6
f 1014/2/6 1015/2/6 1026/2/6
f 1026/2/6 1015/2/6 1027/2/6
f 1016/2/6 1017/2/6 1028/2/6
f 1028/2/6 1017/2/6 1029/2/6
f 1018/2/6 1019/2/6 1030/2/6
f 1030/2/6 1019/2/6 1031/2/6
f 1020/2/6 1021/2/6 1032/2/6
f 1032/2/6 1021/2/6 1033/2/6
f 1022/2/6 1023/2/6 1034/2/6
f 1034/2/6 1023/2/6 1035/2/6
f 1024/2/6 1025/2/6 1036/2/6
f 1036/2/6 1025/2/6 1037/2/6
f 1038/2/6 1039/2/6 1050/2/6
f 1050/2/6 1039/2/6 1051/2/6
f 1040/2/6 1041/2/6 1052/2/6
f 1052/2/6 1041/2/6 1053/2/6
f 1042/2/6 1043/2/6 1054/2/6
f 1054/2/6 1043/2/6 1055/2/6
f 1044/2/6 1045/2/6 1056/2/6
f 1056/2/6 1045/2/6 1057/2/6
f 1046/2/6 1047/2/6 1058/2/6
f 1058/2/6 1047/2/6 1059/2/6
f 1048/2/6 1049/2/6 1060/2/6
f 1060/2/6 1049/2/6 1061/2/6
f 1062/2/6 1063/2/6 1074/2/6
f 1074/2/6 1063/2/6 1075/2/6
f 1074/1/6 1075/1/6 1076/1/6
f 1075/2/6 1063/2/6 1077/2/6
f 1076/1/6 1075/1/6 1077/1/6
f 1077/2/6 1063/2/6 1078/2/6
f 1064/2/6 1065/2/6 1079/2/6
f 1079/2/6 1065/2/6 1080/2/6
f 1066/2/6 1067/2/6 1081/2/6
f 1081/2/6 1067/2/6 1082/2/6
f 1068/2/6 1069/2/6 1083/2/6
f 1083/2/6 1069/2/6 1084/2/6
f 1070/2/6 1071/2/6 1085/2/6
f 1085/2/6 1071/2/6 1086/2/6
f 1072/2/6 1073/2/6 1087/2/6
f 1087/2/6 1073/2/6 1088/2/6
