# MagicaVoxel @ Ephtracy

# group
o 

# material
mtllib estandarte.mtl
usemtl palette

# normals
vn -1 0 0
vn 1 0 0
vn 0 0 1
vn 0 0 -1
vn 0 -1 0
vn 0 1 0

# texcoords
vt 0.00976563 0.5
vt 0.240234 0.5
vt 0.384766 0.5
vt 0.958984 0.5
vt 0.990234 0.5
vt 0.994141 0.5

# verts
v -1 0.2 -1.8
v -1 0.2 -2
v -1 2.2 -1.8
v -1 2.2 -1.9
v -1 2.3 -1.8
v -1 2.3 -1.9
v -1 2.4 -1.8
v -1 2.4 -1.9
v -1 2.5 -1.8
v -1 2.5 -1.9
v -1 2.6 -1.8
v -1 2.6 -1.9
v -1 2.7 -1.8
v -1 2.7 -1.9
v -1 3.9 -1.8
v -1 3.9 -2
v -0.9 0.3 -1.7
v -0.9 0.3 -1.8
v -0.9 2.2 -1.8
v -0.9 2.3 -1.8
v -0.9 2.4 -1.8
v -0.9 2.5 -1.8
v -0.9 2.6 -1.8
v -0.9 2.7 -1.8
v -0.9 3.8 -1.7
v -0.9 3.8 -1.8
v -0.7 0.4 -1.7
v -0.7 0.4 -1.8
v -0.7 0.5 -1.7
v -0.7 0.5 -1.8
v -0.7 3.6 -1.7
v -0.7 3.6 -1.8
v -0.7 3.7 -1.7
v -0.7 3.7 -1.8
v 0.5 0.4 -1.7
v 0.5 0.4 -1.8
v 0.5 0.6 -1.7
v 0.5 0.6 -1.8
v 0.5 3.5 -1.7
v 0.5 3.5 -1.8
v 0.5 3.7 -1.7
v 0.5 3.7 -1.8
v 0.7 0.4 -1.7
v 0.7 0.4 -1.8
v 0.7 0.5 -1.7
v 0.7 0.5 -1.8
v 0.7 0.6 -1.7
v 0.7 0.6 -1.8
v 0.7 0.8 -1.8
v 0.7 0.9 -1.8
v 0.7 1 -1.8
v 0.7 1.1 -1.8
v 0.7 1.2 -1.8
v 0.7 1.3 -1.8
v 0.7 3.5 -1.7
v 0.7 3.5 -1.8
v 0.7 3.6 -1.7
v 0.7 3.6 -1.8
v 0.7 3.7 -1.7
v 0.7 3.7 -1.8
v -0.8 0.4 -1.7
v -0.8 0.4 -1.8
v -0.8 0.5 -1.7
v -0.8 0.5 -1.8
v -0.8 0.6 -1.7
v -0.8 0.6 -1.8
v -0.8 0.8 -1.8
v -0.8 0.9 -1.8
v -0.8 1 -1.8
v -0.8 1.1 -1.8
v -0.8 1.2 -1.8
v -0.8 1.3 -1.8
v -0.8 3.5 -1.7
v -0.8 3.5 -1.8
v -0.8 3.6 -1.7
v -0.8 3.6 -1.8
v -0.8 3.7 -1.7
v -0.8 3.7 -1.8
v -0.6 0.4 -1.7
v -0.6 0.4 -1.8
v -0.6 0.6 -1.7
v -0.6 0.6 -1.8
v -0.6 3.5 -1.7
v -0.6 3.5 -1.8
v -0.6 3.7 -1.7
v -0.6 3.7 -1.8
v 0.6 0.4 -1.7
v 0.6 0.4 -1.8
v 0.6 0.5 -1.7
v 0.6 0.5 -1.8
v 0.6 3.6 -1.7
v 0.6 3.6 -1.8
v 0.6 3.7 -1.7
v 0.6 3.7 -1.8
v 0.8 0.3 -1.7
v 0.8 0.3 -1.8
v 0.8 2.2 -1.8
v 0.8 2.3 -1.8
v 0.8 2.4 -1.8
v 0.8 2.5 -1.8
v 0.8 2.6 -1.8
v 0.8 2.7 -1.8
v 0.8 3.8 -1.7
v 0.8 3.8 -1.8
v 0.9 0.2 -1.8
v 0.9 0.2 -2
v 0.9 2.2 -1.8
v 0.9 2.2 -1.9
v 0.9 2.3 -1.8
v 0.9 2.3 -1.9
v 0.9 2.4 -1.8
v 0.9 2.4 -1.9
v 0.9 2.5 -1.8
v 0.9 2.5 -1.9
v 0.9 2.6 -1.8
v 0.9 2.6 -1.9
v 0.9 2.7 -1.8
v 0.9 2.7 -1.9
v 0.9 3.9 -1.8
v 0.9 3.9 -2
v -0.9 0.3 -1.7
v -0.9 3.8 -1.7
v -0.8 0.4 -1.7
v -0.8 0.5 -1.7
v -0.8 0.6 -1.7
v -0.8 3.5 -1.7
v -0.8 3.6 -1.7
v -0.8 3.7 -1.7
v -0.7 0.4 -1.7
v -0.7 0.5 -1.7
v -0.7 3.6 -1.7
v -0.7 3.7 -1.7
v -0.6 0.4 -1.7
v -0.6 0.6 -1.7
v -0.6 3.5 -1.7
v -0.6 3.7 -1.7
v 0.5 0.4 -1.7
v 0.5 0.6 -1.7
v 0.5 3.5 -1.7
v 0.5 3.7 -1.7
v 0.6 0.4 -1.7
v 0.6 0.5 -1.7
v 0.6 3.6 -1.7
v 0.6 3.7 -1.7
v 0.7 0.4 -1.7
v 0.7 0.5 -1.7
v 0.7 0.6 -1.7
v 0.7 3.5 -1.7
v 0.7 3.6 -1.7
v 0.7 3.7 -1.7
v 0.8 0.3 -1.7
v 0.8 3.8 -1.7
v -1 0.2 -1.8
v -1 2.2 -1.8
v -1 2.3 -1.8
v -1 2.4 -1.8
v -1 2.5 -1.8
v -1 2.6 -1.8
v -1 2.7 -1.8
v -1 3.9 -1.8
v -0.9 0.3 -1.8
v -0.9 2.2 -1.8
v -0.9 2.3 -1.8
v -0.9 2.4 -1.8
v -0.9 2.5 -1.8
v -0.9 2.6 -1.8
v -0.9 2.7 -1.8
v -0.9 3.8 -1.8
v -0.8 0.4 -1.8
v -0.8 0.5 -1.8
v -0.8 0.6 -1.8
v -0.8 0.8 -1.8
v -0.8 0.9 -1.8
v -0.8 1 -1.8
v -0.8 1.1 -1.8
v -0.8 1.2 -1.8
v -0.8 1.3 -1.8
v -0.8 3.5 -1.8
v -0.8 3.6 -1.8
v -0.8 3.7 -1.8
v -0.7 0.4 -1.8
v -0.7 0.5 -1.8
v -0.7 0.7 -1.8
v -0.7 0.8 -1.8
v -0.7 0.9 -1.8
v -0.7 1 -1.8
v -0.7 1.1 -1.8
v -0.7 1.2 -1.8
v -0.7 1.3 -1.8
v -0.7 3.4 -1.8
v -0.7 3.6 -1.8
v -0.7 3.7 -1.8
v -0.6 0.4 -1.8
v -0.6 0.6 -1.8
v -0.6 0.8 -1.8
v -0.6 3.3 -1.8
v -0.6 3.5 -1.8
v -0.6 3.7 -1.8
v -0.5 0.5 -1.8
v -0.5 0.7 -1.8
v -0.5 1 -1.8
v -0.5 1.2 -1.8
v -0.5 3 -1.8
v -0.5 3.2 -1.8
v -0.5 3.4 -1.8
v -0.5 3.6 -1.8
v -0.4 0.6 -1.8
v -0.4 0.8 -1.8
v -0.4 0.9 -1.8
v -0.4 1 -1.8
v -0.4 1.1 -1.8
v -0.4 2.4 -1.8
v -0.4 2.7 -1.8
v -0.4 3.3 -1.8
v -0.4 3.5 -1.8
v -0.3 0.8 -1.8
v -0.3 0.9 -1.8
v -0.3 1 -1.8
v -0.3 1.1 -1.8
v -0.3 2.5 -1.8
v -0.3 2.7 -1.8
v -0.3 3 -1.8
v -0.3 3.2 -1.8
v -0.2 1 -1.8
v -0.2 1.2 -1.8
v -0.2 2.6 -1.8
v -0.2 2.8 -1.8
v -0.2 2.9 -1.8
v -0.2 3 -1.8
v -0.2 3.1 -1.8
v -0.2 3.2 -1.8
v -0.0999999 0.9 -1.8
v -0.0999999 1.3 -1.8
v -0.0999999 1.4 -1.8
v -0.0999999 2.3 -1.8
v -0.0999999 3 -1.8
v -0.0999999 3.1 -1.8
v 1.19209e-07 1 -1.8
v 1.19209e-07 1.1 -1.8
v 1.19209e-07 1.2 -1.8
v 1.19209e-07 1.3 -1.8
v 1.19209e-07 1.4 -1.8
v 1.19209e-07 2.3 -1.8
v 1.19209e-07 3 -1.8
v 1.19209e-07 3.2 -1.8
v 0.1 0.9 -1.8
v 0.1 1 -1.8
v 0.1 1.1 -1.8
v 0.1 1.2 -1.8
v 0.1 2.6 -1.8
v 0.1 2.8 -1.8
v 0.1 2.9 -1.8
v 0.1 3 -1.8
v 0.1 3.2 -1.8
v 0.2 1 -1.8
v 0.2 1.1 -1.8
v 0.2 1.2 -1.8
v 0.2 1.3 -1.8
v 0.2 2.5 -1.8
v 0.2 2.7 -1.8
v 0.2 3 -1.8
v 0.2 3.1 -1.8
v 0.3 0.6 -1.8
v 0.3 0.8 -1.8
v 0.3 2.4 -1.8
v 0.3 2.7 -1.8
v 0.3 2.9 -1.8
v 0.3 3 -1.8
v 0.3 3.3 -1.8
v 0.3 3.5 -1.8
v 0.4 0.5 -1.8
v 0.4 0.7 -1.8
v 0.4 1.2 -1.8
v 0.4 1.3 -1.8
v 0.4 2.9 -1.8
v 0.4 3 -1.8
v 0.4 3.1 -1.8
v 0.4 3.2 -1.8
v 0.4 3.4 -1.8
v 0.4 3.6 -1.8
v 0.5 0.4 -1.8
v 0.5 0.6 -1.8
v 0.5 0.8 -1.8
v 0.5 1 -1.8
v 0.5 1.1 -1.8
v 0.5 3.3 -1.8
v 0.5 3.5 -1.8
v 0.5 3.7 -1.8
v 0.6 0.4 -1.8
v 0.6 0.5 -1.8
v 0.6 0.7 -1.8
v 0.6 0.8 -1.8
v 0.6 0.9 -1.8
v 0.6 1 -1.8
v 0.6 1.1 -1.8
v 0.6 1.2 -1.8
v 0.6 1.3 -1.8
v 0.6 3.4 -1.8
v 0.6 3.6 -1.8
v 0.6 3.7 -1.8
v 0.7 0.4 -1.8
v 0.7 0.5 -1.8
v 0.7 0.6 -1.8
v 0.7 0.8 -1.8
v 0.7 0.9 -1.8
v 0.7 1 -1.8
v 0.7 1.1 -1.8
v 0.7 1.2 -1.8
v 0.7 1.3 -1.8
v 0.7 3.5 -1.8
v 0.7 3.6 -1.8
v 0.7 3.7 -1.8
v 0.8 0.3 -1.8
v 0.8 2.2 -1.8
v 0.8 2.3 -1.8
v 0.8 2.4 -1.8
v 0.8 2.5 -1.8
v 0.8 2.6 -1.8
v 0.8 2.7 -1.8
v 0.8 3.8 -1.8
v 0.9 0.2 -1.8
v 0.9 2.2 -1.8
v 0.9 2.3 -1.8
v 0.9 2.4 -1.8
v 0.9 2.5 -1.8
v 0.9 2.6 -1.8
v 0.9 2.7 -1.8
v 0.9 3.9 -1.8
v -1 0.2 -2
v -1 3.9 -2
v 0.9 0.2 -2
v 0.9 3.9 -2
v -1 0.2 -1.8
v 0.9 0.2 -1.8
v -1 0.2 -2
v 0.9 0.2 -2
v -0.9 0.3 -1.7
v 0.8 0.3 -1.7
v -0.9 0.3 -1.8
v 0.8 0.3 -1.8
v -0.8 0.5 -1.7
v -0.7 0.5 -1.7
v 0.6 0.5 -1.7
v 0.7 0.5 -1.7
v -0.8 0.5 -1.8
v -0.7 0.5 -1.8
v 0.6 0.5 -1.8
v 0.7 0.5 -1.8
v -0.8 3.5 -1.7
v -0.6 3.5 -1.7
v 0.5 3.5 -1.7
v 0.7 3.5 -1.7
v -0.8 3.5 -1.8
v -0.6 3.5 -1.8
v 0.5 3.5 -1.8
v 0.7 3.5 -1.8
v -0.8 3.7 -1.7
v -0.7 3.7 -1.7
v -0.6 3.7 -1.7
v 0.5 3.7 -1.7
v 0.6 3.7 -1.7
v 0.7 3.7 -1.7
v -0.8 3.7 -1.8
v -0.7 3.7 -1.8
v -0.6 3.7 -1.8
v 0.5 3.7 -1.8
v 0.6 3.7 -1.8
v 0.7 3.7 -1.8
v -0.8 0.4 -1.7
v -0.7 0.4 -1.7
v -0.6 0.4 -1.7
v 0.5 0.4 -1.7
v 0.6 0.4 -1.7
v 0.7 0.4 -1.7
v -0.8 0.4 -1.8
v -0.7 0.4 -1.8
v -0.6 0.4 -1.8
v 0.5 0.4 -1.8
v 0.6 0.4 -1.8
v 0.7 0.4 -1.8
v -0.8 0.6 -1.7
v -0.6 0.6 -1.7
v 0.5 0.6 -1.7
v 0.7 0.6 -1.7
v -0.8 0.6 -1.8
v -0.6 0.6 -1.8
v 0.5 0.6 -1.8
v 0.7 0.6 -1.8
v -0.8 3.6 -1.7
v -0.7 3.6 -1.7
v 0.6 3.6 -1.7
v 0.7 3.6 -1.7
v -0.8 3.6 -1.8
v -0.7 3.6 -1.8
v 0.6 3.6 -1.8
v 0.7 3.6 -1.8
v -0.9 3.8 -1.7
v 0.8 3.8 -1.7
v -0.9 3.8 -1.8
v 0.8 3.8 -1.8
v -1 3.9 -1.8
v 0.9 3.9 -1.8
v -1 3.9 -2
v 0.9 3.9 -2

# faces
f 3/1/1 2/1/1 1/1/1
f 4/1/1 2/1/1 3/1/1
f 5/3/1 4/3/1 3/3/1
f 6/1/1 2/1/1 4/1/1
f 6/3/1 4/3/1 5/3/1
f 7/1/1 6/1/1 5/1/1
f 8/1/1 2/1/1 6/1/1
f 8/1/1 6/1/1 7/1/1
f 9/3/1 8/3/1 7/3/1
f 10/1/1 2/1/1 8/1/1
f 10/3/1 8/3/1 9/3/1
f 11/1/1 10/1/1 9/1/1
f 12/1/1 2/1/1 10/1/1
f 12/1/1 10/1/1 11/1/1
f 13/3/1 12/3/1 11/3/1
f 14/1/1 2/1/1 12/1/1
f 14/3/1 12/3/1 13/3/1
f 15/1/1 14/1/1 13/1/1
f 16/1/1 2/1/1 14/1/1
f 16/1/1 14/1/1 15/1/1
f 19/6/1 18/6/1 17/6/1
f 20/6/1 19/6/1 17/6/1
f 21/6/1 20/6/1 17/6/1
f 22/6/1 21/6/1 17/6/1
f 23/6/1 22/6/1 17/6/1
f 24/6/1 23/6/1 17/6/1
f 25/6/1 24/6/1 17/6/1
f 26/6/1 24/6/1 25/6/1
f 29/6/1 28/6/1 27/6/1
f 30/6/1 28/6/1 29/6/1
f 33/6/1 32/6/1 31/6/1
f 34/6/1 32/6/1 33/6/1
f 37/6/1 36/6/1 35/6/1
f 38/6/1 36/6/1 37/6/1
f 41/6/1 40/6/1 39/6/1
f 42/6/1 40/6/1 41/6/1
f 45/6/1 44/6/1 43/6/1
f 46/6/1 44/6/1 45/6/1
f 49/6/1 48/6/1 47/6/1
f 50/6/1 49/6/1 47/6/1
f 51/6/1 50/6/1 47/6/1
f 52/6/1 51/6/1 47/6/1
f 53/6/1 52/6/1 47/6/1
f 54/6/1 53/6/1 47/6/1
f 55/6/1 54/6/1 47/6/1
f 56/6/1 54/6/1 55/6/1
f 59/6/1 58/6/1 57/6/1
f 60/6/1 58/6/1 59/6/1
f 61/6/2 62/6/2 63/6/2
f 63/6/2 62/6/2 64/6/2
f 65/6/2 66/6/2 67/6/2
f 65/6/2 67/6/2 68/6/2
f 65/6/2 68/6/2 69/6/2
f 65/6/2 69/6/2 70/6/2
f 65/6/2 70/6/2 71/6/2
f 65/6/2 71/6/2 72/6/2
f 65/6/2 72/6/2 73/6/2
f 73/6/2 72/6/2 74/6/2
f 75/6/2 76/6/2 77/6/2
f 77/6/2 76/6/2 78/6/2
f 79/6/2 80/6/2 81/6/2
f 81/6/2 80/6/2 82/6/2
f 83/6/2 84/6/2 85/6/2
f 85/6/2 84/6/2 86/6/2
f 87/6/2 88/6/2 89/6/2
f 89/6/2 88/6/2 90/6/2
f 91/6/2 92/6/2 93/6/2
f 93/6/2 92/6/2 94/6/2
f 95/6/2 96/6/2 97/6/2
f 95/6/2 97/6/2 98/6/2
f 95/6/2 98/6/2 99/6/2
f 95/6/2 99/6/2 100/6/2
f 95/6/2 100/6/2 101/6/2
f 95/6/2 101/6/2 102/6/2
f 95/6/2 102/6/2 103/6/2
f 103/6/2 102/6/2 104/6/2
f 105/1/2 106/1/2 107/1/2
f 107/1/2 106/1/2 108/1/2
f 107/3/2 108/3/2 109/3/2
f 108/1/2 106/1/2 110/1/2
f 109/3/2 108/3/2 110/3/2
f 109/1/2 110/1/2 111/1/2
f 110/1/2 106/1/2 112/1/2
f 111/1/2 110/1/2 112/1/2
f 111/3/2 112/3/2 113/3/2
f 112/1/2 106/1/2 114/1/2
f 113/3/2 112/3/2 114/3/2
f 113/1/2 114/1/2 115/1/2
f 114/1/2 106/1/2 116/1/2
f 115/1/2 114/1/2 116/1/2
f 115/3/2 116/3/2 117/3/2
f 116/1/2 106/1/2 118/1/2
f 117/3/2 116/3/2 118/3/2
f 117/1/2 118/1/2 119/1/2
f 118/1/2 106/1/2 120/1/2
f 119/1/2 118/1/2 120/1/2
f 123/6/3 122/6/3 121/6/3
f 124/6/3 122/6/3 123/6/3
f 125/6/3 122/6/3 124/6/3
f 126/6/3 122/6/3 125/6/3
f 127/6/3 122/6/3 126/6/3
f 128/6/3 122/6/3 127/6/3
f 129/6/3 123/6/3 121/6/3
f 130/6/3 125/6/3 124/6/3
f 131/6/3 127/6/3 126/6/3
f 132/6/3 122/6/3 128/6/3
f 133/6/3 130/6/3 129/6/3
f 133/6/3 129/6/3 121/6/3
f 134/6/3 125/6/3 130/6/3
f 134/6/3 130/6/3 133/6/3
f 135/6/3 131/6/3 126/6/3
f 135/6/3 132/6/3 131/6/3
f 136/6/3 122/6/3 132/6/3
f 136/6/3 132/6/3 135/6/3
f 137/6/3 133/6/3 121/6/3
f 140/6/3 122/6/3 136/6/3
f 141/6/3 138/6/3 137/6/3
f 141/6/3 137/6/3 121/6/3
f 142/6/3 138/6/3 141/6/3
f 143/6/3 140/6/3 139/6/3
f 144/6/3 122/6/3 140/6/3
f 144/6/3 140/6/3 143/6/3
f 145/6/3 141/6/3 121/6/3
f 146/6/3 138/6/3 142/6/3
f 147/6/3 138/6/3 146/6/3
f 148/6/3 143/6/3 139/6/3
f 149/6/3 143/6/3 148/6/3
f 150/6/3 122/6/3 144/6/3
f 151/6/3 145/6/3 121/6/3
f 151/6/3 150/6/3 149/6/3
f 151/6/3 147/6/3 146/6/3
f 151/6/3 149/6/3 148/6/3
f 151/6/3 148/6/3 147/6/3
f 151/6/3 146/6/3 145/6/3
f 152/6/3 122/6/3 150/6/3
f 152/6/3 150/6/3 151/6/3
f 161/1/3 154/1/3 153/1/3
f 162/3/3 155/3/3 154/3/3
f 162/1/3 154/1/3 161/1/3
f 163/1/3 156/1/3 155/1/3
f 163/3/3 155/3/3 162/3/3
f 164/3/3 157/3/3 156/3/3
f 164/1/3 156/1/3 163/1/3
f 165/1/3 158/1/3 157/1/3
f 165/3/3 157/3/3 164/3/3
f 166/3/3 159/3/3 158/3/3
f 166/1/3 158/1/3 165/1/3
f 167/1/3 160/1/3 159/1/3
f 167/3/3 159/3/3 166/3/3
f 168/1/3 160/1/3 167/1/3
f 181/1/3 170/1/3 169/1/3
f 182/1/3 170/1/3 181/1/3
f 183/3/3 172/3/3 171/3/3
f 184/5/3 173/5/3 172/5/3
f 184/3/3 172/3/3 183/3/3
f 185/3/3 174/3/3 173/3/3
f 185/5/3 173/5/3 184/5/3
f 186/5/3 175/5/3 174/5/3
f 186/3/3 174/3/3 185/3/3
f 187/3/3 176/3/3 175/3/3
f 187/5/3 175/5/3 186/5/3
f 188/5/3 177/5/3 176/5/3
f 188/3/3 176/3/3 187/3/3
f 189/3/3 178/3/3 177/3/3
f 189/5/3 177/5/3 188/5/3
f 190/3/3 178/3/3 189/3/3
f 191/1/3 180/1/3 179/1/3
f 192/1/3 180/1/3 191/1/3
f 194/3/3 183/3/3 171/3/3
f 195/5/3 184/5/3 183/5/3
f 195/5/3 185/5/3 184/5/3
f 195/5/3 186/5/3 185/5/3
f 195/5/3 187/5/3 186/5/3
f 195/5/3 190/5/3 189/5/3
f 195/5/3 189/5/3 188/5/3
f 195/5/3 188/5/3 187/5/3
f 196/5/3 190/5/3 195/5/3
f 197/3/3 178/3/3 190/3/3
f 199/3/3 194/3/3 193/3/3
f 200/3/3 183/3/3 194/3/3
f 200/3/3 194/3/3 199/3/3
f 200/5/3 195/5/3 183/5/3
f 201/3/3 196/3/3 195/3/3
f 202/3/3 196/3/3 201/3/3
f 203/3/3 196/3/3 202/3/3
f 204/3/3 196/3/3 203/3/3
f 205/5/3 190/5/3 196/5/3
f 205/3/3 198/3/3 197/3/3
f 205/3/3 197/3/3 190/3/3
f 206/3/3 198/3/3 205/3/3
f 207/5/3 200/5/3 199/5/3
f 208/5/3 195/5/3 200/5/3
f 208/5/3 200/5/3 207/5/3
f 208/3/3 201/3/3 195/3/3
f 209/3/3 201/3/3 208/3/3
f 210/2/3 202/2/3 201/2/3
f 210/3/3 201/3/3 209/3/3
f 211/2/3 202/2/3 210/2/3
f 212/3/3 203/3/3 202/3/3
f 213/3/3 203/3/3 212/3/3
f 214/3/3 196/3/3 204/3/3
f 214/5/3 206/5/3 205/5/3
f 214/5/3 205/5/3 196/5/3
f 215/5/3 206/5/3 214/5/3
f 216/2/3 209/2/3 208/2/3
f 216/3/3 208/3/3 207/3/3
f 217/3/3 210/3/3 209/3/3
f 217/2/3 209/2/3 216/2/3
f 217/3/3 211/3/3 210/3/3
f 218/3/3 211/3/3 217/3/3
f 219/2/3 202/2/3 211/2/3
f 219/3/3 211/3/3 218/3/3
f 220/4/3 213/4/3 212/4/3
f 221/3/3 203/3/3 213/3/3
f 221/4/3 213/4/3 220/4/3
f 222/2/3 204/2/3 203/2/3
f 222/3/3 203/3/3 221/3/3
f 223/3/3 215/3/3 214/3/3
f 223/2/3 204/2/3 222/2/3
f 223/3/3 214/3/3 204/3/3
f 224/3/3 218/3/3 217/3/3
f 224/2/3 219/2/3 218/2/3
f 224/3/3 217/3/3 216/3/3
f 225/2/3 202/2/3 219/2/3
f 225/2/3 219/2/3 224/2/3
f 225/3/3 212/3/3 202/3/3
f 226/3/3 221/3/3 220/3/3
f 226/3/3 223/3/3 222/3/3
f 226/3/3 222/3/3 221/3/3
f 227/3/3 223/3/3 226/3/3
f 228/3/3 223/3/3 227/3/3
f 229/3/3 223/3/3 228/3/3
f 230/3/3 223/3/3 229/3/3
f 231/3/3 215/3/3 223/3/3
f 231/3/3 223/3/3 230/3/3
f 232/3/3 224/3/3 216/3/3
f 232/3/3 225/3/3 224/3/3
f 233/3/3 212/3/3 225/3/3
f 233/3/3 225/3/3 232/3/3
f 234/3/3 212/3/3 233/3/3
f 235/3/3 212/3/3 234/3/3
f 236/3/3 230/3/3 229/3/3
f 236/2/3 229/2/3 228/2/3
f 237/2/3 231/2/3 230/2/3
f 237/3/3 230/3/3 236/3/3
f 238/2/3 233/2/3 232/2/3
f 239/2/3 233/2/3 238/2/3
f 240/2/3 233/2/3 239/2/3
f 241/3/3 234/3/3 233/3/3
f 241/2/3 233/2/3 240/2/3
f 242/4/3 235/4/3 234/4/3
f 242/3/3 234/3/3 241/3/3
f 243/3/3 212/3/3 235/3/3
f 243/4/3 235/4/3 242/4/3
f 244/2/3 236/2/3 228/2/3
f 244/2/3 237/2/3 236/2/3
f 245/3/3 215/3/3 231/3/3
f 245/2/3 237/2/3 244/2/3
f 245/2/3 231/2/3 237/2/3
f 246/3/3 232/3/3 216/3/3
f 246/2/3 238/2/3 232/2/3
f 247/3/3 239/3/3 238/3/3
f 247/2/3 238/2/3 246/2/3
f 248/2/3 240/2/3 239/2/3
f 248/3/3 239/3/3 247/3/3
f 249/3/3 242/3/3 241/3/3
f 249/2/3 240/2/3 248/2/3
f 249/3/3 241/3/3 240/3/3
f 249/3/3 243/3/3 242/3/3
f 250/3/3 226/3/3 220/3/3
f 250/1/3 227/1/3 226/1/3
f 251/3/3 228/3/3 227/3/3
f 251/1/3 227/1/3 250/1/3
f 252/2/3 244/2/3 228/2/3
f 252/3/3 228/3/3 251/3/3
f 253/3/3 245/3/3 244/3/3
f 253/2/3 244/2/3 252/2/3
f 254/3/3 215/3/3 245/3/3
f 254/3/3 245/3/3 253/3/3
f 255/3/3 248/3/3 247/3/3
f 255/3/3 249/3/3 248/3/3
f 255/3/3 247/3/3 246/3/3
f 256/3/3 249/3/3 255/3/3
f 257/3/3 243/3/3 249/3/3
f 257/3/3 249/3/3 256/3/3
f 258/3/3 243/3/3 257/3/3
f 259/4/3 220/4/3 212/4/3
f 259/3/3 253/3/3 252/3/3
f 259/3/3 251/3/3 250/3/3
f 259/3/3 250/3/3 220/3/3
f 259/3/3 252/3/3 251/3/3
f 260/3/3 253/3/3 259/3/3
f 261/2/3 254/2/3 253/2/3
f 261/3/3 253/3/3 260/3/3
f 262/2/3 254/2/3 261/2/3
f 263/5/3 207/5/3 199/5/3
f 263/3/3 216/3/3 207/3/3
f 263/3/3 255/3/3 246/3/3
f 263/3/3 246/3/3 216/3/3
f 264/3/3 255/3/3 263/3/3
f 265/3/3 243/3/3 258/3/3
f 265/3/3 212/3/3 243/3/3
f 265/4/3 260/4/3 259/4/3
f 265/4/3 259/4/3 212/4/3
f 266/3/3 262/3/3 261/3/3
f 266/4/3 260/4/3 265/4/3
f 266/3/3 261/3/3 260/3/3
f 267/3/3 262/3/3 266/3/3
f 268/3/3 262/3/3 267/3/3
f 269/3/3 215/3/3 254/3/3
f 270/5/3 206/5/3 215/5/3
f 270/3/3 215/3/3 269/3/3
f 271/3/3 199/3/3 193/3/3
f 271/5/3 264/5/3 263/5/3
f 271/5/3 263/5/3 199/5/3
f 272/5/3 264/5/3 271/5/3
f 273/2/3 258/2/3 257/2/3
f 273/3/3 257/3/3 256/3/3
f 274/3/3 265/3/3 258/3/3
f 274/2/3 258/2/3 273/2/3
f 274/3/3 266/3/3 265/3/3
f 274/3/3 267/3/3 266/3/3
f 275/2/3 268/2/3 267/2/3
f 275/3/3 267/3/3 274/3/3
f 276/3/3 262/3/3 268/3/3
f 276/2/3 268/2/3 275/2/3
f 277/2/3 254/2/3 262/2/3
f 277/3/3 262/3/3 276/3/3
f 278/3/3 269/3/3 254/3/3
f 278/2/3 254/2/3 277/2/3
f 279/5/3 270/5/3 269/5/3
f 280/5/3 206/5/3 270/5/3
f 280/5/3 270/5/3 279/5/3
f 280/3/3 198/3/3 206/3/3
f 281/3/3 272/3/3 271/3/3
f 281/3/3 271/3/3 193/3/3
f 282/3/3 272/3/3 281/3/3
f 283/3/3 255/3/3 264/3/3
f 283/5/3 264/5/3 272/5/3
f 284/2/3 256/2/3 255/2/3
f 284/3/3 255/3/3 283/3/3
f 285/3/3 275/3/3 274/3/3
f 285/2/3 256/2/3 284/2/3
f 285/3/3 276/3/3 275/3/3
f 285/3/3 278/3/3 277/3/3
f 285/3/3 277/3/3 276/3/3
f 285/3/3 274/3/3 273/3/3
f 285/3/3 273/3/3 256/3/3
f 286/5/3 279/5/3 269/5/3
f 286/3/3 278/3/3 285/3/3
f 286/3/3 269/3/3 278/3/3
f 287/3/3 280/3/3 279/3/3
f 288/3/3 198/3/3 280/3/3
f 288/3/3 280/3/3 287/3/3
f 291/3/3 272/3/3 282/3/3
f 291/5/3 285/5/3 284/5/3
f 291/5/3 286/5/3 285/5/3
f 291/5/3 283/5/3 272/5/3
f 291/5/3 284/5/3 283/5/3
f 292/5/3 286/5/3 291/5/3
f 293/5/3 286/5/3 292/5/3
f 294/5/3 286/5/3 293/5/3
f 295/5/3 286/5/3 294/5/3
f 296/5/3 286/5/3 295/5/3
f 297/5/3 286/5/3 296/5/3
f 298/3/3 287/3/3 279/3/3
f 298/5/3 286/5/3 297/5/3
f 298/5/3 279/5/3 286/5/3
f 301/1/3 290/1/3 289/1/3
f 302/1/3 290/1/3 301/1/3
f 303/3/3 291/3/3 282/3/3
f 303/3/3 292/3/3 291/3/3
f 304/5/3 293/5/3 292/5/3
f 304/3/3 292/3/3 303/3/3
f 305/3/3 294/3/3 293/3/3
f 305/5/3 293/5/3 304/5/3
f 306/5/3 295/5/3 294/5/3
f 306/3/3 294/3/3 305/3/3
f 307/3/3 296/3/3 295/3/3
f 307/5/3 295/5/3 306/5/3
f 308/5/3 297/5/3 296/5/3
f 308/3/3 296/3/3 307/3/3
f 309/3/3 298/3/3 297/3/3
f 309/5/3 297/5/3 308/5/3
f 310/3/3 287/3/3 298/3/3
f 310/3/3 298/3/3 309/3/3
f 311/1/3 300/1/3 299/1/3
f 312/1/3 300/1/3 311/1/3
f 313/1/3 161/1/3 153/1/3
f 320/1/3 160/1/3 168/1/3
f 321/1/3 313/1/3 153/1/3
f 321/1/3 314/1/3 313/1/3
f 322/3/3 315/3/3 314/3/3
f 322/1/3 314/1/3 321/1/3
f 323/1/3 316/1/3 315/1/3
f 323/3/3 315/3/3 322/3/3
f 324/3/3 317/3/3 316/3/3
f 324/1/3 316/1/3 323/1/3
f 325/1/3 318/1/3 317/1/3
f 325/3/3 317/3/3 324/3/3
f 326/3/3 319/3/3 318/3/3
f 326/1/3 318/1/3 325/1/3
f 327/1/3 320/1/3 319/1/3
f 327/3/3 319/3/3 326/3/3
f 328/1/3 160/1/3 320/1/3
f 328/1/3 320/1/3 327/1/3
f 329/1/4 330/1/4 331/1/4
f 331/1/4 330/1/4 332/1/4
f 335/1/5 334/1/5 333/1/5
f 336/1/5 334/1/5 335/1/5
f 339/6/5 338/6/5 337/6/5
f 340/6/5 338/6/5 339/6/5
f 345/6/5 342/6/5 341/6/5
f 346/6/5 342/6/5 345/6/5
f 347/6/5 344/6/5 343/6/5
f 348/6/5 344/6/5 347/6/5
f 353/6/5 350/6/5 349/6/5
f 354/6/5 350/6/5 353/6/5
f 355/6/5 352/6/5 351/6/5
f 356/6/5 352/6/5 355/6/5
f 363/6/5 358/6/5 357/6/5
f 364/6/5 358/6/5 363/6/5
f 365/6/5 360/6/5 359/6/5
f 366/6/5 360/6/5 365/6/5
f 367/6/5 362/6/5 361/6/5
f 368/6/5 362/6/5 367/6/5
f 369/6/6 370/6/6 375/6/6
f 375/6/6 370/6/6 376/6/6
f 371/6/6 372/6/6 377/6/6
f 377/6/6 372/6/6 378/6/6
f 373/6/6 374/6/6 379/6/6
f 379/6/6 374/6/6 380/6/6
f 381/6/6 382/6/6 385/6/6
f 385/6/6 382/6/6 386/6/6
f 383/6/6 384/6/6 387/6/6
f 387/6/6 384/6/6 388/6/6
f 389/6/6 390/6/6 393/6/6
f 393/6/6 390/6/6 394/6/6
f 391/6/6 392/6/6 395/6/6
f 395/6/6 392/6/6 396/6/6
f 397/6/6 398/6/6 399/6/6
f 399/6/6 398/6/6 400/6/6
f 401/1/6 402/1/6 403/1/6
f 403/1/6 402/1/6 404/1/6
