# MagicaVoxel @ Ephtracy

# group
o 

# material
mtllib Rayos.mtl
usemtl palette

# normals
vn -1 0 0
vn 1 0 0
vn 0 0 1
vn 0 0 -1
vn 0 -1 0
vn 0 1 0

# texcoords
vt 0.00585938 0.5
vt 0.00976563 0.5
vt 0.0410156 0.5
vt 0.0644531 0.5
vt 0.212891 0.5
vt 0.232422 0.5
vt 0.537109 0.5

# verts
v -0.4 1.6 0.4
v -0.4 1.6 0.3
v -0.4 1.6 -0.2
v -0.4 1.6 -0.3
v -0.4 1.7 0.4
v -0.4 1.7 0.3
v -0.4 1.7 -0.2
v -0.4 1.7 -0.3
v -0.4 1.8 0.5
v -0.4 1.8 -0.4
v -0.4 1.9 0.5
v -0.4 1.9 -0.4
v -0.4 2.6 0.5
v -0.4 2.6 -0.4
v -0.4 2.7 0.5
v -0.4 2.7 -0.4
v -0.4 2.8 0.4
v -0.4 2.8 0.3
v -0.4 2.8 -0.2
v -0.4 2.8 -0.3
v -0.4 2.9 0.4
v -0.4 2.9 0.3
v -0.4 2.9 -0.2
v -0.4 2.9 -0.3
v -0.3 1.5 0.4
v -0.3 1.5 0.3
v -0.3 1.5 -0.2
v -0.3 1.5 -0.3
v -0.3 1.6 0.5
v -0.3 1.6 0.4
v -0.3 1.6 0.3
v -0.3 1.6 0.2
v -0.3 1.6 -0.1
v -0.3 1.6 -0.2
v -0.3 1.6 -0.3
v -0.3 1.6 -0.4
v -0.3 1.7 0.5
v -0.3 1.7 0.4
v -0.3 1.7 0.3
v -0.3 1.7 0.2
v -0.3 1.7 -0.1
v -0.3 1.7 -0.2
v -0.3 1.7 -0.3
v -0.3 1.7 -0.4
v -0.3 1.8 0.4
v -0.3 1.8 0.3
v -0.3 1.8 -0.2
v -0.3 1.8 -0.3
v -0.3 1.9 0.4
v -0.3 1.9 0.3
v -0.3 1.9 -0.2
v -0.3 1.9 -0.3
v -0.3 2 0.4
v -0.3 2 0.3
v -0.3 2 -0.2
v -0.3 2 -0.3
v -0.3 2.5 0.4
v -0.3 2.5 0.3
v -0.3 2.5 -0.2
v -0.3 2.5 -0.3
v -0.3 2.6 0.4
v -0.3 2.6 0.3
v -0.3 2.6 -0.2
v -0.3 2.6 -0.3
v -0.3 2.7 0.4
v -0.3 2.7 0.3
v -0.3 2.7 -0.2
v -0.3 2.7 -0.3
v -0.3 2.8 0.5
v -0.3 2.8 0.4
v -0.3 2.8 0.3
v -0.3 2.8 0.2
v -0.3 2.8 -0.1
v -0.3 2.8 -0.2
v -0.3 2.8 -0.3
v -0.3 2.8 -0.4
v -0.3 2.9 0.5
v -0.3 2.9 0.4
v -0.3 2.9 0.3
v -0.3 2.9 0.2
v -0.3 2.9 -0.1
v -0.3 2.9 -0.2
v -0.3 2.9 -0.3
v -0.3 2.9 -0.4
v -0.3 3 0.4
v -0.3 3 0.3
v -0.3 3 -0.2
v -0.3 3 -0.3
v -0.2 1.9 0.3
v -0.2 1.9 -0.2
v -0.2 2 0.3
v -0.2 2 -0.2
v -0.2 2.5 0.3
v -0.2 2.5 -0.2
v -0.2 2.6 0.3
v -0.2 2.6 -0.2
v -0.1 2 0.2
v -0.1 2 -0.1
v -0.1 2.1 0.2
v -0.1 2.1 -0.1
v -0.1 2.4 0.2
v -0.1 2.4 -0.1
v -0.1 2.5 0.2
v -0.1 2.5 -0.1
v 0 2.1 0.1
v 0 2.1 0
v 0 2.2 0.1
v 0 2.2 0
v 0 2.3 0.1
v 0 2.3 0
v 0 2.4 0.1
v 0 2.4 0
v 0 2.7 0.1
v 0 2.7 0
v 0 3.3 0.1
v 0 3.3 0
v 0.2 1.6 0.4
v 0.2 1.6 0.3
v 0.2 1.6 -0.2
v 0.2 1.6 -0.3
v 0.2 1.7 0.4
v 0.2 1.7 0.3
v 0.2 1.7 -0.2
v 0.2 1.7 -0.3
v 0.2 2.8 0.4
v 0.2 2.8 0.3
v 0.2 2.8 -0.2
v 0.2 2.8 -0.3
v 0.2 2.9 0.4
v 0.2 2.9 0.3
v 0.2 2.9 -0.2
v 0.2 2.9 -0.3
v 0.3 1.5 0.4
v 0.3 1.5 0.3
v 0.3 1.5 -0.2
v 0.3 1.5 -0.3
v 0.3 1.6 0.5
v 0.3 1.6 0.4
v 0.3 1.6 0.3
v 0.3 1.6 0.2
v 0.3 1.6 -0.1
v 0.3 1.6 -0.2
v 0.3 1.6 -0.3
v 0.3 1.6 -0.4
v 0.3 1.7 0.5
v 0.3 1.7 0.4
v 0.3 1.7 0.3
v 0.3 1.7 0.2
v 0.3 1.7 -0.1
v 0.3 1.7 -0.2
v 0.3 1.7 -0.3
v 0.3 1.7 -0.4
v 0.3 1.8 0.4
v 0.3 1.8 0.3
v 0.3 1.8 -0.2
v 0.3 1.8 -0.3
v 0.3 1.9 0.4
v 0.3 1.9 0.3
v 0.3 1.9 -0.2
v 0.3 1.9 -0.3
v 0.3 2 0.4
v 0.3 2 0.3
v 0.3 2 -0.2
v 0.3 2 -0.3
v 0.3 2.5 0.4
v 0.3 2.5 0.3
v 0.3 2.5 -0.2
v 0.3 2.5 -0.3
v 0.3 2.6 0.4
v 0.3 2.6 0.3
v 0.3 2.6 -0.2
v 0.3 2.6 -0.3
v 0.3 2.7 0.4
v 0.3 2.7 0.3
v 0.3 2.7 -0.2
v 0.3 2.7 -0.3
v 0.3 2.8 0.5
v 0.3 2.8 0.4
v 0.3 2.8 0.3
v 0.3 2.8 0.2
v 0.3 2.8 -0.1
v 0.3 2.8 -0.2
v 0.3 2.8 -0.3
v 0.3 2.8 -0.4
v 0.3 2.9 0.5
v 0.3 2.9 0.4
v 0.3 2.9 0.3
v 0.3 2.9 0.2
v 0.3 2.9 -0.1
v 0.3 2.9 -0.2
v 0.3 2.9 -0.3
v 0.3 2.9 -0.4
v 0.3 3 0.4
v 0.3 3 0.3
v 0.3 3 -0.2
v 0.3 3 -0.3
v 0.8 2.7 0.1
v 0.8 2.7 0
v 0.8 3.1 0.1
v 0.8 3.1 0
v 0.8 3.3 0.1
v 0.8 3.3 0
v 0.8 3.6 0.1
v 0.8 3.6 0
v 0.9 2.6 0.1
v 0.9 2.6 0
v 0.9 2.7 0.1
v 0.9 2.7 0
v 0.9 3.6 0.1
v 0.9 3.6 0
v 0.9 3.7 0.1
v 0.9 3.7 0
v 1 1.3 0.2
v 1 1.3 -0.1
v 1 2.6 0.1
v 1 2.6 0
v 1 3.7 0.1
v 1 3.7 0
v 1 3.9 0.2
v 1 3.9 0.1
v 1 3.9 0
v 1 3.9 -0.1
v 1 4 0.1
v 1 4 0
v 1.1 3.9 0.2
v 1.1 3.9 0.1
v 1.1 3.9 0
v 1.1 3.9 -0.1
v 1.1 4 0.2
v 1.1 4 0.1
v 1.1 4 0
v 1.1 4 -0.1
v -0.2 1.5 0.4
v -0.2 1.5 0.3
v -0.2 1.5 -0.2
v -0.2 1.5 -0.3
v -0.2 1.6 0.5
v -0.2 1.6 0.4
v -0.2 1.6 0.3
v -0.2 1.6 0.2
v -0.2 1.6 -0.1
v -0.2 1.6 -0.2
v -0.2 1.6 -0.3
v -0.2 1.6 -0.4
v -0.2 1.7 0.5
v -0.2 1.7 0.4
v -0.2 1.7 0.3
v -0.2 1.7 0.2
v -0.2 1.7 -0.1
v -0.2 1.7 -0.2
v -0.2 1.7 -0.3
v -0.2 1.7 -0.4
v -0.2 1.8 0.4
v -0.2 1.8 0.3
v -0.2 1.8 -0.2
v -0.2 1.8 -0.3
v -0.2 1.9 0.4
v -0.2 1.9 0.3
v -0.2 1.9 -0.2
v -0.2 1.9 -0.3
v -0.2 2 0.4
v -0.2 2 0.3
v -0.2 2 -0.2
v -0.2 2 -0.3
v -0.2 2.5 0.4
v -0.2 2.5 0.3
v -0.2 2.5 -0.2
v -0.2 2.5 -0.3
v -0.2 2.6 0.4
v -0.2 2.6 0.3
v -0.2 2.6 -0.2
v -0.2 2.6 -0.3
v -0.2 2.7 0.4
v -0.2 2.7 0.3
v -0.2 2.7 -0.2
v -0.2 2.7 -0.3
v -0.2 2.8 0.5
v -0.2 2.8 0.4
v -0.2 2.8 0.3
v -0.2 2.8 0.2
v -0.2 2.8 -0.1
v -0.2 2.8 -0.2
v -0.2 2.8 -0.3
v -0.2 2.8 -0.4
v -0.2 2.9 0.5
v -0.2 2.9 0.4
v -0.2 2.9 0.3
v -0.2 2.9 0.2
v -0.2 2.9 -0.1
v -0.2 2.9 -0.2
v -0.2 2.9 -0.3
v -0.2 2.9 -0.4
v -0.2 3 0.4
v -0.2 3 0.3
v -0.2 3 -0.2
v -0.2 3 -0.3
v -0.1 1.6 0.4
v -0.1 1.6 0.3
v -0.1 1.6 -0.2
v -0.1 1.6 -0.3
v -0.1 1.7 0.4
v -0.1 1.7 0.3
v -0.1 1.7 -0.2
v -0.1 1.7 -0.3
v -0.1 2.8 0.4
v -0.1 2.8 0.3
v -0.1 2.8 -0.2
v -0.1 2.8 -0.3
v -0.1 2.9 0.4
v -0.1 2.9 0.3
v -0.1 2.9 -0.2
v -0.1 2.9 -0.3
v 0.1 2.1 0.1
v 0.1 2.1 0
v 0.1 2.2 0.1
v 0.1 2.2 0
v 0.1 2.3 0.1
v 0.1 2.3 0
v 0.1 2.4 0.1
v 0.1 2.4 0
v 0.1 2.7 0.1
v 0.1 2.7 0
v 0.1 3.1 0.1
v 0.1 3.1 0
v 0.2 2 0.2
v 0.2 2 -0.1
v 0.2 2.1 0.2
v 0.2 2.1 -0.1
v 0.2 2.4 0.2
v 0.2 2.4 -0.1
v 0.2 2.5 0.2
v 0.2 2.5 -0.1
v 0.3 1.9 0.3
v 0.3 1.9 -0.2
v 0.3 2 0.3
v 0.3 2 -0.2
v 0.3 2.5 0.3
v 0.3 2.5 -0.2
v 0.3 2.6 0.3
v 0.3 2.6 -0.2
v 0.4 1.5 0.4
v 0.4 1.5 0.3
v 0.4 1.5 -0.2
v 0.4 1.5 -0.3
v 0.4 1.6 0.5
v 0.4 1.6 0.4
v 0.4 1.6 0.3
v 0.4 1.6 0.2
v 0.4 1.6 -0.1
v 0.4 1.6 -0.2
v 0.4 1.6 -0.3
v 0.4 1.6 -0.4
v 0.4 1.7 0.5
v 0.4 1.7 0.4
v 0.4 1.7 0.3
v 0.4 1.7 0.2
v 0.4 1.7 -0.1
v 0.4 1.7 -0.2
v 0.4 1.7 -0.3
v 0.4 1.7 -0.4
v 0.4 1.8 0.4
v 0.4 1.8 0.3
v 0.4 1.8 -0.2
v 0.4 1.8 -0.3
v 0.4 1.9 0.4
v 0.4 1.9 0.3
v 0.4 1.9 -0.2
v 0.4 1.9 -0.3
v 0.4 2 0.4
v 0.4 2 0.3
v 0.4 2 -0.2
v 0.4 2 -0.3
v 0.4 2.5 0.4
v 0.4 2.5 0.3
v 0.4 2.5 -0.2
v 0.4 2.5 -0.3
v 0.4 2.6 0.4
v 0.4 2.6 0.3
v 0.4 2.6 -0.2
v 0.4 2.6 -0.3
v 0.4 2.7 0.4
v 0.4 2.7 0.3
v 0.4 2.7 -0.2
v 0.4 2.7 -0.3
v 0.4 2.8 0.5
v 0.4 2.8 0.4
v 0.4 2.8 0.3
v 0.4 2.8 0.2
v 0.4 2.8 -0.1
v 0.4 2.8 -0.2
v 0.4 2.8 -0.3
v 0.4 2.8 -0.4
v 0.4 2.9 0.5
v 0.4 2.9 0.4
v 0.4 2.9 0.3
v 0.4 2.9 0.2
v 0.4 2.9 -0.1
v 0.4 2.9 -0.2
v 0.4 2.9 -0.3
v 0.4 2.9 -0.4
v 0.4 3 0.4
v 0.4 3 0.3
v 0.4 3 -0.2
v 0.4 3 -0.3
v 0.5 1.6 0.4
v 0.5 1.6 0.3
v 0.5 1.6 -0.2
v 0.5 1.6 -0.3
v 0.5 1.7 0.4
v 0.5 1.7 0.3
v 0.5 1.7 -0.2
v 0.5 1.7 -0.3
v 0.5 1.8 0.5
v 0.5 1.8 -0.4
v 0.5 1.9 0.5
v 0.5 1.9 -0.4
v 0.5 2.6 0.5
v 0.5 2.6 -0.4
v 0.5 2.7 0.5
v 0.5 2.7 -0.4
v 0.5 2.8 0.4
v 0.5 2.8 0.3
v 0.5 2.8 -0.2
v 0.5 2.8 -0.3
v 0.5 2.9 0.4
v 0.5 2.9 0.3
v 0.5 2.9 -0.2
v 0.5 2.9 -0.3
v 1.2 3.9 0.2
v 1.2 3.9 0.1
v 1.2 3.9 0
v 1.2 3.9 -0.1
v 1.2 4 0.2
v 1.2 4 0.1
v 1.2 4 0
v 1.2 4 -0.1
v 1.3 1.3 0.2
v 1.3 1.3 -0.1
v 1.3 3.9 0.2
v 1.3 3.9 0.1
v 1.3 3.9 0
v 1.3 3.9 -0.1
v 1.3 4 0.1
v 1.3 4 0
v -0.4 1.8 0.5
v -0.4 1.9 0.5
v -0.4 2.6 0.5
v -0.4 2.7 0.5
v -0.3 1.6 0.5
v -0.3 1.7 0.5
v -0.3 2.8 0.5
v -0.3 2.9 0.5
v -0.2 1.6 0.5
v -0.2 1.7 0.5
v -0.2 2.8 0.5
v -0.2 2.9 0.5
v 0.3 1.6 0.5
v 0.3 1.7 0.5
v 0.3 2.8 0.5
v 0.3 2.9 0.5
v 0.4 1.6 0.5
v 0.4 1.7 0.5
v 0.4 2.8 0.5
v 0.4 2.9 0.5
v 0.5 1.8 0.5
v 0.5 1.9 0.5
v 0.5 2.6 0.5
v 0.5 2.7 0.5
v -0.4 1.6 0.4
v -0.4 1.7 0.4
v -0.4 2.8 0.4
v -0.4 2.9 0.4
v -0.3 1.5 0.4
v -0.3 1.6 0.4
v -0.3 1.7 0.4
v -0.3 1.8 0.4
v -0.3 1.9 0.4
v -0.3 2 0.4
v -0.3 2.5 0.4
v -0.3 2.6 0.4
v -0.3 2.7 0.4
v -0.3 2.8 0.4
v -0.3 2.9 0.4
v -0.3 3 0.4
v -0.2 1.5 0.4
v -0.2 1.6 0.4
v -0.2 1.7 0.4
v -0.2 1.8 0.4
v -0.2 1.9 0.4
v -0.2 2 0.4
v -0.2 2.5 0.4
v -0.2 2.6 0.4
v -0.2 2.7 0.4
v -0.2 2.8 0.4
v -0.2 2.9 0.4
v -0.2 3 0.4
v -0.1 1.6 0.4
v -0.1 1.7 0.4
v -0.1 2.8 0.4
v -0.1 2.9 0.4
v 0.2 1.6 0.4
v 0.2 1.7 0.4
v 0.2 2.8 0.4
v 0.2 2.9 0.4
v 0.3 1.5 0.4
v 0.3 1.6 0.4
v 0.3 1.7 0.4
v 0.3 1.8 0.4
v 0.3 1.9 0.4
v 0.3 2 0.4
v 0.3 2.5 0.4
v 0.3 2.6 0.4
v 0.3 2.7 0.4
v 0.3 2.8 0.4
v 0.3 2.9 0.4
v 0.3 3 0.4
v 0.4 1.5 0.4
v 0.4 1.6 0.4
v 0.4 1.7 0.4
v 0.4 1.8 0.4
v 0.4 1.9 0.4
v 0.4 2 0.4
v 0.4 2.5 0.4
v 0.4 2.6 0.4
v 0.4 2.7 0.4
v 0.4 2.8 0.4
v 0.4 2.9 0.4
v 0.4 3 0.4
v 0.5 1.6 0.4
v 0.5 1.7 0.4
v 0.5 2.8 0.4
v 0.5 2.9 0.4
v -0.2 1.9 0.3
v -0.2 2 0.3
v -0.2 2.5 0.3
v -0.2 2.6 0.3
v 0.3 1.9 0.3
v 0.3 2 0.3
v 0.3 2.5 0.3
v 0.3 2.6 0.3
v -0.1 2 0.2
v -0.1 2.1 0.2
v -0.1 2.4 0.2
v -0.1 2.5 0.2
v 0.2 2 0.2
v 0.2 2.1 0.2
v 0.2 2.4 0.2
v 0.2 2.5 0.2
v 1 1.3 0.2
v 1 3.9 0.2
v 1.1 3.9 0.2
v 1.1 4 0.2
v 1.2 3.9 0.2
v 1.2 4 0.2
v 1.3 1.3 0.2
v 1.3 3.9 0.2
v 0 2.1 0.1
v 0 2.2 0.1
v 0 2.3 0.1
v 0 2.4 0.1
v 0 2.7 0.1
v 0 3.3 0.1
v 0.1 2.1 0.1
v 0.1 2.2 0.1
v 0.1 2.3 0.1
v 0.1 2.4 0.1
v 0.1 2.7 0.1
v 0.1 3.1 0.1
v 0.8 2.7 0.1
v 0.8 3.1 0.1
v 0.8 3.3 0.1
v 0.8 3.6 0.1
v 0.9 2.6 0.1
v 0.9 2.7 0.1
v 0.9 3.6 0.1
v 0.9 3.7 0.1
v 1 2.6 0.1
v 1 3.7 0.1
v 1 3.9 0.1
v 1 4 0.1
v 1.1 3.9 0.1
v 1.1 4 0.1
v 1.2 3.9 0.1
v 1.2 4 0.1
v 1.3 3.9 0.1
v 1.3 4 0.1
v -0.3 1.6 -0.1
v -0.3 1.7 -0.1
v -0.3 2.8 -0.1
v -0.3 2.9 -0.1
v -0.2 1.6 -0.1
v -0.2 1.7 -0.1
v -0.2 2.8 -0.1
v -0.2 2.9 -0.1
v 0.3 1.6 -0.1
v 0.3 1.7 -0.1
v 0.3 2.8 -0.1
v 0.3 2.9 -0.1
v 0.4 1.6 -0.1
v 0.4 1.7 -0.1
v 0.4 2.8 -0.1
v 0.4 2.9 -0.1
v -0.4 1.6 -0.2
v -0.4 1.7 -0.2
v -0.4 2.8 -0.2
v -0.4 2.9 -0.2
v -0.3 1.5 -0.2
v -0.3 1.6 -0.2
v -0.3 1.7 -0.2
v -0.3 1.8 -0.2
v -0.3 1.9 -0.2
v -0.3 2 -0.2
v -0.3 2.5 -0.2
v -0.3 2.6 -0.2
v -0.3 2.7 -0.2
v -0.3 2.8 -0.2
v -0.3 2.9 -0.2
v -0.3 3 -0.2
v -0.2 1.5 -0.2
v -0.2 1.6 -0.2
v -0.2 1.7 -0.2
v -0.2 1.8 -0.2
v -0.2 1.9 -0.2
v -0.2 2 -0.2
v -0.2 2.5 -0.2
v -0.2 2.6 -0.2
v -0.2 2.7 -0.2
v -0.2 2.8 -0.2
v -0.2 2.9 -0.2
v -0.2 3 -0.2
v -0.1 1.6 -0.2
v -0.1 1.7 -0.2
v -0.1 2.8 -0.2
v -0.1 2.9 -0.2
v 0.2 1.6 -0.2
v 0.2 1.7 -0.2
v 0.2 2.8 -0.2
v 0.2 2.9 -0.2
v 0.3 1.5 -0.2
v 0.3 1.6 -0.2
v 0.3 1.7 -0.2
v 0.3 1.8 -0.2
v 0.3 1.9 -0.2
v 0.3 2 -0.2
v 0.3 2.5 -0.2
v 0.3 2.6 -0.2
v 0.3 2.7 -0.2
v 0.3 2.8 -0.2
v 0.3 2.9 -0.2
v 0.3 3 -0.2
v 0.4 1.5 -0.2
v 0.4 1.6 -0.2
v 0.4 1.7 -0.2
v 0.4 1.8 -0.2
v 0.4 1.9 -0.2
v 0.4 2 -0.2
v 0.4 2.5 -0.2
v 0.4 2.6 -0.2
v 0.4 2.7 -0.2
v 0.4 2.8 -0.2
v 0.4 2.9 -0.2
v 0.4 3 -0.2
v 0.5 1.6 -0.2
v 0.5 1.7 -0.2
v 0.5 2.8 -0.2
v 0.5 2.9 -0.2
v -0.4 1.6 0.3
v -0.4 1.7 0.3
v -0.4 2.8 0.3
v -0.4 2.9 0.3
v -0.3 1.5 0.3
v -0.3 1.6 0.3
v -0.3 1.7 0.3
v -0.3 1.8 0.3
v -0.3 1.9 0.3
v -0.3 2 0.3
v -0.3 2.5 0.3
v -0.3 2.6 0.3
v -0.3 2.7 0.3
v -0.3 2.8 0.3
v -0.3 2.9 0.3
v -0.3 3 0.3
v -0.2 1.5 0.3
v -0.2 1.6 0.3
v -0.2 1.7 0.3
v -0.2 1.8 0.3
v -0.2 1.9 0.3
v -0.2 2 0.3
v -0.2 2.5 0.3
v -0.2 2.6 0.3
v -0.2 2.7 0.3
v -0.2 2.8 0.3
v -0.2 2.9 0.3
v -0.2 3 0.3
v -0.1 1.6 0.3
v -0.1 1.7 0.3
v -0.1 2.8 0.3
v -0.1 2.9 0.3
v 0.2 1.6 0.3
v 0.2 1.7 0.3
v 0.2 2.8 0.3
v 0.2 2.9 0.3
v 0.3 1.5 0.3
v 0.3 1.6 0.3
v 0.3 1.7 0.3
v 0.3 1.8 0.3
v 0.3 1.9 0.3
v 0.3 2 0.3
v 0.3 2.5 0.3
v 0.3 2.6 0.3
v 0.3 2.7 0.3
v 0.3 2.8 0.3
v 0.3 2.9 0.3
v 0.3 3 0.3
v 0.4 1.5 0.3
v 0.4 1.6 0.3
v 0.4 1.7 0.3
v 0.4 1.8 0.3
v 0.4 1.9 0.3
v 0.4 2 0.3
v 0.4 2.5 0.3
v 0.4 2.6 0.3
v 0.4 2.7 0.3
v 0.4 2.8 0.3
v 0.4 2.9 0.3
v 0.4 3 0.3
v 0.5 1.6 0.3
v 0.5 1.7 0.3
v 0.5 2.8 0.3
v 0.5 2.9 0.3
v -0.3 1.6 0.2
v -0.3 1.7 0.2
v -0.3 2.8 0.2
v -0.3 2.9 0.2
v -0.2 1.6 0.2
v -0.2 1.7 0.2
v -0.2 2.8 0.2
v -0.2 2.9 0.2
v 0.3 1.6 0.2
v 0.3 1.7 0.2
v 0.3 2.8 0.2
v 0.3 2.9 0.2
v 0.4 1.6 0.2
v 0.4 1.7 0.2
v 0.4 2.8 0.2
v 0.4 2.9 0.2
v 0 2.1 0
v 0 2.2 0
v 0 2.3 0
v 0 2.4 0
v 0 2.7 0
v 0 3.3 0
v 0.1 2.1 0
v 0.1 2.2 0
v 0.1 2.3 0
v 0.1 2.4 0
v 0.1 2.7 0
v 0.1 3.1 0
v 0.8 2.7 0
v 0.8 3.1 0
v 0.8 3.3 0
v 0.8 3.6 0
v 0.9 2.6 0
v 0.9 2.7 0
v 0.9 3.6 0
v 0.9 3.7 0
v 1 2.6 0
v 1 3.7 0
v 1 3.9 0
v 1 4 0
v 1.1 3.9 0
v 1.1 4 0
v 1.2 3.9 0
v 1.2 4 0
v 1.3 3.9 0
v 1.3 4 0
v -0.1 2 -0.1
v -0.1 2.1 -0.1
v -0.1 2.4 -0.1
v -0.1 2.5 -0.1
v 0.2 2 -0.1
v 0.2 2.1 -0.1
v 0.2 2.4 -0.1
v 0.2 2.5 -0.1
v 1 1.3 -0.1
v 1 3.9 -0.1
v 1.1 3.9 -0.1
v 1.1 4 -0.1
v 1.2 3.9 -0.1
v 1.2 4 -0.1
v 1.3 1.3 -0.1
v 1.3 3.9 -0.1
v -0.2 1.9 -0.2
v -0.2 2 -0.2
v -0.2 2.5 -0.2
v -0.2 2.6 -0.2
v 0.3 1.9 -0.2
v 0.3 2 -0.2
v 0.3 2.5 -0.2
v 0.3 2.6 -0.2
v -0.4 1.6 -0.3
v -0.4 1.7 -0.3
v -0.4 2.8 -0.3
v -0.4 2.9 -0.3
v -0.3 1.5 -0.3
v -0.3 1.6 -0.3
v -0.3 1.7 -0.3
v -0.3 1.8 -0.3
v -0.3 1.9 -0.3
v -0.3 2 -0.3
v -0.3 2.5 -0.3
v -0.3 2.6 -0.3
v -0.3 2.7 -0.3
v -0.3 2.8 -0.3
v -0.3 2.9 -0.3
v -0.3 3 -0.3
v -0.2 1.5 -0.3
v -0.2 1.6 -0.3
v -0.2 1.7 -0.3
v -0.2 1.8 -0.3
v -0.2 1.9 -0.3
v -0.2 2 -0.3
v -0.2 2.5 -0.3
v -0.2 2.6 -0.3
v -0.2 2.7 -0.3
v -0.2 2.8 -0.3
v -0.2 2.9 -0.3
v -0.2 3 -0.3
v -0.1 1.6 -0.3
v -0.1 1.7 -0.3
v -0.1 2.8 -0.3
v -0.1 2.9 -0.3
v 0.2 1.6 -0.3
v 0.2 1.7 -0.3
v 0.2 2.8 -0.3
v 0.2 2.9 -0.3
v 0.3 1.5 -0.3
v 0.3 1.6 -0.3
v 0.3 1.7 -0.3
v 0.3 1.8 -0.3
v 0.3 1.9 -0.3
v 0.3 2 -0.3
v 0.3 2.5 -0.3
v 0.3 2.6 -0.3
v 0.3 2.7 -0.3
v 0.3 2.8 -0.3
v 0.3 2.9 -0.3
v 0.3 3 -0.3
v 0.4 1.5 -0.3
v 0.4 1.6 -0.3
v 0.4 1.7 -0.3
v 0.4 1.8 -0.3
v 0.4 1.9 -0.3
v 0.4 2 -0.3
v 0.4 2.5 -0.3
v 0.4 2.6 -0.3
v 0.4 2.7 -0.3
v 0.4 2.8 -0.3
v 0.4 2.9 -0.3
v 0.4 3 -0.3
v 0.5 1.6 -0.3
v 0.5 1.7 -0.3
v 0.5 2.8 -0.3
v 0.5 2.9 -0.3
v -0.4 1.8 -0.4
v -0.4 1.9 -0.4
v -0.4 2.6 -0.4
v -0.4 2.7 -0.4
v -0.3 1.6 -0.4
v -0.3 1.7 -0.4
v -0.3 2.8 -0.4
v -0.3 2.9 -0.4
v -0.2 1.6 -0.4
v -0.2 1.7 -0.4
v -0.2 2.8 -0.4
v -0.2 2.9 -0.4
v 0.3 1.6 -0.4
v 0.3 1.7 -0.4
v 0.3 2.8 -0.4
v 0.3 2.9 -0.4
v 0.4 1.6 -0.4
v 0.4 1.7 -0.4
v 0.4 2.8 -0.4
v 0.4 2.9 -0.4
v 0.5 1.8 -0.4
v 0.5 1.9 -0.4
v 0.5 2.6 -0.4
v 0.5 2.7 -0.4
v 1 1.3 0.2
v 1.3 1.3 0.2
v 1 1.3 -0.1
v 1.3 1.3 -0.1
v -0.3 1.5 0.4
v -0.2 1.5 0.4
v 0.3 1.5 0.4
v 0.4 1.5 0.4
v -0.3 1.5 0.3
v -0.2 1.5 0.3
v 0.3 1.5 0.3
v 0.4 1.5 0.3
v -0.3 1.5 -0.2
v -0.2 1.5 -0.2
v 0.3 1.5 -0.2
v 0.4 1.5 -0.2
v -0.3 1.5 -0.3
v -0.2 1.5 -0.3
v 0.3 1.5 -0.3
v 0.4 1.5 -0.3
v -0.3 1.6 0.5
v -0.2 1.6 0.5
v 0.3 1.6 0.5
v 0.4 1.6 0.5
v -0.4 1.6 0.4
v -0.3 1.6 0.4
v -0.2 1.6 0.4
v -0.1 1.6 0.4
v 0.2 1.6 0.4
v 0.3 1.6 0.4
v 0.4 1.6 0.4
v 0.5 1.6 0.4
v -0.4 1.6 0.3
v -0.3 1.6 0.3
v -0.2 1.6 0.3
v -0.1 1.6 0.3
v 0.2 1.6 0.3
v 0.3 1.6 0.3
v 0.4 1.6 0.3
v 0.5 1.6 0.3
v -0.3 1.6 0.2
v -0.2 1.6 0.2
v 0.3 1.6 0.2
v 0.4 1.6 0.2
v -0.3 1.6 -0.1
v -0.2 1.6 -0.1
v 0.3 1.6 -0.1
v 0.4 1.6 -0.1
v -0.4 1.6 -0.2
v -0.3 1.6 -0.2
v -0.2 1.6 -0.2
v -0.1 1.6 -0.2
v 0.2 1.6 -0.2
v 0.3 1.6 -0.2
v 0.4 1.6 -0.2
v 0.5 1.6 -0.2
v -0.4 1.6 -0.3
v -0.3 1.6 -0.3
v -0.2 1.6 -0.3
v -0.1 1.6 -0.3
v 0.2 1.6 -0.3
v 0.3 1.6 -0.3
v 0.4 1.6 -0.3
v 0.5 1.6 -0.3
v -0.3 1.6 -0.4
v -0.2 1.6 -0.4
v 0.3 1.6 -0.4
v 0.4 1.6 -0.4
v -0.4 1.8 0.5
v 0.5 1.8 0.5
v -0.3 1.8 0.4
v -0.2 1.8 0.4
v 0.3 1.8 0.4
v 0.4 1.8 0.4
v -0.3 1.8 0.3
v -0.2 1.8 0.3
v 0.3 1.8 0.3
v 0.4 1.8 0.3
v -0.3 1.8 -0.2
v -0.2 1.8 -0.2
v 0.3 1.8 -0.2
v 0.4 1.8 -0.2
v -0.3 1.8 -0.3
v -0.2 1.8 -0.3
v 0.3 1.8 -0.3
v 0.4 1.8 -0.3
v -0.4 1.8 -0.4
v 0.5 1.8 -0.4
v -0.1 2.4 0.2
v 0.2 2.4 0.2
v 0 2.4 0.1
v 0.1 2.4 0.1
v 0 2.4 0
v 0.1 2.4 0
v -0.1 2.4 -0.1
v 0.2 2.4 -0.1
v -0.2 2.5 0.3
v 0.3 2.5 0.3
v -0.1 2.5 0.2
v 0.2 2.5 0.2
v -0.1 2.5 -0.1
v 0.2 2.5 -0.1
v -0.2 2.5 -0.2
v 0.3 2.5 -0.2
v -0.4 2.6 0.5
v 0.5 2.6 0.5
v -0.3 2.6 0.4
v -0.2 2.6 0.4
v 0.3 2.6 0.4
v 0.4 2.6 0.4
v -0.3 2.6 0.3
v -0.2 2.6 0.3
v 0.3 2.6 0.3
v 0.4 2.6 0.3
v 0.9 2.6 0.1
v 1 2.6 0.1
v 0.9 2.6 0
v 1 2.6 0
v -0.3 2.6 -0.2
v -0.2 2.6 -0.2
v 0.3 2.6 -0.2
v 0.4 2.6 -0.2
v -0.3 2.6 -0.3
v -0.2 2.6 -0.3
v 0.3 2.6 -0.3
v 0.4 2.6 -0.3
v -0.4 2.6 -0.4
v 0.5 2.6 -0.4
v 0.8 2.7 0.1
v 0.9 2.7 0.1
v 0.8 2.7 0
v 0.9 2.7 0
v -0.3 2.8 0.5
v -0.2 2.8 0.5
v 0.3 2.8 0.5
v 0.4 2.8 0.5
v -0.4 2.8 0.4
v -0.3 2.8 0.4
v -0.2 2.8 0.4
v -0.1 2.8 0.4
v 0.2 2.8 0.4
v 0.3 2.8 0.4
v 0.4 2.8 0.4
v 0.5 2.8 0.4
v -0.4 2.8 0.3
v -0.3 2.8 0.3
v -0.2 2.8 0.3
v -0.1 2.8 0.3
v 0.2 2.8 0.3
v 0.3 2.8 0.3
v 0.4 2.8 0.3
v 0.5 2.8 0.3
v -0.3 2.8 0.2
v -0.2 2.8 0.2
v 0.3 2.8 0.2
v 0.4 2.8 0.2
v -0.3 2.8 -0.1
v -0.2 2.8 -0.1
v 0.3 2.8 -0.1
v 0.4 2.8 -0.1
v -0.4 2.8 -0.2
v -0.3 2.8 -0.2
v -0.2 2.8 -0.2
v -0.1 2.8 -0.2
v 0.2 2.8 -0.2
v 0.3 2.8 -0.2
v 0.4 2.8 -0.2
v 0.5 2.8 -0.2
v -0.4 2.8 -0.3
v -0.3 2.8 -0.3
v -0.2 2.8 -0.3
v -0.1 2.8 -0.3
v 0.2 2.8 -0.3
v 0.3 2.8 -0.3
v 0.4 2.8 -0.3
v 0.5 2.8 -0.3
v -0.3 2.8 -0.4
v -0.2 2.8 -0.4
v 0.3 2.8 -0.4
v 0.4 2.8 -0.4
v 0.1 3.1 0.1
v 0.8 3.1 0.1
v 0.1 3.1 0
v 0.8 3.1 0
v -0.3 1.7 0.5
v -0.2 1.7 0.5
v 0.3 1.7 0.5
v 0.4 1.7 0.5
v -0.4 1.7 0.4
v -0.3 1.7 0.4
v -0.2 1.7 0.4
v -0.1 1.7 0.4
v 0.2 1.7 0.4
v 0.3 1.7 0.4
v 0.4 1.7 0.4
v 0.5 1.7 0.4
v -0.4 1.7 0.3
v -0.3 1.7 0.3
v -0.2 1.7 0.3
v -0.1 1.7 0.3
v 0.2 1.7 0.3
v 0.3 1.7 0.3
v 0.4 1.7 0.3
v 0.5 1.7 0.3
v -0.3 1.7 0.2
v -0.2 1.7 0.2
v 0.3 1.7 0.2
v 0.4 1.7 0.2
v -0.3 1.7 -0.1
v -0.2 1.7 -0.1
v 0.3 1.7 -0.1
v 0.4 1.7 -0.1
v -0.4 1.7 -0.2
v -0.3 1.7 -0.2
v -0.2 1.7 -0.2
v -0.1 1.7 -0.2
v 0.2 1.7 -0.2
v 0.3 1.7 -0.2
v 0.4 1.7 -0.2
v 0.5 1.7 -0.2
v -0.4 1.7 -0.3
v -0.3 1.7 -0.3
v -0.2 1.7 -0.3
v -0.1 1.7 -0.3
v 0.2 1.7 -0.3
v 0.3 1.7 -0.3
v 0.4 1.7 -0.3
v 0.5 1.7 -0.3
v -0.3 1.7 -0.4
v -0.2 1.7 -0.4
v 0.3 1.7 -0.4
v 0.4 1.7 -0.4
v -0.4 1.9 0.5
v 0.5 1.9 0.5
v -0.3 1.9 0.4
v -0.2 1.9 0.4
v 0.3 1.9 0.4
v 0.4 1.9 0.4
v -0.3 1.9 0.3
v -0.2 1.9 0.3
v 0.3 1.9 0.3
v 0.4 1.9 0.3
v -0.3 1.9 -0.2
v -0.2 1.9 -0.2
v 0.3 1.9 -0.2
v 0.4 1.9 -0.2
v -0.3 1.9 -0.3
v -0.2 1.9 -0.3
v 0.3 1.9 -0.3
v 0.4 1.9 -0.3
v -0.4 1.9 -0.4
v 0.5 1.9 -0.4
v -0.2 2 0.3
v 0.3 2 0.3
v -0.1 2 0.2
v 0.2 2 0.2
v -0.1 2 -0.1
v 0.2 2 -0.1
v -0.2 2 -0.2
v 0.3 2 -0.2
v -0.1 2.1 0.2
v 0.2 2.1 0.2
v 0 2.1 0.1
v 0.1 2.1 0.1
v 0 2.1 0
v 0.1 2.1 0
v -0.1 2.1 -0.1
v 0.2 2.1 -0.1
v -0.4 2.7 0.5
v 0.5 2.7 0.5
v -0.3 2.7 0.4
v -0.2 2.7 0.4
v 0.3 2.7 0.4
v 0.4 2.7 0.4
v -0.3 2.7 0.3
v -0.2 2.7 0.3
v 0.3 2.7 0.3
v 0.4 2.7 0.3
v 0 2.7 0.1
v 0.1 2.7 0.1
v 0 2.7 0
v 0.1 2.7 0
v -0.3 2.7 -0.2
v -0.2 2.7 -0.2
v 0.3 2.7 -0.2
v 0.4 2.7 -0.2
v -0.3 2.7 -0.3
v -0.2 2.7 -0.3
v 0.3 2.7 -0.3
v 0.4 2.7 -0.3
v -0.4 2.7 -0.4
v 0.5 2.7 -0.4
v -0.3 2.9 0.5
v -0.2 2.9 0.5
v 0.3 2.9 0.5
v 0.4 2.9 0.5
v -0.4 2.9 0.4
v -0.3 2.9 0.4
v -0.2 2.9 0.4
v -0.1 2.9 0.4
v 0.2 2.9 0.4
v 0.3 2.9 0.4
v 0.4 2.9 0.4
v 0.5 2.9 0.4
v -0.4 2.9 0.3
v -0.3 2.9 0.3
v -0.2 2.9 0.3
v -0.1 2.9 0.3
v 0.2 2.9 0.3
v 0.3 2.9 0.3
v 0.4 2.9 0.3
v 0.5 2.9 0.3
v -0.3 2.9 0.2
v -0.2 2.9 0.2
v 0.3 2.9 0.2
v 0.4 2.9 0.2
v -0.3 2.9 -0.1
v -0.2 2.9 -0.1
v 0.3 2.9 -0.1
v 0.4 2.9 -0.1
v -0.4 2.9 -0.2
v -0.3 2.9 -0.2
v -0.2 2.9 -0.2
v -0.1 2.9 -0.2
v 0.2 2.9 -0.2
v 0.3 2.9 -0.2
v 0.4 2.9 -0.2
v 0.5 2.9 -0.2
v -0.4 2.9 -0.3
v -0.3 2.9 -0.3
v -0.2 2.9 -0.3
v -0.1 2.9 -0.3
v 0.2 2.9 -0.3
v 0.3 2.9 -0.3
v 0.4 2.9 -0.3
v 0.5 2.9 -0.3
v -0.3 2.9 -0.4
v -0.2 2.9 -0.4
v 0.3 2.9 -0.4
v 0.4 2.9 -0.4
v -0.3 3 0.4
v -0.2 3 0.4
v 0.3 3 0.4
v 0.4 3 0.4
v -0.3 3 0.3
v -0.2 3 0.3
v 0.3 3 0.3
v 0.4 3 0.3
v -0.3 3 -0.2
v -0.2 3 -0.2
v 0.3 3 -0.2
v 0.4 3 -0.2
v -0.3 3 -0.3
v -0.2 3 -0.3
v 0.3 3 -0.3
v 0.4 3 -0.3
v 0 3.3 0.1
v 0.8 3.3 0.1
v 0 3.3 0
v 0.8 3.3 0
v 0.8 3.6 0.1
v 0.9 3.6 0.1
v 0.8 3.6 0
v 0.9 3.6 0
v 0.9 3.7 0.1
v 1 3.7 0.1
v 0.9 3.7 0
v 1 3.7 0
v 1 3.9 0.2
v 1.1 3.9 0.2
v 1.2 3.9 0.2
v 1.3 3.9 0.2
v 1 3.9 0.1
v 1.1 3.9 0.1
v 1.2 3.9 0.1
v 1.3 3.9 0.1
v 1 3.9 0
v 1.1 3.9 0
v 1.2 3.9 0
v 1.3 3.9 0
v 1 3.9 -0.1
v 1.1 3.9 -0.1
v 1.2 3.9 -0.1
v 1.3 3.9 -0.1
v 1.1 4 0.2
v 1.2 4 0.2
v 1 4 0.1
v 1.1 4 0.1
v 1.2 4 0.1
v 1.3 4 0.1
v 1 4 0
v 1.1 4 0
v 1.2 4 0
v 1.3 4 0
v 1.1 4 -0.1
v 1.2 4 -0.1

# faces
f 5/4/1 2/4/1 1/4/1
f 6/4/1 2/4/1 5/4/1
f 7/4/1 4/4/1 3/4/1
f 8/4/1 4/4/1 7/4/1
f 11/6/1 10/6/1 9/6/1
f 12/6/1 10/6/1 11/6/1
f 15/6/1 14/6/1 13/6/1
f 16/6/1 14/6/1 15/6/1
f 21/4/1 18/4/1 17/4/1
f 22/4/1 18/4/1 21/4/1
f 23/4/1 20/4/1 19/4/1
f 24/4/1 20/4/1 23/4/1
f 30/3/1 26/3/1 25/3/1
f 31/3/1 26/3/1 30/3/1
f 34/3/1 28/3/1 27/3/1
f 35/3/1 28/3/1 34/3/1
f 37/4/1 30/4/1 29/4/1
f 38/4/1 30/4/1 37/4/1
f 39/4/1 32/4/1 31/4/1
f 40/4/1 32/4/1 39/4/1
f 41/4/1 34/4/1 33/4/1
f 42/4/1 34/4/1 41/4/1
f 43/4/1 36/4/1 35/4/1
f 44/4/1 36/4/1 43/4/1
f 45/3/1 39/3/1 38/3/1
f 46/3/1 39/3/1 45/3/1
f 47/3/1 43/3/1 42/3/1
f 48/3/1 43/3/1 47/3/1
f 53/3/1 50/3/1 49/3/1
f 54/3/1 50/3/1 53/3/1
f 55/3/1 52/3/1 51/3/1
f 56/3/1 52/3/1 55/3/1
f 57/4/1 54/4/1 53/4/1
f 58/4/1 54/4/1 57/4/1
f 59/4/1 56/4/1 55/4/1
f 60/4/1 56/4/1 59/4/1
f 61/3/1 58/3/1 57/3/1
f 62/3/1 58/3/1 61/3/1
f 63/3/1 60/3/1 59/3/1
f 64/3/1 60/3/1 63/3/1
f 70/3/1 66/3/1 65/3/1
f 71/3/1 66/3/1 70/3/1
f 74/3/1 68/3/1 67/3/1
f 75/3/1 68/3/1 74/3/1
f 77/4/1 70/4/1 69/4/1
f 78/4/1 70/4/1 77/4/1
f 79/4/1 72/4/1 71/4/1
f 80/4/1 72/4/1 79/4/1
f 81/4/1 74/4/1 73/4/1
f 82/4/1 74/4/1 81/4/1
f 83/4/1 76/4/1 75/4/1
f 84/4/1 76/4/1 83/4/1
f 85/3/1 79/3/1 78/3/1
f 86/3/1 79/3/1 85/3/1
f 87/3/1 83/3/1 82/3/1
f 88/3/1 83/3/1 87/3/1
f 91/2/1 90/2/1 89/2/1
f 92/2/1 90/2/1 91/2/1
f 95/2/1 94/2/1 93/2/1
f 96/2/1 94/2/1 95/2/1
f 99/2/1 98/2/1 97/2/1
f 100/2/1 98/2/1 99/2/1
f 103/2/1 102/2/1 101/2/1
f 104/2/1 102/2/1 103/2/1
f 107/2/1 106/2/1 105/2/1
f 108/2/1 106/2/1 107/2/1
f 109/5/1 108/5/1 107/5/1
f 110/5/1 108/5/1 109/5/1
f 111/2/1 110/2/1 109/2/1
f 112/2/1 110/2/1 111/2/1
f 115/7/1 114/7/1 113/7/1
f 116/7/1 114/7/1 115/7/1
f 121/4/1 118/4/1 117/4/1
f 122/4/1 118/4/1 121/4/1
f 123/4/1 120/4/1 119/4/1
f 124/4/1 120/4/1 123/4/1
f 129/4/1 126/4/1 125/4/1
f 130/4/1 126/4/1 129/4/1
f 131/4/1 128/4/1 127/4/1
f 132/4/1 128/4/1 131/4/1
f 138/3/1 134/3/1 133/3/1
f 139/3/1 134/3/1 138/3/1
f 142/3/1 136/3/1 135/3/1
f 143/3/1 136/3/1 142/3/1
f 145/4/1 138/4/1 137/4/1
f 146/4/1 138/4/1 145/4/1
f 147/4/1 140/4/1 139/4/1
f 148/4/1 140/4/1 147/4/1
f 149/4/1 142/4/1 141/4/1
f 150/4/1 142/4/1 149/4/1
f 151/4/1 144/4/1 143/4/1
f 152/4/1 144/4/1 151/4/1
f 153/3/1 147/3/1 146/3/1
f 154/3/1 147/3/1 153/3/1
f 155/3/1 151/3/1 150/3/1
f 156/3/1 151/3/1 155/3/1
f 161/3/1 158/3/1 157/3/1
f 162/3/1 158/3/1 161/3/1
f 163/3/1 160/3/1 159/3/1
f 164/3/1 160/3/1 163/3/1
f 165/4/1 162/4/1 161/4/1
f 166/4/1 162/4/1 165/4/1
f 167/4/1 164/4/1 163/4/1
f 168/4/1 164/4/1 167/4/1
f 169/3/1 166/3/1 165/3/1
f 170/3/1 166/3/1 169/3/1
f 171/3/1 168/3/1 167/3/1
f 172/3/1 168/3/1 171/3/1
f 178/3/1 174/3/1 173/3/1
f 179/3/1 174/3/1 178/3/1
f 182/3/1 176/3/1 175/3/1
f 183/3/1 176/3/1 182/3/1
f 185/4/1 178/4/1 177/4/1
f 186/4/1 178/4/1 185/4/1
f 187/4/1 180/4/1 179/4/1
f 188/4/1 180/4/1 187/4/1
f 189/4/1 182/4/1 181/4/1
f 190/4/1 182/4/1 189/4/1
f 191/4/1 184/4/1 183/4/1
f 192/4/1 184/4/1 191/4/1
f 193/3/1 187/3/1 186/3/1
f 194/3/1 187/3/1 193/3/1
f 195/3/1 191/3/1 190/3/1
f 196/3/1 191/3/1 195/3/1
f 199/7/1 198/7/1 197/7/1
f 200/7/1 198/7/1 199/7/1
f 203/7/1 202/7/1 201/7/1
f 204/7/1 202/7/1 203/7/1
f 207/7/1 206/7/1 205/7/1
f 208/7/1 206/7/1 207/7/1
f 211/7/1 210/7/1 209/7/1
f 212/7/1 210/7/1 211/7/1
f 215/7/1 214/7/1 213/7/1
f 216/7/1 214/7/1 215/7/1
f 217/7/1 215/7/1 213/7/1
f 218/7/1 214/7/1 216/7/1
f 219/7/1 217/7/1 213/7/1
f 219/7/1 218/7/1 217/7/1
f 220/7/1 218/7/1 219/7/1
f 221/7/1 214/7/1 218/7/1
f 221/7/1 218/7/1 220/7/1
f 222/7/1 214/7/1 221/7/1
f 223/7/1 221/7/1 220/7/1
f 224/7/1 221/7/1 223/7/1
f 229/7/1 226/7/1 225/7/1
f 230/7/1 226/7/1 229/7/1
f 231/7/1 228/7/1 227/7/1
f 232/7/1 228/7/1 231/7/1
f 233/3/2 234/3/2 238/3/2
f 238/3/2 234/3/2 239/3/2
f 235/3/2 236/3/2 242/3/2
f 242/3/2 236/3/2 243/3/2
f 237/4/2 238/4/2 245/4/2
f 245/4/2 238/4/2 246/4/2
f 239/4/2 240/4/2 247/4/2
f 247/4/2 240/4/2 248/4/2
f 241/4/2 242/4/2 249/4/2
f 249/4/2 242/4/2 250/4/2
f 243/4/2 244/4/2 251/4/2
f 251/4/2 244/4/2 252/4/2
f 246/3/2 247/3/2 253/3/2
f 253/3/2 247/3/2 254/3/2
f 250/3/2 251/3/2 255/3/2
f 255/3/2 251/3/2 256/3/2
f 257/3/2 258/3/2 261/3/2
f 261/3/2 258/3/2 262/3/2
f 259/3/2 260/3/2 263/3/2
f 263/3/2 260/3/2 264/3/2
f 261/4/2 262/4/2 265/4/2
f 265/4/2 262/4/2 266/4/2
f 263/4/2 264/4/2 267/4/2
f 267/4/2 264/4/2 268/4/2
f 265/3/2 266/3/2 269/3/2
f 269/3/2 266/3/2 270/3/2
f 267/3/2 268/3/2 271/3/2
f 271/3/2 268/3/2 272/3/2
f 273/3/2 274/3/2 278/3/2
f 278/3/2 274/3/2 279/3/2
f 275/3/2 276/3/2 282/3/2
f 282/3/2 276/3/2 283/3/2
f 277/4/2 278/4/2 285/4/2
f 285/4/2 278/4/2 286/4/2
f 279/4/2 280/4/2 287/4/2
f 287/4/2 280/4/2 288/4/2
f 281/4/2 282/4/2 289/4/2
f 289/4/2 282/4/2 290/4/2
f 283/4/2 284/4/2 291/4/2
f 291/4/2 284/4/2 292/4/2
f 286/3/2 287/3/2 293/3/2
f 293/3/2 287/3/2 294/3/2
f 290/3/2 291/3/2 295/3/2
f 295/3/2 291/3/2 296/3/2
f 297/4/2 298/4/2 301/4/2
f 301/4/2 298/4/2 302/4/2
f 299/4/2 300/4/2 303/4/2
f 303/4/2 300/4/2 304/4/2
f 305/4/2 306/4/2 309/4/2
f 309/4/2 306/4/2 310/4/2
f 307/4/2 308/4/2 311/4/2
f 311/4/2 308/4/2 312/4/2
f 313/2/2 314/2/2 315/2/2
f 315/2/2 314/2/2 316/2/2
f 315/5/2 316/5/2 317/5/2
f 317/5/2 316/5/2 318/5/2
f 317/2/2 318/2/2 319/2/2
f 319/2/2 318/2/2 320/2/2
f 321/7/2 322/7/2 323/7/2
f 323/7/2 322/7/2 324/7/2
f 325/2/2 326/2/2 327/2/2
f 327/2/2 326/2/2 328/2/2
f 329/2/2 330/2/2 331/2/2
f 331/2/2 330/2/2 332/2/2
f 333/2/2 334/2/2 335/2/2
f 335/2/2 334/2/2 336/2/2
f 337/2/2 338/2/2 339/2/2
f 339/2/2 338/2/2 340/2/2
f 341/3/2 342/3/2 346/3/2
f 346/3/2 342/3/2 347/3/2
f 343/3/2 344/3/2 350/3/2
f 350/3/2 344/3/2 351/3/2
f 345/4/2 346/4/2 353/4/2
f 353/4/2 346/4/2 354/4/2
f 347/4/2 348/4/2 355/4/2
f 355/4/2 348/4/2 356/4/2
f 349/4/2 350/4/2 357/4/2
f 357/4/2 350/4/2 358/4/2
f 351/4/2 352/4/2 359/4/2
f 359/4/2 352/4/2 360/4/2
f 354/3/2 355/3/2 361/3/2
f 361/3/2 355/3/2 362/3/2
f 358/3/2 359/3/2 363/3/2
f 363/3/2 359/3/2 364/3/2
f 365/3/2 366/3/2 369/3/2
f 369/3/2 366/3/2 370/3/2
f 367/3/2 368/3/2 371/3/2
f 371/3/2 368/3/2 372/3/2
f 369/4/2 370/4/2 373/4/2
f 373/4/2 370/4/2 374/4/2
f 371/4/2 372/4/2 375/4/2
f 375/4/2 372/4/2 376/4/2
f 373/3/2 374/3/2 377/3/2
f 377/3/2 374/3/2 378/3/2
f 375/3/2 376/3/2 379/3/2
f 379/3/2 376/3/2 380/3/2
f 381/3/2 382/3/2 386/3/2
f 386/3/2 382/3/2 387/3/2
f 383/3/2 384/3/2 390/3/2
f 390/3/2 384/3/2 391/3/2
f 385/4/2 386/4/2 393/4/2
f 393/4/2 386/4/2 394/4/2
f 387/4/2 388/4/2 395/4/2
f 395/4/2 388/4/2 396/4/2
f 389/4/2 390/4/2 397/4/2
f 397/4/2 390/4/2 398/4/2
f 391/4/2 392/4/2 399/4/2
f 399/4/2 392/4/2 400/4/2
f 394/3/2 395/3/2 401/3/2
f 401/3/2 395/3/2 402/3/2
f 398/3/2 399/3/2 403/3/2
f 403/3/2 399/3/2 404/3/2
f 405/4/2 406/4/2 409/4/2
f 409/4/2 406/4/2 410/4/2
f 407/4/2 408/4/2 411/4/2
f 411/4/2 408/4/2 412/4/2
f 413/6/2 414/6/2 415/6/2
f 415/6/2 414/6/2 416/6/2
f 417/6/2 418/6/2 419/6/2
f 419/6/2 418/6/2 420/6/2
f 421/4/2 422/4/2 425/4/2
f 425/4/2 422/4/2 426/4/2
f 423/4/2 424/4/2 427/4/2
f 427/4/2 424/4/2 428/4/2
f 429/7/2 430/7/2 433/7/2
f 433/7/2 430/7/2 434/7/2
f 431/7/2 432/7/2 435/7/2
f 435/7/2 432/7/2 436/7/2
f 437/7/2 438/7/2 439/7/2
f 439/7/2 438/7/2 440/7/2
f 440/7/2 438/7/2 441/7/2
f 441/7/2 438/7/2 442/7/2
f 440/7/2 441/7/2 443/7/2
f 443/7/2 441/7/2 444/7/2
f 453/4/3 450/4/3 449/4/3
f 454/4/3 450/4/3 453/4/3
f 455/4/3 452/4/3 451/4/3
f 456/4/3 452/4/3 455/4/3
f 461/4/3 458/4/3 457/4/3
f 462/4/3 458/4/3 461/4/3
f 463/4/3 460/4/3 459/4/3
f 464/4/3 460/4/3 463/4/3
f 465/6/3 446/6/3 445/6/3
f 466/6/3 446/6/3 465/6/3
f 467/6/3 448/6/3 447/6/3
f 468/6/3 448/6/3 467/6/3
f 474/4/3 470/4/3 469/4/3
f 475/4/3 470/4/3 474/4/3
f 482/4/3 472/4/3 471/4/3
f 483/4/3 472/4/3 482/4/3
f 485/3/3 474/3/3 473/3/3
f 486/3/3 474/3/3 485/3/3
f 487/3/3 476/3/3 475/3/3
f 488/3/3 476/3/3 487/3/3
f 489/3/3 478/3/3 477/3/3
f 490/4/3 479/4/3 478/4/3
f 490/3/3 478/3/3 489/3/3
f 491/3/3 480/3/3 479/3/3
f 491/4/3 479/4/3 490/4/3
f 492/3/3 480/3/3 491/3/3
f 493/3/3 482/3/3 481/3/3
f 494/3/3 482/3/3 493/3/3
f 495/3/3 484/3/3 483/3/3
f 496/3/3 484/3/3 495/3/3
f 497/4/3 487/4/3 486/4/3
f 498/4/3 487/4/3 497/4/3
f 499/4/3 495/4/3 494/4/3
f 500/4/3 495/4/3 499/4/3
f 506/4/3 502/4/3 501/4/3
f 507/4/3 502/4/3 506/4/3
f 514/4/3 504/4/3 503/4/3
f 515/4/3 504/4/3 514/4/3
f 517/3/3 506/3/3 505/3/3
f 518/3/3 506/3/3 517/3/3
f 519/3/3 508/3/3 507/3/3
f 520/3/3 508/3/3 519/3/3
f 521/3/3 510/3/3 509/3/3
f 522/4/3 511/4/3 510/4/3
f 522/3/3 510/3/3 521/3/3
f 523/3/3 512/3/3 511/3/3
f 523/4/3 511/4/3 522/4/3
f 524/3/3 512/3/3 523/3/3
f 525/3/3 514/3/3 513/3/3
f 526/3/3 514/3/3 525/3/3
f 527/3/3 516/3/3 515/3/3
f 528/3/3 516/3/3 527/3/3
f 529/4/3 519/4/3 518/4/3
f 530/4/3 519/4/3 529/4/3
f 531/4/3 527/4/3 526/4/3
f 532/4/3 527/4/3 531/4/3
f 537/2/3 534/2/3 533/2/3
f 538/2/3 534/2/3 537/2/3
f 539/2/3 536/2/3 535/2/3
f 540/2/3 536/2/3 539/2/3
f 545/2/3 542/2/3 541/2/3
f 546/2/3 542/2/3 545/2/3
f 547/2/3 544/2/3 543/2/3
f 548/2/3 544/2/3 547/2/3
f 551/7/3 550/7/3 549/7/3
f 553/7/3 551/7/3 549/7/3
f 553/7/3 552/7/3 551/7/3
f 554/7/3 552/7/3 553/7/3
f 555/7/3 553/7/3 549/7/3
f 556/7/3 553/7/3 555/7/3
f 563/2/3 558/2/3 557/2/3
f 564/5/3 559/5/3 558/5/3
f 564/2/3 558/2/3 563/2/3
f 565/2/3 560/2/3 559/2/3
f 565/5/3 559/5/3 564/5/3
f 566/2/3 560/2/3 565/2/3
f 567/7/3 562/7/3 561/7/3
f 568/7/3 562/7/3 567/7/3
f 570/7/3 562/7/3 568/7/3
f 571/7/3 562/7/3 570/7/3
f 574/7/3 570/7/3 569/7/3
f 574/7/3 572/7/3 571/7/3
f 574/7/3 571/7/3 570/7/3
f 575/7/3 572/7/3 574/7/3
f 577/7/3 574/7/3 573/7/3
f 577/7/3 576/7/3 575/7/3
f 577/7/3 575/7/3 574/7/3
f 578/7/3 576/7/3 577/7/3
f 581/7/3 580/7/3 579/7/3
f 582/7/3 580/7/3 581/7/3
f 585/7/3 584/7/3 583/7/3
f 586/7/3 584/7/3 585/7/3
f 591/4/3 588/4/3 587/4/3
f 592/4/3 588/4/3 591/4/3
f 593/4/3 590/4/3 589/4/3
f 594/4/3 590/4/3 593/4/3
f 599/4/3 596/4/3 595/4/3
f 600/4/3 596/4/3 599/4/3
f 601/4/3 598/4/3 597/4/3
f 602/4/3 598/4/3 601/4/3
f 608/4/3 604/4/3 603/4/3
f 609/4/3 604/4/3 608/4/3
f 616/4/3 606/4/3 605/4/3
f 617/4/3 606/4/3 616/4/3
f 619/3/3 608/3/3 607/3/3
f 620/3/3 608/3/3 619/3/3
f 621/3/3 610/3/3 609/3/3
f 622/3/3 610/3/3 621/3/3
f 623/3/3 612/3/3 611/3/3
f 624/4/3 613/4/3 612/4/3
f 624/3/3 612/3/3 623/3/3
f 625/3/3 614/3/3 613/3/3
f 625/4/3 613/4/3 624/4/3
f 626/3/3 614/3/3 625/3/3
f 627/3/3 616/3/3 615/3/3
f 628/3/3 616/3/3 627/3/3
f 629/3/3 618/3/3 617/3/3
f 630/3/3 618/3/3 629/3/3
f 631/4/3 621/4/3 620/4/3
f 632/4/3 621/4/3 631/4/3
f 633/4/3 629/4/3 628/4/3
f 634/4/3 629/4/3 633/4/3
f 640/4/3 636/4/3 635/4/3
f 641/4/3 636/4/3 640/4/3
f 648/4/3 638/4/3 637/4/3
f 649/4/3 638/4/3 648/4/3
f 651/3/3 640/3/3 639/3/3
f 652/3/3 640/3/3 651/3/3
f 653/3/3 642/3/3 641/3/3
f 654/3/3 642/3/3 653/3/3
f 655/3/3 644/3/3 643/3/3
f 656/4/3 645/4/3 644/4/3
f 656/3/3 644/3/3 655/3/3
f 657/3/3 646/3/3 645/3/3
f 657/4/3 645/4/3 656/4/3
f 658/3/3 646/3/3 657/3/3
f 659/3/3 648/3/3 647/3/3
f 660/3/3 648/3/3 659/3/3
f 661/3/3 650/3/3 649/3/3
f 662/3/3 650/3/3 661/3/3
f 663/4/3 653/4/3 652/4/3
f 664/4/3 653/4/3 663/4/3
f 665/4/3 661/4/3 660/4/3
f 666/4/3 661/4/3 665/4/3
f 667/4/4 668/4/4 672/4/4
f 672/4/4 668/4/4 673/4/4
f 669/4/4 670/4/4 680/4/4
f 680/4/4 670/4/4 681/4/4
f 671/3/4 672/3/4 683/3/4
f 683/3/4 672/3/4 684/3/4
f 673/3/4 674/3/4 685/3/4
f 685/3/4 674/3/4 686/3/4
f 675/3/4 676/3/4 687/3/4
f 676/4/4 677/4/4 688/4/4
f 687/3/4 676/3/4 688/3/4
f 677/3/4 678/3/4 689/3/4
f 688/4/4 677/4/4 689/4/4
f 689/3/4 678/3/4 690/3/4
f 679/3/4 680/3/4 691/3/4
f 691/3/4 680/3/4 692/3/4
f 681/3/4 682/3/4 693/3/4
f 693/3/4 682/3/4 694/3/4
f 684/4/4 685/4/4 695/4/4
f 695/4/4 685/4/4 696/4/4
f 692/4/4 693/4/4 697/4/4
f 697/4/4 693/4/4 698/4/4
f 699/4/4 700/4/4 704/4/4
f 704/4/4 700/4/4 705/4/4
f 701/4/4 702/4/4 712/4/4
f 712/4/4 702/4/4 713/4/4
f 703/3/4 704/3/4 715/3/4
f 715/3/4 704/3/4 716/3/4
f 705/3/4 706/3/4 717/3/4
f 717/3/4 706/3/4 718/3/4
f 707/3/4 708/3/4 719/3/4
f 708/4/4 709/4/4 720/4/4
f 719/3/4 708/3/4 720/3/4
f 709/3/4 710/3/4 721/3/4
f 720/4/4 709/4/4 721/4/4
f 721/3/4 710/3/4 722/3/4
f 711/3/4 712/3/4 723/3/4
f 723/3/4 712/3/4 724/3/4
f 713/3/4 714/3/4 725/3/4
f 725/3/4 714/3/4 726/3/4
f 716/4/4 717/4/4 727/4/4
f 727/4/4 717/4/4 728/4/4
f 724/4/4 725/4/4 729/4/4
f 729/4/4 725/4/4 730/4/4
f 731/4/4 732/4/4 735/4/4
f 735/4/4 732/4/4 736/4/4
f 733/4/4 734/4/4 737/4/4
f 737/4/4 734/4/4 738/4/4
f 739/4/4 740/4/4 743/4/4
f 743/4/4 740/4/4 744/4/4
f 741/4/4 742/4/4 745/4/4
f 745/4/4 742/4/4 746/4/4
f 747/2/4 748/2/4 753/2/4
f 748/5/4 749/5/4 754/5/4
f 753/2/4 748/2/4 754/2/4
f 749/2/4 750/2/4 755/2/4
f 754/5/4 749/5/4 755/5/4
f 755/2/4 750/2/4 756/2/4
f 751/7/4 752/7/4 757/7/4
f 757/7/4 752/7/4 758/7/4
f 758/7/4 752/7/4 760/7/4
f 760/7/4 752/7/4 761/7/4
f 759/7/4 760/7/4 764/7/4
f 761/7/4 762/7/4 764/7/4
f 760/7/4 761/7/4 764/7/4
f 764/7/4 762/7/4 765/7/4
f 763/7/4 764/7/4 767/7/4
f 765/7/4 766/7/4 767/7/4
f 764/7/4 765/7/4 767/7/4
f 767/7/4 766/7/4 768/7/4
f 769/7/4 770/7/4 771/7/4
f 771/7/4 770/7/4 772/7/4
f 773/7/4 774/7/4 775/7/4
f 775/7/4 774/7/4 776/7/4
f 777/2/4 778/2/4 781/2/4
f 781/2/4 778/2/4 782/2/4
f 779/2/4 780/2/4 783/2/4
f 783/2/4 780/2/4 784/2/4
f 785/7/4 786/7/4 787/7/4
f 785/7/4 787/7/4 789/7/4
f 787/7/4 788/7/4 789/7/4
f 789/7/4 788/7/4 790/7/4
f 785/7/4 789/7/4 791/7/4
f 791/7/4 789/7/4 792/7/4
f 793/2/4 794/2/4 797/2/4
f 797/2/4 794/2/4 798/2/4
f 795/2/4 796/2/4 799/2/4
f 799/2/4 796/2/4 800/2/4
f 801/4/4 802/4/4 806/4/4
f 806/4/4 802/4/4 807/4/4
f 803/4/4 804/4/4 814/4/4
f 814/4/4 804/4/4 815/4/4
f 805/3/4 806/3/4 817/3/4
f 817/3/4 806/3/4 818/3/4
f 807/3/4 808/3/4 819/3/4
f 819/3/4 808/3/4 820/3/4
f 809/3/4 810/3/4 821/3/4
f 810/4/4 811/4/4 822/4/4
f 821/3/4 810/3/4 822/3/4
f 811/3/4 812/3/4 823/3/4
f 822/4/4 811/4/4 823/4/4
f 823/3/4 812/3/4 824/3/4
f 813/3/4 814/3/4 825/3/4
f 825/3/4 814/3/4 826/3/4
f 815/3/4 816/3/4 827/3/4
f 827/3/4 816/3/4 828/3/4
f 818/4/4 819/4/4 829/4/4
f 829/4/4 819/4/4 830/4/4
f 826/4/4 827/4/4 831/4/4
f 831/4/4 827/4/4 832/4/4
f 833/4/4 834/4/4 838/4/4
f 838/4/4 834/4/4 839/4/4
f 835/4/4 836/4/4 846/4/4
f 846/4/4 836/4/4 847/4/4
f 837/3/4 838/3/4 849/3/4
f 849/3/4 838/3/4 850/3/4
f 839/3/4 840/3/4 851/3/4
f 851/3/4 840/3/4 852/3/4
f 841/3/4 842/3/4 853/3/4
f 842/4/4 843/4/4 854/4/4
f 853/3/4 842/3/4 854/3/4
f 843/3/4 844/3/4 855/3/4
f 854/4/4 843/4/4 855/4/4
f 855/3/4 844/3/4 856/3/4
f 845/3/4 846/3/4 857/3/4
f 857/3/4 846/3/4 858/3/4
f 847/3/4 848/3/4 859/3/4
f 859/3/4 848/3/4 860/3/4
f 850/4/4 851/4/4 861/4/4
f 861/4/4 851/4/4 862/4/4
f 858/4/4 859/4/4 863/4/4
f 863/4/4 859/4/4 864/4/4
f 869/4/4 870/4/4 873/4/4
f 873/4/4 870/4/4 874/4/4
f 871/4/4 872/4/4 875/4/4
f 875/4/4 872/4/4 876/4/4
f 877/4/4 878/4/4 881/4/4
f 881/4/4 878/4/4 882/4/4
f 879/4/4 880/4/4 883/4/4
f 883/4/4 880/4/4 884/4/4
f 865/6/4 866/6/4 885/6/4
f 885/6/4 866/6/4 886/6/4
f 867/6/4 868/6/4 887/6/4
f 887/6/4 868/6/4 888/6/4
f 891/7/5 890/7/5 889/7/5
f 892/7/5 890/7/5 891/7/5
f 897/3/5 894/3/5 893/3/5
f 898/3/5 894/3/5 897/3/5
f 899/3/5 896/3/5 895/3/5
f 900/3/5 896/3/5 899/3/5
f 905/3/5 902/3/5 901/3/5
f 906/3/5 902/3/5 905/3/5
f 907/3/5 904/3/5 903/3/5
f 908/3/5 904/3/5 907/3/5
f 914/4/5 910/4/5 909/4/5
f 915/4/5 910/4/5 914/4/5
f 918/4/5 912/4/5 911/4/5
f 919/4/5 912/4/5 918/4/5
f 921/4/5 914/4/5 913/4/5
f 922/4/5 914/4/5 921/4/5
f 923/4/5 916/4/5 915/4/5
f 924/4/5 916/4/5 923/4/5
f 925/4/5 918/4/5 917/4/5
f 926/4/5 918/4/5 925/4/5
f 927/4/5 920/4/5 919/4/5
f 928/4/5 920/4/5 927/4/5
f 929/4/5 923/4/5 922/4/5
f 930/4/5 923/4/5 929/4/5
f 931/4/5 927/4/5 926/4/5
f 932/4/5 927/4/5 931/4/5
f 938/4/5 934/4/5 933/4/5
f 939/4/5 934/4/5 938/4/5
f 942/4/5 936/4/5 935/4/5
f 943/4/5 936/4/5 942/4/5
f 945/4/5 938/4/5 937/4/5
f 946/4/5 938/4/5 945/4/5
f 947/4/5 940/4/5 939/4/5
f 948/4/5 940/4/5 947/4/5
f 949/4/5 942/4/5 941/4/5
f 950/4/5 942/4/5 949/4/5
f 951/4/5 944/4/5 943/4/5
f 952/4/5 944/4/5 951/4/5
f 953/4/5 947/4/5 946/4/5
f 954/4/5 947/4/5 953/4/5
f 955/4/5 951/4/5 950/4/5
f 956/4/5 951/4/5 955/4/5
f 959/6/5 958/6/5 957/6/5
f 960/6/5 958/6/5 959/6/5
f 961/6/5 958/6/5 960/6/5
f 962/6/5 958/6/5 961/6/5
f 963/6/5 959/6/5 957/6/5
f 964/6/5 961/6/5 960/6/5
f 965/6/5 961/6/5 964/6/5
f 966/6/5 958/6/5 962/6/5
f 967/6/5 965/6/5 964/6/5
f 967/6/5 966/6/5 965/6/5
f 967/6/5 963/6/5 957/6/5
f 967/6/5 964/6/5 963/6/5
f 968/6/5 966/6/5 967/6/5
f 969/6/5 966/6/5 968/6/5
f 970/6/5 958/6/5 966/6/5
f 970/6/5 966/6/5 969/6/5
f 971/6/5 967/6/5 957/6/5
f 972/6/5 969/6/5 968/6/5
f 973/6/5 969/6/5 972/6/5
f 974/6/5 958/6/5 970/6/5
f 975/6/5 971/6/5 957/6/5
f 975/6/5 974/6/5 973/6/5
f 975/6/5 973/6/5 972/6/5
f 975/6/5 972/6/5 971/6/5
f 976/6/5 958/6/5 974/6/5
f 976/6/5 974/6/5 975/6/5
f 979/2/5 978/2/5 977/2/5
f 980/2/5 978/2/5 979/2/5
f 981/2/5 979/2/5 977/2/5
f 982/2/5 978/2/5 980/2/5
f 983/2/5 981/2/5 977/2/5
f 983/2/5 982/2/5 981/2/5
f 984/2/5 978/2/5 982/2/5
f 984/2/5 982/2/5 983/2/5
f 987/2/5 986/2/5 985/2/5
f 988/2/5 986/2/5 987/2/5
f 989/2/5 987/2/5 985/2/5
f 990/2/5 986/2/5 988/2/5
f 991/2/5 989/2/5 985/2/5
f 991/2/5 990/2/5 989/2/5
f 992/2/5 986/2/5 990/2/5
f 992/2/5 990/2/5 991/2/5
f 995/6/5 994/6/5 993/6/5
f 996/6/5 994/6/5 995/6/5
f 997/6/5 994/6/5 996/6/5
f 998/6/5 994/6/5 997/6/5
f 999/6/5 995/6/5 993/6/5
f 1000/6/5 997/6/5 996/6/5
f 1001/6/5 997/6/5 1000/6/5
f 1002/6/5 994/6/5 998/6/5
f 1005/7/5 1004/7/5 1003/7/5
f 1006/7/5 1004/7/5 1005/7/5
f 1007/6/5 999/6/5 993/6/5
f 1007/6/5 1000/6/5 999/6/5
f 1008/6/5 1000/6/5 1007/6/5
f 1009/6/5 1002/6/5 1001/6/5
f 1010/6/5 994/6/5 1002/6/5
f 1010/6/5 1002/6/5 1009/6/5
f 1011/6/5 1007/6/5 993/6/5
f 1012/6/5 1009/6/5 1008/6/5
f 1013/6/5 1009/6/5 1012/6/5
f 1014/6/5 994/6/5 1010/6/5
f 1015/6/5 1013/6/5 1012/6/5
f 1015/6/5 1014/6/5 1013/6/5
f 1015/6/5 1011/6/5 993/6/5
f 1015/6/5 1012/6/5 1011/6/5
f 1016/6/5 994/6/5 1014/6/5
f 1016/6/5 1014/6/5 1015/6/5
f 1019/7/5 1018/7/5 1017/7/5
f 1020/7/5 1018/7/5 1019/7/5
f 1026/4/5 1022/4/5 1021/4/5
f 1027/4/5 1022/4/5 1026/4/5
f 1030/4/5 1024/4/5 1023/4/5
f 1031/4/5 1024/4/5 1030/4/5
f 1033/4/5 1026/4/5 1025/4/5
f 1034/4/5 1026/4/5 1033/4/5
f 1035/4/5 1028/4/5 1027/4/5
f 1036/4/5 1028/4/5 1035/4/5
f 1037/4/5 1030/4/5 1029/4/5
f 1038/4/5 1030/4/5 1037/4/5
f 1039/4/5 1032/4/5 1031/4/5
f 1040/4/5 1032/4/5 1039/4/5
f 1041/4/5 1035/4/5 1034/4/5
f 1042/4/5 1035/4/5 1041/4/5
f 1043/4/5 1039/4/5 1038/4/5
f 1044/4/5 1039/4/5 1043/4/5
f 1050/4/5 1046/4/5 1045/4/5
f 1051/4/5 1046/4/5 1050/4/5
f 1054/4/5 1048/4/5 1047/4/5
f 1055/4/5 1048/4/5 1054/4/5
f 1057/4/5 1050/4/5 1049/4/5
f 1058/4/5 1050/4/5 1057/4/5
f 1059/4/5 1052/4/5 1051/4/5
f 1060/4/5 1052/4/5 1059/4/5
f 1061/4/5 1054/4/5 1053/4/5
f 1062/4/5 1054/4/5 1061/4/5
f 1063/4/5 1056/4/5 1055/4/5
f 1064/4/5 1056/4/5 1063/4/5
f 1065/4/5 1059/4/5 1058/4/5
f 1066/4/5 1059/4/5 1065/4/5
f 1067/4/5 1063/4/5 1062/4/5
f 1068/4/5 1063/4/5 1067/4/5
f 1071/7/5 1070/7/5 1069/7/5
f 1072/7/5 1070/7/5 1071/7/5
f 1073/4/6 1074/4/6 1078/4/6
f 1078/4/6 1074/4/6 1079/4/6
f 1075/4/6 1076/4/6 1082/4/6
f 1082/4/6 1076/4/6 1083/4/6
f 1077/4/6 1078/4/6 1085/4/6
f 1085/4/6 1078/4/6 1086/4/6
f 1079/4/6 1080/4/6 1087/4/6
f 1087/4/6 1080/4/6 1088/4/6
f 1081/4/6 1082/4/6 1089/4/6
f 1089/4/6 1082/4/6 1090/4/6
f 1083/4/6 1084/4/6 1091/4/6
f 1091/4/6 1084/4/6 1092/4/6
f 1086/4/6 1087/4/6 1093/4/6
f 1093/4/6 1087/4/6 1094/4/6
f 1090/4/6 1091/4/6 1095/4/6
f 1095/4/6 1091/4/6 1096/4/6
f 1097/4/6 1098/4/6 1102/4/6
f 1102/4/6 1098/4/6 1103/4/6
f 1099/4/6 1100/4/6 1106/4/6
f 1106/4/6 1100/4/6 1107/4/6
f 1101/4/6 1102/4/6 1109/4/6
f 1109/4/6 1102/4/6 1110/4/6
f 1103/4/6 1104/4/6 1111/4/6
f 1111/4/6 1104/4/6 1112/4/6
f 1105/4/6 1106/4/6 1113/4/6
f 1113/4/6 1106/4/6 1114/4/6
f 1107/4/6 1108/4/6 1115/4/6
f 1115/4/6 1108/4/6 1116/4/6
f 1110/4/6 1111/4/6 1117/4/6
f 1117/4/6 1111/4/6 1118/4/6
f 1114/4/6 1115/4/6 1119/4/6
f 1119/4/6 1115/4/6 1120/4/6
f 1121/6/6 1122/6/6 1123/6/6
f 1123/6/6 1122/6/6 1124/6/6
f 1124/6/6 1122/6/6 1125/6/6
f 1125/6/6 1122/6/6 1126/6/6
f 1121/6/6 1123/6/6 1127/6/6
f 1124/6/6 1125/6/6 1128/6/6
f 1128/6/6 1125/6/6 1129/6/6
f 1126/6/6 1122/6/6 1130/6/6
f 1121/6/6 1127/6/6 1131/6/6
f 1127/6/6 1128/6/6 1131/6/6
f 1131/6/6 1128/6/6 1132/6/6
f 1129/6/6 1130/6/6 1133/6/6
f 1130/6/6 1122/6/6 1134/6/6
f 1133/6/6 1130/6/6 1134/6/6
f 1121/6/6 1131/6/6 1135/6/6
f 1132/6/6 1133/6/6 1136/6/6
f 1136/6/6 1133/6/6 1137/6/6
f 1134/6/6 1122/6/6 1138/6/6
f 1136/6/6 1137/6/6 1139/6/6
f 1137/6/6 1138/6/6 1139/6/6
f 1121/6/6 1135/6/6 1139/6/6
f 1135/6/6 1136/6/6 1139/6/6
f 1138/6/6 1122/6/6 1140/6/6
f 1139/6/6 1138/6/6 1140/6/6
f 1141/2/6 1142/2/6 1143/2/6
f 1143/2/6 1142/2/6 1144/2/6
f 1141/2/6 1143/2/6 1145/2/6
f 1144/2/6 1142/2/6 1146/2/6
f 1141/2/6 1145/2/6 1147/2/6
f 1145/2/6 1146/2/6 1147/2/6
f 1146/2/6 1142/2/6 1148/2/6
f 1147/2/6 1146/2/6 1148/2/6
f 1149/2/6 1150/2/6 1151/2/6
f 1151/2/6 1150/2/6 1152/2/6
f 1149/2/6 1151/2/6 1153/2/6
f 1152/2/6 1150/2/6 1154/2/6
f 1149/2/6 1153/2/6 1155/2/6
f 1153/2/6 1154/2/6 1155/2/6
f 1154/2/6 1150/2/6 1156/2/6
f 1155/2/6 1154/2/6 1156/2/6
f 1157/6/6 1158/6/6 1159/6/6
f 1159/6/6 1158/6/6 1160/6/6
f 1160/6/6 1158/6/6 1161/6/6
f 1161/6/6 1158/6/6 1162/6/6
f 1157/6/6 1159/6/6 1163/6/6
f 1160/6/6 1161/6/6 1164/6/6
f 1164/6/6 1161/6/6 1165/6/6
f 1162/6/6 1158/6/6 1166/6/6
f 1164/6/6 1165/6/6 1167/6/6
f 1165/6/6 1166/6/6 1167/6/6
f 1163/6/6 1164/6/6 1167/6/6
f 1167/6/6 1166/6/6 1168/6/6
f 1163/6/6 1167/6/6 1169/6/6
f 1168/6/6 1166/6/6 1170/6/6
f 1157/6/6 1163/6/6 1171/6/6
f 1169/6/6 1170/6/6 1171/6/6
f 1163/6/6 1169/6/6 1171/6/6
f 1171/6/6 1170/6/6 1172/6/6
f 1170/6/6 1166/6/6 1173/6/6
f 1172/6/6 1170/6/6 1173/6/6
f 1166/6/6 1158/6/6 1174/6/6
f 1173/6/6 1166/6/6 1174/6/6
f 1157/6/6 1171/6/6 1175/6/6
f 1172/6/6 1173/6/6 1176/6/6
f 1176/6/6 1173/6/6 1177/6/6
f 1174/6/6 1158/6/6 1178/6/6
f 1157/6/6 1175/6/6 1179/6/6
f 1177/6/6 1178/6/6 1179/6/6
f 1176/6/6 1177/6/6 1179/6/6
f 1175/6/6 1176/6/6 1179/6/6
f 1178/6/6 1158/6/6 1180/6/6
f 1179/6/6 1178/6/6 1180/6/6
f 1181/4/6 1182/4/6 1186/4/6
f 1186/4/6 1182/4/6 1187/4/6
f 1183/4/6 1184/4/6 1190/4/6
f 1190/4/6 1184/4/6 1191/4/6
f 1185/4/6 1186/4/6 1193/4/6
f 1193/4/6 1186/4/6 1194/4/6
f 1187/4/6 1188/4/6 1195/4/6
f 1195/4/6 1188/4/6 1196/4/6
f 1189/4/6 1190/4/6 1197/4/6
f 1197/4/6 1190/4/6 1198/4/6
f 1191/4/6 1192/4/6 1199/4/6
f 1199/4/6 1192/4/6 1200/4/6
f 1194/4/6 1195/4/6 1201/4/6
f 1201/4/6 1195/4/6 1202/4/6
f 1198/4/6 1199/4/6 1203/4/6
f 1203/4/6 1199/4/6 1204/4/6
f 1205/4/6 1206/4/6 1210/4/6
f 1210/4/6 1206/4/6 1211/4/6
f 1207/4/6 1208/4/6 1214/4/6
f 1214/4/6 1208/4/6 1215/4/6
f 1209/4/6 1210/4/6 1217/4/6
f 1217/4/6 1210/4/6 1218/4/6
f 1211/4/6 1212/4/6 1219/4/6
f 1219/4/6 1212/4/6 1220/4/6
f 1213/4/6 1214/4/6 1221/4/6
f 1221/4/6 1214/4/6 1222/4/6
f 1215/4/6 1216/4/6 1223/4/6
f 1223/4/6 1216/4/6 1224/4/6
f 1218/4/6 1219/4/6 1225/4/6
f 1225/4/6 1219/4/6 1226/4/6
f 1222/4/6 1223/4/6 1227/4/6
f 1227/4/6 1223/4/6 1228/4/6
f 1229/3/6 1230/3/6 1233/3/6
f 1233/3/6 1230/3/6 1234/3/6
f 1231/3/6 1232/3/6 1235/3/6
f 1235/3/6 1232/3/6 1236/3/6
f 1237/3/6 1238/3/6 1241/3/6
f 1241/3/6 1238/3/6 1242/3/6
f 1239/3/6 1240/3/6 1243/3/6
f 1243/3/6 1240/3/6 1244/3/6
f 1245/7/6 1246/7/6 1247/7/6
f 1247/7/6 1246/7/6 1248/7/6
f 1249/7/6 1250/7/6 1251/7/6
f 1251/7/6 1250/7/6 1252/7/6
f 1253/7/6 1254/7/6 1255/7/6
f 1255/7/6 1254/7/6 1256/7/6
f 1257/7/6 1258/7/6 1261/7/6
f 1261/7/6 1258/7/6 1262/7/6
f 1259/7/6 1260/7/6 1263/7/6
f 1263/7/6 1260/7/6 1264/7/6
f 1265/7/6 1266/7/6 1269/7/6
f 1269/7/6 1266/7/6 1270/7/6
f 1267/7/6 1268/7/6 1271/7/6
f 1271/7/6 1268/7/6 1272/7/6
f 1273/7/6 1274/7/6 1276/7/6
f 1276/7/6 1274/7/6 1277/7/6
f 1275/7/6 1276/7/6 1279/7/6
f 1277/7/6 1278/7/6 1279/7/6
f 1276/7/6 1277/7/6 1279/7/6
f 1279/7/6 1278/7/6 1280/7/6
f 1280/7/6 1278/7/6 1281/7/6
f 1281/7/6 1278/7/6 1282/7/6
f 1280/7/6 1281/7/6 1283/7/6
f 1283/7/6 1281/7/6 1284/7/6
