# MagicaVoxel @ Ephtracy

# group
o 

# material
mtllib Armas-0.mtl
usemtl palette

# normals
vn -1 0 0
vn 1 0 0
vn 0 0 1
vn 0 0 -1
vn 0 -1 0
vn 0 1 0

# texcoords
vt 0.373047 0.5
vt 0.513672 0.5

# verts
v 5.1 0.4 0.5
v 5.1 0.4 0.4
v 5.1 0.4 -0.4
v 5.1 0.4 -0.5
v 5.1 0.5 0.5
v 5.1 0.5 0.4
v 5.1 0.5 -0.4
v 5.1 0.5 -0.5
v 5.1 1.3 0.5
v 5.1 1.3 0.4
v 5.1 1.3 -0.4
v 5.1 1.3 -0.5
v 5.1 1.4 0.5
v 5.1 1.4 0.4
v 5.1 1.4 -0.4
v 5.1 1.4 -0.5
v 5.1 2.2 0.5
v 5.1 2.2 0.4
v 5.1 2.2 -0.4
v 5.1 2.2 -0.5
v 5.1 2.3 0.5
v 5.1 2.3 0.4
v 5.1 2.3 -0.4
v 5.1 2.3 -0.5
v 5.3 0.3 0.7
v 5.3 0.3 -0.7
v 5.3 0.4 0.7
v 5.3 0.4 0.5
v 5.3 0.4 0.4
v 5.3 0.4 -0.4
v 5.3 0.4 -0.5
v 5.3 0.4 -0.7
v 5.3 1.2 0.7
v 5.3 1.2 -0.7
v 5.3 1.3 0.7
v 5.3 1.3 0.5
v 5.3 1.3 0.4
v 5.3 1.3 -0.4
v 5.3 1.3 -0.5
v 5.3 1.3 -0.7
v 5.3 2.3 0.7
v 5.3 2.3 0.5
v 5.3 2.3 0.4
v 5.3 2.3 -0.4
v 5.3 2.3 -0.5
v 5.3 2.3 -0.7
v 5.3 2.4 0.7
v 5.3 2.4 -0.7
v 5.4 0 0.2
v 5.4 0 -0.2
v 5.4 0.3 0.2
v 5.4 0.3 -0.2
v 5.4 0.4 0.2
v 5.4 0.4 -0.2
v 5.4 1.2 0.2
v 5.4 1.2 -0.2
v 5.4 1.3 0.2
v 5.4 1.3 -0.2
v 5.4 2.3 0.2
v 5.4 2.3 -0.2
v 5.4 2.4 0.2
v 5.4 2.4 -0.2
v 5.4 2.7 0.2
v 5.4 2.7 -0.2
v 5.5 0 0.3
v 5.5 0 0.2
v 5.5 0 -0.2
v 5.5 0 -0.3
v 5.5 2.7 0.3
v 5.5 2.7 0.2
v 5.5 2.7 -0.2
v 5.5 2.7 -0.3
v 5.5 2.9 0.2
v 5.5 2.9 -0.2
v 5.6 0 0.4
v 5.6 0 0.3
v 5.6 0 -0.3
v 5.6 0 -0.4
v 5.6 0.4 0.4
v 5.6 0.4 -0.4
v 5.6 0.5 0.4
v 5.6 0.5 -0.4
v 5.6 1.3 0.4
v 5.6 1.3 -0.4
v 5.6 1.4 0.4
v 5.6 1.4 -0.4
v 5.6 2.2 0.4
v 5.6 2.2 -0.4
v 5.6 2.3 0.4
v 5.6 2.3 -0.4
v 5.6 2.7 0.4
v 5.6 2.7 0.3
v 5.6 2.7 0.2
v 5.6 2.7 -0.2
v 5.6 2.7 -0.3
v 5.6 2.7 -0.4
v 5.6 2.9 0.3
v 5.6 2.9 0.2
v 5.6 2.9 -0.2
v 5.6 2.9 -0.3
v 5.6 3.1 0.2
v 5.6 3.1 -0.2
v 5.7 3.1 0.1
v 5.7 3.1 -0.1
v 5.7 3.3 0.1
v 5.7 3.3 -0.1
v 6.2 0.3 0.7
v 6.2 0.3 0.2
v 6.2 0.3 -0.2
v 6.2 0.3 -0.7
v 6.2 0.4 0.7
v 6.2 0.4 0.5
v 6.2 0.4 0.4
v 6.2 0.4 0.2
v 6.2 0.4 -0.2
v 6.2 0.4 -0.4
v 6.2 0.4 -0.5
v 6.2 0.4 -0.7
v 6.2 1.2 0.7
v 6.2 1.2 0.2
v 6.2 1.2 -0.2
v 6.2 1.2 -0.7
v 6.2 1.3 0.7
v 6.2 1.3 0.5
v 6.2 1.3 0.4
v 6.2 1.3 0.2
v 6.2 1.3 -0.2
v 6.2 1.3 -0.4
v 6.2 1.3 -0.5
v 6.2 1.3 -0.7
v 6.2 2.3 0.7
v 6.2 2.3 0.5
v 6.2 2.3 0.4
v 6.2 2.3 0.2
v 6.2 2.3 -0.2
v 6.2 2.3 -0.4
v 6.2 2.3 -0.5
v 6.2 2.3 -0.7
v 6.2 2.4 0.7
v 6.2 2.4 0.2
v 6.2 2.4 -0.2
v 6.2 2.4 -0.7
v 5.4 0.3 0.7
v 5.4 0.3 0.2
v 5.4 0.3 -0.2
v 5.4 0.3 -0.7
v 5.4 0.4 0.7
v 5.4 0.4 0.5
v 5.4 0.4 0.4
v 5.4 0.4 0.2
v 5.4 0.4 -0.2
v 5.4 0.4 -0.4
v 5.4 0.4 -0.5
v 5.4 0.4 -0.7
v 5.4 1.2 0.7
v 5.4 1.2 0.2
v 5.4 1.2 -0.2
v 5.4 1.2 -0.7
v 5.4 1.3 0.7
v 5.4 1.3 0.5
v 5.4 1.3 0.4
v 5.4 1.3 0.2
v 5.4 1.3 -0.2
v 5.4 1.3 -0.4
v 5.4 1.3 -0.5
v 5.4 1.3 -0.7
v 5.4 2.3 0.7
v 5.4 2.3 0.5
v 5.4 2.3 0.4
v 5.4 2.3 0.2
v 5.4 2.3 -0.2
v 5.4 2.3 -0.4
v 5.4 2.3 -0.5
v 5.4 2.3 -0.7
v 5.4 2.4 0.7
v 5.4 2.4 0.2
v 5.4 2.4 -0.2
v 5.4 2.4 -0.7
v 5.9 3.1 0.1
v 5.9 3.1 -0.1
v 5.9 3.3 0.1
v 5.9 3.3 -0.1
v 6 0 0.4
v 6 0 0.3
v 6 0 -0.3
v 6 0 -0.4
v 6 0.4 0.4
v 6 0.4 -0.4
v 6 0.5 0.4
v 6 0.5 -0.4
v 6 1.3 0.4
v 6 1.3 -0.4
v 6 1.4 0.4
v 6 1.4 -0.4
v 6 2.2 0.4
v 6 2.2 -0.4
v 6 2.3 0.4
v 6 2.3 -0.4
v 6 2.7 0.4
v 6 2.7 0.3
v 6 2.7 0.2
v 6 2.7 -0.2
v 6 2.7 -0.3
v 6 2.7 -0.4
v 6 2.9 0.3
v 6 2.9 0.2
v 6 2.9 -0.2
v 6 2.9 -0.3
v 6 3.1 0.2
v 6 3.1 -0.2
v 6.1 0 0.3
v 6.1 0 0.2
v 6.1 0 -0.2
v 6.1 0 -0.3
v 6.1 2.7 0.3
v 6.1 2.7 0.2
v 6.1 2.7 -0.2
v 6.1 2.7 -0.3
v 6.1 2.9 0.2
v 6.1 2.9 -0.2
v 6.2 0 0.2
v 6.2 0 -0.2
v 6.2 0.3 0.2
v 6.2 0.3 -0.2
v 6.2 0.4 0.2
v 6.2 0.4 -0.2
v 6.2 1.2 0.2
v 6.2 1.2 -0.2
v 6.2 1.3 0.2
v 6.2 1.3 -0.2
v 6.2 2.3 0.2
v 6.2 2.3 -0.2
v 6.2 2.4 0.2
v 6.2 2.4 -0.2
v 6.2 2.7 0.2
v 6.2 2.7 -0.2
v 6.3 0.3 0.7
v 6.3 0.3 -0.7
v 6.3 0.4 0.7
v 6.3 0.4 0.5
v 6.3 0.4 0.4
v 6.3 0.4 -0.4
v 6.3 0.4 -0.5
v 6.3 0.4 -0.7
v 6.3 1.2 0.7
v 6.3 1.2 -0.7
v 6.3 1.3 0.7
v 6.3 1.3 0.5
v 6.3 1.3 0.4
v 6.3 1.3 -0.4
v 6.3 1.3 -0.5
v 6.3 1.3 -0.7
v 6.3 2.3 0.7
v 6.3 2.3 0.5
v 6.3 2.3 0.4
v 6.3 2.3 -0.4
v 6.3 2.3 -0.5
v 6.3 2.3 -0.7
v 6.3 2.4 0.7
v 6.3 2.4 -0.7
v 6.5 0.4 0.5
v 6.5 0.4 0.4
v 6.5 0.4 -0.4
v 6.5 0.4 -0.5
v 6.5 0.5 0.5
v 6.5 0.5 0.4
v 6.5 0.5 -0.4
v 6.5 0.5 -0.5
v 6.5 1.3 0.5
v 6.5 1.3 0.4
v 6.5 1.3 -0.4
v 6.5 1.3 -0.5
v 6.5 1.4 0.5
v 6.5 1.4 0.4
v 6.5 1.4 -0.4
v 6.5 1.4 -0.5
v 6.5 2.2 0.5
v 6.5 2.2 0.4
v 6.5 2.2 -0.4
v 6.5 2.2 -0.5
v 6.5 2.3 0.5
v 6.5 2.3 0.4
v 6.5 2.3 -0.4
v 6.5 2.3 -0.5
v 5.3 0.3 0.7
v 5.3 0.4 0.7
v 5.3 1.2 0.7
v 5.3 1.3 0.7
v 5.3 2.3 0.7
v 5.3 2.4 0.7
v 5.4 0.3 0.7
v 5.4 0.4 0.7
v 5.4 1.2 0.7
v 5.4 1.3 0.7
v 5.4 2.3 0.7
v 5.4 2.4 0.7
v 6.2 0.3 0.7
v 6.2 0.4 0.7
v 6.2 1.2 0.7
v 6.2 1.3 0.7
v 6.2 2.3 0.7
v 6.2 2.4 0.7
v 6.3 0.3 0.7
v 6.3 0.4 0.7
v 6.3 1.2 0.7
v 6.3 1.3 0.7
v 6.3 2.3 0.7
v 6.3 2.4 0.7
v 5.1 0.4 0.5
v 5.1 0.5 0.5
v 5.1 1.3 0.5
v 5.1 1.4 0.5
v 5.1 2.2 0.5
v 5.1 2.3 0.5
v 5.3 0.4 0.5
v 5.3 1.3 0.5
v 5.3 2.3 0.5
v 5.4 0.4 0.5
v 5.4 1.3 0.5
v 5.4 2.3 0.5
v 6.2 0.4 0.5
v 6.2 1.3 0.5
v 6.2 2.3 0.5
v 6.3 0.4 0.5
v 6.3 1.3 0.5
v 6.3 2.3 0.5
v 6.5 0.4 0.5
v 6.5 0.5 0.5
v 6.5 1.3 0.5
v 6.5 1.4 0.5
v 6.5 2.2 0.5
v 6.5 2.3 0.5
v 5.6 0 0.4
v 5.6 0.4 0.4
v 5.6 0.5 0.4
v 5.6 1.3 0.4
v 5.6 1.4 0.4
v 5.6 2.2 0.4
v 5.6 2.3 0.4
v 5.6 2.7 0.4
v 6 0 0.4
v 6 0.4 0.4
v 6 0.5 0.4
v 6 1.3 0.4
v 6 1.4 0.4
v 6 2.2 0.4
v 6 2.3 0.4
v 6 2.7 0.4
v 5.5 0 0.3
v 5.5 2.7 0.3
v 5.6 0 0.3
v 5.6 2.7 0.3
v 5.6 2.9 0.3
v 6 0 0.3
v 6 2.7 0.3
v 6 2.9 0.3
v 6.1 0 0.3
v 6.1 2.7 0.3
v 5.4 0 0.2
v 5.4 0.3 0.2
v 5.4 0.4 0.2
v 5.4 1.2 0.2
v 5.4 1.3 0.2
v 5.4 2.3 0.2
v 5.4 2.4 0.2
v 5.4 2.7 0.2
v 5.5 0 0.2
v 5.5 2.7 0.2
v 5.5 2.9 0.2
v 5.6 2.7 0.2
v 5.6 2.9 0.2
v 5.6 3.1 0.2
v 6 2.7 0.2
v 6 2.9 0.2
v 6 3.1 0.2
v 6.1 0 0.2
v 6.1 2.7 0.2
v 6.1 2.9 0.2
v 6.2 0 0.2
v 6.2 0.3 0.2
v 6.2 0.4 0.2
v 6.2 1.2 0.2
v 6.2 1.3 0.2
v 6.2 2.3 0.2
v 6.2 2.4 0.2
v 6.2 2.7 0.2
v 5.7 3.1 0.1
v 5.7 3.3 0.1
v 5.9 3.1 0.1
v 5.9 3.3 0.1
v 5.1 0.4 -0.4
v 5.1 0.5 -0.4
v 5.1 1.3 -0.4
v 5.1 1.4 -0.4
v 5.1 2.2 -0.4
v 5.1 2.3 -0.4
v 5.3 0.4 -0.4
v 5.3 1.3 -0.4
v 5.3 2.3 -0.4
v 5.4 0.4 -0.4
v 5.4 1.3 -0.4
v 5.4 2.3 -0.4
v 5.6 0.4 -0.4
v 5.6 0.5 -0.4
v 5.6 1.3 -0.4
v 5.6 1.4 -0.4
v 5.6 2.2 -0.4
v 5.6 2.3 -0.4
v 6 0.4 -0.4
v 6 0.5 -0.4
v 6 1.3 -0.4
v 6 1.4 -0.4
v 6 2.2 -0.4
v 6 2.3 -0.4
v 6.2 0.4 -0.4
v 6.2 1.3 -0.4
v 6.2 2.3 -0.4
v 6.3 0.4 -0.4
v 6.3 1.3 -0.4
v 6.3 2.3 -0.4
v 6.5 0.4 -0.4
v 6.5 0.5 -0.4
v 6.5 1.3 -0.4
v 6.5 1.4 -0.4
v 6.5 2.2 -0.4
v 6.5 2.3 -0.4
v 5.1 0.4 0.4
v 5.1 0.5 0.4
v 5.1 1.3 0.4
v 5.1 1.4 0.4
v 5.1 2.2 0.4
v 5.1 2.3 0.4
v 5.3 0.4 0.4
v 5.3 1.3 0.4
v 5.3 2.3 0.4
v 5.4 0.4 0.4
v 5.4 1.3 0.4
v 5.4 2.3 0.4
v 5.6 0.4 0.4
v 5.6 0.5 0.4
v 5.6 1.3 0.4
v 5.6 1.4 0.4
v 5.6 2.2 0.4
v 5.6 2.3 0.4
v 6 0.4 0.4
v 6 0.5 0.4
v 6 1.3 0.4
v 6 1.4 0.4
v 6 2.2 0.4
v 6 2.3 0.4
v 6.2 0.4 0.4
v 6.2 1.3 0.4
v 6.2 2.3 0.4
v 6.3 0.4 0.4
v 6.3 1.3 0.4
v 6.3 2.3 0.4
v 6.5 0.4 0.4
v 6.5 0.5 0.4
v 6.5 1.3 0.4
v 6.5 1.4 0.4
v 6.5 2.2 0.4
v 6.5 2.3 0.4
v 5.7 3.1 -0.1
v 5.7 3.3 -0.1
v 5.9 3.1 -0.1
v 5.9 3.3 -0.1
v 5.4 0 -0.2
v 5.4 0.3 -0.2
v 5.4 0.4 -0.2
v 5.4 1.2 -0.2
v 5.4 1.3 -0.2
v 5.4 2.3 -0.2
v 5.4 2.4 -0.2
v 5.4 2.7 -0.2
v 5.5 0 -0.2
v 5.5 2.7 -0.2
v 5.5 2.9 -0.2
v 5.6 2.7 -0.2
v 5.6 2.9 -0.2
v 5.6 3.1 -0.2
v 6 2.7 -0.2
v 6 2.9 -0.2
v 6 3.1 -0.2
v 6.1 0 -0.2
v 6.1 2.7 -0.2
v 6.1 2.9 -0.2
v 6.2 0 -0.2
v 6.2 0.3 -0.2
v 6.2 0.4 -0.2
v 6.2 1.2 -0.2
v 6.2 1.3 -0.2
v 6.2 2.3 -0.2
v 6.2 2.4 -0.2
v 6.2 2.7 -0.2
v 5.5 0 -0.3
v 5.5 2.7 -0.3
v 5.6 0 -0.3
v 5.6 2.7 -0.3
v 5.6 2.9 -0.3
v 6 0 -0.3
v 6 2.7 -0.3
v 6 2.9 -0.3
v 6.1 0 -0.3
v 6.1 2.7 -0.3
v 5.6 0 -0.4
v 5.6 0.4 -0.4
v 5.6 0.5 -0.4
v 5.6 1.3 -0.4
v 5.6 1.4 -0.4
v 5.6 2.2 -0.4
v 5.6 2.3 -0.4
v 5.6 2.7 -0.4
v 6 0 -0.4
v 6 0.4 -0.4
v 6 0.5 -0.4
v 6 1.3 -0.4
v 6 1.4 -0.4
v 6 2.2 -0.4
v 6 2.3 -0.4
v 6 2.7 -0.4
v 5.1 0.4 -0.5
v 5.1 0.5 -0.5
v 5.1 1.3 -0.5
v 5.1 1.4 -0.5
v 5.1 2.2 -0.5
v 5.1 2.3 -0.5
v 5.3 0.4 -0.5
v 5.3 1.3 -0.5
v 5.3 2.3 -0.5
v 5.4 0.4 -0.5
v 5.4 1.3 -0.5
v 5.4 2.3 -0.5
v 6.2 0.4 -0.5
v 6.2 1.3 -0.5
v 6.2 2.3 -0.5
v 6.3 0.4 -0.5
v 6.3 1.3 -0.5
v 6.3 2.3 -0.5
v 6.5 0.4 -0.5
v 6.5 0.5 -0.5
v 6.5 1.3 -0.5
v 6.5 1.4 -0.5
v 6.5 2.2 -0.5
v 6.5 2.3 -0.5
v 5.3 0.3 -0.7
v 5.3 0.4 -0.7
v 5.3 1.2 -0.7
v 5.3 1.3 -0.7
v 5.3 2.3 -0.7
v 5.3 2.4 -0.7
v 5.4 0.3 -0.7
v 5.4 0.4 -0.7
v 5.4 1.2 -0.7
v 5.4 1.3 -0.7
v 5.4 2.3 -0.7
v 5.4 2.4 -0.7
v 6.2 0.3 -0.7
v 6.2 0.4 -0.7
v 6.2 1.2 -0.7
v 6.2 1.3 -0.7
v 6.2 2.3 -0.7
v 6.2 2.4 -0.7
v 6.3 0.3 -0.7
v 6.3 0.4 -0.7
v 6.3 1.2 -0.7
v 6.3 1.3 -0.7
v 6.3 2.3 -0.7
v 6.3 2.4 -0.7
v 5.6 0 0.4
v 6 0 0.4
v 5.5 0 0.3
v 5.6 0 0.3
v 6 0 0.3
v 6.1 0 0.3
v 5.4 0 0.2
v 5.5 0 0.2
v 6.1 0 0.2
v 6.2 0 0.2
v 5.4 0 -0.2
v 5.5 0 -0.2
v 6.1 0 -0.2
v 6.2 0 -0.2
v 5.5 0 -0.3
v 5.6 0 -0.3
v 6 0 -0.3
v 6.1 0 -0.3
v 5.6 0 -0.4
v 6 0 -0.4
v 5.3 0.3 0.7
v 5.4 0.3 0.7
v 6.2 0.3 0.7
v 6.3 0.3 0.7
v 5.4 0.3 0.2
v 6.2 0.3 0.2
v 5.4 0.3 -0.2
v 6.2 0.3 -0.2
v 5.3 0.3 -0.7
v 5.4 0.3 -0.7
v 6.2 0.3 -0.7
v 6.3 0.3 -0.7
v 5.1 0.4 0.5
v 5.3 0.4 0.5
v 5.4 0.4 0.5
v 6.2 0.4 0.5
v 6.3 0.4 0.5
v 6.5 0.4 0.5
v 5.1 0.4 0.4
v 5.3 0.4 0.4
v 5.4 0.4 0.4
v 5.6 0.4 0.4
v 6 0.4 0.4
v 6.2 0.4 0.4
v 6.3 0.4 0.4
v 6.5 0.4 0.4
v 5.1 0.4 -0.4
v 5.3 0.4 -0.4
v 5.4 0.4 -0.4
v 5.6 0.4 -0.4
v 6 0.4 -0.4
v 6.2 0.4 -0.4
v 6.3 0.4 -0.4
v 6.5 0.4 -0.4
v 5.1 0.4 -0.5
v 5.3 0.4 -0.5
v 5.4 0.4 -0.5
v 6.2 0.4 -0.5
v 6.3 0.4 -0.5
v 6.5 0.4 -0.5
v 5.3 1.2 0.7
v 5.4 1.2 0.7
v 6.2 1.2 0.7
v 6.3 1.2 0.7
v 5.4 1.2 0.2
v 6.2 1.2 0.2
v 5.4 1.2 -0.2
v 6.2 1.2 -0.2
v 5.3 1.2 -0.7
v 5.4 1.2 -0.7
v 6.2 1.2 -0.7
v 6.3 1.2 -0.7
v 5.1 1.3 0.5
v 5.3 1.3 0.5
v 5.4 1.3 0.5
v 6.2 1.3 0.5
v 6.3 1.3 0.5
v 6.5 1.3 0.5
v 5.1 1.3 0.4
v 5.3 1.3 0.4
v 5.4 1.3 0.4
v 5.6 1.3 0.4
v 6 1.3 0.4
v 6.2 1.3 0.4
v 6.3 1.3 0.4
v 6.5 1.3 0.4
v 5.1 1.3 -0.4
v 5.3 1.3 -0.4
v 5.4 1.3 -0.4
v 5.6 1.3 -0.4
v 6 1.3 -0.4
v 6.2 1.3 -0.4
v 6.3 1.3 -0.4
v 6.5 1.3 -0.4
v 5.1 1.3 -0.5
v 5.3 1.3 -0.5
v 5.4 1.3 -0.5
v 6.2 1.3 -0.5
v 6.3 1.3 -0.5
v 6.5 1.3 -0.5
v 5.1 2.2 0.5
v 6.5 2.2 0.5
v 5.1 2.2 0.4
v 5.6 2.2 0.4
v 6 2.2 0.4
v 6.5 2.2 0.4
v 5.1 2.2 -0.4
v 5.6 2.2 -0.4
v 6 2.2 -0.4
v 6.5 2.2 -0.4
v 5.1 2.2 -0.5
v 6.5 2.2 -0.5
v 5.3 2.3 0.7
v 5.4 2.3 0.7
v 6.2 2.3 0.7
v 6.3 2.3 0.7
v 5.3 2.3 0.5
v 5.4 2.3 0.5
v 6.2 2.3 0.5
v 6.3 2.3 0.5
v 5.3 2.3 0.4
v 5.4 2.3 0.4
v 6.2 2.3 0.4
v 6.3 2.3 0.4
v 5.4 2.3 0.2
v 6.2 2.3 0.2
v 5.4 2.3 -0.2
v 6.2 2.3 -0.2
v 5.3 2.3 -0.4
v 5.4 2.3 -0.4
v 6.2 2.3 -0.4
v 6.3 2.3 -0.4
v 5.3 2.3 -0.5
v 5.4 2.3 -0.5
v 6.2 2.3 -0.5
v 6.3 2.3 -0.5
v 5.3 2.3 -0.7
v 5.4 2.3 -0.7
v 6.2 2.3 -0.7
v 6.3 2.3 -0.7
v 5.3 0.4 0.7
v 5.4 0.4 0.7
v 6.2 0.4 0.7
v 6.3 0.4 0.7
v 5.3 0.4 0.5
v 5.4 0.4 0.5
v 6.2 0.4 0.5
v 6.3 0.4 0.5
v 5.3 0.4 0.4
v 5.4 0.4 0.4
v 6.2 0.4 0.4
v 6.3 0.4 0.4
v 5.4 0.4 0.2
v 6.2 0.4 0.2
v 5.4 0.4 -0.2
v 6.2 0.4 -0.2
v 5.3 0.4 -0.4
v 5.4 0.4 -0.4
v 6.2 0.4 -0.4
v 6.3 0.4 -0.4
v 5.3 0.4 -0.5
v 5.4 0.4 -0.5
v 6.2 0.4 -0.5
v 6.3 0.4 -0.5
v 5.3 0.4 -0.7
v 5.4 0.4 -0.7
v 6.2 0.4 -0.7
v 6.3 0.4 -0.7
v 5.1 0.5 0.5
v 6.5 0.5 0.5
v 5.1 0.5 0.4
v 5.6 0.5 0.4
v 6 0.5 0.4
v 6.5 0.5 0.4
v 5.1 0.5 -0.4
v 5.6 0.5 -0.4
v 6 0.5 -0.4
v 6.5 0.5 -0.4
v 5.1 0.5 -0.5
v 6.5 0.5 -0.5
v 5.3 1.3 0.7
v 5.4 1.3 0.7
v 6.2 1.3 0.7
v 6.3 1.3 0.7
v 5.3 1.3 0.5
v 5.4 1.3 0.5
v 6.2 1.3 0.5
v 6.3 1.3 0.5
v 5.3 1.3 0.4
v 5.4 1.3 0.4
v 6.2 1.3 0.4
v 6.3 1.3 0.4
v 5.4 1.3 0.2
v 6.2 1.3 0.2
v 5.4 1.3 -0.2
v 6.2 1.3 -0.2
v 5.3 1.3 -0.4
v 5.4 1.3 -0.4
v 6.2 1.3 -0.4
v 6.3 1.3 -0.4
v 5.3 1.3 -0.5
v 5.4 1.3 -0.5
v 6.2 1.3 -0.5
v 6.3 1.3 -0.5
v 5.3 1.3 -0.7
v 5.4 1.3 -0.7
v 6.2 1.3 -0.7
v 6.3 1.3 -0.7
v 5.1 1.4 0.5
v 6.5 1.4 0.5
v 5.1 1.4 0.4
v 5.6 1.4 0.4
v 6 1.4 0.4
v 6.5 1.4 0.4
v 5.1 1.4 -0.4
v 5.6 1.4 -0.4
v 6 1.4 -0.4
v 6.5 1.4 -0.4
v 5.1 1.4 -0.5
v 6.5 1.4 -0.5
v 5.1 2.3 0.5
v 5.3 2.3 0.5
v 5.4 2.3 0.5
v 6.2 2.3 0.5
v 6.3 2.3 0.5
v 6.5 2.3 0.5
v 5.1 2.3 0.4
v 5.3 2.3 0.4
v 5.4 2.3 0.4
v 5.6 2.3 0.4
v 6 2.3 0.4
v 6.2 2.3 0.4
v 6.3 2.3 0.4
v 6.5 2.3 0.4
v 5.1 2.3 -0.4
v 5.3 2.3 -0.4
v 5.4 2.3 -0.4
v 5.6 2.3 -0.4
v 6 2.3 -0.4
v 6.2 2.3 -0.4
v 6.3 2.3 -0.4
v 6.5 2.3 -0.4
v 5.1 2.3 -0.5
v 5.3 2.3 -0.5
v 5.4 2.3 -0.5
v 6.2 2.3 -0.5
v 6.3 2.3 -0.5
v 6.5 2.3 -0.5
v 5.3 2.4 0.7
v 5.4 2.4 0.7
v 6.2 2.4 0.7
v 6.3 2.4 0.7
v 5.4 2.4 0.2
v 6.2 2.4 0.2
v 5.4 2.4 -0.2
v 6.2 2.4 -0.2
v 5.3 2.4 -0.7
v 5.4 2.4 -0.7
v 6.2 2.4 -0.7
v 6.3 2.4 -0.7
v 5.6 2.7 0.4
v 6 2.7 0.4
v 5.5 2.7 0.3
v 5.6 2.7 0.3
v 6 2.7 0.3
v 6.1 2.7 0.3
v 5.4 2.7 0.2
v 5.5 2.7 0.2
v 5.6 2.7 0.2
v 6 2.7 0.2
v 6.1 2.7 0.2
v 6.2 2.7 0.2
v 5.4 2.7 -0.2
v 5.5 2.7 -0.2
v 5.6 2.7 -0.2
v 6 2.7 -0.2
v 6.1 2.7 -0.2
v 6.2 2.7 -0.2
v 5.5 2.7 -0.3
v 5.6 2.7 -0.3
v 6 2.7 -0.3
v 6.1 2.7 -0.3
v 5.6 2.7 -0.4
v 6 2.7 -0.4
v 5.6 2.9 0.3
v 6 2.9 0.3
v 5.5 2.9 0.2
v 5.6 2.9 0.2
v 6 2.9 0.2
v 6.1 2.9 0.2
v 5.5 2.9 -0.2
v 5.6 2.9 -0.2
v 6 2.9 -0.2
v 6.1 2.9 -0.2
v 5.6 2.9 -0.3
v 6 2.9 -0.3
v 5.6 3.1 0.2
v 6 3.1 0.2
v 5.7 3.1 0.1
v 5.9 3.1 0.1
v 5.7 3.1 -0.1
v 5.9 3.1 -0.1
v 5.6 3.1 -0.2
v 6 3.1 -0.2
v 5.7 3.3 0.1
v 5.9 3.3 0.1
v 5.7 3.3 -0.1
v 5.9 3.3 -0.1

# faces
f 5/2/1 2/2/1 1/2/1
f 6/2/1 2/2/1 5/2/1
f 7/2/1 4/2/1 3/2/1
f 8/2/1 4/2/1 7/2/1
f 13/2/1 10/2/1 9/2/1
f 14/2/1 10/2/1 13/2/1
f 15/2/1 12/2/1 11/2/1
f 16/2/1 12/2/1 15/2/1
f 21/2/1 18/2/1 17/2/1
f 22/2/1 18/2/1 21/2/1
f 23/2/1 20/2/1 19/2/1
f 24/2/1 20/2/1 23/2/1
f 27/2/1 26/2/1 25/2/1
f 28/2/1 26/2/1 27/2/1
f 29/2/1 26/2/1 28/2/1
f 30/2/1 26/2/1 29/2/1
f 31/2/1 26/2/1 30/2/1
f 32/2/1 26/2/1 31/2/1
f 35/2/1 34/2/1 33/2/1
f 36/2/1 34/2/1 35/2/1
f 37/2/1 34/2/1 36/2/1
f 38/2/1 34/2/1 37/2/1
f 39/2/1 34/2/1 38/2/1
f 40/2/1 34/2/1 39/2/1
f 47/2/1 42/2/1 41/2/1
f 47/2/1 46/2/1 45/2/1
f 47/2/1 45/2/1 44/2/1
f 47/2/1 44/2/1 43/2/1
f 47/2/1 43/2/1 42/2/1
f 48/2/1 46/2/1 47/2/1
f 51/1/1 50/1/1 49/1/1
f 52/1/1 50/1/1 51/1/1
f 55/1/1 54/1/1 53/1/1
f 56/1/1 54/1/1 55/1/1
f 59/1/1 58/1/1 57/1/1
f 60/1/1 58/1/1 59/1/1
f 63/1/1 62/1/1 61/1/1
f 64/1/1 62/1/1 63/1/1
f 69/1/1 66/1/1 65/1/1
f 70/1/1 66/1/1 69/1/1
f 71/1/1 68/1/1 67/1/1
f 72/1/1 68/1/1 71/1/1
f 73/1/1 71/1/1 70/1/1
f 74/1/1 71/1/1 73/1/1
f 79/1/1 76/1/1 75/1/1
f 80/1/1 78/1/1 77/1/1
f 81/1/1 76/1/1 79/1/1
f 82/1/1 80/1/1 77/1/1
f 83/1/1 76/1/1 81/1/1
f 84/1/1 82/1/1 77/1/1
f 85/1/1 76/1/1 83/1/1
f 86/1/1 84/1/1 77/1/1
f 87/1/1 76/1/1 85/1/1
f 88/1/1 86/1/1 77/1/1
f 89/1/1 76/1/1 87/1/1
f 90/1/1 88/1/1 77/1/1
f 91/1/1 76/1/1 89/1/1
f 92/1/1 76/1/1 91/1/1
f 95/1/1 90/1/1 77/1/1
f 96/1/1 90/1/1 95/1/1
f 97/1/1 93/1/1 92/1/1
f 98/1/1 93/1/1 97/1/1
f 99/1/1 95/1/1 94/1/1
f 100/1/1 95/1/1 99/1/1
f 101/1/1 99/1/1 98/1/1
f 102/1/1 99/1/1 101/1/1
f 105/1/1 104/1/1 103/1/1
f 106/1/1 104/1/1 105/1/1
f 111/2/1 108/2/1 107/2/1
f 112/2/1 108/2/1 111/2/1
f 113/2/1 108/2/1 112/2/1
f 114/2/1 108/2/1 113/2/1
f 115/2/1 110/2/1 109/2/1
f 116/2/1 110/2/1 115/2/1
f 117/2/1 110/2/1 116/2/1
f 118/2/1 110/2/1 117/2/1
f 123/2/1 120/2/1 119/2/1
f 124/2/1 120/2/1 123/2/1
f 125/2/1 120/2/1 124/2/1
f 126/2/1 120/2/1 125/2/1
f 127/2/1 122/2/1 121/2/1
f 128/2/1 122/2/1 127/2/1
f 129/2/1 122/2/1 128/2/1
f 130/2/1 122/2/1 129/2/1
f 139/2/1 132/2/1 131/2/1
f 139/2/1 133/2/1 132/2/1
f 139/2/1 134/2/1 133/2/1
f 140/2/1 134/2/1 139/2/1
f 141/2/1 138/2/1 137/2/1
f 141/2/1 137/2/1 136/2/1
f 141/2/1 136/2/1 135/2/1
f 142/2/1 138/2/1 141/2/1
f 143/2/2 144/2/2 147/2/2
f 147/2/2 144/2/2 148/2/2
f 148/2/2 144/2/2 149/2/2
f 149/2/2 144/2/2 150/2/2
f 145/2/2 146/2/2 151/2/2
f 151/2/2 146/2/2 152/2/2
f 152/2/2 146/2/2 153/2/2
f 153/2/2 146/2/2 154/2/2
f 155/2/2 156/2/2 159/2/2
f 159/2/2 156/2/2 160/2/2
f 160/2/2 156/2/2 161/2/2
f 161/2/2 156/2/2 162/2/2
f 157/2/2 158/2/2 163/2/2
f 163/2/2 158/2/2 164/2/2
f 164/2/2 158/2/2 165/2/2
f 165/2/2 158/2/2 166/2/2
f 167/2/2 168/2/2 175/2/2
f 168/2/2 169/2/2 175/2/2
f 169/2/2 170/2/2 175/2/2
f 175/2/2 170/2/2 176/2/2
f 173/2/2 174/2/2 177/2/2
f 172/2/2 173/2/2 177/2/2
f 171/2/2 172/2/2 177/2/2
f 177/2/2 174/2/2 178/2/2
f 179/1/2 180/1/2 181/1/2
f 181/1/2 180/1/2 182/1/2
f 183/1/2 184/1/2 187/1/2
f 185/1/2 186/1/2 188/1/2
f 187/1/2 184/1/2 189/1/2
f 185/1/2 188/1/2 190/1/2
f 189/1/2 184/1/2 191/1/2
f 185/1/2 190/1/2 192/1/2
f 191/1/2 184/1/2 193/1/2
f 185/1/2 192/1/2 194/1/2
f 193/1/2 184/1/2 195/1/2
f 185/1/2 194/1/2 196/1/2
f 195/1/2 184/1/2 197/1/2
f 185/1/2 196/1/2 198/1/2
f 197/1/2 184/1/2 199/1/2
f 199/1/2 184/1/2 200/1/2
f 185/1/2 198/1/2 203/1/2
f 203/1/2 198/1/2 204/1/2
f 200/1/2 201/1/2 205/1/2
f 205/1/2 201/1/2 206/1/2
f 202/1/2 203/1/2 207/1/2
f 207/1/2 203/1/2 208/1/2
f 206/1/2 207/1/2 209/1/2
f 209/1/2 207/1/2 210/1/2
f 211/1/2 212/1/2 215/1/2
f 215/1/2 212/1/2 216/1/2
f 213/1/2 214/1/2 217/1/2
f 217/1/2 214/1/2 218/1/2
f 216/1/2 217/1/2 219/1/2
f 219/1/2 217/1/2 220/1/2
f 221/1/2 222/1/2 223/1/2
f 223/1/2 222/1/2 224/1/2
f 225/1/2 226/1/2 227/1/2
f 227/1/2 226/1/2 228/1/2
f 229/1/2 230/1/2 231/1/2
f 231/1/2 230/1/2 232/1/2
f 233/1/2 234/1/2 235/1/2
f 235/1/2 234/1/2 236/1/2
f 237/2/2 238/2/2 239/2/2
f 239/2/2 238/2/2 240/2/2
f 240/2/2 238/2/2 241/2/2
f 241/2/2 238/2/2 242/2/2
f 242/2/2 238/2/2 243/2/2
f 243/2/2 238/2/2 244/2/2
f 245/2/2 246/2/2 247/2/2
f 247/2/2 246/2/2 248/2/2
f 248/2/2 246/2/2 249/2/2
f 249/2/2 246/2/2 250/2/2
f 250/2/2 246/2/2 251/2/2
f 251/2/2 246/2/2 252/2/2
f 253/2/2 254/2/2 259/2/2
f 257/2/2 258/2/2 259/2/2
f 256/2/2 257/2/2 259/2/2
f 255/2/2 256/2/2 259/2/2
f 254/2/2 255/2/2 259/2/2
f 259/2/2 258/2/2 260/2/2
f 261/2/2 262/2/2 265/2/2
f 265/2/2 262/2/2 266/2/2
f 263/2/2 264/2/2 267/2/2
f 267/2/2 264/2/2 268/2/2
f 269/2/2 270/2/2 273/2/2
f 273/2/2 270/2/2 274/2/2
f 271/2/2 272/2/2 275/2/2
f 275/2/2 272/2/2 276/2/2
f 277/2/2 278/2/2 281/2/2
f 281/2/2 278/2/2 282/2/2
f 279/2/2 280/2/2 283/2/2
f 283/2/2 280/2/2 284/2/2
f 291/2/3 286/2/3 285/2/3
f 292/2/3 286/2/3 291/2/3
f 293/2/3 288/2/3 287/2/3
f 294/2/3 288/2/3 293/2/3
f 295/2/3 290/2/3 289/2/3
f 296/2/3 290/2/3 295/2/3
f 303/2/3 298/2/3 297/2/3
f 304/2/3 298/2/3 303/2/3
f 305/2/3 300/2/3 299/2/3
f 306/2/3 300/2/3 305/2/3
f 307/2/3 302/2/3 301/2/3
f 308/2/3 302/2/3 307/2/3
f 315/2/3 310/2/3 309/2/3
f 316/2/3 312/2/3 311/2/3
f 317/2/3 314/2/3 313/2/3
f 318/2/3 310/2/3 315/2/3
f 319/2/3 312/2/3 316/2/3
f 320/2/3 317/2/3 313/2/3
f 321/2/3 310/2/3 318/2/3
f 322/2/3 312/2/3 319/2/3
f 323/2/3 320/2/3 313/2/3
f 324/2/3 310/2/3 321/2/3
f 325/2/3 312/2/3 322/2/3
f 326/2/3 323/2/3 313/2/3
f 327/2/3 310/2/3 324/2/3
f 328/2/3 310/2/3 327/2/3
f 329/2/3 312/2/3 325/2/3
f 330/2/3 312/2/3 329/2/3
f 331/2/3 326/2/3 313/2/3
f 332/2/3 326/2/3 331/2/3
f 341/1/3 334/1/3 333/1/3
f 342/1/3 334/1/3 341/1/3
f 343/1/3 336/1/3 335/1/3
f 344/1/3 336/1/3 343/1/3
f 345/1/3 338/1/3 337/1/3
f 346/1/3 338/1/3 345/1/3
f 347/1/3 340/1/3 339/1/3
f 348/1/3 340/1/3 347/1/3
f 351/1/3 350/1/3 349/1/3
f 352/1/3 350/1/3 351/1/3
f 355/1/3 353/1/3 352/1/3
f 356/1/3 353/1/3 355/1/3
f 357/1/3 355/1/3 354/1/3
f 358/1/3 355/1/3 357/1/3
f 367/1/3 360/1/3 359/1/3
f 367/1/3 366/1/3 365/1/3
f 367/1/3 365/1/3 364/1/3
f 367/1/3 364/1/3 363/1/3
f 367/1/3 363/1/3 362/1/3
f 367/1/3 362/1/3 361/1/3
f 367/1/3 361/1/3 360/1/3
f 368/1/3 366/1/3 367/1/3
f 370/1/3 369/1/3 368/1/3
f 371/1/3 369/1/3 370/1/3
f 374/1/3 372/1/3 371/1/3
f 375/1/3 372/1/3 374/1/3
f 377/1/3 374/1/3 373/1/3
f 378/1/3 374/1/3 377/1/3
f 379/1/3 377/1/3 376/1/3
f 380/1/3 377/1/3 379/1/3
f 381/1/3 377/1/3 380/1/3
f 382/1/3 377/1/3 381/1/3
f 383/1/3 377/1/3 382/1/3
f 384/1/3 377/1/3 383/1/3
f 385/1/3 377/1/3 384/1/3
f 386/1/3 377/1/3 385/1/3
f 389/1/3 388/1/3 387/1/3
f 390/1/3 388/1/3 389/1/3
f 397/2/3 392/2/3 391/2/3
f 398/2/3 394/2/3 393/2/3
f 399/2/3 396/2/3 395/2/3
f 400/2/3 392/2/3 397/2/3
f 401/2/3 394/2/3 398/2/3
f 402/2/3 399/2/3 395/2/3
f 403/2/3 392/2/3 400/2/3
f 404/2/3 392/2/3 403/2/3
f 405/2/3 394/2/3 401/2/3
f 406/2/3 394/2/3 405/2/3
f 407/2/3 402/2/3 395/2/3
f 408/2/3 402/2/3 407/2/3
f 415/2/3 410/2/3 409/2/3
f 416/2/3 412/2/3 411/2/3
f 417/2/3 414/2/3 413/2/3
f 418/2/3 410/2/3 415/2/3
f 419/2/3 412/2/3 416/2/3
f 420/2/3 417/2/3 413/2/3
f 421/2/3 410/2/3 418/2/3
f 422/2/3 410/2/3 421/2/3
f 423/2/3 412/2/3 419/2/3
f 424/2/3 412/2/3 423/2/3
f 425/2/3 420/2/3 413/2/3
f 426/2/3 420/2/3 425/2/3
f 427/2/4 428/2/4 433/2/4
f 429/2/4 430/2/4 434/2/4
f 431/2/4 432/2/4 435/2/4
f 433/2/4 428/2/4 436/2/4
f 434/2/4 430/2/4 437/2/4
f 431/2/4 435/2/4 438/2/4
f 436/2/4 428/2/4 439/2/4
f 439/2/4 428/2/4 440/2/4
f 437/2/4 430/2/4 441/2/4
f 441/2/4 430/2/4 442/2/4
f 431/2/4 438/2/4 443/2/4
f 443/2/4 438/2/4 444/2/4
f 445/2/4 446/2/4 451/2/4
f 447/2/4 448/2/4 452/2/4
f 449/2/4 450/2/4 453/2/4
f 451/2/4 446/2/4 454/2/4
f 452/2/4 448/2/4 455/2/4
f 449/2/4 453/2/4 456/2/4
f 454/2/4 446/2/4 457/2/4
f 457/2/4 446/2/4 458/2/4
f 455/2/4 448/2/4 459/2/4
f 459/2/4 448/2/4 460/2/4
f 449/2/4 456/2/4 461/2/4
f 461/2/4 456/2/4 462/2/4
f 463/1/4 464/1/4 465/1/4
f 465/1/4 464/1/4 466/1/4
f 467/1/4 468/1/4 475/1/4
f 473/1/4 474/1/4 475/1/4
f 472/1/4 473/1/4 475/1/4
f 471/1/4 472/1/4 475/1/4
f 470/1/4 471/1/4 475/1/4
f 469/1/4 470/1/4 475/1/4
f 468/1/4 469/1/4 475/1/4
f 475/1/4 474/1/4 476/1/4
f 476/1/4 477/1/4 478/1/4
f 478/1/4 477/1/4 479/1/4
f 479/1/4 480/1/4 482/1/4
f 482/1/4 480/1/4 483/1/4
f 481/1/4 482/1/4 485/1/4
f 485/1/4 482/1/4 486/1/4
f 484/1/4 485/1/4 487/1/4
f 487/1/4 485/1/4 488/1/4
f 488/1/4 485/1/4 489/1/4
f 489/1/4 485/1/4 490/1/4
f 490/1/4 485/1/4 491/1/4
f 491/1/4 485/1/4 492/1/4
f 492/1/4 485/1/4 493/1/4
f 493/1/4 485/1/4 494/1/4
f 495/1/4 496/1/4 497/1/4
f 497/1/4 496/1/4 498/1/4
f 498/1/4 499/1/4 501/1/4
f 501/1/4 499/1/4 502/1/4
f 500/1/4 501/1/4 503/1/4
f 503/1/4 501/1/4 504/1/4
f 505/1/4 506/1/4 513/1/4
f 513/1/4 506/1/4 514/1/4
f 507/1/4 508/1/4 515/1/4
f 515/1/4 508/1/4 516/1/4
f 509/1/4 510/1/4 517/1/4
f 517/1/4 510/1/4 518/1/4
f 511/1/4 512/1/4 519/1/4
f 519/1/4 512/1/4 520/1/4
f 521/2/4 522/2/4 527/2/4
f 523/2/4 524/2/4 528/2/4
f 525/2/4 526/2/4 529/2/4
f 527/2/4 522/2/4 530/2/4
f 528/2/4 524/2/4 531/2/4
f 525/2/4 529/2/4 532/2/4
f 530/2/4 522/2/4 533/2/4
f 531/2/4 524/2/4 534/2/4
f 525/2/4 532/2/4 535/2/4
f 533/2/4 522/2/4 536/2/4
f 534/2/4 524/2/4 537/2/4
f 525/2/4 535/2/4 538/2/4
f 536/2/4 522/2/4 539/2/4
f 539/2/4 522/2/4 540/2/4
f 537/2/4 524/2/4 541/2/4
f 541/2/4 524/2/4 542/2/4
f 525/2/4 538/2/4 543/2/4
f 543/2/4 538/2/4 544/2/4
f 545/2/4 546/2/4 551/2/4
f 551/2/4 546/2/4 552/2/4
f 547/2/4 548/2/4 553/2/4
f 553/2/4 548/2/4 554/2/4
f 549/2/4 550/2/4 555/2/4
f 555/2/4 550/2/4 556/2/4
f 557/2/4 558/2/4 563/2/4
f 563/2/4 558/2/4 564/2/4
f 559/2/4 560/2/4 565/2/4
f 565/2/4 560/2/4 566/2/4
f 561/2/4 562/2/4 567/2/4
f 567/2/4 562/2/4 568/2/4
f 572/1/5 570/1/5 569/1/5
f 573/1/5 570/1/5 572/1/5
f 576/1/5 572/1/5 571/1/5
f 576/1/5 574/1/5 573/1/5
f 576/1/5 573/1/5 572/1/5
f 577/1/5 574/1/5 576/1/5
f 579/1/5 576/1/5 575/1/5
f 579/1/5 578/1/5 577/1/5
f 579/1/5 577/1/5 576/1/5
f 580/1/5 578/1/5 579/1/5
f 581/1/5 578/1/5 580/1/5
f 582/1/5 578/1/5 581/1/5
f 583/1/5 581/1/5 580/1/5
f 584/1/5 581/1/5 583/1/5
f 585/1/5 581/1/5 584/1/5
f 586/1/5 581/1/5 585/1/5
f 587/1/5 585/1/5 584/1/5
f 588/1/5 585/1/5 587/1/5
f 593/2/5 590/2/5 589/2/5
f 594/2/5 592/2/5 591/2/5
f 595/2/5 593/2/5 589/2/5
f 596/2/5 592/2/5 594/2/5
f 597/2/5 595/2/5 589/2/5
f 598/2/5 595/2/5 597/2/5
f 599/2/5 592/2/5 596/2/5
f 600/2/5 592/2/5 599/2/5
f 607/2/5 602/2/5 601/2/5
f 608/2/5 602/2/5 607/2/5
f 609/2/5 604/2/5 603/2/5
f 610/2/5 604/2/5 609/2/5
f 611/2/5 604/2/5 610/2/5
f 612/2/5 604/2/5 611/2/5
f 613/2/5 606/2/5 605/2/5
f 614/2/5 606/2/5 613/2/5
f 623/2/5 616/2/5 615/2/5
f 624/2/5 616/2/5 623/2/5
f 625/2/5 618/2/5 617/2/5
f 625/2/5 619/2/5 618/2/5
f 625/2/5 620/2/5 619/2/5
f 626/2/5 620/2/5 625/2/5
f 627/2/5 622/2/5 621/2/5
f 628/2/5 622/2/5 627/2/5
f 633/2/5 630/2/5 629/2/5
f 634/2/5 632/2/5 631/2/5
f 635/2/5 633/2/5 629/2/5
f 636/2/5 632/2/5 634/2/5
f 637/2/5 635/2/5 629/2/5
f 638/2/5 635/2/5 637/2/5
f 639/2/5 632/2/5 636/2/5
f 640/2/5 632/2/5 639/2/5
f 647/2/5 642/2/5 641/2/5
f 648/2/5 642/2/5 647/2/5
f 649/2/5 644/2/5 643/2/5
f 650/2/5 644/2/5 649/2/5
f 651/2/5 644/2/5 650/2/5
f 652/2/5 644/2/5 651/2/5
f 653/2/5 646/2/5 645/2/5
f 654/2/5 646/2/5 653/2/5
f 663/2/5 656/2/5 655/2/5
f 664/2/5 656/2/5 663/2/5
f 665/2/5 658/2/5 657/2/5
f 665/2/5 659/2/5 658/2/5
f 665/2/5 660/2/5 659/2/5
f 666/2/5 660/2/5 665/2/5
f 667/2/5 662/2/5 661/2/5
f 668/2/5 662/2/5 667/2/5
f 671/2/5 670/2/5 669/2/5
f 672/2/5 670/2/5 671/2/5
f 673/2/5 670/2/5 672/2/5
f 674/2/5 670/2/5 673/2/5
f 679/2/5 676/2/5 675/2/5
f 679/2/5 678/2/5 677/2/5
f 679/2/5 677/2/5 676/2/5
f 680/2/5 678/2/5 679/2/5
f 685/2/5 682/2/5 681/2/5
f 686/2/5 682/2/5 685/2/5
f 687/2/5 684/2/5 683/2/5
f 688/2/5 684/2/5 687/2/5
f 693/2/5 690/2/5 689/2/5
f 694/2/5 692/2/5 691/2/5
f 695/2/5 693/2/5 689/2/5
f 696/2/5 692/2/5 694/2/5
f 697/2/5 695/2/5 689/2/5
f 698/2/5 695/2/5 697/2/5
f 699/2/5 692/2/5 696/2/5
f 700/2/5 692/2/5 699/2/5
f 705/2/5 702/2/5 701/2/5
f 706/2/5 702/2/5 705/2/5
f 707/2/5 704/2/5 703/2/5
f 708/2/5 704/2/5 707/2/5
f 709/2/6 710/2/6 713/2/6
f 713/2/6 710/2/6 714/2/6
f 711/2/6 712/2/6 715/2/6
f 715/2/6 712/2/6 716/2/6
f 717/2/6 718/2/6 721/2/6
f 719/2/6 720/2/6 722/2/6
f 717/2/6 721/2/6 723/2/6
f 722/2/6 720/2/6 724/2/6
f 717/2/6 723/2/6 725/2/6
f 725/2/6 723/2/6 726/2/6
f 724/2/6 720/2/6 727/2/6
f 727/2/6 720/2/6 728/2/6
f 729/2/6 730/2/6 733/2/6
f 733/2/6 730/2/6 734/2/6
f 731/2/6 732/2/6 735/2/6
f 735/2/6 732/2/6 736/2/6
f 737/2/6 738/2/6 739/2/6
f 739/2/6 738/2/6 740/2/6
f 740/2/6 738/2/6 741/2/6
f 741/2/6 738/2/6 742/2/6
f 743/2/6 744/2/6 747/2/6
f 745/2/6 746/2/6 747/2/6
f 744/2/6 745/2/6 747/2/6
f 747/2/6 746/2/6 748/2/6
f 749/2/6 750/2/6 753/2/6
f 753/2/6 750/2/6 754/2/6
f 751/2/6 752/2/6 755/2/6
f 755/2/6 752/2/6 756/2/6
f 757/2/6 758/2/6 761/2/6
f 759/2/6 760/2/6 762/2/6
f 757/2/6 761/2/6 763/2/6
f 762/2/6 760/2/6 764/2/6
f 757/2/6 763/2/6 765/2/6
f 765/2/6 763/2/6 766/2/6
f 764/2/6 760/2/6 767/2/6
f 767/2/6 760/2/6 768/2/6
f 769/2/6 770/2/6 773/2/6
f 773/2/6 770/2/6 774/2/6
f 771/2/6 772/2/6 775/2/6
f 775/2/6 772/2/6 776/2/6
f 777/2/6 778/2/6 779/2/6
f 779/2/6 778/2/6 780/2/6
f 780/2/6 778/2/6 781/2/6
f 781/2/6 778/2/6 782/2/6
f 783/2/6 784/2/6 787/2/6
f 785/2/6 786/2/6 787/2/6
f 784/2/6 785/2/6 787/2/6
f 787/2/6 786/2/6 788/2/6
f 789/2/6 790/2/6 795/2/6
f 795/2/6 790/2/6 796/2/6
f 791/2/6 792/2/6 797/2/6
f 797/2/6 792/2/6 798/2/6
f 798/2/6 792/2/6 799/2/6
f 799/2/6 792/2/6 800/2/6
f 793/2/6 794/2/6 801/2/6
f 801/2/6 794/2/6 802/2/6
f 803/2/6 804/2/6 811/2/6
f 811/2/6 804/2/6 812/2/6
f 805/2/6 806/2/6 813/2/6
f 806/2/6 807/2/6 813/2/6
f 807/2/6 808/2/6 813/2/6
f 813/2/6 808/2/6 814/2/6
f 809/2/6 810/2/6 815/2/6
f 815/2/6 810/2/6 816/2/6
f 817/2/6 818/2/6 821/2/6
f 819/2/6 820/2/6 822/2/6
f 817/2/6 821/2/6 823/2/6
f 822/2/6 820/2/6 824/2/6
f 817/2/6 823/2/6 825/2/6
f 825/2/6 823/2/6 826/2/6
f 824/2/6 820/2/6 827/2/6
f 827/2/6 820/2/6 828/2/6
f 829/1/6 830/1/6 832/1/6
f 832/1/6 830/1/6 833/1/6
f 831/1/6 832/1/6 836/1/6
f 836/1/6 832/1/6 837/1/6
f 833/1/6 834/1/6 838/1/6
f 838/1/6 834/1/6 839/1/6
f 835/1/6 836/1/6 841/1/6
f 841/1/6 836/1/6 842/1/6
f 839/1/6 840/1/6 845/1/6
f 845/1/6 840/1/6 846/1/6
f 842/1/6 843/1/6 847/1/6
f 847/1/6 843/1/6 848/1/6
f 844/1/6 845/1/6 849/1/6
f 849/1/6 845/1/6 850/1/6
f 848/1/6 849/1/6 851/1/6
f 851/1/6 849/1/6 852/1/6
f 853/1/6 854/1/6 856/1/6
f 856/1/6 854/1/6 857/1/6
f 855/1/6 856/1/6 859/1/6
f 859/1/6 856/1/6 860/1/6
f 857/1/6 858/1/6 861/1/6
f 861/1/6 858/1/6 862/1/6
f 860/1/6 861/1/6 863/1/6
f 863/1/6 861/1/6 864/1/6
f 865/1/6 866/1/6 867/1/6
f 867/1/6 866/1/6 868/1/6
f 865/1/6 867/1/6 869/1/6
f 868/1/6 866/1/6 870/1/6
f 865/1/6 869/1/6 871/1/6
f 869/1/6 870/1/6 871/1/6
f 870/1/6 866/1/6 872/1/6
f 871/1/6 870/1/6 872/1/6
f 873/1/6 874/1/6 875/1/6
f 875/1/6 874/1/6 876/1/6
