# MagicaVoxel @ Ephtracy

# group
o 

# material
mtllib Objetos-11.mtl
usemtl palette

# normals
vn -1 0 0
vn 1 0 0
vn 0 0 1
vn 0 0 -1
vn 0 -1 0
vn 0 1 0

# texcoords
vt 0.373047 0.5
vt 0.537109 0.5

# verts
v 4 0 0.4
v 4 0 -0.2
v 4 0.1 0.4
v 4 0.1 -0.2
v 4.1 0 0.5
v 4.1 0 0.4
v 4.1 0 -0.2
v 4.1 0 -0.3
v 4.1 0.1 0.5
v 4.1 0.1 0.4
v 4.1 0.1 -0.2
v 4.1 0.1 -0.3
v 4.1 0.2 0.4
v 4.1 0.2 -0.2
v 4.2 0 0.6
v 4.2 0 0.5
v 4.2 0 -0.3
v 4.2 0 -0.4
v 4.2 0.1 0.6
v 4.2 0.1 0.5
v 4.2 0.1 0.4
v 4.2 0.1 -0.2
v 4.2 0.1 -0.3
v 4.2 0.1 -0.4
v 4.2 0.2 0.5
v 4.2 0.2 0.4
v 4.2 0.2 -0.2
v 4.2 0.2 -0.3
v 4.2 0.5 0.4
v 4.2 0.5 -0.2
v 4.3 0 0.7
v 4.3 0 0.6
v 4.3 0 -0.4
v 4.3 0 -0.5
v 4.3 0.1 0.7
v 4.3 0.1 0.6
v 4.3 0.1 0.5
v 4.3 0.1 -0.3
v 4.3 0.1 -0.4
v 4.3 0.1 -0.5
v 4.3 0.2 0.6
v 4.3 0.2 0.5
v 4.3 0.2 0.4
v 4.3 0.2 -0.2
v 4.3 0.2 -0.3
v 4.3 0.2 -0.4
v 4.3 0.5 0.5
v 4.3 0.5 0.4
v 4.3 0.5 -0.2
v 4.3 0.5 -0.3
v 4.3 0.6 0.4
v 4.3 0.6 -0.2
v 4.9 0 0.4
v 4.9 0 -0.2
v 4.9 0.1 0.4
v 4.9 0.1 -0.2
v 4.9 0.3 0.4
v 4.9 0.3 -0.2
v 4.3 0 0.4
v 4.3 0 -0.2
v 4.3 0.1 0.4
v 4.3 0.1 -0.2
v 4.3 0.3 0.4
v 4.3 0.3 -0.2
v 4.9 0 0.7
v 4.9 0 0.6
v 4.9 0 -0.4
v 4.9 0 -0.5
v 4.9 0.1 0.7
v 4.9 0.1 0.6
v 4.9 0.1 0.5
v 4.9 0.1 -0.3
v 4.9 0.1 -0.4
v 4.9 0.1 -0.5
v 4.9 0.2 0.6
v 4.9 0.2 0.5
v 4.9 0.2 0.4
v 4.9 0.2 -0.2
v 4.9 0.2 -0.3
v 4.9 0.2 -0.4
v 4.9 0.5 0.5
v 4.9 0.5 0.4
v 4.9 0.5 -0.2
v 4.9 0.5 -0.3
v 4.9 0.6 0.4
v 4.9 0.6 -0.2
v 5 0 0.6
v 5 0 0.5
v 5 0 -0.3
v 5 0 -0.4
v 5 0.1 0.6
v 5 0.1 0.5
v 5 0.1 0.4
v 5 0.1 -0.2
v 5 0.1 -0.3
v 5 0.1 -0.4
v 5 0.2 0.5
v 5 0.2 0.4
v 5 0.2 -0.2
v 5 0.2 -0.3
v 5 0.5 0.4
v 5 0.5 -0.2
v 5.1 0 0.5
v 5.1 0 0.4
v 5.1 0 -0.2
v 5.1 0 -0.3
v 5.1 0.1 0.5
v 5.1 0.1 0.4
v 5.1 0.1 -0.2
v 5.1 0.1 -0.3
v 5.1 0.2 0.4
v 5.1 0.2 -0.2
v 5.2 0 0.4
v 5.2 0 -0.2
v 5.2 0.1 0.4
v 5.2 0.1 -0.2
v 4.3 0 0.7
v 4.3 0.1 0.7
v 4.9 0 0.7
v 4.9 0.1 0.7
v 4.2 0 0.6
v 4.2 0.1 0.6
v 4.3 0 0.6
v 4.3 0.1 0.6
v 4.3 0.2 0.6
v 4.9 0 0.6
v 4.9 0.1 0.6
v 4.9 0.2 0.6
v 5 0 0.6
v 5 0.1 0.6
v 4.1 0 0.5
v 4.1 0.1 0.5
v 4.2 0 0.5
v 4.2 0.1 0.5
v 4.2 0.2 0.5
v 4.3 0.1 0.5
v 4.3 0.2 0.5
v 4.3 0.5 0.5
v 4.9 0.1 0.5
v 4.9 0.2 0.5
v 4.9 0.5 0.5
v 5 0 0.5
v 5 0.1 0.5
v 5 0.2 0.5
v 5.1 0 0.5
v 5.1 0.1 0.5
v 4 0 0.4
v 4 0.1 0.4
v 4.1 0 0.4
v 4.1 0.1 0.4
v 4.1 0.2 0.4
v 4.2 0.1 0.4
v 4.2 0.2 0.4
v 4.2 0.5 0.4
v 4.3 0.2 0.4
v 4.3 0.5 0.4
v 4.3 0.6 0.4
v 4.9 0.2 0.4
v 4.9 0.5 0.4
v 4.9 0.6 0.4
v 5 0.1 0.4
v 5 0.2 0.4
v 5 0.5 0.4
v 5.1 0 0.4
v 5.1 0.1 0.4
v 5.1 0.2 0.4
v 5.2 0 0.4
v 5.2 0.1 0.4
v 4.3 0 -0.2
v 4.3 0.1 -0.2
v 4.3 0.3 -0.2
v 4.9 0 -0.2
v 4.9 0.1 -0.2
v 4.9 0.3 -0.2
v 4.3 0 0.4
v 4.3 0.1 0.4
v 4.3 0.3 0.4
v 4.9 0 0.4
v 4.9 0.1 0.4
v 4.9 0.3 0.4
v 4 0 -0.2
v 4 0.1 -0.2
v 4.1 0 -0.2
v 4.1 0.1 -0.2
v 4.1 0.2 -0.2
v 4.2 0.1 -0.2
v 4.2 0.2 -0.2
v 4.2 0.5 -0.2
v 4.3 0.2 -0.2
v 4.3 0.5 -0.2
v 4.3 0.6 -0.2
v 4.9 0.2 -0.2
v 4.9 0.5 -0.2
v 4.9 0.6 -0.2
v 5 0.1 -0.2
v 5 0.2 -0.2
v 5 0.5 -0.2
v 5.1 0 -0.2
v 5.1 0.1 -0.2
v 5.1 0.2 -0.2
v 5.2 0 -0.2
v 5.2 0.1 -0.2
v 4.1 0 -0.3
v 4.1 0.1 -0.3
v 4.2 0 -0.3
v 4.2 0.1 -0.3
v 4.2 0.2 -0.3
v 4.3 0.1 -0.3
v 4.3 0.2 -0.3
v 4.3 0.5 -0.3
v 4.9 0.1 -0.3
v 4.9 0.2 -0.3
v 4.9 0.5 -0.3
v 5 0 -0.3
v 5 0.1 -0.3
v 5 0.2 -0.3
v 5.1 0 -0.3
v 5.1 0.1 -0.3
v 4.2 0 -0.4
v 4.2 0.1 -0.4
v 4.3 0 -0.4
v 4.3 0.1 -0.4
v 4.3 0.2 -0.4
v 4.9 0 -0.4
v 4.9 0.1 -0.4
v 4.9 0.2 -0.4
v 5 0 -0.4
v 5 0.1 -0.4
v 4.3 0 -0.5
v 4.3 0.1 -0.5
v 4.9 0 -0.5
v 4.9 0.1 -0.5
v 4.3 0 0.7
v 4.9 0 0.7
v 4.2 0 0.6
v 4.3 0 0.6
v 4.9 0 0.6
v 5 0 0.6
v 4.1 0 0.5
v 4.2 0 0.5
v 5 0 0.5
v 5.1 0 0.5
v 4 0 0.4
v 4.1 0 0.4
v 4.3 0 0.4
v 4.9 0 0.4
v 5.1 0 0.4
v 5.2 0 0.4
v 4 0 -0.2
v 4.1 0 -0.2
v 4.3 0 -0.2
v 4.9 0 -0.2
v 5.1 0 -0.2
v 5.2 0 -0.2
v 4.1 0 -0.3
v 4.2 0 -0.3
v 5 0 -0.3
v 5.1 0 -0.3
v 4.2 0 -0.4
v 4.3 0 -0.4
v 4.9 0 -0.4
v 5 0 -0.4
v 4.3 0 -0.5
v 4.9 0 -0.5
v 4.3 0.3 0.4
v 4.9 0.3 0.4
v 4.3 0.3 -0.2
v 4.9 0.3 -0.2
v 4.3 0.1 0.7
v 4.9 0.1 0.7
v 4.2 0.1 0.6
v 4.3 0.1 0.6
v 4.9 0.1 0.6
v 5 0.1 0.6
v 4.1 0.1 0.5
v 4.2 0.1 0.5
v 4.3 0.1 0.5
v 4.9 0.1 0.5
v 5 0.1 0.5
v 5.1 0.1 0.5
v 4 0.1 0.4
v 4.1 0.1 0.4
v 4.2 0.1 0.4
v 5 0.1 0.4
v 5.1 0.1 0.4
v 5.2 0.1 0.4
v 4 0.1 -0.2
v 4.1 0.1 -0.2
v 4.2 0.1 -0.2
v 5 0.1 -0.2
v 5.1 0.1 -0.2
v 5.2 0.1 -0.2
v 4.1 0.1 -0.3
v 4.2 0.1 -0.3
v 4.3 0.1 -0.3
v 4.9 0.1 -0.3
v 5 0.1 -0.3
v 5.1 0.1 -0.3
v 4.2 0.1 -0.4
v 4.3 0.1 -0.4
v 4.9 0.1 -0.4
v 5 0.1 -0.4
v 4.3 0.1 -0.5
v 4.9 0.1 -0.5
v 4.3 0.2 0.6
v 4.9 0.2 0.6
v 4.2 0.2 0.5
v 4.3 0.2 0.5
v 4.9 0.2 0.5
v 5 0.2 0.5
v 4.1 0.2 0.4
v 4.2 0.2 0.4
v 4.3 0.2 0.4
v 4.9 0.2 0.4
v 5 0.2 0.4
v 5.1 0.2 0.4
v 4.1 0.2 -0.2
v 4.2 0.2 -0.2
v 4.3 0.2 -0.2
v 4.9 0.2 -0.2
v 5 0.2 -0.2
v 5.1 0.2 -0.2
v 4.2 0.2 -0.3
v 4.3 0.2 -0.3
v 4.9 0.2 -0.3
v 5 0.2 -0.3
v 4.3 0.2 -0.4
v 4.9 0.2 -0.4
v 4.3 0.5 0.5
v 4.9 0.5 0.5
v 4.2 0.5 0.4
v 4.3 0.5 0.4
v 4.9 0.5 0.4
v 5 0.5 0.4
v 4.2 0.5 -0.2
v 4.3 0.5 -0.2
v 4.9 0.5 -0.2
v 5 0.5 -0.2
v 4.3 0.5 -0.3
v 4.9 0.5 -0.3
v 4.3 0.6 0.4
v 4.9 0.6 0.4
v 4.3 0.6 -0.2
v 4.9 0.6 -0.2

# faces
f 3/2/1 2/2/1 1/2/1
f 4/2/1 2/2/1 3/2/1
f 9/2/1 6/2/1 5/2/1
f 10/2/1 6/2/1 9/2/1
f 11/2/1 8/2/1 7/2/1
f 12/2/1 8/2/1 11/2/1
f 13/2/1 11/2/1 10/2/1
f 14/2/1 11/2/1 13/2/1
f 19/2/1 16/2/1 15/2/1
f 20/2/1 16/2/1 19/2/1
f 23/2/1 18/2/1 17/2/1
f 24/2/1 18/2/1 23/2/1
f 25/2/1 21/2/1 20/2/1
f 26/2/1 21/2/1 25/2/1
f 27/2/1 23/2/1 22/2/1
f 28/2/1 23/2/1 27/2/1
f 29/1/1 27/1/1 26/1/1
f 30/1/1 27/1/1 29/1/1
f 35/2/1 32/2/1 31/2/1
f 36/2/1 32/2/1 35/2/1
f 39/2/1 34/2/1 33/2/1
f 40/2/1 34/2/1 39/2/1
f 41/2/1 37/2/1 36/2/1
f 42/2/1 37/2/1 41/2/1
f 45/2/1 39/2/1 38/2/1
f 46/2/1 39/2/1 45/2/1
f 47/1/1 43/1/1 42/1/1
f 48/1/1 43/1/1 47/1/1
f 49/1/1 45/1/1 44/1/1
f 50/1/1 45/1/1 49/1/1
f 51/1/1 49/1/1 48/1/1
f 52/1/1 49/1/1 51/1/1
f 55/2/1 54/2/1 53/2/1
f 56/2/1 54/2/1 55/2/1
f 57/1/1 56/1/1 55/1/1
f 58/1/1 56/1/1 57/1/1
f 59/2/2 60/2/2 61/2/2
f 61/2/2 60/2/2 62/2/2
f 61/1/2 62/1/2 63/1/2
f 63/1/2 62/1/2 64/1/2
f 65/2/2 66/2/2 69/2/2
f 69/2/2 66/2/2 70/2/2
f 67/2/2 68/2/2 73/2/2
f 73/2/2 68/2/2 74/2/2
f 70/2/2 71/2/2 75/2/2
f 75/2/2 71/2/2 76/2/2
f 72/2/2 73/2/2 79/2/2
f 79/2/2 73/2/2 80/2/2
f 76/1/2 77/1/2 81/1/2
f 81/1/2 77/1/2 82/1/2
f 78/1/2 79/1/2 83/1/2
f 83/1/2 79/1/2 84/1/2
f 82/1/2 83/1/2 85/1/2
f 85/1/2 83/1/2 86/1/2
f 87/2/2 88/2/2 91/2/2
f 91/2/2 88/2/2 92/2/2
f 89/2/2 90/2/2 95/2/2
f 95/2/2 90/2/2 96/2/2
f 92/2/2 93/2/2 97/2/2
f 97/2/2 93/2/2 98/2/2
f 94/2/2 95/2/2 99/2/2
f 99/2/2 95/2/2 100/2/2
f 98/1/2 99/1/2 101/1/2
f 101/1/2 99/1/2 102/1/2
f 103/2/2 104/2/2 107/2/2
f 107/2/2 104/2/2 108/2/2
f 105/2/2 106/2/2 109/2/2
f 109/2/2 106/2/2 110/2/2
f 108/2/2 109/2/2 111/2/2
f 111/2/2 109/2/2 112/2/2
f 113/2/2 114/2/2 115/2/2
f 115/2/2 114/2/2 116/2/2
f 119/2/3 118/2/3 117/2/3
f 120/2/3 118/2/3 119/2/3
f 123/2/3 122/2/3 121/2/3
f 124/2/3 122/2/3 123/2/3
f 127/2/3 125/2/3 124/2/3
f 128/2/3 125/2/3 127/2/3
f 129/2/3 127/2/3 126/2/3
f 130/2/3 127/2/3 129/2/3
f 133/2/3 132/2/3 131/2/3
f 134/2/3 132/2/3 133/2/3
f 136/2/3 135/2/3 134/2/3
f 137/2/3 135/2/3 136/2/3
f 140/1/3 138/1/3 137/1/3
f 141/1/3 138/1/3 140/1/3
f 143/2/3 140/2/3 139/2/3
f 144/2/3 140/2/3 143/2/3
f 145/2/3 143/2/3 142/2/3
f 146/2/3 143/2/3 145/2/3
f 149/2/3 148/2/3 147/2/3
f 150/2/3 148/2/3 149/2/3
f 152/2/3 151/2/3 150/2/3
f 153/2/3 151/2/3 152/2/3
f 155/1/3 154/1/3 153/1/3
f 156/1/3 154/1/3 155/1/3
f 159/1/3 157/1/3 156/1/3
f 160/1/3 157/1/3 159/1/3
f 162/1/3 159/1/3 158/1/3
f 163/1/3 159/1/3 162/1/3
f 165/2/3 162/2/3 161/2/3
f 166/2/3 162/2/3 165/2/3
f 167/2/3 165/2/3 164/2/3
f 168/2/3 165/2/3 167/2/3
f 172/2/3 170/2/3 169/2/3
f 173/1/3 171/1/3 170/1/3
f 173/2/3 170/2/3 172/2/3
f 174/1/3 171/1/3 173/1/3
f 175/2/4 176/2/4 178/2/4
f 176/1/4 177/1/4 179/1/4
f 178/2/4 176/2/4 179/2/4
f 179/1/4 177/1/4 180/1/4
f 181/2/4 182/2/4 183/2/4
f 183/2/4 182/2/4 184/2/4
f 184/2/4 185/2/4 186/2/4
f 186/2/4 185/2/4 187/2/4
f 187/1/4 188/1/4 189/1/4
f 189/1/4 188/1/4 190/1/4
f 190/1/4 191/1/4 193/1/4
f 193/1/4 191/1/4 194/1/4
f 192/1/4 193/1/4 196/1/4
f 196/1/4 193/1/4 197/1/4
f 195/2/4 196/2/4 199/2/4
f 199/2/4 196/2/4 200/2/4
f 198/2/4 199/2/4 201/2/4
f 201/2/4 199/2/4 202/2/4
f 203/2/4 204/2/4 205/2/4
f 205/2/4 204/2/4 206/2/4
f 206/2/4 207/2/4 208/2/4
f 208/2/4 207/2/4 209/2/4
f 209/1/4 210/1/4 212/1/4
f 212/1/4 210/1/4 213/1/4
f 211/2/4 212/2/4 215/2/4
f 215/2/4 212/2/4 216/2/4
f 214/2/4 215/2/4 217/2/4
f 217/2/4 215/2/4 218/2/4
f 219/2/4 220/2/4 221/2/4
f 221/2/4 220/2/4 222/2/4
f 222/2/4 223/2/4 225/2/4
f 225/2/4 223/2/4 226/2/4
f 224/2/4 225/2/4 227/2/4
f 227/2/4 225/2/4 228/2/4
f 229/2/4 230/2/4 231/2/4
f 231/2/4 230/2/4 232/2/4
f 236/2/5 234/2/5 233/2/5
f 237/2/5 234/2/5 236/2/5
f 240/2/5 236/2/5 235/2/5
f 240/2/5 238/2/5 237/2/5
f 240/2/5 237/2/5 236/2/5
f 241/2/5 238/2/5 240/2/5
f 244/2/5 240/2/5 239/2/5
f 244/2/5 242/2/5 241/2/5
f 244/2/5 241/2/5 240/2/5
f 245/2/5 242/2/5 244/2/5
f 246/2/5 242/2/5 245/2/5
f 247/2/5 242/2/5 246/2/5
f 249/2/5 244/2/5 243/2/5
f 249/2/5 245/2/5 244/2/5
f 250/2/5 245/2/5 249/2/5
f 251/2/5 245/2/5 250/2/5
f 252/2/5 248/2/5 247/2/5
f 252/2/5 247/2/5 246/2/5
f 253/2/5 248/2/5 252/2/5
f 254/2/5 248/2/5 253/2/5
f 255/2/5 251/2/5 250/2/5
f 255/2/5 253/2/5 252/2/5
f 255/2/5 252/2/5 251/2/5
f 256/2/5 253/2/5 255/2/5
f 257/2/5 253/2/5 256/2/5
f 258/2/5 253/2/5 257/2/5
f 259/2/5 257/2/5 256/2/5
f 260/2/5 257/2/5 259/2/5
f 261/2/5 257/2/5 260/2/5
f 262/2/5 257/2/5 261/2/5
f 263/2/5 261/2/5 260/2/5
f 264/2/5 261/2/5 263/2/5
f 267/1/5 266/1/5 265/1/5
f 268/1/5 266/1/5 267/1/5
f 269/2/6 270/2/6 272/2/6
f 272/2/6 270/2/6 273/2/6
f 271/2/6 272/2/6 276/2/6
f 276/2/6 272/2/6 277/2/6
f 273/2/6 274/2/6 278/2/6
f 278/2/6 274/2/6 279/2/6
f 275/2/6 276/2/6 282/2/6
f 282/2/6 276/2/6 283/2/6
f 279/2/6 280/2/6 284/2/6
f 284/2/6 280/2/6 285/2/6
f 281/2/6 282/2/6 287/2/6
f 287/2/6 282/2/6 288/2/6
f 285/2/6 286/2/6 291/2/6
f 291/2/6 286/2/6 292/2/6
f 288/2/6 289/2/6 293/2/6
f 293/2/6 289/2/6 294/2/6
f 290/2/6 291/2/6 297/2/6
f 297/2/6 291/2/6 298/2/6
f 294/2/6 295/2/6 299/2/6
f 299/2/6 295/2/6 300/2/6
f 296/2/6 297/2/6 301/2/6
f 301/2/6 297/2/6 302/2/6
f 300/2/6 301/2/6 303/2/6
f 303/2/6 301/2/6 304/2/6
f 305/2/6 306/2/6 308/2/6
f 308/2/6 306/2/6 309/2/6
f 307/2/6 308/2/6 312/2/6
f 312/2/6 308/2/6 313/2/6
f 309/2/6 310/2/6 314/2/6
f 314/2/6 310/2/6 315/2/6
f 311/2/6 312/2/6 317/2/6
f 317/2/6 312/2/6 318/2/6
f 315/2/6 316/2/6 321/2/6
f 321/2/6 316/2/6 322/2/6
f 318/2/6 319/2/6 323/2/6
f 323/2/6 319/2/6 324/2/6
f 320/2/6 321/2/6 325/2/6
f 325/2/6 321/2/6 326/2/6
f 324/2/6 325/2/6 327/2/6
f 327/2/6 325/2/6 328/2/6
f 329/1/6 330/1/6 332/1/6
f 332/1/6 330/1/6 333/1/6
f 331/1/6 332/1/6 335/1/6
f 335/1/6 332/1/6 336/1/6
f 333/1/6 334/1/6 337/1/6
f 337/1/6 334/1/6 338/1/6
f 336/1/6 337/1/6 339/1/6
f 339/1/6 337/1/6 340/1/6
f 341/1/6 342/1/6 343/1/6
f 343/1/6 342/1/6 344/1/6
