# MagicaVoxel @ Ephtracy

# group
o 

# material
mtllib Sarcofago.mtl
usemtl palette

# normals
vn -1 0 0
vn 1 0 0
vn 0 0 1
vn 0 0 -1
vn 0 -1 0
vn 0 1 0

# texcoords
vt 0.0449219 0.5
vt 0.142578 0.5
vt 0.208984 0.5
vt 0.482422 0.5
vt 0.587891 0.5
vt 0.654297 0.5
vt 0.720703 0.5
vt 0.791016 0.5
vt 0.794922 0.5
vt 0.802734 0.5
vt 0.833984 0.5
vt 0.841797 0.5
vt 0.853516 0.5
vt 0.880859 0.5
vt 0.958984 0.5
vt 0.986328 0.5
vt 0.990234 0.5
vt 0.994141 0.5

# verts
v -1.9 0 0.3
v -1.9 0 -0.8
v -1.9 0.2 0.3
v -1.9 0.2 0.2
v -1.9 0.2 0.1
v -1.9 0.2 0
v -1.9 0.2 -0.1
v -1.9 0.2 -0.4
v -1.9 0.2 -0.5
v -1.9 0.2 -0.6
v -1.9 0.2 -0.7
v -1.9 0.2 -0.8
v -1.9 0.3 0.3
v -1.9 0.3 0.2
v -1.9 0.3 0.1
v -1.9 0.3 0
v -1.9 0.3 -0.1
v -1.9 0.3 -0.2
v -1.9 0.3 -0.3
v -1.9 0.3 -0.4
v -1.9 0.3 -0.5
v -1.9 0.3 -0.6
v -1.9 0.3 -0.7
v -1.9 0.3 -0.8
v -1.9 0.4 -0.1
v -1.9 0.4 -0.2
v -1.9 0.4 -0.3
v -1.9 0.4 -0.4
v -1.9 0.5 -0.2
v -1.9 0.5 -0.3
v -1.6 0 0.1
v -1.6 0 0
v -1.6 0 -0.5
v -1.6 0 -0.6
v -1.6 0.2 0.1
v -1.6 0.2 0
v -1.6 0.2 -0.5
v -1.6 0.2 -0.6
v -1.6 0.3 0.1
v -1.6 0.3 0
v -1.6 0.3 -0.5
v -1.6 0.3 -0.6
v -1.4 0 0.2
v -1.4 0 0.1
v -1.4 0 -0.6
v -1.4 0 -0.7
v -1.4 0.2 0.1
v -1.4 0.2 -0.6
v -1.4 0.3 0.2
v -1.4 0.3 0.1
v -1.4 0.3 0
v -1.4 0.3 -0.1
v -1.4 0.3 -0.4
v -1.4 0.3 -0.5
v -1.4 0.3 -0.6
v -1.4 0.3 -0.7
v -1.4 0.4 -0.1
v -1.4 0.4 -0.2
v -1.4 0.4 -0.3
v -1.4 0.4 -0.4
v -1.4 0.5 0.2
v -1.4 0.5 -0.2
v -1.4 0.5 -0.3
v -1.4 0.5 -0.7
v -1.3 0 0.3
v -1.3 0 0.2
v -1.3 0 -0.7
v -1.3 0 -0.8
v -1.3 0.3 0.3
v -1.3 0.3 0.2
v -1.3 0.3 -0.7
v -1.3 0.3 -0.8
v -1.3 0.5 0.3
v -1.3 0.5 0.2
v -1.3 0.5 -0.7
v -1.3 0.5 -0.8
v -1.2 0.5 -0.1
v -1.2 0.5 -0.2
v -1.2 0.5 -0.3
v -1.2 0.5 -0.4
v -1.2 0.6 -0.1
v -1.2 0.6 -0.4
v -1.1 0.5 0
v -1.1 0.5 -0.1
v -1.1 0.5 -0.4
v -1.1 0.5 -0.5
v -1.1 0.6 0
v -1.1 0.6 -0.1
v -1.1 0.6 -0.4
v -1.1 0.6 -0.5
v -0.8 0 0.4
v -0.8 0 0.3
v -0.8 0 -0.8
v -0.8 0 -0.9
v -0.8 0.3 0.4
v -0.8 0.3 0.3
v -0.8 0.3 -0.8
v -0.8 0.3 -0.9
v -0.8 0.4 0.4
v -0.8 0.4 0.3
v -0.8 0.4 -0.8
v -0.8 0.4 -0.9
v -0.7 0 0.5
v -0.7 0 0.4
v -0.7 0 -0.9
v -0.7 0 -1
v -0.7 0.2 0.5
v -0.7 0.2 0.4
v -0.7 0.2 -0.9
v -0.7 0.2 -1
v -0.7 0.3 0.5
v -0.7 0.3 0.4
v -0.7 0.3 -0.9
v -0.7 0.3 -1
v -0.1 0.4 -0.1
v -0.1 0.4 -0.2
v -0.1 0.4 -0.3
v -0.1 0.4 -0.4
v -0.1 0.5 -0.1
v -0.1 0.5 -0.2
v -0.1 0.5 -0.3
v -0.1 0.5 -0.4
v 0 0.4 0.3
v 0 0.4 0.2
v 0 0.4 -0.1
v 0 0.4 -0.4
v 0 0.4 -0.7
v 0 0.4 -0.8
v 0 0.5 0.3
v 0 0.5 -0.1
v 0 0.5 -0.4
v 0 0.5 -0.8
v 0.7 0 0.2
v 0.7 0 0.1
v 0.7 0 -0.6
v 0.7 0 -0.7
v 0.7 0.2 0.2
v 0.7 0.2 0.1
v 0.7 0.2 -0.6
v 0.7 0.2 -0.7
v 0.7 0.3 0.2
v 0.7 0.3 0.1
v 0.7 0.3 -0.6
v 0.7 0.3 -0.7
v 1 0 0.2
v 1 0 0.1
v 1 0 -0.6
v 1 0 -0.7
v 1 0.2 0.2
v 1 0.2 0.1
v 1 0.2 -0.6
v 1 0.2 -0.7
v 1 0.3 0.2
v 1 0.3 0.1
v 1 0.3 -0.6
v 1 0.3 -0.7
v 1.3 0 0.2
v 1.3 0 0.1
v 1.3 0 -0.6
v 1.3 0 -0.7
v 1.3 0.2 0.2
v 1.3 0.2 0.1
v 1.3 0.2 -0.6
v 1.3 0.2 -0.7
v 1.3 0.3 0.2
v 1.3 0.3 0.1
v 1.3 0.3 -0.6
v 1.3 0.3 -0.7
v 1.5 0 0.3
v 1.5 0 0.2
v 1.5 0 -0.7
v 1.5 0 -0.8
v 1.5 0.1 0.3
v 1.5 0.1 0.2
v 1.5 0.1 -0.7
v 1.5 0.1 -0.8
v 1.5 0.2 0.3
v 1.5 0.2 0.2
v 1.5 0.2 -0.7
v 1.5 0.2 -0.8
v 1.6 0 0.4
v 1.6 0 0.3
v 1.6 0 -0.8
v 1.6 0 -0.9
v 1.6 0.1 0.3
v 1.6 0.1 -0.8
v 1.6 0.2 0.4
v 1.6 0.2 0.3
v 1.6 0.2 0
v 1.6 0.2 -0.4
v 1.6 0.2 -0.5
v 1.6 0.2 -0.8
v 1.6 0.2 -0.9
v 1.6 0.3 0.4
v 1.6 0.3 0
v 1.6 0.3 -0.4
v 1.6 0.3 -0.5
v 1.6 0.3 -0.9
v -1.8 0 0.3
v -1.8 0 0.2
v -1.8 0 -0.7
v -1.8 0 -0.8
v -1.8 0.2 0.3
v -1.8 0.2 0.2
v -1.8 0.2 -0.7
v -1.8 0.2 -0.8
v -1.8 0.3 0.3
v -1.8 0.3 0.2
v -1.8 0.3 -0.7
v -1.8 0.3 -0.8
v -1.7 0 0.2
v -1.7 0 0
v -1.7 0 -0.5
v -1.7 0 -0.7
v -1.7 0.2 0.2
v -1.7 0.2 0.1
v -1.7 0.2 0
v -1.7 0.2 -0.5
v -1.7 0.2 -0.6
v -1.7 0.2 -0.7
v -1.7 0.3 0.2
v -1.7 0.3 0.1
v -1.7 0.3 0
v -1.7 0.3 -0.5
v -1.7 0.3 -0.6
v -1.7 0.3 -0.7
v -0.8 0.5 0
v -0.8 0.5 -0.1
v -0.8 0.5 -0.4
v -0.8 0.5 -0.5
v -0.8 0.6 0
v -0.8 0.6 -0.1
v -0.8 0.6 -0.4
v -0.8 0.6 -0.5
v -0.6 0.4 0.3
v -0.6 0.4 0.2
v -0.6 0.4 -0.7
v -0.6 0.4 -0.8
v -0.6 0.5 0.3
v -0.6 0.5 0.2
v -0.6 0.5 -0.7
v -0.6 0.5 -0.8
v -0.5 0.4 0.2
v -0.5 0.4 0.1
v -0.5 0.4 -0.6
v -0.5 0.4 -0.7
v -0.5 0.5 0.2
v -0.5 0.5 0.1
v -0.5 0.5 -0.1
v -0.5 0.5 -0.2
v -0.5 0.5 -0.3
v -0.5 0.5 -0.4
v -0.5 0.5 -0.6
v -0.5 0.5 -0.7
v -0.5 0.6 -0.1
v -0.5 0.6 -0.2
v -0.5 0.6 -0.3
v -0.5 0.6 -0.4
v -0.3 0.4 0.1
v -0.3 0.4 0
v -0.3 0.4 -0.5
v -0.3 0.4 -0.6
v -0.3 0.5 0.1
v -0.3 0.5 0
v -0.3 0.5 -0.5
v -0.3 0.5 -0.6
v -0.2 0.4 0
v -0.2 0.4 -0.2
v -0.2 0.4 -0.3
v -0.2 0.4 -0.5
v -0.2 0.5 0
v -0.2 0.5 -0.2
v -0.2 0.5 -0.3
v -0.2 0.5 -0.5
v -0.2 0.6 -0.2
v -0.2 0.6 -0.3
v 0.2 0.3 0.4
v 0.2 0.3 0.3
v 0.2 0.3 -0.8
v 0.2 0.3 -0.9
v 0.2 0.4 0.4
v 0.2 0.4 0.3
v 0.2 0.4 -0.1
v 0.2 0.4 -0.4
v 0.2 0.4 -0.8
v 0.2 0.4 -0.9
v 0.2 0.5 -0.1
v 0.2 0.5 -0.4
v 0.4 0 0.5
v 0.4 0 0.4
v 0.4 0 -0.9
v 0.4 0 -1
v 0.4 0.2 0.5
v 0.4 0.2 0.4
v 0.4 0.2 -0.9
v 0.4 0.2 -1
v 0.4 0.3 0.5
v 0.4 0.3 0.4
v 0.4 0.3 -0.9
v 0.4 0.3 -1
v 0.5 0 0.4
v 0.5 0 0.3
v 0.5 0 -0.8
v 0.5 0 -0.9
v 0.5 0.2 0.4
v 0.5 0.2 0.3
v 0.5 0.2 -0.8
v 0.5 0.2 -0.9
v 0.5 0.3 0.4
v 0.5 0.3 0.3
v 0.5 0.3 -0.8
v 0.5 0.3 -0.9
v 0.5 0.4 0.3
v 0.5 0.4 -0.1
v 0.5 0.4 -0.4
v 0.5 0.4 -0.8
v 0.5 0.5 0.3
v 0.5 0.5 -0.1
v 0.5 0.5 -0.4
v 0.5 0.5 -0.8
v 0.6 0 0.3
v 0.6 0 0.1
v 0.6 0 -0.6
v 0.6 0 -0.8
v 0.6 0.2 0.3
v 0.6 0.2 0.1
v 0.6 0.2 -0.6
v 0.6 0.2 -0.7
v 0.6 0.2 -0.8
v 0.6 0.3 0.1
v 0.6 0.3 0
v 0.6 0.3 -0.5
v 0.6 0.3 -0.6
v 0.6 0.3 -0.7
v 0.6 0.4 0.3
v 0.6 0.4 0
v 0.6 0.4 -0.5
v 0.6 0.4 -0.8
v 0.9 0 0.2
v 0.9 0 0.1
v 0.9 0 -0.6
v 0.9 0 -0.7
v 0.9 0.2 0.2
v 0.9 0.2 0.1
v 0.9 0.2 -0.6
v 0.9 0.2 -0.7
v 0.9 0.3 0.2
v 0.9 0.3 0.1
v 0.9 0.3 -0.6
v 0.9 0.3 -0.7
v 1.2 0 0.2
v 1.2 0 0.1
v 1.2 0 -0.6
v 1.2 0 -0.7
v 1.2 0.2 0.2
v 1.2 0.2 0.1
v 1.2 0.2 -0.6
v 1.2 0.2 -0.7
v 1.2 0.3 0.2
v 1.2 0.3 0.1
v 1.2 0.3 -0.6
v 1.2 0.3 -0.7
v 1.5 0.2 0.2
v 1.5 0.2 0
v 1.5 0.2 -0.4
v 1.5 0.2 -0.5
v 1.5 0.2 -0.7
v 1.5 0.3 0.2
v 1.5 0.3 0
v 1.5 0.3 -0.4
v 1.5 0.3 -0.5
v 1.5 0.3 -0.7
v 1.9 0 0.4
v 1.9 0 0.3
v 1.9 0 -0.8
v 1.9 0 -0.9
v 1.9 0.1 0.3
v 1.9 0.1 -0.8
v 1.9 0.2 0.4
v 1.9 0.2 0.3
v 1.9 0.2 0
v 1.9 0.2 -0.5
v 1.9 0.2 -0.8
v 1.9 0.2 -0.9
v 1.9 0.3 0.4
v 1.9 0.3 0
v 1.9 0.3 -0.2
v 1.9 0.3 -0.3
v 1.9 0.3 -0.5
v 1.9 0.3 -0.9
v 1.9 0.4 0
v 1.9 0.4 -0.2
v 1.9 0.4 -0.3
v 1.9 0.4 -0.5
v 2 0 0.3
v 2 0 -0.8
v 2 0.1 0.3
v 2 0.1 0
v 2 0.1 -0.5
v 2 0.1 -0.8
v 2 0.2 0.3
v 2 0.2 0
v 2 0.2 -0.5
v 2 0.2 -0.8
v 2 0.3 0
v 2 0.3 -0.5
v -0.7 0 0.5
v -0.7 0.2 0.5
v -0.7 0.3 0.5
v 0.4 0 0.5
v 0.4 0.2 0.5
v 0.4 0.3 0.5
v -0.8 0 0.4
v -0.8 0.3 0.4
v -0.8 0.4 0.4
v -0.7 0 0.4
v -0.7 0.2 0.4
v -0.7 0.3 0.4
v -0.5 0.3 0.4
v -0.5 0.4 0.4
v -0.2 0.3 0.4
v -0.2 0.4 0.4
v -0.1 0.3 0.4
v -0.1 0.4 0.4
v 0.2 0.3 0.4
v 0.2 0.4 0.4
v 0.4 0 0.4
v 0.4 0.2 0.4
v 0.4 0.3 0.4
v 0.5 0 0.4
v 0.5 0.2 0.4
v 0.5 0.3 0.4
v 1.6 0 0.4
v 1.6 0.2 0.4
v 1.6 0.3 0.4
v 1.8 0.2 0.4
v 1.8 0.3 0.4
v 1.9 0 0.4
v 1.9 0.2 0.4
v 1.9 0.3 0.4
v -1.9 0 0.3
v -1.9 0.2 0.3
v -1.9 0.3 0.3
v -1.8 0 0.3
v -1.8 0.2 0.3
v -1.8 0.3 0.3
v -1.3 0 0.3
v -1.3 0.3 0.3
v -1.3 0.5 0.3
v -0.8 0 0.3
v -0.8 0.3 0.3
v -0.8 0.4 0.3
v -0.6 0.4 0.3
v -0.6 0.5 0.3
v 0 0.4 0.3
v 0 0.5 0.3
v 0.2 0.3 0.3
v 0.2 0.4 0.3
v 0.5 0 0.3
v 0.5 0.2 0.3
v 0.5 0.3 0.3
v 0.5 0.4 0.3
v 0.5 0.5 0.3
v 0.6 0 0.3
v 0.6 0.2 0.3
v 0.6 0.4 0.3
v 1.5 0 0.3
v 1.5 0.1 0.3
v 1.5 0.2 0.3
v 1.6 0 0.3
v 1.6 0.1 0.3
v 1.6 0.2 0.3
v 1.9 0 0.3
v 1.9 0.1 0.3
v 1.9 0.2 0.3
v 2 0 0.3
v 2 0.1 0.3
v 2 0.2 0.3
v -1.8 0 0.2
v -1.8 0.2 0.2
v -1.8 0.3 0.2
v -1.7 0 0.2
v -1.7 0.2 0.2
v -1.7 0.3 0.2
v -1.4 0 0.2
v -1.4 0.3 0.2
v -1.4 0.5 0.2
v -1.3 0 0.2
v -1.3 0.3 0.2
v -1.3 0.5 0.2
v -0.6 0.4 0.2
v -0.6 0.5 0.2
v -0.5 0.4 0.2
v -0.5 0.5 0.2
v 0.7 0 0.2
v 0.7 0.2 0.2
v 0.7 0.3 0.2
v 0.9 0 0.2
v 0.9 0.2 0.2
v 0.9 0.3 0.2
v 1 0 0.2
v 1 0.2 0.2
v 1 0.3 0.2
v 1.2 0 0.2
v 1.2 0.2 0.2
v 1.2 0.3 0.2
v 1.3 0 0.2
v 1.3 0.2 0.2
v 1.3 0.3 0.2
v 1.5 0 0.2
v 1.5 0.1 0.2
v 1.5 0.2 0.2
v 1.5 0.3 0.2
v -1.6 0 0.1
v -1.6 0.2 0.1
v -1.6 0.3 0.1
v -1.5 0.2 0.1
v -1.5 0.3 0.1
v -1.4 0 0.1
v -1.4 0.2 0.1
v -1.4 0.3 0.1
v -0.5 0.4 0.1
v -0.5 0.5 0.1
v -0.3 0.4 0.1
v -0.3 0.5 0.1
v 0.6 0 0.1
v 0.6 0.2 0.1
v 0.6 0.3 0.1
v 0.7 0 0.1
v 0.7 0.2 0.1
v 0.7 0.3 0.1
v 0.9 0 0.1
v 0.9 0.2 0.1
v 0.9 0.3 0.1
v 1 0 0.1
v 1 0.2 0.1
v 1 0.3 0.1
v 1.2 0 0.1
v 1.2 0.2 0.1
v 1.2 0.3 0.1
v 1.3 0 0.1
v 1.3 0.2 0.1
v 1.3 0.3 0.1
v -1.7 0 0
v -1.7 0.2 0
v -1.7 0.3 0
v -1.6 0 0
v -1.6 0.2 0
v -1.6 0.3 0
v -1.1 0.5 0
v -1.1 0.6 0
v -1 0.5 0
v -1 0.6 0
v -0.9 0.5 0
v -0.8 0.5 0
v -0.8 0.6 0
v -0.3 0.4 0
v -0.3 0.5 0
v -0.2 0.4 0
v -0.2 0.5 0
v 0.6 0.3 0
v 0.6 0.4 0
v 0.7 0.3 0
v 0.8 0.3 0
v 0.8 0.4 0
v 0.9 0.3 0
v 0.9 0.4 0
v 1 0.3 0
v 1.2 0.3 0
v 1.3 0.3 0
v 1.5 0.2 0
v 1.5 0.3 0
v 1.6 0.2 0
v 1.6 0.3 0
v 1.7 0.3 0
v 1.7 0.4 0
v 1.8 0.3 0
v 1.8 0.4 0
v 1.9 0.2 0
v 1.9 0.3 0
v 1.9 0.4 0
v 2 0.2 0
v 2 0.3 0
v -1.9 0.3 -0.1
v -1.9 0.4 -0.1
v -1.6 0.3 -0.1
v -1.6 0.4 -0.1
v -1.5 0.3 -0.1
v -1.4 0.3 -0.1
v -1.4 0.4 -0.1
v -1.2 0.5 -0.1
v -1.2 0.6 -0.1
v -1.1 0.5 -0.1
v -1.1 0.6 -0.1
v -0.8 0.5 -0.1
v -0.8 0.6 -0.1
v -0.7 0.5 -0.1
v -0.7 0.6 -0.1
v -0.6 0.5 -0.1
v -0.6 0.6 -0.1
v -0.5 0.5 -0.1
v -0.5 0.6 -0.1
v -0.1 0.4 -0.1
v -0.1 0.5 -0.1
v 0 0.4 -0.1
v 0 0.5 -0.1
v -1.9 0.4 -0.2
v -1.9 0.5 -0.2
v -1.8 0.4 -0.2
v -1.8 0.5 -0.2
v -1.6 0.4 -0.2
v -1.4 0.4 -0.2
v -1.4 0.5 -0.2
v -0.5 0.5 -0.2
v -0.5 0.6 -0.2
v -0.4 0.5 -0.2
v -0.4 0.6 -0.2
v -0.3 0.5 -0.2
v -0.3 0.6 -0.2
v -0.2 0.4 -0.2
v -0.2 0.5 -0.2
v -0.2 0.6 -0.2
v -0.1 0.4 -0.2
v -0.1 0.5 -0.2
v 0.2 0.4 -0.4
v 0.2 0.5 -0.4
v 0.3 0.4 -0.4
v 0.3 0.5 -0.4
v 0.4 0.4 -0.4
v 0.4 0.5 -0.4
v 0.5 0.4 -0.4
v 0.5 0.5 -0.4
v 0.2 0.4 -0.1
v 0.2 0.5 -0.1
v 0.3 0.4 -0.1
v 0.3 0.5 -0.1
v 0.4 0.4 -0.1
v 0.4 0.5 -0.1
v 0.5 0.4 -0.1
v 0.5 0.5 -0.1
v -1.9 0.4 -0.3
v -1.9 0.5 -0.3
v -1.8 0.4 -0.3
v -1.8 0.5 -0.3
v -1.6 0.4 -0.3
v -1.4 0.4 -0.3
v -1.4 0.5 -0.3
v -0.5 0.5 -0.3
v -0.5 0.6 -0.3
v -0.4 0.5 -0.3
v -0.4 0.6 -0.3
v -0.3 0.5 -0.3
v -0.3 0.6 -0.3
v -0.2 0.4 -0.3
v -0.2 0.5 -0.3
v -0.2 0.6 -0.3
v -0.1 0.4 -0.3
v -0.1 0.5 -0.3
v -1.9 0.3 -0.4
v -1.9 0.4 -0.4
v -1.6 0.3 -0.4
v -1.6 0.4 -0.4
v -1.5 0.3 -0.4
v -1.4 0.3 -0.4
v -1.4 0.4 -0.4
v -1.2 0.5 -0.4
v -1.2 0.6 -0.4
v -1.1 0.5 -0.4
v -1.1 0.6 -0.4
v -0.8 0.5 -0.4
v -0.8 0.6 -0.4
v -0.7 0.5 -0.4
v -0.7 0.6 -0.4
v -0.6 0.5 -0.4
v -0.6 0.6 -0.4
v -0.5 0.5 -0.4
v -0.5 0.6 -0.4
v -0.1 0.4 -0.4
v -0.1 0.5 -0.4
v 0 0.4 -0.4
v 0 0.5 -0.4
v 1.5 0.2 -0.4
v 1.5 0.3 -0.4
v 1.6 0.2 -0.4
v 1.6 0.3 -0.4
v -1.7 0 -0.5
v -1.7 0.2 -0.5
v -1.7 0.3 -0.5
v -1.6 0 -0.5
v -1.6 0.2 -0.5
v -1.6 0.3 -0.5
v -1.1 0.5 -0.5
v -1.1 0.6 -0.5
v -1 0.5 -0.5
v -1 0.6 -0.5
v -0.9 0.5 -0.5
v -0.8 0.5 -0.5
v -0.8 0.6 -0.5
v -0.3 0.4 -0.5
v -0.3 0.5 -0.5
v -0.2 0.4 -0.5
v -0.2 0.5 -0.5
v 0.6 0.3 -0.5
v 0.6 0.4 -0.5
v 0.7 0.3 -0.5
v 0.8 0.3 -0.5
v 0.8 0.4 -0.5
v 0.9 0.3 -0.5
v 0.9 0.4 -0.5
v 1 0.3 -0.5
v 1.2 0.3 -0.5
v 1.2 0.4 -0.5
v 1.3 0.3 -0.5
v 1.4 0.3 -0.5
v 1.4 0.4 -0.5
v 1.5 0.3 -0.5
v 1.6 0.3 -0.5
v 1.7 0.3 -0.5
v 1.7 0.4 -0.5
v 1.8 0.3 -0.5
v 1.8 0.4 -0.5
v 1.9 0.2 -0.5
v 1.9 0.3 -0.5
v 1.9 0.4 -0.5
v 2 0.2 -0.5
v 2 0.3 -0.5
v -1.6 0 -0.6
v -1.6 0.2 -0.6
v -1.6 0.3 -0.6
v -1.5 0.2 -0.6
v -1.5 0.3 -0.6
v -1.4 0 -0.6
v -1.4 0.2 -0.6
v -1.4 0.3 -0.6
v -0.5 0.4 -0.6
v -0.5 0.5 -0.6
v -0.3 0.4 -0.6
v -0.3 0.5 -0.6
v 0.6 0 -0.6
v 0.6 0.2 -0.6
v 0.6 0.3 -0.6
v 0.7 0 -0.6
v 0.7 0.2 -0.6
v 0.7 0.3 -0.6
v 0.9 0 -0.6
v 0.9 0.2 -0.6
v 0.9 0.3 -0.6
v 1 0 -0.6
v 1 0.2 -0.6
v 1 0.3 -0.6
v 1.2 0 -0.6
v 1.2 0.2 -0.6
v 1.2 0.3 -0.6
v 1.3 0 -0.6
v 1.3 0.2 -0.6
v 1.3 0.3 -0.6
v -1.8 0 -0.7
v -1.8 0.2 -0.7
v -1.8 0.3 -0.7
v -1.7 0 -0.7
v -1.7 0.2 -0.7
v -1.7 0.3 -0.7
v -1.4 0 -0.7
v -1.4 0.3 -0.7
v -1.4 0.5 -0.7
v -1.3 0 -0.7
v -1.3 0.3 -0.7
v -1.3 0.5 -0.7
v -0.6 0.4 -0.7
v -0.6 0.5 -0.7
v -0.5 0.4 -0.7
v -0.5 0.5 -0.7
v 0.7 0 -0.7
v 0.7 0.2 -0.7
v 0.7 0.3 -0.7
v 0.9 0 -0.7
v 0.9 0.2 -0.7
v 0.9 0.3 -0.7
v 1 0 -0.7
v 1 0.2 -0.7
v 1 0.3 -0.7
v 1.2 0 -0.7
v 1.2 0.2 -0.7
v 1.2 0.3 -0.7
v 1.3 0 -0.7
v 1.3 0.2 -0.7
v 1.3 0.3 -0.7
v 1.5 0 -0.7
v 1.5 0.1 -0.7
v 1.5 0.2 -0.7
v 1.5 0.3 -0.7
v -1.9 0 -0.8
v -1.9 0.2 -0.8
v -1.9 0.3 -0.8
v -1.8 0 -0.8
v -1.8 0.2 -0.8
v -1.8 0.3 -0.8
v -1.3 0 -0.8
v -1.3 0.3 -0.8
v -1.3 0.5 -0.8
v -0.8 0 -0.8
v -0.8 0.3 -0.8
v -0.8 0.4 -0.8
v -0.6 0.4 -0.8
v -0.6 0.5 -0.8
v 0 0.4 -0.8
v 0 0.5 -0.8
v 0.2 0.3 -0.8
v 0.2 0.4 -0.8
v 0.5 0 -0.8
v 0.5 0.2 -0.8
v 0.5 0.3 -0.8
v 0.5 0.4 -0.8
v 0.5 0.5 -0.8
v 0.6 0 -0.8
v 0.6 0.2 -0.8
v 0.6 0.4 -0.8
v 1.5 0 -0.8
v 1.5 0.1 -0.8
v 1.5 0.2 -0.8
v 1.6 0 -0.8
v 1.6 0.1 -0.8
v 1.6 0.2 -0.8
v 1.9 0 -0.8
v 1.9 0.1 -0.8
v 1.9 0.2 -0.8
v 2 0 -0.8
v 2 0.1 -0.8
v 2 0.2 -0.8
v -0.8 0 -0.9
v -0.8 0.3 -0.9
v -0.8 0.4 -0.9
v -0.7 0 -0.9
v -0.7 0.2 -0.9
v -0.7 0.3 -0.9
v -0.5 0.3 -0.9
v -0.5 0.4 -0.9
v -0.2 0.3 -0.9
v -0.2 0.4 -0.9
v -0.1 0.3 -0.9
v -0.1 0.4 -0.9
v 0.2 0.3 -0.9
v 0.2 0.4 -0.9
v 0.4 0 -0.9
v 0.4 0.2 -0.9
v 0.4 0.3 -0.9
v 0.5 0 -0.9
v 0.5 0.2 -0.9
v 0.5 0.3 -0.9
v 1.6 0 -0.9
v 1.6 0.2 -0.9
v 1.6 0.3 -0.9
v 1.8 0.2 -0.9
v 1.8 0.3 -0.9
v 1.9 0 -0.9
v 1.9 0.2 -0.9
v 1.9 0.3 -0.9
v -0.7 0 -1
v -0.7 0.2 -1
v -0.7 0.3 -1
v 0.4 0 -1
v 0.4 0.2 -1
v 0.4 0.3 -1
v -0.7 0 0.5
v 0.4 0 0.5
v -0.8 0 0.4
v -0.7 0 0.4
v 0.4 0 0.4
v 0.5 0 0.4
v 1.6 0 0.4
v 1.9 0 0.4
v -1.9 0 0.3
v -1.8 0 0.3
v -1.3 0 0.3
v -0.8 0 0.3
v 0.5 0 0.3
v 0.6 0 0.3
v 1.5 0 0.3
v 1.6 0 0.3
v 1.9 0 0.3
v 2 0 0.3
v -1.8 0 0.2
v -1.7 0 0.2
v -1.4 0 0.2
v -1.3 0 0.2
v 0.7 0 0.2
v 0.9 0 0.2
v 1 0 0.2
v 1.2 0 0.2
v 1.3 0 0.2
v 1.5 0 0.2
v -1.6 0 0.1
v -1.4 0 0.1
v 0.6 0 0.1
v 0.7 0 0.1
v 0.9 0 0.1
v 1 0 0.1
v 1.2 0 0.1
v 1.3 0 0.1
v -1.7 0 0
v -1.6 0 0
v -1.7 0 -0.5
v -1.6 0 -0.5
v -1.6 0 -0.6
v -1.4 0 -0.6
v 0.6 0 -0.6
v 0.7 0 -0.6
v 0.9 0 -0.6
v 1 0 -0.6
v 1.2 0 -0.6
v 1.3 0 -0.6
v -1.8 0 -0.7
v -1.7 0 -0.7
v -1.4 0 -0.7
v -1.3 0 -0.7
v 0.7 0 -0.7
v 0.9 0 -0.7
v 1 0 -0.7
v 1.2 0 -0.7
v 1.3 0 -0.7
v 1.5 0 -0.7
v -1.9 0 -0.8
v -1.8 0 -0.8
v -1.3 0 -0.8
v -0.8 0 -0.8
v 0.5 0 -0.8
v 0.6 0 -0.8
v 1.5 0 -0.8
v 1.6 0 -0.8
v 1.9 0 -0.8
v 2 0 -0.8
v -0.8 0 -0.9
v -0.7 0 -0.9
v 0.4 0 -0.9
v 0.5 0 -0.9
v 1.6 0 -0.9
v 1.9 0 -0.9
v -0.7 0 -1
v 0.4 0 -1
v 1.5 0.3 -0.4
v 1.6 0.3 -0.4
v 1.5 0.3 -0.5
v 1.6 0.3 -0.5
v 1.5 0.2 0.3
v 1.6 0.2 0.3
v 1.9 0.2 0.3
v 2 0.2 0.3
v 1.5 0.2 0.2
v 1.5 0.2 0
v 1.6 0.2 0
v 1.9 0.2 0
v 2 0.2 0
v 1.5 0.2 -0.4
v 1.6 0.2 -0.4
v 1.5 0.2 -0.5
v 1.6 0.2 -0.5
v 1.9 0.2 -0.5
v 2 0.2 -0.5
v 1.5 0.2 -0.7
v 1.5 0.2 -0.8
v 1.6 0.2 -0.8
v 1.9 0.2 -0.8
v 2 0.2 -0.8
v -0.7 0.3 0.5
v 0.4 0.3 0.5
v -0.7 0.3 0.4
v -0.5 0.3 0.4
v -0.2 0.3 0.4
v -0.1 0.3 0.4
v 0.2 0.3 0.4
v 0.4 0.3 0.4
v 0.5 0.3 0.4
v 1.6 0.3 0.4
v 1.8 0.3 0.4
v 1.9 0.3 0.4
v -1.9 0.3 0.3
v -1.8 0.3 0.3
v 0.2 0.3 0.3
v 0.5 0.3 0.3
v -1.9 0.3 0.2
v -1.8 0.3 0.2
v -1.7 0.3 0.2
v 0.7 0.3 0.2
v 0.9 0.3 0.2
v 1 0.3 0.2
v 1.2 0.3 0.2
v 1.3 0.3 0.2
v 1.5 0.3 0.2
v -1.9 0.3 0.1
v -1.7 0.3 0.1
v -1.6 0.3 0.1
v -1.5 0.3 0.1
v -1.4 0.3 0.1
v 0.6 0.3 0.1
v 0.7 0.3 0.1
v 0.9 0.3 0.1
v 1 0.3 0.1
v 1.2 0.3 0.1
v 1.3 0.3 0.1
v -1.9 0.3 0
v -1.7 0.3 0
v -1.6 0.3 0
v -1.5 0.3 0
v -1.4 0.3 0
v 0.6 0.3 0
v 0.7 0.3 0
v 0.8 0.3 0
v 0.9 0.3 0
v 1 0.3 0
v 1.2 0.3 0
v 1.3 0.3 0
v 1.5 0.3 0
v 1.6 0.3 0
v 1.7 0.3 0
v 1.8 0.3 0
v 1.9 0.3 0
v 2 0.3 0
v -1.9 0.3 -0.1
v -1.6 0.3 -0.1
v -1.5 0.3 -0.1
v -1.4 0.3 -0.1
v 1.9 0.3 -0.2
v 1.9 0.3 -0.3
v -1.9 0.3 -0.4
v -1.6 0.3 -0.4
v -1.5 0.3 -0.4
v -1.4 0.3 -0.4
v -1.9 0.3 -0.5
v -1.7 0.3 -0.5
v -1.6 0.3 -0.5
v -1.5 0.3 -0.5
v -1.4 0.3 -0.5
v 0.6 0.3 -0.5
v 0.7 0.3 -0.5
v 0.8 0.3 -0.5
v 0.9 0.3 -0.5
v 1 0.3 -0.5
v 1.2 0.3 -0.5
v 1.3 0.3 -0.5
v 1.4 0.3 -0.5
v 1.5 0.3 -0.5
v 1.6 0.3 -0.5
v 1.7 0.3 -0.5
v 1.8 0.3 -0.5
v 1.9 0.3 -0.5
v 2 0.3 -0.5
v -1.9 0.3 -0.6
v -1.7 0.3 -0.6
v -1.6 0.3 -0.6
v -1.5 0.3 -0.6
v -1.4 0.3 -0.6
v 0.6 0.3 -0.6
v 0.7 0.3 -0.6
v 0.9 0.3 -0.6
v 1 0.3 -0.6
v 1.2 0.3 -0.6
v 1.3 0.3 -0.6
v -1.9 0.3 -0.7
v -1.8 0.3 -0.7
v -1.7 0.3 -0.7
v 0.7 0.3 -0.7
v 0.9 0.3 -0.7
v 1 0.3 -0.7
v 1.2 0.3 -0.7
v 1.3 0.3 -0.7
v 1.5 0.3 -0.7
v -1.9 0.3 -0.8
v -1.8 0.3 -0.8
v 0.2 0.3 -0.8
v 0.5 0.3 -0.8
v -0.7 0.3 -0.9
v -0.5 0.3 -0.9
v -0.2 0.3 -0.9
v -0.1 0.3 -0.9
v 0.2 0.3 -0.9
v 0.4 0.3 -0.9
v 0.5 0.3 -0.9
v 1.6 0.3 -0.9
v 1.8 0.3 -0.9
v 1.9 0.3 -0.9
v -0.7 0.3 -1
v 0.4 0.3 -1
v -0.8 0.4 0.4
v -0.5 0.4 0.4
v -0.2 0.4 0.4
v -0.1 0.4 0.4
v 0.2 0.4 0.4
v -0.8 0.4 0.3
v -0.6 0.4 0.3
v -0.5 0.4 0.3
v -0.2 0.4 0.3
v -0.1 0.4 0.3
v 0 0.4 0.3
v 0.2 0.4 0.3
v 0.5 0.4 0.3
v 0.6 0.4 0.3
v -0.6 0.4 0.2
v -0.5 0.4 0.2
v -0.1 0.4 0.2
v 0 0.4 0.2
v -0.5 0.4 0.1
v -0.3 0.4 0.1
v -0.3 0.4 0
v -0.2 0.4 0
v 0.6 0.4 0
v 0.8 0.4 0
v 0.9 0.4 0
v 1.7 0.4 0
v 1.8 0.4 0
v 1.9 0.4 0
v -1.9 0.4 -0.1
v -1.6 0.4 -0.1
v -1.4 0.4 -0.1
v -0.1 0.4 -0.1
v 0 0.4 -0.1
v 0.2 0.4 -0.1
v 0.3 0.4 -0.1
v 0.4 0.4 -0.1
v 0.5 0.4 -0.1
v 0.6 0.4 -0.1
v 0.7 0.4 -0.1
v 0.8 0.4 -0.1
v 1 0.4 -0.1
v 1.3 0.4 -0.1
v -1.9 0.4 -0.2
v -1.8 0.4 -0.2
v -1.6 0.4 -0.2
v -1.4 0.4 -0.2
v -0.2 0.4 -0.2
v -0.1 0.4 -0.2
v 0.6 0.4 -0.2
v 0.7 0.4 -0.2
v 1.1 0.4 -0.2
v 1.2 0.4 -0.2
v 1.3 0.4 -0.2
v 1.5 0.4 -0.2
v 1.6 0.4 -0.2
v 1.7 0.4 -0.2
v 1.8 0.4 -0.2
v 1.9 0.4 -0.2
v -1.9 0.4 -0.3
v -1.8 0.4 -0.3
v -1.6 0.4 -0.3
v -1.4 0.4 -0.3
v -0.2 0.4 -0.3
v -0.1 0.4 -0.3
v 0.6 0.4 -0.3
v 0.7 0.4 -0.3
v 1 0.4 -0.3
v 1.1 0.4 -0.3
v 1.4 0.4 -0.3
v 1.5 0.4 -0.3
v 1.6 0.4 -0.3
v 1.7 0.4 -0.3
v 1.8 0.4 -0.3
v 1.9 0.4 -0.3
v -1.9 0.4 -0.4
v -1.6 0.4 -0.4
v -1.4 0.4 -0.4
v -0.1 0.4 -0.4
v 0 0.4 -0.4
v 0.2 0.4 -0.4
v 0.3 0.4 -0.4
v 0.4 0.4 -0.4
v 0.5 0.4 -0.4
v 0.6 0.4 -0.4
v 0.7 0.4 -0.4
v 0.8 0.4 -0.4
v -0.3 0.4 -0.5
v -0.2 0.4 -0.5
v 0.6 0.4 -0.5
v 0.8 0.4 -0.5
v 0.9 0.4 -0.5
v 1.2 0.4 -0.5
v 1.4 0.4 -0.5
v 1.7 0.4 -0.5
v 1.8 0.4 -0.5
v 1.9 0.4 -0.5
v -0.5 0.4 -0.6
v -0.3 0.4 -0.6
v -0.6 0.4 -0.7
v -0.5 0.4 -0.7
v -0.1 0.4 -0.7
v 0 0.4 -0.7
v -0.8 0.4 -0.8
v -0.6 0.4 -0.8
v -0.5 0.4 -0.8
v -0.2 0.4 -0.8
v -0.1 0.4 -0.8
v 0 0.4 -0.8
v 0.2 0.4 -0.8
v 0.5 0.4 -0.8
v 0.6 0.4 -0.8
v -0.8 0.4 -0.9
v -0.5 0.4 -0.9
v -0.2 0.4 -0.9
v -0.1 0.4 -0.9
v 0.2 0.4 -0.9
v -1.3 0.5 0.3
v -0.6 0.5 0.3
v 0 0.5 0.3
v 0.5 0.5 0.3
v -1.4 0.5 0.2
v -1.3 0.5 0.2
v -1.1 0.5 0.2
v -1 0.5 0.2
v -0.9 0.5 0.2
v -0.8 0.5 0.2
v -0.6 0.5 0.2
v -0.5 0.5 0.2
v -1.3 0.5 0.1
v -1.2 0.5 0.1
v -0.7 0.5 0.1
v -0.6 0.5 0.1
v -0.5 0.5 0.1
v -0.3 0.5 0.1
v 0.1 0.5 0.1
v 0.2 0.5 0.1
v 0.3 0.5 0.1
v 0.4 0.5 0.1
v -1.3 0.5 0
v -1.2 0.5 0
v -1.1 0.5 0
v -1 0.5 0
v -0.9 0.5 0
v -0.8 0.5 0
v -0.7 0.5 0
v -0.6 0.5 0
v -0.5 0.5 0
v -0.4 0.5 0
v -0.3 0.5 0
v -0.2 0.5 0
v -1.2 0.5 -0.1
v -1.1 0.5 -0.1
v -0.8 0.5 -0.1
v -0.7 0.5 -0.1
v -0.6 0.5 -0.1
v -0.5 0.5 -0.1
v -0.4 0.5 -0.1
v -0.3 0.5 -0.1
v -0.1 0.5 -0.1
v 0 0.5 -0.1
v 0.1 0.5 -0.1
v 0.2 0.5 -0.1
v 0.3 0.5 -0.1
v 0.4 0.5 -0.1
v 0.5 0.5 -0.1
v -1.9 0.5 -0.2
v -1.8 0.5 -0.2
v -1.4 0.5 -0.2
v -1.3 0.5 -0.2
v -1.2 0.5 -0.2
v -0.5 0.5 -0.2
v -0.4 0.5 -0.2
v -0.3 0.5 -0.2
v -0.2 0.5 -0.2
v -0.1 0.5 -0.2
v 0 0.5 -0.2
v 0.1 0.5 -0.2
v -1.9 0.5 -0.3
v -1.8 0.5 -0.3
v -1.4 0.5 -0.3
v -1.3 0.5 -0.3
v -1.2 0.5 -0.3
v -0.5 0.5 -0.3
v -0.4 0.5 -0.3
v -0.3 0.5 -0.3
v -0.2 0.5 -0.3
v -0.1 0.5 -0.3
v 0 0.5 -0.3
v 0.1 0.5 -0.3
v -1.2 0.5 -0.4
v -1.1 0.5 -0.4
v -0.8 0.5 -0.4
v -0.7 0.5 -0.4
v -0.6 0.5 -0.4
v -0.5 0.5 -0.4
v -0.4 0.5 -0.4
v -0.3 0.5 -0.4
v -0.1 0.5 -0.4
v 0 0.5 -0.4
v 0.1 0.5 -0.4
v 0.2 0.5 -0.4
v 0.3 0.5 -0.4
v 0.4 0.5 -0.4
v 0.5 0.5 -0.4
v -1.3 0.5 -0.5
v -1.2 0.5 -0.5
v -1.1 0.5 -0.5
v -1 0.5 -0.5
v -0.9 0.5 -0.5
v -0.8 0.5 -0.5
v -0.7 0.5 -0.5
v -0.6 0.5 -0.5
v -0.5 0.5 -0.5
v -0.4 0.5 -0.5
v -0.3 0.5 -0.5
v -0.2 0.5 -0.5
v -1.3 0.5 -0.6
v -1.2 0.5 -0.6
v -0.7 0.5 -0.6
v -0.6 0.5 -0.6
v -0.5 0.5 -0.6
v -0.3 0.5 -0.6
v 0.1 0.5 -0.6
v 0.2 0.5 -0.6
v 0.3 0.5 -0.6
v 0.4 0.5 -0.6
v -1.4 0.5 -0.7
v -1.3 0.5 -0.7
v -1.1 0.5 -0.7
v -1 0.5 -0.7
v -0.9 0.5 -0.7
v -0.8 0.5 -0.7
v -0.6 0.5 -0.7
v -0.5 0.5 -0.7
v -1.3 0.5 -0.8
v -0.6 0.5 -0.8
v 0 0.5 -0.8
v 0.5 0.5 -0.8
v -1.1 0.6 0
v -1 0.6 0
v -0.8 0.6 0
v -1.2 0.6 -0.1
v -1.1 0.6 -0.1
v -0.8 0.6 -0.1
v -0.7 0.6 -0.1
v -0.6 0.6 -0.1
v -0.5 0.6 -0.1
v -1 0.6 -0.2
v -0.8 0.6 -0.2
v -0.7 0.6 -0.2
v -0.6 0.6 -0.2
v -0.5 0.6 -0.2
v -0.4 0.6 -0.2
v -0.3 0.6 -0.2
v -0.2 0.6 -0.2
v -1 0.6 -0.3
v -0.8 0.6 -0.3
v -0.7 0.6 -0.3
v -0.6 0.6 -0.3
v -0.5 0.6 -0.3
v -0.4 0.6 -0.3
v -0.3 0.6 -0.3
v -0.2 0.6 -0.3
v -1.2 0.6 -0.4
v -1.1 0.6 -0.4
v -0.8 0.6 -0.4
v -0.7 0.6 -0.4
v -0.6 0.6 -0.4
v -0.5 0.6 -0.4
v -1.1 0.6 -0.5
v -1 0.6 -0.5
v -0.8 0.6 -0.5

# faces
f 3/4/1 2/4/1 1/4/1
f 4/4/1 2/4/1 3/4/1
f 5/4/1 2/4/1 4/4/1
f 6/4/1 2/4/1 5/4/1
f 7/4/1 2/4/1 6/4/1
f 8/4/1 2/4/1 7/4/1
f 9/4/1 2/4/1 8/4/1
f 10/4/1 2/4/1 9/4/1
f 11/4/1 2/4/1 10/4/1
f 12/4/1 2/4/1 11/4/1
f 13/14/1 4/14/1 3/14/1
f 14/1/1 5/1/1 4/1/1
f 14/14/1 4/14/1 13/14/1
f 15/3/1 6/3/1 5/3/1
f 15/1/1 5/1/1 14/1/1
f 16/1/1 7/1/1 6/1/1
f 16/3/1 6/3/1 15/3/1
f 17/4/1 8/4/1 7/4/1
f 17/1/1 7/1/1 16/1/1
f 18/4/1 8/4/1 17/4/1
f 19/4/1 8/4/1 18/4/1
f 20/1/1 9/1/1 8/1/1
f 20/4/1 8/4/1 19/4/1
f 21/3/1 10/3/1 9/3/1
f 21/1/1 9/1/1 20/1/1
f 22/1/1 11/1/1 10/1/1
f 22/3/1 10/3/1 21/3/1
f 23/14/1 12/14/1 11/14/1
f 23/1/1 11/1/1 22/1/1
f 24/14/1 12/14/1 23/14/1
f 25/17/1 18/17/1 17/17/1
f 26/4/1 19/4/1 18/4/1
f 26/17/1 18/17/1 25/17/1
f 27/17/1 20/17/1 19/17/1
f 27/4/1 19/4/1 26/4/1
f 28/17/1 20/17/1 27/17/1
f 29/12/1 27/12/1 26/12/1
f 30/12/1 27/12/1 29/12/1
f 35/4/1 32/4/1 31/4/1
f 36/4/1 32/4/1 35/4/1
f 37/4/1 34/4/1 33/4/1
f 38/4/1 34/4/1 37/4/1
f 39/1/1 36/1/1 35/1/1
f 40/1/1 36/1/1 39/1/1
f 41/1/1 38/1/1 37/1/1
f 42/1/1 38/1/1 41/1/1
f 47/4/1 44/4/1 43/4/1
f 48/4/1 46/4/1 45/4/1
f 49/4/1 47/4/1 43/4/1
f 50/4/1 47/4/1 49/4/1
f 55/4/1 46/4/1 48/4/1
f 56/4/1 46/4/1 55/4/1
f 57/17/1 50/17/1 49/17/1
f 57/17/1 51/17/1 50/17/1
f 57/17/1 52/17/1 51/17/1
f 60/17/1 54/17/1 53/17/1
f 60/17/1 56/17/1 55/17/1
f 60/17/1 55/17/1 54/17/1
f 61/17/1 58/17/1 57/17/1
f 61/17/1 57/17/1 49/17/1
f 62/17/1 58/17/1 61/17/1
f 63/17/1 60/17/1 59/17/1
f 64/17/1 56/17/1 60/17/1
f 64/17/1 60/17/1 63/17/1
f 69/4/1 66/4/1 65/4/1
f 70/4/1 66/4/1 69/4/1
f 71/4/1 68/4/1 67/4/1
f 72/4/1 68/4/1 71/4/1
f 73/17/1 70/17/1 69/17/1
f 74/17/1 70/17/1 73/17/1
f 75/17/1 72/17/1 71/17/1
f 76/17/1 72/17/1 75/17/1
f 81/1/1 78/1/1 77/1/1
f 81/1/1 80/1/1 79/1/1
f 81/1/1 79/1/1 78/1/1
f 82/1/1 80/1/1 81/1/1
f 87/3/1 84/3/1 83/3/1
f 88/3/1 84/3/1 87/3/1
f 89/3/1 86/3/1 85/3/1
f 90/3/1 86/3/1 89/3/1
f 95/4/1 92/4/1 91/4/1
f 96/4/1 92/4/1 95/4/1
f 97/4/1 94/4/1 93/4/1
f 98/4/1 94/4/1 97/4/1
f 99/8/1 96/8/1 95/8/1
f 100/8/1 96/8/1 99/8/1
f 101/8/1 98/8/1 97/8/1
f 102/8/1 98/8/1 101/8/1
f 107/4/1 104/4/1 103/4/1
f 108/4/1 104/4/1 107/4/1
f 109/4/1 106/4/1 105/4/1
f 110/4/1 106/4/1 109/4/1
f 111/9/1 108/9/1 107/9/1
f 112/9/1 108/9/1 111/9/1
f 113/9/1 110/9/1 109/9/1
f 114/9/1 110/9/1 113/9/1
f 119/13/1 116/13/1 115/13/1
f 120/13/1 116/13/1 119/13/1
f 121/15/1 118/15/1 117/15/1
f 122/15/1 118/15/1 121/15/1
f 129/4/1 124/4/1 123/4/1
f 129/4/1 125/4/1 124/4/1
f 130/4/1 125/4/1 129/4/1
f 131/4/1 128/4/1 127/4/1
f 131/4/1 127/4/1 126/4/1
f 132/4/1 128/4/1 131/4/1
f 137/4/1 134/4/1 133/4/1
f 138/4/1 134/4/1 137/4/1
f 139/4/1 136/4/1 135/4/1
f 140/4/1 136/4/1 139/4/1
f 141/10/1 138/10/1 137/10/1
f 142/10/1 138/10/1 141/10/1
f 143/10/1 140/10/1 139/10/1
f 144/10/1 140/10/1 143/10/1
f 149/4/1 146/4/1 145/4/1
f 150/4/1 146/4/1 149/4/1
f 151/4/1 148/4/1 147/4/1
f 152/4/1 148/4/1 151/4/1
f 153/12/1 150/12/1 149/12/1
f 154/12/1 150/12/1 153/12/1
f 155/12/1 152/12/1 151/12/1
f 156/12/1 152/12/1 155/12/1
f 161/4/1 158/4/1 157/4/1
f 162/4/1 158/4/1 161/4/1
f 163/4/1 160/4/1 159/4/1
f 164/4/1 160/4/1 163/4/1
f 165/10/1 162/10/1 161/10/1
f 166/10/1 162/10/1 165/10/1
f 167/10/1 164/10/1 163/10/1
f 168/10/1 164/10/1 167/10/1
f 173/4/1 170/4/1 169/4/1
f 174/4/1 170/4/1 173/4/1
f 175/4/1 172/4/1 171/4/1
f 176/4/1 172/4/1 175/4/1
f 177/17/1 174/17/1 173/17/1
f 178/17/1 174/17/1 177/17/1
f 179/17/1 176/17/1 175/17/1
f 180/17/1 176/17/1 179/17/1
f 185/4/1 182/4/1 181/4/1
f 186/4/1 184/4/1 183/4/1
f 187/4/1 185/4/1 181/4/1
f 188/4/1 185/4/1 187/4/1
f 192/4/1 184/4/1 186/4/1
f 193/4/1 184/4/1 192/4/1
f 194/1/1 188/1/1 187/1/1
f 194/1/1 189/1/1 188/1/1
f 195/1/1 189/1/1 194/1/1
f 196/15/1 191/15/1 190/15/1
f 197/1/1 193/1/1 192/1/1
f 197/15/1 191/15/1 196/15/1
f 197/1/1 192/1/1 191/1/1
f 198/1/1 193/1/1 197/1/1
f 199/4/2 200/4/2 203/4/2
f 203/4/2 200/4/2 204/4/2
f 201/4/2 202/4/2 205/4/2
f 205/4/2 202/4/2 206/4/2
f 203/14/2 204/14/2 207/14/2
f 207/14/2 204/14/2 208/14/2
f 205/14/2 206/14/2 209/14/2
f 209/14/2 206/14/2 210/14/2
f 211/4/2 212/4/2 215/4/2
f 215/4/2 212/4/2 216/4/2
f 216/4/2 212/4/2 217/4/2
f 213/4/2 214/4/2 218/4/2
f 218/4/2 214/4/2 219/4/2
f 219/4/2 214/4/2 220/4/2
f 215/1/2 216/1/2 221/1/2
f 216/3/2 217/3/2 222/3/2
f 221/1/2 216/1/2 222/1/2
f 222/3/2 217/3/2 223/3/2
f 218/3/2 219/3/2 224/3/2
f 219/1/2 220/1/2 225/1/2
f 224/3/2 219/3/2 225/3/2
f 225/1/2 220/1/2 226/1/2
f 227/7/2 228/7/2 231/7/2
f 231/7/2 228/7/2 232/7/2
f 229/7/2 230/7/2 233/7/2
f 233/7/2 230/7/2 234/7/2
f 235/17/2 236/17/2 239/17/2
f 239/17/2 236/17/2 240/17/2
f 237/17/2 238/17/2 241/17/2
f 241/17/2 238/17/2 242/17/2
f 243/17/2 244/17/2 247/17/2
f 247/17/2 244/17/2 248/17/2
f 245/17/2 246/17/2 253/17/2
f 253/17/2 246/17/2 254/17/2
f 249/1/2 250/1/2 255/1/2
f 255/1/2 250/1/2 256/1/2
f 251/1/2 252/1/2 257/1/2
f 257/1/2 252/1/2 258/1/2
f 259/17/2 260/17/2 263/17/2
f 263/17/2 260/17/2 264/17/2
f 261/17/2 262/17/2 265/17/2
f 265/17/2 262/17/2 266/17/2
f 267/17/2 268/17/2 271/17/2
f 271/17/2 268/17/2 272/17/2
f 269/17/2 270/17/2 273/17/2
f 273/17/2 270/17/2 274/17/2
f 272/3/2 273/3/2 275/3/2
f 275/3/2 273/3/2 276/3/2
f 277/4/2 278/4/2 281/4/2
f 281/4/2 278/4/2 282/4/2
f 279/4/2 280/4/2 285/4/2
f 285/4/2 280/4/2 286/4/2
f 283/13/2 284/13/2 287/13/2
f 287/13/2 284/13/2 288/13/2
f 289/4/2 290/4/2 293/4/2
f 293/4/2 290/4/2 294/4/2
f 291/4/2 292/4/2 295/4/2
f 295/4/2 292/4/2 296/4/2
f 293/9/2 294/9/2 297/9/2
f 297/9/2 294/9/2 298/9/2
f 295/9/2 296/9/2 299/9/2
f 299/9/2 296/9/2 300/9/2
f 301/4/2 302/4/2 305/4/2
f 305/4/2 302/4/2 306/4/2
f 303/4/2 304/4/2 307/4/2
f 307/4/2 304/4/2 308/4/2
f 305/9/2 306/9/2 309/9/2
f 309/9/2 306/9/2 310/9/2
f 307/9/2 308/9/2 311/9/2
f 311/9/2 308/9/2 312/9/2
f 313/4/2 314/4/2 317/4/2
f 317/4/2 314/4/2 318/4/2
f 315/4/2 316/4/2 319/4/2
f 319/4/2 316/4/2 320/4/2
f 321/4/2 322/4/2 325/4/2
f 325/4/2 322/4/2 326/4/2
f 323/4/2 324/4/2 327/4/2
f 327/4/2 324/4/2 328/4/2
f 328/4/2 324/4/2 329/4/2
f 325/9/2 326/9/2 330/9/2
f 327/16/2 328/16/2 333/16/2
f 328/9/2 329/9/2 334/9/2
f 333/16/2 328/16/2 334/16/2
f 330/9/2 331/9/2 335/9/2
f 325/9/2 330/9/2 335/9/2
f 335/9/2 331/9/2 336/9/2
f 332/9/2 333/9/2 337/9/2
f 333/9/2 334/9/2 337/9/2
f 334/9/2 329/9/2 338/9/2
f 337/9/2 334/9/2 338/9/2
f 339/4/2 340/4/2 343/4/2
f 343/4/2 340/4/2 344/4/2
f 341/4/2 342/4/2 345/4/2
f 345/4/2 342/4/2 346/4/2
f 343/10/2 344/10/2 347/10/2
f 347/10/2 344/10/2 348/10/2
f 345/10/2 346/10/2 349/10/2
f 349/10/2 346/10/2 350/10/2
f 351/4/2 352/4/2 355/4/2
f 355/4/2 352/4/2 356/4/2
f 353/4/2 354/4/2 357/4/2
f 357/4/2 354/4/2 358/4/2
f 355/12/2 356/12/2 359/12/2
f 359/12/2 356/12/2 360/12/2
f 357/12/2 358/12/2 361/12/2
f 361/12/2 358/12/2 362/12/2
f 363/10/2 364/10/2 368/10/2
f 368/10/2 364/10/2 369/10/2
f 365/15/2 366/15/2 370/15/2
f 366/10/2 367/10/2 371/10/2
f 370/15/2 366/15/2 371/15/2
f 371/10/2 367/10/2 372/10/2
f 373/4/2 374/4/2 377/4/2
f 375/4/2 376/4/2 378/4/2
f 373/4/2 377/4/2 379/4/2
f 379/4/2 377/4/2 380/4/2
f 378/4/2 376/4/2 383/4/2
f 383/4/2 376/4/2 384/4/2
f 380/10/2 381/10/2 385/10/2
f 379/10/2 380/10/2 385/10/2
f 385/10/2 381/10/2 386/10/2
f 383/10/2 384/10/2 389/10/2
f 382/10/2 383/10/2 389/10/2
f 389/10/2 384/10/2 390/10/2
f 386/4/2 387/4/2 391/4/2
f 387/8/2 388/8/2 392/8/2
f 391/4/2 387/4/2 392/4/2
f 388/4/2 389/4/2 393/4/2
f 392/8/2 388/8/2 393/8/2
f 393/4/2 389/4/2 394/4/2
f 395/4/2 396/4/2 397/4/2
f 397/4/2 396/4/2 398/4/2
f 398/4/2 396/4/2 399/4/2
f 399/4/2 396/4/2 400/4/2
f 397/17/2 398/17/2 401/17/2
f 398/4/2 399/4/2 402/4/2
f 401/17/2 398/17/2 402/17/2
f 399/17/2 400/17/2 403/17/2
f 402/4/2 399/4/2 403/4/2
f 403/17/2 400/17/2 404/17/2
f 402/17/2 403/17/2 405/17/2
f 405/17/2 403/17/2 406/17/2
f 410/4/3 408/4/3 407/4/3
f 411/9/3 409/9/3 408/9/3
f 411/4/3 408/4/3 410/4/3
f 412/9/3 409/9/3 411/9/3
f 416/4/3 414/4/3 413/4/3
f 417/4/3 414/4/3 416/4/3
f 418/8/3 415/8/3 414/8/3
f 418/4/3 414/4/3 417/4/3
f 419/8/3 415/8/3 418/8/3
f 420/8/3 415/8/3 419/8/3
f 421/4/3 420/4/3 419/4/3
f 422/4/3 420/4/3 421/4/3
f 423/8/3 422/8/3 421/8/3
f 424/8/3 422/8/3 423/8/3
f 425/4/3 424/4/3 423/4/3
f 426/4/3 424/4/3 425/4/3
f 430/4/3 428/4/3 427/4/3
f 431/9/3 429/9/3 428/9/3
f 431/4/3 428/4/3 430/4/3
f 432/9/3 429/9/3 431/9/3
f 436/4/3 434/4/3 433/4/3
f 436/1/3 435/1/3 434/1/3
f 437/1/3 435/1/3 436/1/3
f 438/4/3 436/4/3 433/4/3
f 439/10/3 437/10/3 436/10/3
f 439/4/3 436/4/3 438/4/3
f 440/10/3 437/10/3 439/10/3
f 444/4/3 442/4/3 441/4/3
f 445/14/3 443/14/3 442/14/3
f 445/4/3 442/4/3 444/4/3
f 446/14/3 443/14/3 445/14/3
f 450/4/3 448/4/3 447/4/3
f 451/17/3 449/17/3 448/17/3
f 451/4/3 448/4/3 450/4/3
f 452/17/3 449/17/3 451/17/3
f 453/17/3 449/17/3 452/17/3
f 454/17/3 449/17/3 453/17/3
f 458/4/3 456/4/3 455/4/3
f 461/9/3 458/9/3 457/9/3
f 462/4/3 456/4/3 458/4/3
f 462/9/3 458/9/3 461/9/3
f 463/4/3 456/4/3 462/4/3
f 464/4/3 460/4/3 459/4/3
f 465/9/3 461/9/3 460/9/3
f 465/4/3 460/4/3 464/4/3
f 465/9/3 462/9/3 461/9/3
f 466/9/3 462/9/3 465/9/3
f 470/4/3 468/4/3 467/4/3
f 471/17/3 469/17/3 468/17/3
f 471/4/3 468/4/3 470/4/3
f 472/17/3 469/17/3 471/17/3
f 476/4/3 474/4/3 473/4/3
f 477/17/3 475/17/3 474/17/3
f 477/4/3 474/4/3 476/4/3
f 478/17/3 475/17/3 477/17/3
f 482/4/3 480/4/3 479/4/3
f 483/1/3 481/1/3 480/1/3
f 483/4/3 480/4/3 482/4/3
f 484/1/3 481/1/3 483/1/3
f 488/4/3 486/4/3 485/4/3
f 489/17/3 487/17/3 486/17/3
f 489/4/3 486/4/3 488/4/3
f 490/17/3 487/17/3 489/17/3
f 493/17/3 492/17/3 491/17/3
f 494/17/3 492/17/3 493/17/3
f 498/4/3 496/4/3 495/4/3
f 499/10/3 497/10/3 496/10/3
f 499/4/3 496/4/3 498/4/3
f 500/10/3 497/10/3 499/10/3
f 504/4/3 502/4/3 501/4/3
f 505/12/3 503/12/3 502/12/3
f 505/4/3 502/4/3 504/4/3
f 506/12/3 503/12/3 505/12/3
f 510/4/3 508/4/3 507/4/3
f 511/4/3 508/4/3 510/4/3
f 512/10/3 509/10/3 508/10/3
f 512/4/3 508/4/3 511/4/3
f 513/10/3 509/10/3 512/10/3
f 517/4/3 515/4/3 514/4/3
f 517/1/3 516/1/3 515/1/3
f 518/1/3 516/1/3 517/1/3
f 519/4/3 517/4/3 514/4/3
f 520/3/3 518/3/3 517/3/3
f 520/4/3 517/4/3 519/4/3
f 521/3/3 518/3/3 520/3/3
f 524/17/3 523/17/3 522/17/3
f 525/17/3 523/17/3 524/17/3
f 529/4/3 527/4/3 526/4/3
f 530/1/3 528/1/3 527/1/3
f 530/4/3 527/4/3 529/4/3
f 531/1/3 528/1/3 530/1/3
f 535/4/3 533/4/3 532/4/3
f 536/1/3 534/1/3 533/1/3
f 536/4/3 533/4/3 535/4/3
f 537/1/3 534/1/3 536/1/3
f 541/4/3 539/4/3 538/4/3
f 542/1/3 540/1/3 539/1/3
f 542/4/3 539/4/3 541/4/3
f 543/1/3 540/1/3 542/1/3
f 547/4/3 545/4/3 544/4/3
f 548/1/3 546/1/3 545/1/3
f 548/4/3 545/4/3 547/4/3
f 549/1/3 546/1/3 548/1/3
f 552/3/3 551/3/3 550/3/3
f 553/3/3 551/3/3 552/3/3
f 554/7/3 553/7/3 552/7/3
f 555/7/3 553/7/3 554/7/3
f 556/7/3 553/7/3 555/7/3
f 559/17/3 558/17/3 557/17/3
f 560/17/3 558/17/3 559/17/3
f 563/4/3 562/4/3 561/4/3
f 564/4/3 562/4/3 563/4/3
f 565/4/3 562/4/3 564/4/3
f 566/8/3 565/8/3 564/8/3
f 567/8/3 565/8/3 566/8/3
f 568/4/3 567/4/3 566/4/3
f 569/4/3 567/4/3 568/4/3
f 570/4/3 567/4/3 569/4/3
f 572/4/3 567/4/3 570/4/3
f 573/17/3 572/17/3 571/17/3
f 574/4/3 567/4/3 572/4/3
f 574/17/3 572/17/3 573/17/3
f 575/4/3 567/4/3 574/4/3
f 576/4/3 567/4/3 575/4/3
f 577/8/3 576/8/3 575/8/3
f 578/8/3 576/8/3 577/8/3
f 580/4/3 578/4/3 577/4/3
f 581/4/3 578/4/3 580/4/3
f 582/17/3 580/17/3 579/17/3
f 583/17/3 580/17/3 582/17/3
f 586/17/3 585/17/3 584/17/3
f 587/17/3 585/17/3 586/17/3
f 588/3/3 587/3/3 586/3/3
f 589/3/3 587/3/3 588/3/3
f 590/3/3 587/3/3 589/3/3
f 593/1/3 592/1/3 591/1/3
f 594/1/3 592/1/3 593/1/3
f 597/1/3 596/1/3 595/1/3
f 598/1/3 596/1/3 597/1/3
f 599/18/3 598/18/3 597/18/3
f 600/18/3 598/18/3 599/18/3
f 601/1/3 600/1/3 599/1/3
f 602/1/3 600/1/3 601/1/3
f 605/13/3 604/13/3 603/13/3
f 606/13/3 604/13/3 605/13/3
f 609/12/3 608/12/3 607/12/3
f 610/12/3 608/12/3 609/12/3
f 611/1/3 610/1/3 609/1/3
f 612/1/3 610/1/3 611/1/3
f 613/1/3 610/1/3 612/1/3
f 616/12/3 615/12/3 614/12/3
f 617/12/3 615/12/3 616/12/3
f 618/5/3 617/5/3 616/5/3
f 619/5/3 617/5/3 618/5/3
f 621/3/3 619/3/3 618/3/3
f 622/3/3 619/3/3 621/3/3
f 623/17/3 621/17/3 620/17/3
f 624/17/3 621/17/3 623/17/3
f 627/4/3 626/4/3 625/4/3
f 628/4/3 626/4/3 627/4/3
f 629/6/3 628/6/3 627/6/3
f 630/6/3 628/6/3 629/6/3
f 631/4/3 630/4/3 629/4/3
f 632/4/3 630/4/3 631/4/3
f 633/4/4 634/4/4 635/4/4
f 635/4/4 634/4/4 636/4/4
f 635/6/4 636/6/4 637/6/4
f 637/6/4 636/6/4 638/6/4
f 637/4/4 638/4/4 639/4/4
f 639/4/4 638/4/4 640/4/4
f 641/12/4 642/12/4 643/12/4
f 643/12/4 642/12/4 644/12/4
f 643/1/4 644/1/4 645/1/4
f 645/1/4 644/1/4 646/1/4
f 646/1/4 644/1/4 647/1/4
f 648/12/4 649/12/4 650/12/4
f 650/12/4 649/12/4 651/12/4
f 650/5/4 651/5/4 652/5/4
f 652/5/4 651/5/4 653/5/4
f 652/3/4 653/3/4 655/3/4
f 655/3/4 653/3/4 656/3/4
f 654/17/4 655/17/4 657/17/4
f 657/17/4 655/17/4 658/17/4
f 659/17/4 660/17/4 661/17/4
f 661/17/4 660/17/4 662/17/4
f 661/3/4 662/3/4 663/3/4
f 663/3/4 662/3/4 664/3/4
f 664/3/4 662/3/4 665/3/4
f 666/1/4 667/1/4 668/1/4
f 668/1/4 667/1/4 669/1/4
f 670/1/4 671/1/4 672/1/4
f 672/1/4 671/1/4 673/1/4
f 672/18/4 673/18/4 674/18/4
f 674/18/4 673/18/4 675/18/4
f 674/1/4 675/1/4 676/1/4
f 676/1/4 675/1/4 677/1/4
f 678/15/4 679/15/4 680/15/4
f 680/15/4 679/15/4 681/15/4
f 682/17/4 683/17/4 684/17/4
f 684/17/4 683/17/4 685/17/4
f 686/4/4 687/4/4 689/4/4
f 687/1/4 688/1/4 690/1/4
f 689/4/4 687/4/4 690/4/4
f 690/1/4 688/1/4 691/1/4
f 692/3/4 693/3/4 694/3/4
f 694/3/4 693/3/4 695/3/4
f 694/7/4 695/7/4 696/7/4
f 696/7/4 695/7/4 697/7/4
f 697/7/4 695/7/4 698/7/4
f 699/17/4 700/17/4 701/17/4
f 701/17/4 700/17/4 702/17/4
f 703/4/4 704/4/4 705/4/4
f 705/4/4 704/4/4 706/4/4
f 706/4/4 704/4/4 707/4/4
f 706/8/4 707/8/4 708/8/4
f 708/8/4 707/8/4 709/8/4
f 708/4/4 709/4/4 710/4/4
f 710/4/4 709/4/4 711/4/4
f 711/4/4 709/4/4 712/4/4
f 711/8/4 712/8/4 713/8/4
f 713/8/4 712/8/4 714/8/4
f 714/8/4 712/8/4 715/8/4
f 714/4/4 715/4/4 716/4/4
f 716/4/4 715/4/4 717/4/4
f 717/4/4 715/4/4 718/4/4
f 718/4/4 715/4/4 719/4/4
f 718/8/4 719/8/4 720/8/4
f 720/8/4 719/8/4 721/8/4
f 720/4/4 721/4/4 723/4/4
f 723/4/4 721/4/4 724/4/4
f 722/17/4 723/17/4 725/17/4
f 725/17/4 723/17/4 726/17/4
f 727/4/4 728/4/4 730/4/4
f 728/1/4 729/1/4 730/1/4
f 730/1/4 729/1/4 731/1/4
f 727/4/4 730/4/4 732/4/4
f 730/3/4 731/3/4 733/3/4
f 732/4/4 730/4/4 733/4/4
f 733/3/4 731/3/4 734/3/4
f 735/17/4 736/17/4 737/17/4
f 737/17/4 736/17/4 738/17/4
f 739/4/4 740/4/4 742/4/4
f 740/1/4 741/1/4 743/1/4
f 742/4/4 740/4/4 743/4/4
f 743/1/4 741/1/4 744/1/4
f 745/4/4 746/4/4 748/4/4
f 746/1/4 747/1/4 749/1/4
f 748/4/4 746/4/4 749/4/4
f 749/1/4 747/1/4 750/1/4
f 751/4/4 752/4/4 754/4/4
f 752/1/4 753/1/4 755/1/4
f 754/4/4 752/4/4 755/4/4
f 755/1/4 753/1/4 756/1/4
f 757/4/4 758/4/4 760/4/4
f 758/1/4 759/1/4 761/1/4
f 760/4/4 758/4/4 761/4/4
f 761/1/4 759/1/4 762/1/4
f 763/4/4 764/4/4 766/4/4
f 764/17/4 765/17/4 767/17/4
f 766/4/4 764/4/4 767/4/4
f 767/17/4 765/17/4 768/17/4
f 769/17/4 770/17/4 771/17/4
f 771/17/4 770/17/4 772/17/4
f 773/4/4 774/4/4 776/4/4
f 774/10/4 775/10/4 777/10/4
f 776/4/4 774/4/4 777/4/4
f 777/10/4 775/10/4 778/10/4
f 779/4/4 780/4/4 782/4/4
f 780/12/4 781/12/4 783/12/4
f 782/4/4 780/4/4 783/4/4
f 783/12/4 781/12/4 784/12/4
f 785/4/4 786/4/4 788/4/4
f 788/4/4 786/4/4 789/4/4
f 786/10/4 787/10/4 790/10/4
f 789/4/4 786/4/4 790/4/4
f 790/10/4 787/10/4 791/10/4
f 792/4/4 793/4/4 795/4/4
f 793/14/4 794/14/4 796/14/4
f 795/4/4 793/4/4 796/4/4
f 796/14/4 794/14/4 797/14/4
f 798/4/4 799/4/4 801/4/4
f 799/17/4 800/17/4 802/17/4
f 801/4/4 799/4/4 802/4/4
f 802/17/4 800/17/4 803/17/4
f 803/17/4 800/17/4 804/17/4
f 804/17/4 800/17/4 805/17/4
f 806/4/4 807/4/4 809/4/4
f 808/9/4 809/9/4 812/9/4
f 809/4/4 807/4/4 813/4/4
f 812/9/4 809/9/4 813/9/4
f 813/4/4 807/4/4 814/4/4
f 810/4/4 811/4/4 815/4/4
f 811/9/4 812/9/4 816/9/4
f 815/4/4 811/4/4 816/4/4
f 812/9/4 813/9/4 816/9/4
f 816/9/4 813/9/4 817/9/4
f 818/4/4 819/4/4 821/4/4
f 819/17/4 820/17/4 822/17/4
f 821/4/4 819/4/4 822/4/4
f 822/17/4 820/17/4 823/17/4
f 824/4/4 825/4/4 827/4/4
f 825/17/4 826/17/4 828/17/4
f 827/4/4 825/4/4 828/4/4
f 828/17/4 826/17/4 829/17/4
f 830/4/4 831/4/4 833/4/4
f 833/4/4 831/4/4 834/4/4
f 831/8/4 832/8/4 835/8/4
f 834/4/4 831/4/4 835/4/4
f 835/8/4 832/8/4 836/8/4
f 836/8/4 832/8/4 837/8/4
f 836/4/4 837/4/4 838/4/4
f 838/4/4 837/4/4 839/4/4
f 838/8/4 839/8/4 840/8/4
f 840/8/4 839/8/4 841/8/4
f 840/4/4 841/4/4 842/4/4
f 842/4/4 841/4/4 843/4/4
f 844/4/4 845/4/4 847/4/4
f 845/9/4 846/9/4 848/9/4
f 847/4/4 845/4/4 848/4/4
f 848/9/4 846/9/4 849/9/4
f 850/4/4 851/4/4 853/4/4
f 851/1/4 852/1/4 853/1/4
f 853/1/4 852/1/4 854/1/4
f 850/4/4 853/4/4 855/4/4
f 853/10/4 854/10/4 856/10/4
f 855/4/4 853/4/4 856/4/4
f 856/10/4 854/10/4 857/10/4
f 858/4/4 859/4/4 861/4/4
f 859/9/4 860/9/4 862/9/4
f 861/4/4 859/4/4 862/4/4
f 862/9/4 860/9/4 863/9/4
f 867/4/5 865/4/5 864/4/5
f 868/4/5 865/4/5 867/4/5
f 875/4/5 867/4/5 866/4/5
f 875/4/5 868/4/5 867/4/5
f 875/4/5 869/4/5 868/4/5
f 876/4/5 869/4/5 875/4/5
f 879/4/5 871/4/5 870/4/5
f 880/4/5 871/4/5 879/4/5
f 882/4/5 873/4/5 872/4/5
f 885/4/5 877/4/5 876/4/5
f 885/4/5 875/4/5 874/4/5
f 885/4/5 876/4/5 875/4/5
f 891/4/5 881/4/5 880/4/5
f 891/4/5 880/4/5 879/4/5
f 891/4/5 879/4/5 878/4/5
f 893/4/5 885/4/5 884/4/5
f 894/4/5 877/4/5 885/4/5
f 894/4/5 885/4/5 893/4/5
f 895/4/5 887/4/5 886/4/5
f 896/4/5 887/4/5 895/4/5
f 897/4/5 889/4/5 888/4/5
f 898/4/5 889/4/5 897/4/5
f 899/4/5 891/4/5 890/4/5
f 900/4/5 883/4/5 882/4/5
f 901/4/5 896/4/5 895/4/5
f 901/4/5 899/4/5 898/4/5
f 901/4/5 894/4/5 893/4/5
f 901/4/5 898/4/5 897/4/5
f 901/4/5 897/4/5 896/4/5
f 901/4/5 893/4/5 892/4/5
f 901/4/5 895/4/5 894/4/5
f 902/4/5 900/4/5 882/4/5
f 902/4/5 901/4/5 900/4/5
f 903/4/5 899/4/5 901/4/5
f 903/4/5 901/4/5 902/4/5
f 904/4/5 899/4/5 903/4/5
f 905/4/5 899/4/5 904/4/5
f 906/4/5 899/4/5 905/4/5
f 907/4/5 899/4/5 906/4/5
f 908/4/5 899/4/5 907/4/5
f 909/4/5 899/4/5 908/4/5
f 910/4/5 899/4/5 909/4/5
f 911/4/5 891/4/5 899/4/5
f 911/4/5 899/4/5 910/4/5
f 912/4/5 902/4/5 882/4/5
f 912/4/5 882/4/5 872/4/5
f 913/4/5 902/4/5 912/4/5
f 914/4/5 906/4/5 905/4/5
f 915/4/5 906/4/5 914/4/5
f 916/4/5 908/4/5 907/4/5
f 917/4/5 908/4/5 916/4/5
f 918/4/5 910/4/5 909/4/5
f 919/4/5 910/4/5 918/4/5
f 920/4/5 891/4/5 911/4/5
f 921/4/5 881/4/5 891/4/5
f 921/4/5 891/4/5 920/4/5
f 922/4/5 912/4/5 872/4/5
f 923/4/5 912/4/5 922/4/5
f 924/4/5 906/4/5 915/4/5
f 925/4/5 906/4/5 924/4/5
f 926/4/5 906/4/5 925/4/5
f 927/4/5 906/4/5 926/4/5
f 928/4/5 881/4/5 921/4/5
f 929/4/5 881/4/5 928/4/5
f 930/4/5 881/4/5 929/4/5
f 931/4/5 881/4/5 930/4/5
f 932/4/5 926/4/5 925/4/5
f 933/4/5 926/4/5 932/4/5
f 934/4/5 926/4/5 933/4/5
f 935/4/5 926/4/5 934/4/5
f 936/4/5 930/4/5 929/4/5
f 937/4/5 930/4/5 936/4/5
f 938/4/5 934/4/5 933/4/5
f 939/4/5 934/4/5 938/4/5
f 942/4/5 941/4/5 940/4/5
f 943/4/5 941/4/5 942/4/5
f 944/17/6 945/17/6 948/17/6
f 948/17/6 945/17/6 949/17/6
f 949/17/6 945/17/6 950/17/6
f 946/17/6 947/17/6 951/17/6
f 951/17/6 947/17/6 952/17/6
f 953/17/6 954/17/6 955/17/6
f 955/17/6 954/17/6 956/17/6
f 955/17/6 956/17/6 959/17/6
f 959/17/6 956/17/6 960/17/6
f 960/17/6 956/17/6 961/17/6
f 957/17/6 958/17/6 962/17/6
f 962/17/6 958/17/6 963/17/6
f 964/9/6 965/9/6 966/9/6
f 966/9/6 965/9/6 967/9/6
f 967/9/6 965/9/6 968/9/6
f 968/9/6 965/9/6 969/9/6
f 969/9/6 965/9/6 970/9/6
f 970/9/6 965/9/6 971/9/6
f 971/9/6 972/9/6 978/9/6
f 970/9/6 971/9/6 978/9/6
f 978/9/6 972/9/6 979/9/6
f 976/14/6 977/14/6 980/14/6
f 980/14/6 977/14/6 981/14/6
f 981/1/6 982/1/6 989/1/6
f 980/1/6 981/1/6 989/1/6
f 989/1/6 982/1/6 990/1/6
f 983/10/6 984/10/6 995/10/6
f 995/10/6 984/10/6 996/10/6
f 985/12/6 986/12/6 997/12/6
f 997/12/6 986/12/6 998/12/6
f 987/10/6 988/10/6 999/10/6
f 989/3/6 990/3/6 1000/3/6
f 1000/3/6 990/3/6 1001/3/6
f 991/1/6 992/1/6 1002/1/6
f 992/3/6 993/3/6 1003/3/6
f 1002/1/6 992/1/6 1003/1/6
f 1003/3/6 993/3/6 1004/3/6
f 994/1/6 995/1/6 1005/1/6
f 995/10/6 996/10/6 1006/10/6
f 1005/1/6 995/1/6 1006/1/6
f 1006/10/6 996/10/6 1007/10/6
f 996/1/6 997/1/6 1008/1/6
f 1007/10/6 996/10/6 1008/10/6
f 997/12/6 998/12/6 1009/12/6
f 1008/1/6 997/1/6 1009/1/6
f 998/1/6 999/1/6 1010/1/6
f 1009/12/6 998/12/6 1010/12/6
f 999/10/6 988/10/6 1011/10/6
f 1010/1/6 999/1/6 1011/1/6
f 1011/10/6 988/10/6 1012/10/6
f 973/1/6 974/1/6 1013/1/6
f 1013/1/6 974/1/6 1014/1/6
f 974/10/6 975/10/6 1015/10/6
f 1014/1/6 974/1/6 1015/1/6
f 1015/10/6 975/10/6 1016/10/6
f 1001/1/6 1002/1/6 1018/1/6
f 1000/1/6 1001/1/6 1018/1/6
f 1002/17/6 1003/17/6 1019/17/6
f 1018/1/6 1002/1/6 1019/1/6
f 1003/1/6 1004/1/6 1020/1/6
f 1019/17/6 1003/17/6 1020/17/6
f 1020/1/6 1004/1/6 1021/1/6
f 1016/17/6 1017/17/6 1022/17/6
f 1022/17/6 1017/17/6 1023/17/6
f 1024/1/6 1025/1/6 1028/1/6
f 1028/1/6 1025/1/6 1029/1/6
f 1025/17/6 1026/17/6 1030/17/6
f 1029/1/6 1025/1/6 1030/1/6
f 1026/1/6 1027/1/6 1031/1/6
f 1030/17/6 1026/17/6 1031/17/6
f 1031/1/6 1027/1/6 1032/1/6
f 1023/17/6 1017/17/6 1045/17/6
f 1045/17/6 1017/17/6 1046/17/6
f 1028/3/6 1029/3/6 1047/3/6
f 1047/3/6 1029/3/6 1048/3/6
f 1030/1/6 1031/1/6 1049/1/6
f 1031/3/6 1032/3/6 1050/3/6
f 1049/1/6 1031/1/6 1050/1/6
f 1050/3/6 1032/3/6 1051/3/6
f 1033/1/6 1034/1/6 1052/1/6
f 1034/10/6 1035/10/6 1053/10/6
f 1052/1/6 1034/1/6 1053/1/6
f 1035/10/6 1036/10/6 1053/10/6
f 1036/1/6 1037/1/6 1054/1/6
f 1053/10/6 1036/10/6 1054/10/6
f 1037/12/6 1038/12/6 1055/12/6
f 1054/1/6 1037/1/6 1055/1/6
f 1038/1/6 1039/1/6 1056/1/6
f 1055/12/6 1038/12/6 1056/12/6
f 1039/10/6 1040/10/6 1057/10/6
f 1056/1/6 1039/1/6 1057/1/6
f 1040/10/6 1041/10/6 1057/10/6
f 1047/1/6 1048/1/6 1058/1/6
f 1058/1/6 1048/1/6 1059/1/6
f 1059/1/6 1048/1/6 1060/1/6
f 1053/10/6 1054/10/6 1061/10/6
f 1061/10/6 1054/10/6 1062/10/6
f 1055/12/6 1056/12/6 1063/12/6
f 1063/12/6 1056/12/6 1064/12/6
f 1057/10/6 1041/10/6 1065/10/6
f 1065/10/6 1041/10/6 1066/10/6
f 1058/14/6 1059/14/6 1067/14/6
f 1067/14/6 1059/14/6 1068/14/6
f 1069/9/6 1070/9/6 1075/9/6
f 1075/9/6 1070/9/6 1076/9/6
f 1076/9/6 1070/9/6 1077/9/6
f 1043/1/6 1044/1/6 1078/1/6
f 1042/1/6 1043/1/6 1078/1/6
f 1044/10/6 1045/10/6 1079/10/6
f 1078/1/6 1044/1/6 1079/1/6
f 1079/10/6 1045/10/6 1080/10/6
f 1075/9/6 1076/9/6 1081/9/6
f 1074/9/6 1075/9/6 1081/9/6
f 1072/9/6 1073/9/6 1081/9/6
f 1071/9/6 1072/9/6 1081/9/6
f 1073/9/6 1074/9/6 1081/9/6
f 1081/9/6 1076/9/6 1082/9/6
f 1083/8/6 1084/8/6 1088/8/6
f 1088/8/6 1084/8/6 1089/8/6
f 1084/4/6 1085/4/6 1090/4/6
f 1089/8/6 1084/8/6 1090/8/6
f 1085/8/6 1086/8/6 1091/8/6
f 1090/4/6 1085/4/6 1091/4/6
f 1086/4/6 1087/4/6 1092/4/6
f 1091/8/6 1086/8/6 1092/8/6
f 1092/4/6 1087/4/6 1093/4/6
f 1093/4/6 1087/4/6 1094/4/6
f 1090/4/6 1091/4/6 1097/4/6
f 1089/4/6 1090/4/6 1097/4/6
f 1091/4/6 1092/4/6 1097/4/6
f 1097/4/6 1092/4/6 1098/4/6
f 1092/8/6 1093/8/6 1099/8/6
f 1098/4/6 1092/4/6 1099/4/6
f 1099/8/6 1093/8/6 1100/8/6
f 1098/4/6 1099/4/6 1101/4/6
f 1099/4/6 1100/4/6 1101/4/6
f 1101/4/6 1100/4/6 1102/4/6
f 1102/4/6 1100/4/6 1103/4/6
f 1103/4/6 1100/4/6 1104/4/6
f 1095/9/6 1096/9/6 1105/9/6
f 1104/4/6 1100/4/6 1114/4/6
f 1114/4/6 1100/4/6 1115/4/6
f 1095/9/6 1105/9/6 1119/9/6
f 1105/4/6 1106/4/6 1120/4/6
f 1119/9/6 1105/9/6 1120/9/6
f 1120/4/6 1106/4/6 1121/4/6
f 1106/8/6 1107/8/6 1122/8/6
f 1121/4/6 1106/4/6 1122/4/6
f 1107/4/6 1108/4/6 1123/4/6
f 1123/4/6 1108/4/6 1124/4/6
f 1111/17/6 1112/17/6 1125/17/6
f 1125/17/6 1112/17/6 1126/17/6
f 1112/3/6 1113/3/6 1127/3/6
f 1126/17/6 1112/17/6 1127/17/6
f 1127/3/6 1113/3/6 1128/3/6
f 1104/4/6 1114/4/6 1129/4/6
f 1129/4/6 1114/4/6 1130/4/6
f 1117/4/6 1118/4/6 1131/4/6
f 1118/4/6 1119/4/6 1131/4/6
f 1120/4/6 1121/4/6 1131/4/6
f 1116/4/6 1117/4/6 1131/4/6
f 1119/4/6 1120/4/6 1131/4/6
f 1121/8/6 1122/8/6 1132/8/6
f 1131/4/6 1121/4/6 1132/4/6
f 1123/8/6 1124/8/6 1133/8/6
f 1133/8/6 1124/8/6 1134/8/6
f 1124/4/6 1108/4/6 1135/4/6
f 1134/8/6 1124/8/6 1135/8/6
f 1135/4/6 1108/4/6 1136/4/6
f 1136/4/6 1108/4/6 1137/4/6
f 1108/8/6 1109/8/6 1138/8/6
f 1137/4/6 1108/4/6 1138/4/6
f 1109/4/6 1110/4/6 1139/4/6
f 1138/8/6 1109/8/6 1139/8/6
f 1139/4/6 1110/4/6 1140/4/6
f 1116/4/6 1131/4/6 1147/4/6
f 1131/8/6 1132/8/6 1147/8/6
f 1132/8/6 1122/8/6 1148/8/6
f 1147/8/6 1132/8/6 1148/8/6
f 1107/4/6 1123/4/6 1149/4/6
f 1123/8/6 1133/8/6 1149/8/6
f 1133/4/6 1134/4/6 1150/4/6
f 1149/8/6 1133/8/6 1150/8/6
f 1135/8/6 1136/8/6 1151/8/6
f 1134/8/6 1135/8/6 1151/8/6
f 1136/4/6 1137/4/6 1152/4/6
f 1151/8/6 1136/8/6 1152/8/6
f 1137/8/6 1138/8/6 1153/8/6
f 1152/4/6 1137/4/6 1153/4/6
f 1138/4/6 1139/4/6 1154/4/6
f 1153/8/6 1138/8/6 1154/8/6
f 1139/8/6 1140/8/6 1155/8/6
f 1154/4/6 1139/4/6 1155/4/6
f 1155/8/6 1140/8/6 1156/8/6
f 1141/17/6 1142/17/6 1157/17/6
f 1142/17/6 1143/17/6 1157/17/6
f 1143/3/6 1144/3/6 1158/3/6
f 1157/17/6 1143/17/6 1158/17/6
f 1158/3/6 1144/3/6 1159/3/6
f 1145/4/6 1146/4/6 1160/4/6
f 1116/4/6 1147/4/6 1162/4/6
f 1147/4/6 1148/4/6 1162/4/6
f 1162/4/6 1148/4/6 1163/4/6
f 1163/4/6 1148/4/6 1164/4/6
f 1164/4/6 1148/4/6 1165/4/6
f 1165/4/6 1148/4/6 1166/4/6
f 1148/8/6 1122/8/6 1167/8/6
f 1166/4/6 1148/4/6 1167/4/6
f 1122/8/6 1107/8/6 1168/8/6
f 1167/8/6 1122/8/6 1168/8/6
f 1160/4/6 1161/4/6 1170/4/6
f 1145/4/6 1160/4/6 1170/4/6
f 1166/4/6 1167/4/6 1171/4/6
f 1165/9/6 1166/9/6 1171/9/6
f 1167/4/6 1168/4/6 1171/4/6
f 1168/8/6 1107/8/6 1172/8/6
f 1171/4/6 1168/4/6 1172/4/6
f 1107/4/6 1149/4/6 1173/4/6
f 1172/8/6 1107/8/6 1173/8/6
f 1149/4/6 1150/4/6 1173/4/6
f 1134/8/6 1151/8/6 1174/8/6
f 1173/4/6 1150/4/6 1174/4/6
f 1150/4/6 1134/4/6 1174/4/6
f 1151/4/6 1152/4/6 1175/4/6
f 1174/8/6 1151/8/6 1175/8/6
f 1153/4/6 1154/4/6 1175/4/6
f 1152/4/6 1153/4/6 1175/4/6
f 1154/8/6 1155/8/6 1176/8/6
f 1175/4/6 1154/4/6 1176/4/6
f 1155/4/6 1156/4/6 1177/4/6
f 1176/8/6 1155/8/6 1177/8/6
f 1177/4/6 1156/4/6 1178/4/6
f 1169/4/6 1170/4/6 1180/4/6
f 1179/4/6 1180/4/6 1182/4/6
f 1170/4/6 1161/4/6 1183/4/6
f 1180/4/6 1170/4/6 1183/4/6
f 1182/4/6 1180/4/6 1183/4/6
f 1183/4/6 1161/4/6 1184/4/6
f 1181/4/6 1182/4/6 1186/4/6
f 1182/4/6 1183/4/6 1186/4/6
f 1186/4/6 1183/4/6 1187/4/6
f 1187/4/6 1183/4/6 1188/4/6
f 1183/8/6 1184/8/6 1189/8/6
f 1188/4/6 1183/4/6 1189/4/6
f 1189/8/6 1184/8/6 1190/8/6
f 1165/9/6 1171/9/6 1192/9/6
f 1192/9/6 1171/9/6 1193/9/6
f 1185/8/6 1186/8/6 1194/8/6
f 1186/8/6 1187/8/6 1194/8/6
f 1187/4/6 1188/4/6 1195/4/6
f 1194/8/6 1187/8/6 1195/8/6
f 1188/8/6 1189/8/6 1196/8/6
f 1195/4/6 1188/4/6 1196/4/6
f 1190/4/6 1191/4/6 1197/4/6
f 1196/8/6 1189/8/6 1197/8/6
f 1189/4/6 1190/4/6 1197/4/6
f 1197/4/6 1191/4/6 1198/4/6
f 1199/17/6 1200/17/6 1204/17/6
f 1204/17/6 1200/17/6 1205/17/6
f 1205/17/6 1200/17/6 1206/17/6
f 1206/17/6 1200/17/6 1207/17/6
f 1207/17/6 1200/17/6 1208/17/6
f 1208/17/6 1200/17/6 1209/17/6
f 1203/17/6 1204/17/6 1211/17/6
f 1204/2/6 1205/2/6 1211/2/6
f 1211/2/6 1205/2/6 1212/2/6
f 1208/2/6 1209/2/6 1213/2/6
f 1209/17/6 1210/17/6 1214/17/6
f 1213/2/6 1209/2/6 1214/2/6
f 1214/17/6 1210/17/6 1215/17/6
f 1201/4/6 1202/4/6 1217/4/6
f 1217/4/6 1202/4/6 1218/4/6
f 1218/4/6 1202/4/6 1219/4/6
f 1219/4/6 1202/4/6 1220/4/6
f 1203/17/6 1211/17/6 1221/17/6
f 1211/11/6 1212/11/6 1221/11/6
f 1212/2/6 1205/2/6 1222/2/6
f 1221/11/6 1212/11/6 1222/11/6
f 1205/11/6 1206/11/6 1223/11/6
f 1222/2/6 1205/2/6 1223/2/6
f 1206/2/6 1207/2/6 1224/2/6
f 1223/11/6 1206/11/6 1224/11/6
f 1207/11/6 1208/11/6 1225/11/6
f 1224/2/6 1207/2/6 1225/2/6
f 1208/2/6 1213/2/6 1226/2/6
f 1225/11/6 1208/11/6 1226/11/6
f 1213/11/6 1214/11/6 1227/11/6
f 1226/2/6 1213/2/6 1227/2/6
f 1214/15/6 1215/15/6 1228/15/6
f 1227/11/6 1214/11/6 1228/11/6
f 1215/17/6 1216/17/6 1229/17/6
f 1228/15/6 1215/15/6 1229/15/6
f 1229/17/6 1216/17/6 1230/17/6
f 1230/17/6 1216/17/6 1231/17/6
f 1221/2/6 1222/2/6 1233/2/6
f 1222/11/6 1223/11/6 1233/11/6
f 1233/11/6 1223/11/6 1234/11/6
f 1226/11/6 1227/11/6 1235/11/6
f 1227/15/6 1228/15/6 1236/15/6
f 1235/11/6 1227/11/6 1236/11/6
f 1229/15/6 1230/15/6 1236/15/6
f 1228/15/6 1229/15/6 1236/15/6
f 1236/15/6 1230/15/6 1237/15/6
f 1237/15/6 1230/15/6 1238/15/6
f 1230/11/6 1231/11/6 1239/11/6
f 1238/15/6 1230/15/6 1239/15/6
f 1231/17/6 1232/17/6 1240/17/6
f 1239/11/6 1231/11/6 1240/11/6
f 1201/4/6 1217/4/6 1242/4/6
f 1217/6/6 1218/6/6 1243/6/6
f 1242/4/6 1217/4/6 1243/4/6
f 1218/4/6 1219/4/6 1244/4/6
f 1243/6/6 1218/6/6 1244/6/6
f 1219/6/6 1220/6/6 1245/6/6
f 1244/4/6 1219/4/6 1245/4/6
f 1220/4/6 1202/4/6 1246/4/6
f 1245/6/6 1220/6/6 1246/6/6
f 1246/4/6 1202/4/6 1247/4/6
f 1203/17/6 1221/17/6 1250/17/6
f 1221/2/6 1233/2/6 1251/2/6
f 1250/17/6 1221/17/6 1251/17/6
f 1251/2/6 1233/2/6 1252/2/6
f 1238/11/6 1239/11/6 1253/11/6
f 1239/15/6 1240/15/6 1254/15/6
f 1253/11/6 1239/11/6 1254/11/6
f 1240/17/6 1232/17/6 1255/17/6
f 1254/15/6 1240/15/6 1255/15/6
f 1255/17/6 1232/17/6 1256/17/6
f 1241/13/6 1242/13/6 1257/13/6
f 1243/13/6 1244/13/6 1257/13/6
f 1242/13/6 1243/13/6 1257/13/6
f 1257/13/6 1244/13/6 1258/13/6
f 1258/13/6 1244/13/6 1259/13/6
f 1248/12/6 1249/12/6 1260/12/6
f 1249/1/6 1250/1/6 1261/1/6
f 1260/12/6 1249/12/6 1261/12/6
f 1250/17/6 1251/17/6 1262/17/6
f 1261/1/6 1250/1/6 1262/1/6
f 1251/11/6 1252/11/6 1263/11/6
f 1262/17/6 1251/17/6 1263/17/6
f 1263/11/6 1252/11/6 1264/11/6
f 1256/17/6 1257/17/6 1268/17/6
f 1257/13/6 1258/13/6 1269/13/6
f 1268/17/6 1257/17/6 1269/17/6
f 1258/12/6 1259/12/6 1270/12/6
f 1269/13/6 1258/13/6 1270/13/6
f 1259/13/6 1244/13/6 1271/13/6
f 1270/12/6 1259/12/6 1271/12/6
f 1263/2/6 1264/2/6 1272/2/6
f 1265/11/6 1266/11/6 1277/11/6
f 1266/15/6 1267/15/6 1278/15/6
f 1277/11/6 1266/11/6 1278/11/6
f 1267/17/6 1268/17/6 1279/17/6
f 1278/15/6 1267/15/6 1279/15/6
f 1269/15/6 1270/15/6 1280/15/6
f 1270/13/6 1271/13/6 1281/13/6
f 1280/15/6 1270/15/6 1281/15/6
f 1271/13/6 1244/13/6 1282/13/6
f 1281/13/6 1271/13/6 1282/13/6
f 1282/13/6 1244/13/6 1283/13/6
f 1262/17/6 1263/17/6 1287/17/6
f 1263/2/6 1272/2/6 1287/2/6
f 1272/11/6 1273/11/6 1288/11/6
f 1287/2/6 1272/2/6 1288/2/6
f 1288/11/6 1273/11/6 1289/11/6
f 1274/11/6 1275/11/6 1292/11/6
f 1277/15/6 1278/15/6 1293/15/6
f 1276/15/6 1277/15/6 1293/15/6
f 1292/11/6 1275/11/6 1293/11/6
f 1275/15/6 1276/15/6 1293/15/6
f 1293/15/6 1278/15/6 1294/15/6
f 1294/15/6 1278/15/6 1295/15/6
f 1278/11/6 1279/11/6 1296/11/6
f 1295/15/6 1278/15/6 1296/15/6
f 1279/17/6 1268/17/6 1297/17/6
f 1296/11/6 1279/11/6 1297/11/6
f 1297/17/6 1268/17/6 1298/17/6
f 1262/17/6 1287/17/6 1299/17/6
f 1287/11/6 1288/11/6 1299/11/6
f 1288/2/6 1289/2/6 1300/2/6
f 1299/11/6 1288/11/6 1300/11/6
f 1292/2/6 1293/2/6 1301/2/6
f 1293/11/6 1294/11/6 1301/11/6
f 1294/15/6 1295/15/6 1302/15/6
f 1301/11/6 1294/11/6 1302/11/6
f 1295/17/6 1296/17/6 1303/17/6
f 1302/15/6 1295/15/6 1303/15/6
f 1296/17/6 1297/17/6 1303/17/6
f 1303/17/6 1297/17/6 1304/17/6
f 1281/4/6 1282/4/6 1305/4/6
f 1282/6/6 1283/6/6 1305/6/6
f 1283/4/6 1284/4/6 1306/4/6
f 1305/6/6 1283/6/6 1306/6/6
f 1284/6/6 1285/6/6 1307/6/6
f 1306/4/6 1284/4/6 1307/4/6
f 1285/4/6 1286/4/6 1308/4/6
f 1307/6/6 1285/6/6 1308/6/6
f 1262/17/6 1299/17/6 1309/17/6
f 1299/2/6 1300/2/6 1310/2/6
f 1309/17/6 1299/17/6 1310/17/6
f 1289/11/6 1290/11/6 1311/11/6
f 1310/2/6 1300/2/6 1311/2/6
f 1300/2/6 1289/2/6 1311/2/6
f 1290/2/6 1291/2/6 1312/2/6
f 1311/11/6 1290/11/6 1312/11/6
f 1291/11/6 1292/11/6 1313/11/6
f 1312/2/6 1291/2/6 1313/2/6
f 1301/2/6 1302/2/6 1314/2/6
f 1313/11/6 1292/11/6 1314/11/6
f 1292/2/6 1301/2/6 1314/2/6
f 1302/17/6 1303/17/6 1315/17/6
f 1314/2/6 1302/2/6 1315/2/6
f 1315/17/6 1303/17/6 1316/17/6
f 1312/17/6 1313/17/6 1317/17/6
f 1311/17/6 1312/17/6 1317/17/6
f 1314/17/6 1315/17/6 1317/17/6
f 1313/17/6 1314/17/6 1317/17/6
f 1310/17/6 1311/17/6 1317/17/6
f 1317/17/6 1315/17/6 1318/17/6
f 1306/4/6 1307/4/6 1319/4/6
f 1307/4/6 1308/4/6 1319/4/6
f 1305/4/6 1306/4/6 1319/4/6
f 1281/4/6 1305/4/6 1319/4/6
f 1308/4/6 1286/4/6 1320/4/6
f 1319/4/6 1308/4/6 1320/4/6
f 1321/3/6 1322/3/6 1325/3/6
f 1322/7/6 1323/7/6 1326/7/6
f 1325/3/6 1322/3/6 1330/3/6
f 1322/7/6 1326/7/6 1330/7/6
f 1326/1/6 1327/1/6 1331/1/6
f 1330/7/6 1326/7/6 1331/7/6
f 1327/18/6 1328/18/6 1332/18/6
f 1331/1/6 1327/1/6 1332/1/6
f 1328/1/6 1329/1/6 1333/1/6
f 1332/18/6 1328/18/6 1333/18/6
f 1333/1/6 1329/1/6 1334/1/6
f 1330/1/6 1331/1/6 1338/1/6
f 1325/3/6 1330/3/6 1338/3/6
f 1331/18/6 1332/18/6 1339/18/6
f 1338/1/6 1331/1/6 1339/1/6
f 1332/18/6 1333/18/6 1339/18/6
f 1333/18/6 1334/18/6 1339/18/6
f 1339/18/6 1334/18/6 1340/18/6
f 1340/18/6 1334/18/6 1341/18/6
f 1334/12/6 1335/12/6 1342/12/6
f 1341/18/6 1334/18/6 1342/18/6
f 1335/5/6 1336/5/6 1343/5/6
f 1342/12/6 1335/12/6 1343/12/6
f 1336/3/6 1337/3/6 1344/3/6
f 1343/5/6 1336/5/6 1344/5/6
f 1344/3/6 1337/3/6 1345/3/6
f 1324/1/6 1325/1/6 1346/1/6
f 1325/3/6 1338/3/6 1347/3/6
f 1346/1/6 1325/1/6 1347/1/6
f 1339/1/6 1340/1/6 1348/1/6
f 1338/7/6 1339/7/6 1348/7/6
f 1340/18/6 1341/18/6 1349/18/6
f 1348/1/6 1340/1/6 1349/1/6
f 1341/1/6 1342/1/6 1350/1/6
f 1349/18/6 1341/18/6 1350/18/6
f 1350/1/6 1342/1/6 1351/1/6
f 1347/3/6 1338/3/6 1352/3/6
f 1338/7/6 1348/7/6 1353/7/6
f 1352/3/6 1338/3/6 1353/3/6
f 1353/7/6 1348/7/6 1354/7/6
