# MagicaVoxel @ Ephtracy

# group
o 

# material
mtllib barandilla-0.mtl
usemtl palette

# normals
vn -1 0 0
vn 1 0 0
vn 0 0 1
vn 0 0 -1
vn 0 -1 0
vn 0 1 0

# texcoords
vt 0.970703 0.5
vt 0.974609 0.5
vt 0.978516 0.5

# verts
v -7.5 0 2
v -7.5 0 0.3
v -7.5 0 -2.38419e-07
v -7.5 0 -0.6
v -7.5 0 -1
v -7.5 0 -2
v -7.5 0.1 1.8
v -7.5 0.1 1.2
v -7.5 0.1 0.6
v -7.5 0.1 0.3
v -7.5 0.1 -2.38419e-07
v -7.5 0.1 -0.6
v -7.5 0.1 -1
v -7.5 0.2 2
v -7.5 0.2 1.8
v -7.5 0.2 1.2
v -7.5 0.2 0.6
v -7.5 0.2 0.3
v -7.5 0.2 -1.4
v -7.5 0.2 -1.9
v -7.5 0.2 -2
v -7.5 0.3 -1.4
v -7.5 0.3 -1.9
v -7.5 0.4 2
v -7.5 0.4 -0.2
v -7.5 0.4 -0.7
v -7.5 0.4 -2
v -7.5 0.5 0.9
v -7.5 0.5 0.4
v -7.5 0.5 -0.2
v -7.5 0.5 -0.7
v -7.5 0.6 2
v -7.5 0.6 0.9
v -7.5 0.6 0.4
v -7.5 0.6 -2
v -7.5 0.7 -0.8
v -7.5 0.7 -1.2
v -7.5 0.8 2
v -7.5 0.8 -0.8
v -7.5 0.8 -1.2
v -7.5 0.8 -2
v -7.5 0.9 1.7
v -7.5 0.9 1.3
v -7.5 0.9 -1.6
v -7.5 0.9 -1.8
v -7.5 1 2
v -7.5 1 1.7
v -7.5 1 1.3
v -7.5 1 0.9
v -7.5 1 -1.6
v -7.5 1 -1.8
v -7.5 1 -2
v -7.5 1.1 1.3
v -7.5 1.1 0.9
v -7.5 1.1 -0.2
v -7.5 1.1 -0.6
v -7.5 1.1 -1.8
v -7.5 1.1 -2
v -7.5 1.2 2
v -7.5 1.2 0.0999999
v -7.5 1.2 -0.2
v -7.5 1.2 -0.6
v -7.5 1.2 -2
v -7.5 1.3 1.6
v -7.5 1.3 1.4
v -7.5 1.3 0.0999999
v -7.5 1.3 -0.2
v -7.5 1.4 2
v -7.5 1.4 1.6
v -7.5 1.4 1.4
v -7.5 1.4 -1.1
v -7.5 1.4 -1.4
v -7.5 1.4 -2
v -7.5 1.5 0.7
v -7.5 1.5 0.5
v -7.5 1.5 -1.1
v -7.5 1.5 -1.4
v -7.5 1.6 2
v -7.5 1.6 1.7
v -7.5 1.6 1.2
v -7.5 1.6 0.7
v -7.5 1.6 0.5
v -7.5 1.6 -2
v -7.5 1.7 1.7
v -7.5 1.7 1.2
v -7.5 1.7 -0.8
v -7.5 1.7 -1.5
v -7.5 1.8 2
v -7.5 1.8 1.4
v -7.5 1.8 1
v -7.5 1.8 -0.8
v -7.5 1.8 -1.5
v -7.5 1.8 -2
v -7.5 1.9 1.4
v -7.5 1.9 1
v -7.5 1.9 0.4
v -7.5 1.9 -0.2
v -7.5 2 2
v -7.5 2 0.4
v -7.5 2 -0.2
v -7.5 2 -0.5
v -7.5 2 -1.1
v -7.5 2 -2
v -7.5 2.1 -0.5
v -7.5 2.1 -1.1
v -7.5 2.1 -1.6
v -7.5 2.1 -1.8
v -7.5 2.2 2
v -7.5 2.2 0.8
v -7.5 2.2 0.2
v -7.5 2.2 -1.6
v -7.5 2.2 -1.8
v -7.5 2.2 -2
v -7.5 2.3 0.8
v -7.5 2.3 0.2
v -7.5 2.4 2
v -7.5 2.4 -0.3
v -7.5 2.4 -0.6
v -7.5 2.4 -2
v -7.5 2.5 1.1
v -7.5 2.5 0.5
v -7.5 2.5 -0.3
v -7.5 2.5 -0.6
v -7.5 2.5 -0.9
v -7.5 2.6 2
v -7.5 2.6 1.8
v -7.5 2.6 1.5
v -7.5 2.6 1.1
v -7.5 2.6 0.5
v -7.5 2.6 -0.6
v -7.5 2.6 -0.9
v -7.5 2.6 -1.3
v -7.5 2.6 -1.6
v -7.5 2.6 -2
v -7.5 2.7 1.8
v -7.5 2.7 1.5
v -7.5 2.7 -1
v -7.5 2.7 -1.3
v -7.5 2.7 -1.6
v -7.5 2.8 2
v -7.5 2.8 -2.38419e-07
v -7.5 2.8 -0.2
v -7.5 2.8 -1
v -7.5 2.8 -1.3
v -7.5 2.8 -2
v -7.5 2.9 0.3
v -7.5 2.9 -2.38419e-07
v -7.5 2.9 -0.2
v -7.5 3 2
v -7.5 3 1.3
v -7.5 3 0.7
v -7.5 3 0.3
v -7.5 3 -2.38419e-07
v -7.5 3 -2
v -7.5 3.1 1.3
v -7.5 3.1 0.7
v -7.5 3.1 -0.4
v -7.5 3.1 -1
v -7.5 3.2 2
v -7.5 3.2 1.7
v -7.5 3.2 -0.4
v -7.5 3.2 -1
v -7.5 3.2 -1.7
v -7.5 3.2 -1.9
v -7.5 3.2 -2
v -7.5 3.3 2
v -7.5 3.3 1.7
v -7.5 3.3 -1.4
v -7.5 3.3 -1.7
v -7.5 3.3 -1.9
v -7.5 3.4 2
v -7.5 3.4 1.6
v -7.5 3.4 1.2
v -7.5 3.4 0.7
v -7.5 3.4 0.4
v -7.5 3.4 -1.4
v -7.5 3.4 -1.7
v -7.5 3.4 -2
v -7.5 3.5 1.6
v -7.5 3.5 1.2
v -7.5 3.5 0.7
v -7.5 3.5 0.4
v -7.5 3.6 2
v -7.5 3.6 0.2
v -7.5 3.6 -0.1
v -7.5 3.6 -0.6
v -7.5 3.6 -0.8
v -7.5 3.6 -2
v -7.5 3.7 0.2
v -7.5 3.7 -0.1
v -7.5 3.7 -0.6
v -7.5 3.7 -0.8
v -7.5 3.8 2
v -7.5 3.8 1.4
v -7.5 3.8 0.9
v -7.5 3.8 -1.2
v -7.5 3.8 -1.4
v -7.5 3.8 -2
v -7.5 3.9 1.4
v -7.5 3.9 0.9
v -7.5 3.9 -0.9
v -7.5 3.9 -1.2
v -7.5 3.9 -1.4
v -7.5 4 2
v -7.5 4 -0.9
v -7.5 4 -1.2
v -7.5 4 -2
v -7.4 0 2
v -7.4 0 0.3
v -7.4 0 -2.38419e-07
v -7.4 0 -0.6
v -7.4 0 -1
v -7.4 0 -2
v -7.4 0.1 1.8
v -7.4 0.1 1.2
v -7.4 0.1 0.6
v -7.4 0.1 0.3
v -7.4 0.1 -2.38419e-07
v -7.4 0.1 -0.6
v -7.4 0.1 -1
v -7.4 0.2 2
v -7.4 0.2 1.8
v -7.4 0.2 1.2
v -7.4 0.2 0.6
v -7.4 0.2 0.3
v -7.4 0.2 -1.4
v -7.4 0.2 -1.9
v -7.4 0.2 -2
v -7.4 0.3 -1.4
v -7.4 0.3 -1.9
v -7.4 0.4 2
v -7.4 0.4 -0.2
v -7.4 0.4 -0.7
v -7.4 0.4 -2
v -7.4 0.5 0.9
v -7.4 0.5 0.4
v -7.4 0.5 -0.2
v -7.4 0.5 -0.7
v -7.4 0.6 2
v -7.4 0.6 0.9
v -7.4 0.6 0.4
v -7.4 0.6 -2
v -7.4 0.7 -0.8
v -7.4 0.7 -1.2
v -7.4 0.8 2
v -7.4 0.8 -0.8
v -7.4 0.8 -1.2
v -7.4 0.8 -2
v -7.4 0.9 1.7
v -7.4 0.9 1.3
v -7.4 0.9 -1.6
v -7.4 0.9 -1.8
v -7.4 1 2
v -7.4 1 1.7
v -7.4 1 1.3
v -7.4 1 0.9
v -7.4 1 -1.6
v -7.4 1 -1.8
v -7.4 1 -2
v -7.4 1.1 1.3
v -7.4 1.1 0.9
v -7.4 1.1 -0.2
v -7.4 1.1 -0.6
v -7.4 1.1 -1.8
v -7.4 1.1 -2
v -7.4 1.2 2
v -7.4 1.2 0.0999999
v -7.4 1.2 -0.2
v -7.4 1.2 -0.6
v -7.4 1.2 -2
v -7.4 1.3 1.6
v -7.4 1.3 1.4
v -7.4 1.3 0.0999999
v -7.4 1.3 -0.2
v -7.4 1.4 2
v -7.4 1.4 1.6
v -7.4 1.4 1.4
v -7.4 1.4 -1.1
v -7.4 1.4 -1.4
v -7.4 1.4 -2
v -7.4 1.5 0.7
v -7.4 1.5 0.5
v -7.4 1.5 -1.1
v -7.4 1.5 -1.4
v -7.4 1.6 2
v -7.4 1.6 1.7
v -7.4 1.6 1.2
v -7.4 1.6 0.7
v -7.4 1.6 0.5
v -7.4 1.6 -2
v -7.4 1.7 1.7
v -7.4 1.7 1.2
v -7.4 1.7 -0.8
v -7.4 1.7 -1.5
v -7.4 1.8 2
v -7.4 1.8 1.4
v -7.4 1.8 1
v -7.4 1.8 -0.8
v -7.4 1.8 -1.5
v -7.4 1.8 -2
v -7.4 1.9 1.4
v -7.4 1.9 1
v -7.4 1.9 0.4
v -7.4 1.9 -0.2
v -7.4 2 2
v -7.4 2 0.4
v -7.4 2 -0.2
v -7.4 2 -0.5
v -7.4 2 -1.1
v -7.4 2 -2
v -7.4 2.1 -0.5
v -7.4 2.1 -1.1
v -7.4 2.1 -1.6
v -7.4 2.1 -1.8
v -7.4 2.2 2
v -7.4 2.2 0.8
v -7.4 2.2 0.2
v -7.4 2.2 -1.6
v -7.4 2.2 -1.8
v -7.4 2.2 -2
v -7.4 2.3 0.8
v -7.4 2.3 0.2
v -7.4 2.4 2
v -7.4 2.4 -0.3
v -7.4 2.4 -0.6
v -7.4 2.4 -2
v -7.4 2.5 1.1
v -7.4 2.5 0.5
v -7.4 2.5 -0.3
v -7.4 2.5 -0.6
v -7.4 2.5 -0.9
v -7.4 2.6 2
v -7.4 2.6 1.8
v -7.4 2.6 1.5
v -7.4 2.6 1.1
v -7.4 2.6 0.5
v -7.4 2.6 -0.6
v -7.4 2.6 -0.9
v -7.4 2.6 -1.3
v -7.4 2.6 -1.6
v -7.4 2.6 -2
v -7.4 2.7 1.8
v -7.4 2.7 1.5
v -7.4 2.7 -1
v -7.4 2.7 -1.3
v -7.4 2.7 -1.6
v -7.4 2.8 2
v -7.4 2.8 -2.38419e-07
v -7.4 2.8 -0.2
v -7.4 2.8 -1
v -7.4 2.8 -1.3
v -7.4 2.8 -2
v -7.4 2.9 0.3
v -7.4 2.9 -2.38419e-07
v -7.4 2.9 -0.2
v -7.4 3 2
v -7.4 3 1.3
v -7.4 3 0.7
v -7.4 3 0.3
v -7.4 3 -2.38419e-07
v -7.4 3 -2
v -7.4 3.1 1.3
v -7.4 3.1 0.7
v -7.4 3.1 -0.4
v -7.4 3.1 -1
v -7.4 3.2 2
v -7.4 3.2 1.7
v -7.4 3.2 -0.4
v -7.4 3.2 -1
v -7.4 3.2 -1.7
v -7.4 3.2 -1.9
v -7.4 3.2 -2
v -7.4 3.3 2
v -7.4 3.3 1.7
v -7.4 3.3 -1.4
v -7.4 3.3 -1.7
v -7.4 3.3 -1.9
v -7.4 3.4 2
v -7.4 3.4 1.6
v -7.4 3.4 1.2
v -7.4 3.4 0.7
v -7.4 3.4 0.4
v -7.4 3.4 -1.4
v -7.4 3.4 -1.7
v -7.4 3.4 -2
v -7.4 3.5 1.6
v -7.4 3.5 1.2
v -7.4 3.5 0.7
v -7.4 3.5 0.4
v -7.4 3.6 2
v -7.4 3.6 0.2
v -7.4 3.6 -0.1
v -7.4 3.6 -0.6
v -7.4 3.6 -0.8
v -7.4 3.6 -2
v -7.4 3.7 0.2
v -7.4 3.7 -0.1
v -7.4 3.7 -0.6
v -7.4 3.7 -0.8
v -7.4 3.8 2
v -7.4 3.8 1.4
v -7.4 3.8 0.9
v -7.4 3.8 -1.2
v -7.4 3.8 -1.4
v -7.4 3.8 -2
v -7.4 3.9 1.4
v -7.4 3.9 0.9
v -7.4 3.9 -0.9
v -7.4 3.9 -1.2
v -7.4 3.9 -1.4
v -7.4 4 2
v -7.4 4 -0.9
v -7.4 4 -1.2
v -7.4 4 -2
v -7.5 0 2
v -7.5 0.2 2
v -7.5 0.4 2
v -7.5 0.6 2
v -7.5 0.8 2
v -7.5 1 2
v -7.5 1.2 2
v -7.5 1.4 2
v -7.5 1.6 2
v -7.5 1.8 2
v -7.5 2 2
v -7.5 2.2 2
v -7.5 2.4 2
v -7.5 2.6 2
v -7.5 2.8 2
v -7.5 3 2
v -7.5 3.2 2
v -7.5 3.3 2
v -7.5 3.4 2
v -7.5 3.6 2
v -7.5 3.8 2
v -7.5 4 2
v -7.4 0 2
v -7.4 0.2 2
v -7.4 0.4 2
v -7.4 0.6 2
v -7.4 0.8 2
v -7.4 1 2
v -7.4 1.2 2
v -7.4 1.4 2
v -7.4 1.6 2
v -7.4 1.8 2
v -7.4 2 2
v -7.4 2.2 2
v -7.4 2.4 2
v -7.4 2.6 2
v -7.4 2.8 2
v -7.4 3 2
v -7.4 3.2 2
v -7.4 3.3 2
v -7.4 3.4 2
v -7.4 3.6 2
v -7.4 3.8 2
v -7.4 4 2
v -7.5 0 -2
v -7.5 0.2 -2
v -7.5 0.4 -2
v -7.5 0.6 -2
v -7.5 0.8 -2
v -7.5 1 -2
v -7.5 1.1 -2
v -7.5 1.2 -2
v -7.5 1.4 -2
v -7.5 1.6 -2
v -7.5 1.8 -2
v -7.5 2 -2
v -7.5 2.2 -2
v -7.5 2.4 -2
v -7.5 2.6 -2
v -7.5 2.8 -2
v -7.5 3 -2
v -7.5 3.2 -2
v -7.5 3.4 -2
v -7.5 3.6 -2
v -7.5 3.8 -2
v -7.5 4 -2
v -7.4 0 -2
v -7.4 0.2 -2
v -7.4 0.4 -2
v -7.4 0.6 -2
v -7.4 0.8 -2
v -7.4 1 -2
v -7.4 1.1 -2
v -7.4 1.2 -2
v -7.4 1.4 -2
v -7.4 1.6 -2
v -7.4 1.8 -2
v -7.4 2 -2
v -7.4 2.2 -2
v -7.4 2.4 -2
v -7.4 2.6 -2
v -7.4 2.8 -2
v -7.4 3 -2
v -7.4 3.2 -2
v -7.4 3.4 -2
v -7.4 3.6 -2
v -7.4 3.8 -2
v -7.4 4 -2
v -7.5 0 2
v -7.4 0 2
v -7.5 0 0.3
v -7.4 0 0.3
v -7.5 0 -2.38419e-07
v -7.4 0 -2.38419e-07
v -7.5 0 -0.6
v -7.4 0 -0.6
v -7.5 0 -1
v -7.4 0 -1
v -7.5 0 -2
v -7.4 0 -2
v -7.5 4 2
v -7.4 4 2
v -7.5 4 -0.9
v -7.4 4 -0.9
v -7.5 4 -1.2
v -7.4 4 -1.2
v -7.5 4 -2
v -7.4 4 -2

# faces
f 7/1/1 2/1/1 1/1/1
f 8/1/1 2/1/1 7/1/1
f 9/1/1 2/1/1 8/1/1
f 10/3/1 3/3/1 2/3/1
f 10/1/1 2/1/1 9/1/1
f 11/1/1 4/1/1 3/1/1
f 11/3/1 3/3/1 10/3/1
f 12/3/1 5/3/1 4/3/1
f 12/1/1 4/1/1 11/1/1
f 13/1/1 6/1/1 5/1/1
f 13/3/1 5/3/1 12/3/1
f 14/1/1 7/1/1 1/1/1
f 15/3/1 8/3/1 7/3/1
f 15/1/1 7/1/1 14/1/1
f 16/1/1 9/1/1 8/1/1
f 16/3/1 8/3/1 15/3/1
f 17/3/1 10/3/1 9/3/1
f 17/1/1 9/1/1 16/1/1
f 18/1/1 12/1/1 11/1/1
f 18/3/1 10/3/1 17/3/1
f 18/1/1 11/1/1 10/1/1
f 18/1/1 13/1/1 12/1/1
f 19/1/1 6/1/1 13/1/1
f 19/1/1 13/1/1 18/1/1
f 20/1/1 6/1/1 19/1/1
f 21/1/1 6/1/1 20/1/1
f 22/2/1 17/2/1 16/2/1
f 22/2/1 15/2/1 14/2/1
f 22/2/1 16/2/1 15/2/1
f 22/3/1 20/3/1 19/3/1
f 22/2/1 19/2/1 18/2/1
f 22/2/1 18/2/1 17/2/1
f 23/2/1 21/2/1 20/2/1
f 23/3/1 20/3/1 22/3/1
f 24/2/1 22/2/1 14/2/1
f 24/2/1 23/2/1 22/2/1
f 25/2/1 23/2/1 24/2/1
f 26/2/1 23/2/1 25/2/1
f 27/2/1 21/2/1 23/2/1
f 27/2/1 23/2/1 26/2/1
f 28/1/1 25/1/1 24/1/1
f 29/1/1 25/1/1 28/1/1
f 30/3/1 26/3/1 25/3/1
f 30/1/1 25/1/1 29/1/1
f 31/1/1 27/1/1 26/1/1
f 31/3/1 26/3/1 30/3/1
f 32/1/1 28/1/1 24/1/1
f 33/3/1 29/3/1 28/3/1
f 33/1/1 28/1/1 32/1/1
f 34/1/1 30/1/1 29/1/1
f 34/3/1 29/3/1 33/3/1
f 34/1/1 31/1/1 30/1/1
f 35/1/1 27/1/1 31/1/1
f 35/1/1 31/1/1 34/1/1
f 36/2/1 33/2/1 32/2/1
f 36/2/1 34/2/1 33/2/1
f 36/2/1 35/2/1 34/2/1
f 37/2/1 35/2/1 36/2/1
f 38/2/1 36/2/1 32/2/1
f 39/3/1 37/3/1 36/3/1
f 39/2/1 36/2/1 38/2/1
f 40/2/1 35/2/1 37/2/1
f 40/3/1 37/3/1 39/3/1
f 41/2/1 35/2/1 40/2/1
f 42/1/1 39/1/1 38/1/1
f 42/1/1 40/1/1 39/1/1
f 42/1/1 41/1/1 40/1/1
f 43/1/1 41/1/1 42/1/1
f 44/1/1 41/1/1 43/1/1
f 45/1/1 41/1/1 44/1/1
f 46/1/1 42/1/1 38/1/1
f 47/3/1 43/3/1 42/3/1
f 47/1/1 42/1/1 46/1/1
f 48/1/1 44/1/1 43/1/1
f 48/3/1 43/3/1 47/3/1
f 49/1/1 44/1/1 48/1/1
f 50/3/1 45/3/1 44/3/1
f 50/1/1 44/1/1 49/1/1
f 51/1/1 41/1/1 45/1/1
f 51/3/1 45/3/1 50/3/1
f 52/1/1 41/1/1 51/1/1
f 53/2/1 47/2/1 46/2/1
f 53/3/1 49/3/1 48/3/1
f 53/2/1 48/2/1 47/2/1
f 54/2/1 50/2/1 49/2/1
f 54/3/1 49/3/1 53/3/1
f 54/2/1 51/2/1 50/2/1
f 55/2/1 51/2/1 54/2/1
f 56/2/1 51/2/1 55/2/1
f 57/3/1 52/3/1 51/3/1
f 57/2/1 51/2/1 56/2/1
f 58/3/1 52/3/1 57/3/1
f 59/2/1 53/2/1 46/2/1
f 59/2/1 54/2/1 53/2/1
f 59/2/1 55/2/1 54/2/1
f 60/2/1 55/2/1 59/2/1
f 61/3/1 56/3/1 55/3/1
f 61/2/1 55/2/1 60/2/1
f 62/2/1 58/2/1 57/2/1
f 62/3/1 56/3/1 61/3/1
f 62/2/1 57/2/1 56/2/1
f 63/2/1 58/2/1 62/2/1
f 64/1/1 60/1/1 59/1/1
f 65/1/1 60/1/1 64/1/1
f 66/3/1 61/3/1 60/3/1
f 66/1/1 60/1/1 65/1/1
f 67/1/1 62/1/1 61/1/1
f 67/3/1 61/3/1 66/3/1
f 67/1/1 63/1/1 62/1/1
f 68/1/1 64/1/1 59/1/1
f 69/3/1 65/3/1 64/3/1
f 69/1/1 64/1/1 68/1/1
f 70/1/1 66/1/1 65/1/1
f 70/3/1 65/3/1 69/3/1
f 70/1/1 67/1/1 66/1/1
f 71/1/1 63/1/1 67/1/1
f 71/1/1 67/1/1 70/1/1
f 72/1/1 63/1/1 71/1/1
f 73/1/1 63/1/1 72/1/1
f 74/2/1 69/2/1 68/2/1
f 74/2/1 70/2/1 69/2/1
f 74/2/1 71/2/1 70/2/1
f 75/2/1 71/2/1 74/2/1
f 76/3/1 72/3/1 71/3/1
f 76/2/1 71/2/1 75/2/1
f 77/2/1 73/2/1 72/2/1
f 77/3/1 72/3/1 76/3/1
f 78/2/1 74/2/1 68/2/1
f 79/2/1 74/2/1 78/2/1
f 80/2/1 74/2/1 79/2/1
f 81/3/1 75/3/1 74/3/1
f 81/2/1 74/2/1 80/2/1
f 82/2/1 76/2/1 75/2/1
f 82/3/1 75/3/1 81/3/1
f 82/2/1 77/2/1 76/2/1
f 83/2/1 73/2/1 77/2/1
f 83/2/1 77/2/1 82/2/1
f 84/3/1 80/3/1 79/3/1
f 84/1/1 79/1/1 78/1/1
f 85/1/1 81/1/1 80/1/1
f 85/3/1 80/3/1 84/3/1
f 85/1/1 82/1/1 81/1/1
f 85/1/1 83/1/1 82/1/1
f 86/1/1 83/1/1 85/1/1
f 87/1/1 83/1/1 86/1/1
f 88/1/1 84/1/1 78/1/1
f 88/1/1 85/1/1 84/1/1
f 88/1/1 86/1/1 85/1/1
f 89/1/1 86/1/1 88/1/1
f 90/1/1 86/1/1 89/1/1
f 91/3/1 87/3/1 86/3/1
f 91/1/1 86/1/1 90/1/1
f 92/1/1 83/1/1 87/1/1
f 92/3/1 87/3/1 91/3/1
f 93/1/1 83/1/1 92/1/1
f 94/3/1 90/3/1 89/3/1
f 94/2/1 89/2/1 88/2/1
f 95/2/1 91/2/1 90/2/1
f 95/3/1 90/3/1 94/3/1
f 95/2/1 93/2/1 92/2/1
f 95/2/1 92/2/1 91/2/1
f 96/2/1 93/2/1 95/2/1
f 97/2/1 93/2/1 96/2/1
f 98/2/1 94/2/1 88/2/1
f 98/2/1 95/2/1 94/2/1
f 98/2/1 96/2/1 95/2/1
f 99/3/1 97/3/1 96/3/1
f 99/2/1 96/2/1 98/2/1
f 100/2/1 93/2/1 97/2/1
f 100/3/1 97/3/1 99/3/1
f 101/2/1 93/2/1 100/2/1
f 102/2/1 93/2/1 101/2/1
f 103/2/1 93/2/1 102/2/1
f 104/1/1 99/1/1 98/1/1
f 104/1/1 100/1/1 99/1/1
f 104/1/1 101/1/1 100/1/1
f 104/3/1 102/3/1 101/3/1
f 105/1/1 103/1/1 102/1/1
f 105/3/1 102/3/1 104/3/1
f 106/1/1 103/1/1 105/1/1
f 107/1/1 103/1/1 106/1/1
f 108/1/1 104/1/1 98/1/1
f 108/1/1 105/1/1 104/1/1
f 108/1/1 106/1/1 105/1/1
f 109/1/1 106/1/1 108/1/1
f 110/1/1 106/1/1 109/1/1
f 111/3/1 107/3/1 106/3/1
f 111/1/1 106/1/1 110/1/1
f 112/1/1 103/1/1 107/1/1
f 112/3/1 107/3/1 111/3/1
f 113/1/1 103/1/1 112/1/1
f 114/3/1 110/3/1 109/3/1
f 114/2/1 109/2/1 108/2/1
f 115/2/1 111/2/1 110/2/1
f 115/3/1 110/3/1 114/3/1
f 115/2/1 113/2/1 112/2/1
f 115/2/1 112/2/1 111/2/1
f 116/2/1 114/2/1 108/2/1
f 116/2/1 115/2/1 114/2/1
f 117/2/1 113/2/1 115/2/1
f 117/2/1 115/2/1 116/2/1
f 118/2/1 113/2/1 117/2/1
f 119/2/1 113/2/1 118/2/1
f 120/1/1 117/1/1 116/1/1
f 121/1/1 117/1/1 120/1/1
f 122/3/1 118/3/1 117/3/1
f 122/1/1 117/1/1 121/1/1
f 123/1/1 119/1/1 118/1/1
f 123/3/1 118/3/1 122/3/1
f 124/1/1 119/1/1 123/1/1
f 125/1/1 120/1/1 116/1/1
f 126/1/1 120/1/1 125/1/1
f 127/1/1 120/1/1 126/1/1
f 128/3/1 121/3/1 120/3/1
f 128/1/1 120/1/1 127/1/1
f 129/1/1 122/1/1 121/1/1
f 129/3/1 121/3/1 128/3/1
f 129/1/1 123/1/1 122/1/1
f 130/3/1 124/3/1 123/3/1
f 130/1/1 123/1/1 129/1/1
f 131/1/1 119/1/1 124/1/1
f 131/3/1 124/3/1 130/3/1
f 132/1/1 119/1/1 131/1/1
f 133/1/1 119/1/1 132/1/1
f 134/1/1 119/1/1 133/1/1
f 135/3/1 127/3/1 126/3/1
f 135/2/1 126/2/1 125/2/1
f 136/2/1 128/2/1 127/2/1
f 136/3/1 127/3/1 135/3/1
f 136/2/1 130/2/1 129/2/1
f 136/2/1 129/2/1 128/2/1
f 136/2/1 132/2/1 131/2/1
f 136/2/1 131/2/1 130/2/1
f 137/2/1 132/2/1 136/2/1
f 138/3/1 133/3/1 132/3/1
f 138/2/1 132/2/1 137/2/1
f 139/2/1 134/2/1 133/2/1
f 139/3/1 133/3/1 138/3/1
f 140/2/1 135/2/1 125/2/1
f 140/2/1 137/2/1 136/2/1
f 140/2/1 136/2/1 135/2/1
f 141/2/1 137/2/1 140/2/1
f 142/2/1 137/2/1 141/2/1
f 143/3/1 138/3/1 137/3/1
f 143/2/1 137/2/1 142/2/1
f 144/2/1 139/2/1 138/2/1
f 144/3/1 138/3/1 143/3/1
f 145/2/1 134/2/1 139/2/1
f 145/2/1 139/2/1 144/2/1
f 146/1/1 141/1/1 140/1/1
f 147/3/1 142/3/1 141/3/1
f 147/1/1 141/1/1 146/1/1
f 148/1/1 144/1/1 143/1/1
f 148/3/1 142/3/1 147/3/1
f 148/1/1 143/1/1 142/1/1
f 148/1/1 145/1/1 144/1/1
f 149/1/1 146/1/1 140/1/1
f 150/1/1 146/1/1 149/1/1
f 151/1/1 146/1/1 150/1/1
f 152/3/1 147/3/1 146/3/1
f 152/1/1 146/1/1 151/1/1
f 153/1/1 148/1/1 147/1/1
f 153/3/1 147/3/1 152/3/1
f 154/1/1 145/1/1 148/1/1
f 154/1/1 148/1/1 153/1/1
f 155/3/1 151/3/1 150/3/1
f 155/2/1 150/2/1 149/2/1
f 156/2/1 153/2/1 152/2/1
f 156/3/1 151/3/1 155/3/1
f 156/2/1 152/2/1 151/2/1
f 156/2/1 154/2/1 153/2/1
f 157/2/1 154/2/1 156/2/1
f 158/2/1 154/2/1 157/2/1
f 159/2/1 155/2/1 149/2/1
f 159/2/1 156/2/1 155/2/1
f 159/2/1 157/2/1 156/2/1
f 160/2/1 157/2/1 159/2/1
f 161/3/1 158/3/1 157/3/1
f 161/2/1 157/2/1 160/2/1
f 162/2/1 154/2/1 158/2/1
f 162/3/1 158/3/1 161/3/1
f 163/2/1 154/2/1 162/2/1
f 164/2/1 154/2/1 163/2/1
f 165/2/1 154/2/1 164/2/1
f 166/3/1 160/3/1 159/3/1
f 167/1/1 161/1/1 160/1/1
f 167/3/1 160/3/1 166/3/1
f 167/1/1 162/1/1 161/1/1
f 167/1/1 163/1/1 162/1/1
f 168/1/1 163/1/1 167/1/1
f 169/3/1 164/3/1 163/3/1
f 169/1/1 163/1/1 168/1/1
f 170/1/1 165/1/1 164/1/1
f 170/3/1 164/3/1 169/3/1
f 171/1/1 168/1/1 167/1/1
f 171/1/1 167/1/1 166/1/1
f 172/1/1 168/1/1 171/1/1
f 173/1/1 168/1/1 172/1/1
f 174/1/1 168/1/1 173/1/1
f 175/1/1 168/1/1 174/1/1
f 176/3/1 169/3/1 168/3/1
f 176/1/1 168/1/1 175/1/1
f 177/1/1 170/1/1 169/1/1
f 177/3/1 169/3/1 176/3/1
f 178/1/1 165/1/1 170/1/1
f 178/1/1 170/1/1 177/1/1
f 179/2/1 172/2/1 171/2/1
f 179/3/1 173/3/1 172/3/1
f 180/2/1 174/2/1 173/2/1
f 180/3/1 173/3/1 179/3/1
f 181/3/1 175/3/1 174/3/1
f 181/2/1 174/2/1 180/2/1
f 182/2/1 177/2/1 176/2/1
f 182/3/1 175/3/1 181/3/1
f 182/2/1 176/2/1 175/2/1
f 182/2/1 178/2/1 177/2/1
f 183/2/1 180/2/1 179/2/1
f 183/2/1 181/2/1 180/2/1
f 183/2/1 182/2/1 181/2/1
f 183/2/1 179/2/1 171/2/1
f 184/2/1 178/2/1 182/2/1
f 184/2/1 182/2/1 183/2/1
f 185/2/1 178/2/1 184/2/1
f 186/2/1 178/2/1 185/2/1
f 187/2/1 178/2/1 186/2/1
f 188/2/1 178/2/1 187/2/1
f 189/1/1 184/1/1 183/1/1
f 189/3/1 185/3/1 184/3/1
f 190/1/1 186/1/1 185/1/1
f 190/3/1 185/3/1 189/3/1
f 191/3/1 187/3/1 186/3/1
f 191/1/1 186/1/1 190/1/1
f 192/1/1 188/1/1 187/1/1
f 192/3/1 187/3/1 191/3/1
f 193/1/1 191/1/1 190/1/1
f 193/1/1 189/1/1 183/1/1
f 193/1/1 192/1/1 191/1/1
f 193/1/1 190/1/1 189/1/1
f 194/1/1 192/1/1 193/1/1
f 195/1/1 192/1/1 194/1/1
f 196/1/1 188/1/1 192/1/1
f 196/1/1 192/1/1 195/1/1
f 197/1/1 188/1/1 196/1/1
f 198/1/1 188/1/1 197/1/1
f 199/3/1 195/3/1 194/3/1
f 199/2/1 194/2/1 193/2/1
f 200/2/1 196/2/1 195/2/1
f 200/3/1 195/3/1 199/3/1
f 201/2/1 196/2/1 200/2/1
f 202/3/1 197/3/1 196/3/1
f 202/2/1 196/2/1 201/2/1
f 203/2/1 198/2/1 197/2/1
f 203/3/1 197/3/1 202/3/1
f 204/2/1 199/2/1 193/2/1
f 204/2/1 201/2/1 200/2/1
f 204/2/1 200/2/1 199/2/1
f 205/3/1 202/3/1 201/3/1
f 205/2/1 201/2/1 204/2/1
f 206/2/1 203/2/1 202/2/1
f 206/3/1 202/3/1 205/3/1
f 207/2/1 198/2/1 203/2/1
f 207/2/1 203/2/1 206/2/1
f 208/1/2 209/1/2 214/1/2
f 214/1/2 209/1/2 215/1/2
f 215/1/2 209/1/2 216/1/2
f 209/3/2 210/3/2 217/3/2
f 216/1/2 209/1/2 217/1/2
f 210/1/2 211/1/2 218/1/2
f 217/3/2 210/3/2 218/3/2
f 211/3/2 212/3/2 219/3/2
f 218/1/2 211/1/2 219/1/2
f 212/1/2 213/1/2 220/1/2
f 219/3/2 212/3/2 220/3/2
f 208/1/2 214/1/2 221/1/2
f 214/3/2 215/3/2 222/3/2
f 221/1/2 214/1/2 222/1/2
f 215/1/2 216/1/2 223/1/2
f 222/3/2 215/3/2 223/3/2
f 216/3/2 217/3/2 224/3/2
f 223/1/2 216/1/2 224/1/2
f 218/1/2 219/1/2 225/1/2
f 224/3/2 217/3/2 225/3/2
f 217/1/2 218/1/2 225/1/2
f 219/1/2 220/1/2 225/1/2
f 220/1/2 213/1/2 226/1/2
f 225/1/2 220/1/2 226/1/2
f 226/1/2 213/1/2 227/1/2
f 227/1/2 213/1/2 228/1/2
f 223/2/2 224/2/2 229/2/2
f 221/2/2 222/2/2 229/2/2
f 222/2/2 223/2/2 229/2/2
f 226/3/2 227/3/2 229/3/2
f 225/2/2 226/2/2 229/2/2
f 224/2/2 225/2/2 229/2/2
f 227/2/2 228/2/2 230/2/2
f 229/3/2 227/3/2 230/3/2
f 221/2/2 229/2/2 231/2/2
f 229/2/2 230/2/2 231/2/2
f 231/2/2 230/2/2 232/2/2
f 232/2/2 230/2/2 233/2/2
f 230/2/2 228/2/2 234/2/2
f 233/2/2 230/2/2 234/2/2
f 231/1/2 232/1/2 235/1/2
f 235/1/2 232/1/2 236/1/2
f 232/3/2 233/3/2 237/3/2
f 236/1/2 232/1/2 237/1/2
f 233/1/2 234/1/2 238/1/2
f 237/3/2 233/3/2 238/3/2
f 231/1/2 235/1/2 239/1/2
f 235/3/2 236/3/2 240/3/2
f 239/1/2 235/1/2 240/1/2
f 236/1/2 237/1/2 241/1/2
f 240/3/2 236/3/2 241/3/2
f 237/1/2 238/1/2 241/1/2
f 238/1/2 234/1/2 242/1/2
f 241/1/2 238/1/2 242/1/2
f 239/2/2 240/2/2 243/2/2
f 240/2/2 241/2/2 243/2/2
f 241/2/2 242/2/2 243/2/2
f 243/2/2 242/2/2 244/2/2
f 239/2/2 243/2/2 245/2/2
f 243/3/2 244/3/2 246/3/2
f 245/2/2 243/2/2 246/2/2
f 244/2/2 242/2/2 247/2/2
f 246/3/2 244/3/2 247/3/2
f 247/2/2 242/2/2 248/2/2
f 245/1/2 246/1/2 249/1/2
f 246/1/2 247/1/2 249/1/2
f 247/1/2 248/1/2 249/1/2
f 249/1/2 248/1/2 250/1/2
f 250/1/2 248/1/2 251/1/2
f 251/1/2 248/1/2 252/1/2
f 245/1/2 249/1/2 253/1/2
f 249/3/2 250/3/2 254/3/2
f 253/1/2 249/1/2 254/1/2
f 250/1/2 251/1/2 255/1/2
f 254/3/2 250/3/2 255/3/2
f 255/1/2 251/1/2 256/1/2
f 251/3/2 252/3/2 257/3/2
f 256/1/2 251/1/2 257/1/2
f 252/1/2 248/1/2 258/1/2
f 257/3/2 252/3/2 258/3/2
f 258/1/2 248/1/2 259/1/2
f 253/2/2 254/2/2 260/2/2
f 255/3/2 256/3/2 260/3/2
f 254/2/2 255/2/2 260/2/2
f 256/2/2 257/2/2 261/2/2
f 260/3/2 256/3/2 261/3/2
f 257/2/2 258/2/2 261/2/2
f 261/2/2 258/2/2 262/2/2
f 262/2/2 258/2/2 263/2/2
f 258/3/2 259/3/2 264/3/2
f 263/2/2 258/2/2 264/2/2
f 264/3/2 259/3/2 265/3/2
f 253/2/2 260/2/2 266/2/2
f 260/2/2 261/2/2 266/2/2
f 261/2/2 262/2/2 266/2/2
f 266/2/2 262/2/2 267/2/2
f 262/3/2 263/3/2 268/3/2
f 267/2/2 262/2/2 268/2/2
f 264/2/2 265/2/2 269/2/2
f 268/3/2 263/3/2 269/3/2
f 263/2/2 264/2/2 269/2/2
f 269/2/2 265/2/2 270/2/2
f 266/1/2 267/1/2 271/1/2
f 271/1/2 267/1/2 272/1/2
f 267/3/2 268/3/2 273/3/2
f 272/1/2 267/1/2 273/1/2
f 268/1/2 269/1/2 274/1/2
f 273/3/2 268/3/2 274/3/2
f 269/1/2 270/1/2 274/1/2
f 266/1/2 271/1/2 275/1/2
f 271/3/2 272/3/2 276/3/2
f 275/1/2 271/1/2 276/1/2
f 272/1/2 273/1/2 277/1/2
f 276/3/2 272/3/2 277/3/2
f 273/1/2 274/1/2 277/1/2
f 274/1/2 270/1/2 278/1/2
f 277/1/2 274/1/2 278/1/2
f 278/1/2 270/1/2 279/1/2
f 279/1/2 270/1/2 280/1/2
f 275/2/2 276/2/2 281/2/2
f 276/2/2 277/2/2 281/2/2
f 277/2/2 278/2/2 281/2/2
f 281/2/2 278/2/2 282/2/2
f 278/3/2 279/3/2 283/3/2
f 282/2/2 278/2/2 283/2/2
f 279/2/2 280/2/2 284/2/2
f 283/3/2 279/3/2 284/3/2
f 275/2/2 281/2/2 285/2/2
f 285/2/2 281/2/2 286/2/2
f 286/2/2 281/2/2 287/2/2
f 281/3/2 282/3/2 288/3/2
f 287/2/2 281/2/2 288/2/2
f 282/2/2 283/2/2 289/2/2
f 288/3/2 282/3/2 289/3/2
f 283/2/2 284/2/2 289/2/2
f 284/2/2 280/2/2 290/2/2
f 289/2/2 284/2/2 290/2/2
f 286/3/2 287/3/2 291/3/2
f 285/1/2 286/1/2 291/1/2
f 287/1/2 288/1/2 292/1/2
f 291/3/2 287/3/2 292/3/2
f 288/1/2 289/1/2 292/1/2
f 289/1/2 290/1/2 292/1/2
f 292/1/2 290/1/2 293/1/2
f 293/1/2 290/1/2 294/1/2
f 285/1/2 291/1/2 295/1/2
f 291/1/2 292/1/2 295/1/2
f 292/1/2 293/1/2 295/1/2
f 295/1/2 293/1/2 296/1/2
f 296/1/2 293/1/2 297/1/2
f 293/3/2 294/3/2 298/3/2
f 297/1/2 293/1/2 298/1/2
f 294/1/2 290/1/2 299/1/2
f 298/3/2 294/3/2 299/3/2
f 299/1/2 290/1/2 300/1/2
f 296/3/2 297/3/2 301/3/2
f 295/2/2 296/2/2 301/2/2
f 297/2/2 298/2/2 302/2/2
f 301/3/2 297/3/2 302/3/2
f 299/2/2 300/2/2 302/2/2
f 298/2/2 299/2/2 302/2/2
f 302/2/2 300/2/2 303/2/2
f 303/2/2 300/2/2 304/2/2
f 295/2/2 301/2/2 305/2/2
f 301/2/2 302/2/2 305/2/2
f 302/2/2 303/2/2 305/2/2
f 303/3/2 304/3/2 306/3/2
f 305/2/2 303/2/2 306/2/2
f 304/2/2 300/2/2 307/2/2
f 306/3/2 304/3/2 307/3/2
f 307/2/2 300/2/2 308/2/2
f 308/2/2 300/2/2 309/2/2
f 309/2/2 300/2/2 310/2/2
f 305/1/2 306/1/2 311/1/2
f 306/1/2 307/1/2 311/1/2
f 307/1/2 308/1/2 311/1/2
f 308/3/2 309/3/2 311/3/2
f 309/1/2 310/1/2 312/1/2
f 311/3/2 309/3/2 312/3/2
f 312/1/2 310/1/2 313/1/2
f 313/1/2 310/1/2 314/1/2
f 305/1/2 311/1/2 315/1/2
f 311/1/2 312/1/2 315/1/2
f 312/1/2 313/1/2 315/1/2
f 315/1/2 313/1/2 316/1/2
f 316/1/2 313/1/2 317/1/2
f 313/3/2 314/3/2 318/3/2
f 317/1/2 313/1/2 318/1/2
f 314/1/2 310/1/2 319/1/2
f 318/3/2 314/3/2 319/3/2
f 319/1/2 310/1/2 320/1/2
f 316/3/2 317/3/2 321/3/2
f 315/2/2 316/2/2 321/2/2
f 317/2/2 318/2/2 322/2/2
f 321/3/2 317/3/2 322/3/2
f 319/2/2 320/2/2 322/2/2
f 318/2/2 319/2/2 322/2/2
f 315/2/2 321/2/2 323/2/2
f 321/2/2 322/2/2 323/2/2
f 322/2/2 320/2/2 324/2/2
f 323/2/2 322/2/2 324/2/2
f 324/2/2 320/2/2 325/2/2
f 325/2/2 320/2/2 326/2/2
f 323/1/2 324/1/2 327/1/2
f 327/1/2 324/1/2 328/1/2
f 324/3/2 325/3/2 329/3/2
f 328/1/2 324/1/2 329/1/2
f 325/1/2 326/1/2 330/1/2
f 329/3/2 325/3/2 330/3/2
f 330/1/2 326/1/2 331/1/2
f 323/1/2 327/1/2 332/1/2
f 332/1/2 327/1/2 333/1/2
f 333/1/2 327/1/2 334/1/2
f 327/3/2 328/3/2 335/3/2
f 334/1/2 327/1/2 335/1/2
f 328/1/2 329/1/2 336/1/2
f 335/3/2 328/3/2 336/3/2
f 329/1/2 330/1/2 336/1/2
f 330/3/2 331/3/2 337/3/2
f 336/1/2 330/1/2 337/1/2
f 331/1/2 326/1/2 338/1/2
f 337/3/2 331/3/2 338/3/2
f 338/1/2 326/1/2 339/1/2
f 339/1/2 326/1/2 340/1/2
f 340/1/2 326/1/2 341/1/2
f 333/3/2 334/3/2 342/3/2
f 332/2/2 333/2/2 342/2/2
f 334/2/2 335/2/2 343/2/2
f 342/3/2 334/3/2 343/3/2
f 336/2/2 337/2/2 343/2/2
f 335/2/2 336/2/2 343/2/2
f 338/2/2 339/2/2 343/2/2
f 337/2/2 338/2/2 343/2/2
f 343/2/2 339/2/2 344/2/2
f 339/3/2 340/3/2 345/3/2
f 344/2/2 339/2/2 345/2/2
f 340/2/2 341/2/2 346/2/2
f 345/3/2 340/3/2 346/3/2
f 332/2/2 342/2/2 347/2/2
f 343/2/2 344/2/2 347/2/2
f 342/2/2 343/2/2 347/2/2
f 347/2/2 344/2/2 348/2/2
f 348/2/2 344/2/2 349/2/2
f 344/3/2 345/3/2 350/3/2
f 349/2/2 344/2/2 350/2/2
f 345/2/2 346/2/2 351/2/2
f 350/3/2 345/3/2 351/3/2
f 346/2/2 341/2/2 352/2/2
f 351/2/2 346/2/2 352/2/2
f 347/1/2 348/1/2 353/1/2
f 348/3/2 349/3/2 354/3/2
f 353/1/2 348/1/2 354/1/2
f 350/1/2 351/1/2 355/1/2
f 354/3/2 349/3/2 355/3/2
f 349/1/2 350/1/2 355/1/2
f 351/1/2 352/1/2 355/1/2
f 347/1/2 353/1/2 356/1/2
f 356/1/2 353/1/2 357/1/2
f 357/1/2 353/1/2 358/1/2
f 353/3/2 354/3/2 359/3/2
f 358/1/2 353/1/2 359/1/2
f 354/1/2 355/1/2 360/1/2
f 359/3/2 354/3/2 360/3/2
f 355/1/2 352/1/2 361/1/2
f 360/1/2 355/1/2 361/1/2
f 357/3/2 358/3/2 362/3/2
f 356/2/2 357/2/2 362/2/2
f 359/2/2 360/2/2 363/2/2
f 362/3/2 358/3/2 363/3/2
f 358/2/2 359/2/2 363/2/2
f 360/2/2 361/2/2 363/2/2
f 363/2/2 361/2/2 364/2/2
f 364/2/2 361/2/2 365/2/2
f 356/2/2 362/2/2 366/2/2
f 362/2/2 363/2/2 366/2/2
f 363/2/2 364/2/2 366/2/2
f 366/2/2 364/2/2 367/2/2
f 364/3/2 365/3/2 368/3/2
f 367/2/2 364/2/2 368/2/2
f 365/2/2 361/2/2 369/2/2
f 368/3/2 365/3/2 369/3/2
f 369/2/2 361/2/2 370/2/2
f 370/2/2 361/2/2 371/2/2
f 371/2/2 361/2/2 372/2/2
f 366/3/2 367/3/2 373/3/2
f 367/1/2 368/1/2 374/1/2
f 373/3/2 367/3/2 374/3/2
f 368/1/2 369/1/2 374/1/2
f 369/1/2 370/1/2 374/1/2
f 374/1/2 370/1/2 375/1/2
f 370/3/2 371/3/2 376/3/2
f 375/1/2 370/1/2 376/1/2
f 371/1/2 372/1/2 377/1/2
f 376/3/2 371/3/2 377/3/2
f 374/1/2 375/1/2 378/1/2
f 373/1/2 374/1/2 378/1/2
f 378/1/2 375/1/2 379/1/2
f 379/1/2 375/1/2 380/1/2
f 380/1/2 375/1/2 381/1/2
f 381/1/2 375/1/2 382/1/2
f 375/3/2 376/3/2 383/3/2
f 382/1/2 375/1/2 383/1/2
f 376/1/2 377/1/2 384/1/2
f 383/3/2 376/3/2 384/3/2
f 377/1/2 372/1/2 385/1/2
f 384/1/2 377/1/2 385/1/2
f 378/2/2 379/2/2 386/2/2
f 379/3/2 380/3/2 386/3/2
f 380/2/2 381/2/2 387/2/2
f 386/3/2 380/3/2 387/3/2
f 381/3/2 382/3/2 388/3/2
f 387/2/2 381/2/2 388/2/2
f 383/2/2 384/2/2 389/2/2
f 388/3/2 382/3/2 389/3/2
f 382/2/2 383/2/2 389/2/2
f 384/2/2 385/2/2 389/2/2
f 386/2/2 387/2/2 390/2/2
f 387/2/2 388/2/2 390/2/2
f 388/2/2 389/2/2 390/2/2
f 378/2/2 386/2/2 390/2/2
f 389/2/2 385/2/2 391/2/2
f 390/2/2 389/2/2 391/2/2
f 391/2/2 385/2/2 392/2/2
f 392/2/2 385/2/2 393/2/2
f 393/2/2 385/2/2 394/2/2
f 394/2/2 385/2/2 395/2/2
f 390/1/2 391/1/2 396/1/2
f 391/3/2 392/3/2 396/3/2
f 392/1/2 393/1/2 397/1/2
f 396/3/2 392/3/2 397/3/2
f 393/3/2 394/3/2 398/3/2
f 397/1/2 393/1/2 398/1/2
f 394/1/2 395/1/2 399/1/2
f 398/3/2 394/3/2 399/3/2
f 397/1/2 398/1/2 400/1/2
f 390/1/2 396/1/2 400/1/2
f 398/1/2 399/1/2 400/1/2
f 396/1/2 397/1/2 400/1/2
f 400/1/2 399/1/2 401/1/2
f 401/1/2 399/1/2 402/1/2
f 399/1/2 395/1/2 403/1/2
f 402/1/2 399/1/2 403/1/2
f 403/1/2 395/1/2 404/1/2
f 404/1/2 395/1/2 405/1/2
f 401/3/2 402/3/2 406/3/2
f 400/2/2 401/2/2 406/2/2
f 402/2/2 403/2/2 407/2/2
f 406/3/2 402/3/2 407/3/2
f 407/2/2 403/2/2 408/2/2
f 403/3/2 404/3/2 409/3/2
f 408/2/2 403/2/2 409/2/2
f 404/2/2 405/2/2 410/2/2
f 409/3/2 404/3/2 410/3/2
f 400/2/2 406/2/2 411/2/2
f 407/2/2 408/2/2 411/2/2
f 406/2/2 407/2/2 411/2/2
f 408/3/2 409/3/2 412/3/2
f 411/2/2 408/2/2 412/2/2
f 409/2/2 410/2/2 413/2/2
f 412/3/2 409/3/2 413/3/2
f 410/2/2 405/2/2 414/2/2
f 413/2/2 410/2/2 414/2/2
f 437/1/3 416/1/3 415/1/3
f 438/2/3 417/2/3 416/2/3
f 438/1/3 416/1/3 437/1/3
f 439/1/3 418/1/3 417/1/3
f 439/2/3 417/2/3 438/2/3
f 440/2/3 419/2/3 418/2/3
f 440/1/3 418/1/3 439/1/3
f 441/1/3 420/1/3 419/1/3
f 441/2/3 419/2/3 440/2/3
f 442/2/3 421/2/3 420/2/3
f 442/1/3 420/1/3 441/1/3
f 443/1/3 422/1/3 421/1/3
f 443/2/3 421/2/3 442/2/3
f 444/2/3 423/2/3 422/2/3
f 444/1/3 422/1/3 443/1/3
f 445/1/3 424/1/3 423/1/3
f 445/2/3 423/2/3 444/2/3
f 446/2/3 425/2/3 424/2/3
f 446/1/3 424/1/3 445/1/3
f 447/1/3 426/1/3 425/1/3
f 447/2/3 425/2/3 446/2/3
f 448/2/3 427/2/3 426/2/3
f 448/1/3 426/1/3 447/1/3
f 449/1/3 428/1/3 427/1/3
f 449/2/3 427/2/3 448/2/3
f 450/2/3 429/2/3 428/2/3
f 450/1/3 428/1/3 449/1/3
f 451/1/3 430/1/3 429/1/3
f 451/2/3 429/2/3 450/2/3
f 452/2/3 431/2/3 430/2/3
f 452/1/3 430/1/3 451/1/3
f 453/3/3 432/3/3 431/3/3
f 453/2/3 431/2/3 452/2/3
f 454/1/3 433/1/3 432/1/3
f 454/3/3 432/3/3 453/3/3
f 455/2/3 434/2/3 433/2/3
f 455/1/3 433/1/3 454/1/3
f 456/1/3 435/1/3 434/1/3
f 456/2/3 434/2/3 455/2/3
f 457/2/3 436/2/3 435/2/3
f 457/1/3 435/1/3 456/1/3
f 458/2/3 436/2/3 457/2/3
f 459/1/4 460/1/4 481/1/4
f 460/2/4 461/2/4 482/2/4
f 481/1/4 460/1/4 482/1/4
f 461/1/4 462/1/4 483/1/4
f 482/2/4 461/2/4 483/2/4
f 462/2/4 463/2/4 484/2/4
f 483/1/4 462/1/4 484/1/4
f 463/1/4 464/1/4 485/1/4
f 484/2/4 463/2/4 485/2/4
f 464/3/4 465/3/4 486/3/4
f 485/1/4 464/1/4 486/1/4
f 465/2/4 466/2/4 487/2/4
f 486/3/4 465/3/4 487/3/4
f 466/1/4 467/1/4 488/1/4
f 487/2/4 466/2/4 488/2/4
f 467/2/4 468/2/4 489/2/4
f 488/1/4 467/1/4 489/1/4
f 468/1/4 469/1/4 490/1/4
f 489/2/4 468/2/4 490/2/4
f 469/2/4 470/2/4 491/2/4
f 490/1/4 469/1/4 491/1/4
f 470/1/4 471/1/4 492/1/4
f 491/2/4 470/2/4 492/2/4
f 471/2/4 472/2/4 493/2/4
f 492/1/4 471/1/4 493/1/4
f 472/1/4 473/1/4 494/1/4
f 493/2/4 472/2/4 494/2/4
f 473/2/4 474/2/4 495/2/4
f 494/1/4 473/1/4 495/1/4
f 474/1/4 475/1/4 496/1/4
f 495/2/4 474/2/4 496/2/4
f 475/2/4 476/2/4 497/2/4
f 496/1/4 475/1/4 497/1/4
f 476/1/4 477/1/4 498/1/4
f 497/2/4 476/2/4 498/2/4
f 477/2/4 478/2/4 499/2/4
f 498/1/4 477/1/4 499/1/4
f 478/1/4 479/1/4 500/1/4
f 499/2/4 478/2/4 500/2/4
f 479/2/4 480/2/4 501/2/4
f 500/1/4 479/1/4 501/1/4
f 501/2/4 480/2/4 502/2/4
f 505/1/5 504/1/5 503/1/5
f 506/1/5 504/1/5 505/1/5
f 507/3/5 506/3/5 505/3/5
f 508/3/5 506/3/5 507/3/5
f 509/1/5 508/1/5 507/1/5
f 510/1/5 508/1/5 509/1/5
f 511/3/5 510/3/5 509/3/5
f 512/3/5 510/3/5 511/3/5
f 513/1/5 512/1/5 511/1/5
f 514/1/5 512/1/5 513/1/5
f 515/2/6 516/2/6 517/2/6
f 517/2/6 516/2/6 518/2/6
f 517/3/6 518/3/6 519/3/6
f 519/3/6 518/3/6 520/3/6
f 519/2/6 520/2/6 521/2/6
f 521/2/6 520/2/6 522/2/6
