Library\Bee\artifacts\mvdfrm\Unity.Services.Core.ref.dll_131AC9C5EC6E6517.mvfrm
Library\Bee\artifacts\mvdfrm\UnityEditor.UI.ref.dll_4C98D3F7040CD4F5.mvfrm
Library\Bee\artifacts\mvdfrm\UnityEngine.UI.ref.dll_08FEAA520A2EFD60.mvfrm
Library\Bee\artifacts\mvdfrm\UnityEditor.Graphs.dll_184FF3FD8A1E83B4.mvfrm
Library\Bee\artifacts\mvdfrm\UnityEditor.CoreModule.dll_EC3F9311BFD9FB82.mvfrm
Library\Bee\artifacts\mvdfrm\UnityEditor.DeviceSimulatorModule.dll_CD047AD0ECA5F7DF.mvfrm
Library\Bee\artifacts\mvdfrm\UnityEditor.DiagnosticsModule.dll_2106DCE5F2029A6D.mvfrm
Library\Bee\artifacts\mvdfrm\UnityEditor.dll_DC700EDE8DC71673.mvfrm
Library\Bee\artifacts\mvdfrm\UnityEditor.GraphViewModule.dll_2BE91A27B22132A4.mvfrm
Library\Bee\artifacts\mvdfrm\UnityEditor.PackageManagerUIModule.dll_6B973F0597C0FA5E.mvfrm
Library\Bee\artifacts\mvdfrm\UnityEditor.QuickSearchModule.dll_AC165DF34AD996C6.mvfrm
Library\Bee\artifacts\mvdfrm\UnityEditor.SceneTemplateModule.dll_4729A96C7B6E0A07.mvfrm
Library\Bee\artifacts\mvdfrm\UnityEditor.TextCoreFontEngineModule.dll_69F121B52FCCB2C0.mvfrm
Library\Bee\artifacts\mvdfrm\UnityEditor.TextCoreTextEngineModule.dll_B1D95826BF506BDE.mvfrm
Library\Bee\artifacts\mvdfrm\UnityEditor.UIBuilderModule.dll_8071C74424D9ABD8.mvfrm
Library\Bee\artifacts\mvdfrm\UnityEditor.UIElementsModule.dll_B731F859AB908F7E.mvfrm
Library\Bee\artifacts\mvdfrm\UnityEditor.UIElementsSamplesModule.dll_8479A99B6C5853CF.mvfrm
Library\Bee\artifacts\mvdfrm\UnityEditor.UIServiceModule.dll_B963D8A70E10FBF2.mvfrm
Library\Bee\artifacts\mvdfrm\UnityEditor.UnityConnectModule.dll_BC702389F06A6B38.mvfrm
Library\Bee\artifacts\mvdfrm\UnityEngine.AccessibilityModule.dll_79CF15037BE431A4.mvfrm
Library\Bee\artifacts\mvdfrm\UnityEngine.AIModule.dll_C2E677F4D5406D96.mvfrm
Library\Bee\artifacts\mvdfrm\UnityEngine.AndroidJNIModule.dll_357AE12CF4AFFE54.mvfrm
Library\Bee\artifacts\mvdfrm\UnityEngine.AnimationModule.dll_FA6E96508C7E074A.mvfrm
Library\Bee\artifacts\mvdfrm\UnityEngine.ARModule.dll_7C593CF8325DCC5F.mvfrm
Library\Bee\artifacts\mvdfrm\UnityEngine.AssetBundleModule.dll_EFFF90E4AD404BB8.mvfrm
Library\Bee\artifacts\mvdfrm\UnityEngine.AudioModule.dll_95D150E0615D85BC.mvfrm
Library\Bee\artifacts\mvdfrm\UnityEngine.ClothModule.dll_FCB9ADDB3B7A64A0.mvfrm
Library\Bee\artifacts\mvdfrm\UnityEngine.ClusterInputModule.dll_3C0C989FA1F23DFE.mvfrm
Library\Bee\artifacts\mvdfrm\UnityEngine.ClusterRendererModule.dll_D2B13D425C610563.mvfrm
Library\Bee\artifacts\mvdfrm\UnityEngine.CoreModule.dll_0F60666467DF66AD.mvfrm
Library\Bee\artifacts\mvdfrm\UnityEngine.CrashReportingModule.dll_499C7D20B68C6865.mvfrm
Library\Bee\artifacts\mvdfrm\UnityEngine.DirectorModule.dll_90E2DCB264DD780A.mvfrm
Library\Bee\artifacts\mvdfrm\UnityEngine.dll_0F1455B6EC3AA358.mvfrm
Library\Bee\artifacts\mvdfrm\UnityEngine.DSPGraphModule.dll_96343E1BD73E492B.mvfrm
Library\Bee\artifacts\mvdfrm\UnityEngine.GameCenterModule.dll_5FC82B47BAF0EF45.mvfrm
Library\Bee\artifacts\mvdfrm\UnityEngine.GIModule.dll_5B22C10270EF55B0.mvfrm
Library\Bee\artifacts\mvdfrm\UnityEngine.GridModule.dll_ECD182528033FCA4.mvfrm
Library\Bee\artifacts\mvdfrm\UnityEngine.HotReloadModule.dll_7BB7545667B122CC.mvfrm
Library\Bee\artifacts\mvdfrm\UnityEngine.ImageConversionModule.dll_3EA33AF2DE85BD57.mvfrm
Library\Bee\artifacts\mvdfrm\UnityEngine.IMGUIModule.dll_CE30F047278F199D.mvfrm
Library\Bee\artifacts\mvdfrm\UnityEngine.InputLegacyModule.dll_8144AC03453201A9.mvfrm
Library\Bee\artifacts\mvdfrm\UnityEngine.InputModule.dll_FC471890D795AA60.mvfrm
Library\Bee\artifacts\mvdfrm\UnityEngine.JSONSerializeModule.dll_D9E69E3F7B1F922E.mvfrm
Library\Bee\artifacts\mvdfrm\UnityEngine.LocalizationModule.dll_7A5962F2396E30F7.mvfrm
Library\Bee\artifacts\mvdfrm\UnityEngine.ParticleSystemModule.dll_9CAEC66D249DF3F3.mvfrm
Library\Bee\artifacts\mvdfrm\UnityEngine.PerformanceReportingModule.dll_5F082C6599FEE86C.mvfrm
Library\Bee\artifacts\mvdfrm\UnityEngine.Physics2DModule.dll_471486412D7AFEDF.mvfrm
Library\Bee\artifacts\mvdfrm\UnityEngine.PhysicsModule.dll_251AFD9DF92D800D.mvfrm
Library\Bee\artifacts\mvdfrm\UnityEngine.ProfilerModule.dll_C32915E8FE36FF17.mvfrm
Library\Bee\artifacts\mvdfrm\UnityEngine.RuntimeInitializeOnLoadManagerInitializerModule.dll_D74D87DE4B80ADA8.mvfrm
Library\Bee\artifacts\mvdfrm\UnityEngine.ScreenCaptureModule.dll_F3CE4BC48F8BBE90.mvfrm
Library\Bee\artifacts\mvdfrm\UnityEngine.SharedInternalsModule.dll_C2B479C855B3B8A7.mvfrm
Library\Bee\artifacts\mvdfrm\UnityEngine.SpriteMaskModule.dll_48F49DD7DC6084BF.mvfrm
Library\Bee\artifacts\mvdfrm\UnityEngine.SpriteShapeModule.dll_0960BE3F62E283C2.mvfrm
Library\Bee\artifacts\mvdfrm\UnityEngine.StreamingModule.dll_AF0383A0DC05BE88.mvfrm
Library\Bee\artifacts\mvdfrm\UnityEngine.SubstanceModule.dll_8BAE97EA2758BC96.mvfrm
Library\Bee\artifacts\mvdfrm\UnityEngine.SubsystemsModule.dll_B3A20439AAA86CD2.mvfrm
Library\Bee\artifacts\mvdfrm\UnityEngine.TerrainModule.dll_3F61790CCEEBC8FB.mvfrm
Library\Bee\artifacts\mvdfrm\UnityEngine.TerrainPhysicsModule.dll_9D296F403DE0EE80.mvfrm
Library\Bee\artifacts\mvdfrm\UnityEngine.TextCoreFontEngineModule.dll_E8509D0842CA718B.mvfrm
Library\Bee\artifacts\mvdfrm\UnityEngine.TextCoreTextEngineModule.dll_3038D379D24E2AA9.mvfrm
Library\Bee\artifacts\mvdfrm\UnityEngine.TextRenderingModule.dll_1D0DBDCF46C33E85.mvfrm
Library\Bee\artifacts\mvdfrm\UnityEngine.TilemapModule.dll_DE5DE08DE6A8AA04.mvfrm
Library\Bee\artifacts\mvdfrm\UnityEngine.TLSModule.dll_DB210818A96985A1.mvfrm
Library\Bee\artifacts\mvdfrm\UnityEngine.UIElementsModule.dll_B7E065A1ADD4A8C9.mvfrm
Library\Bee\artifacts\mvdfrm\UnityEngine.UIElementsNativeModule.dll_B610F39B09396A80.mvfrm
Library\Bee\artifacts\mvdfrm\UnityEngine.UIModule.dll_BE5A162231877342.mvfrm
Library\Bee\artifacts\mvdfrm\UnityEngine.UmbraModule.dll_10A5FCF8EE84312F.mvfrm
Library\Bee\artifacts\mvdfrm\UnityEngine.UNETModule.dll_A206AE4DB4EE5C26.mvfrm
Library\Bee\artifacts\mvdfrm\UnityEngine.UnityAnalyticsModule.dll_BC4E3736D0C545EF.mvfrm
Library\Bee\artifacts\mvdfrm\UnityEngine.UnityConnectModule.dll_A9CFA798EAF26BE3.mvfrm
Library\Bee\artifacts\mvdfrm\UnityEngine.UnityCurlModule.dll_2D8B3781FC91F937.mvfrm
Library\Bee\artifacts\mvdfrm\UnityEngine.UnityTestProtocolModule.dll_403C5F8DC653A925.mvfrm
Library\Bee\artifacts\mvdfrm\UnityEngine.UnityWebRequestAssetBundleModule.dll_F129ABACF0D1C400.mvfrm
Library\Bee\artifacts\mvdfrm\UnityEngine.UnityWebRequestAudioModule.dll_D70480442069B304.mvfrm
Library\Bee\artifacts\mvdfrm\UnityEngine.UnityWebRequestModule.dll_5042429CE97A57D6.mvfrm
Library\Bee\artifacts\mvdfrm\UnityEngine.UnityWebRequestTextureModule.dll_710ED741FA769159.mvfrm
Library\Bee\artifacts\mvdfrm\UnityEngine.UnityWebRequestWWWModule.dll_FAFB18D5C20DE715.mvfrm
Library\Bee\artifacts\mvdfrm\UnityEngine.VehiclesModule.dll_08A5D631DF0747A5.mvfrm
Library\Bee\artifacts\mvdfrm\UnityEngine.VFXModule.dll_5BFFA0877FD6EF0E.mvfrm
Library\Bee\artifacts\mvdfrm\UnityEngine.VideoModule.dll_BADAD54B23EFA161.mvfrm
Library\Bee\artifacts\mvdfrm\UnityEngine.VirtualTexturingModule.dll_DA9DA809E1E7EB0B.mvfrm
Library\Bee\artifacts\mvdfrm\UnityEngine.VRModule.dll_112C3CA7D341F8BA.mvfrm
Library\Bee\artifacts\mvdfrm\UnityEngine.WindModule.dll_85AF418CF915E516.mvfrm
Library\Bee\artifacts\mvdfrm\UnityEngine.XRModule.dll_43EAFFAC5C7C4618.mvfrm
Library\Bee\artifacts\mvdfrm\Unity.Android.Gradle.dll_51CD6161F956066A.mvfrm
Library\Bee\artifacts\mvdfrm\Unity.Android.Types.dll_1ABA69609D15AF72.mvfrm
Library\Bee\artifacts\mvdfrm\UnityEditor.Android.Extensions.dll_9B82C9D1F622D8EA.mvfrm
Library\Bee\artifacts\mvdfrm\UnityEditor.WebGL.Extensions.dll_F745F3A4D90C804E.mvfrm
Library\Bee\artifacts\mvdfrm\UnityEditor.WindowsStandalone.Extensions.dll_B2FFC6841CC5A03E.mvfrm
Library\Bee\artifacts\mvdfrm\Unity.Plastic.Antlr3.Runtime.dll_E98A0249238FB210.mvfrm
Library\Bee\artifacts\mvdfrm\Unity.Plastic.Newtonsoft.Json.dll_3F384F29370FA225.mvfrm
Library\Bee\artifacts\mvdfrm\Unity.VisualScripting.IonicZip.dll_9AA551BB42AF93AA.mvfrm
Library\Bee\artifacts\mvdfrm\Unity.VisualScripting.YamlDotNet.dll_2AF2EF907422D7F2.mvfrm
Library\Bee\artifacts\mvdfrm\Unity.VisualScripting.Antlr3.Runtime.dll_DC601671A4EBE811.mvfrm